{
    "Title": "巴基斯坦称印军在克什米尔地区向巴方开火 致3死_网易新闻",
    "URL": "http://news.163.com/17/1226/15/D6JENMMK0001899N.html",
    "KeyWords": "克什米尔地区,巴基斯坦,印军,停火",
    "PublishTime": "12/26/201715:07:20",
    "Article": "（原标题：巴基斯坦军方说印军在克什米尔地区向巴方开火致３人死亡）新华社伊斯兰堡12月26日电巴基斯坦三军新闻局25日晚发表声明说，印度军队当天在克什米尔地区向巴方控制区一侧“无故开火”，导致3名巴士兵死亡，另有一人受伤。声明说，印军开火后，巴军随即进行了反击。目前印度方面尚未就此事件表态。巴印两国曾在2003年签署了在克什米尔实际控制线附近的停火协议。但双方在这一争议地区的交火时有发生，双方均指责对方率先违反了停火协议。本文来源：新华社新媒体专线责任编辑：张海桐_NN9053",
    "Comment": {
        "Content": "新短大 好啊 又干起来了 巴方这次总算死了士兵不是平民 跟贴被火星网友带走啦~ 怼阿三巴铁 巴铁别手软使劲干死印黑，我方后续上 把你派去吗？ 那印度死了几个呢 巴铁，别客气，照死里揍它！ 打仗得那不是房地产垮了经济下滑，国内就业老火，也容易乱 感觉新闻总是偏袒巴基斯坦，总是指责印度，不是站在中性的立场。 巴铁打不过印度 又干起来了？？ 新短大 好啊 又干起来了 巴方这次总算死了士兵不是平民 没意思 随着中国的强大，巴铁也一样会逐渐强大起来 怼阿三巴铁 巴铁别手软使劲干死印黑，我方后续上 历史不好巴基斯坦。巴勒斯坦。傻傻分不清[大哭][大哭][大哭] 那印度死了几个呢 巴铁，别客气，照死里揍它！ 打仗得那不是房地产垮了经济下滑，国内就业老火，也容易乱 把你派去吗？ 感觉新闻总是偏袒巴基斯坦，总是指责印度，不是站在中性的立场。 MD！老子想捐钱给巴铁打阿三。 印巴交火了? 巴铁打不过印度 又干起来了？？ 有部分. ",
        "Total": 222,
        "Link": "http://comment.news.163.com/news2_bbs/D6JENMMK0001899N.html",
        "Reply": 19
    },
    "Source": "Netease"
}