{
    "Source": "Netease",
    "KeyWords": "林更新,幼儿园,裙子",
    "Title": "林更新儿时裙装照曝光 称不穿裙子就不去幼儿园_网易娱乐",
    "PublishTime": "12/25/201711:30:42",
    "URL": "http://ent.163.com/17/1225/11/D6GFUA8N00038FO9.html",
    "Article": "网易娱乐12月25日报道12月25日，网曝林更新接受采访的一段视频，视频中林更新主动分享自己小时候穿裙子的照片，还自曝小时候很喜欢裙子，不穿裙子就不肯去幼儿园。25日上午，网上曝出一段林更新接受采访的视频，视频中林更新主动分享了一张自己小时候穿着裙装的照片，照片上林更新扎着“哪吒头”，模样清秀可爱被网友直呼像“女孩”。林更新在采访中回应道小时候喜欢穿裙子，家里也有很多裙子。随后林跟新自曝：“小时候很喜欢裙子，不穿裙子不肯去幼儿园”，被主持人吐槽：“真是从小心里就住了一个少女。”本文来源：网易娱乐责任编辑：张悦_NBJS5410",
    "Comment": {
        "Content": "珍惜你我这段缘 难怪和思聪这么玩的来 网络姻缘一线牵 林狗子 哈哈 难怪和思聪这么玩的来 网络姻缘一线牵 林狗子 哈哈还哈哈哈哈哈哈 珍惜你我这段缘 ",
        "Reply": 6,
        "Link": "http://comment.ent.163.com/ent2_bbs/D6GFUA8N00038FO9.html",
        "Total": 41
    }
}