{
    "Source": "Netease",
    "KeyWords": "iphone,ufo,马斯克,火箭",
    "URL": "http://tech.163.com/17/1225/08/D6G4UFPJ00099246.html",
    "PublishTime": "12/25/201708:18:34",
    "Comment": {
        "Content": "告他破产，简直是没有王法了，想怎么做就怎么做，手机变慢不说。卡的要砸了。耗电就更不要说了。冲满电直接打开底电量模式， 用了苹果的产品就应该知道根本没有选择的权利，你这么说简直就是勒索和诋毁。 以后新系统说上天也不升级了 苹果再不改这点，我永远不会买了 6及6之前的机子换电池还是很方便的京东买就100来块6s和7降频就真的有点恶心了 苹毛侵犯消费者选择权的，岂止这一项？强迫升级，不允许回原系统，就是强盗行为！ 这点苹果真是他妈坑，我不升级还每次开机就提醒，搞得很难受，升级到最后变成板砖了，这是不买苹果的一个大原因，真是强盗一样。！！！ 用了苹果的产品就应该知道根本没有选择的权利，你这么说简直就是勒索和诋毁。 以后新系统说上天也不升级了 就是逼着你换手机，对我这种不玩游戏，不看视频的人来说，现在手机80%的功能都没有，只要不卡，能打电话，看新闻发信息足矣！！ 安卓用1年就变慢死机为什么没人起诉？ 苹毛侵犯消费者选择权的，岂止这一项？强迫升级，不允许回原系统，就是强盗行为！ 告他破产，简直是没有王法了，想怎么做就怎么做，手机变慢不说。卡的要砸了。耗电就更不要说了。冲满电直接打开底电量模式， 这个…… 6及6之前的机子换电池还是很方便的京东买就100来块6s和7降频就真的有点恶心了 苹果再不改这点，我永远不会买了 哈哈 这种现象早几年就有了 浙大的东西在未来 这点苹果真是他妈坑，我不升级还每次开机就提醒，搞得很难受，升级到最后变成板砖了，这是不买苹果的一个大原因，真是强盗一样。！！！ ",
        "Total": 53,
        "Link": "http://comment.tech.163.com/tech_bbs/D6G4UFPJ00099246.html",
        "Reply": 13
    },
    "Article": "【要点】·苹果故意让老iPhone变慢，美国人起诉，中国开发者消费者谴责·网约电动车涉嫌非法营运，南宁\"滴滴打驴\"被紧急叫停·\"同一天生日\"网络募捐被质疑造假，深圳民政局介入·SpaceX今年第18次发射，痕迹太像UFO【热点】苹果故意让老iPhone变慢，美国人起诉，中国开发者消费者谴责由于软件更新导致iPhone运行速度变慢，iPhone用户竞相开始走向法院。截至目前为止，在美国至少有两个消费者群体因他们所使用的这一手机性能恶化而对苹果公司提起了起诉。而在中国，某应用开发者向网易科技表示：我们投入了巨资和人力资源提升产品的性能，结果就因为苹果这样的设置降低了用户体验，而且还要替苹果背黑锅，苹果的这一行为不算是涉嫌欺诈吗？而民间组织发布声明称，对苹果“计划报废”行为表示谴责，呼吁消费者抵制苹果产品及服务，直到苹果就此事给出合理解释，向消费者赔礼道歉并停止相关做法。北京市中闻律师事务所合伙人赵虎律师向网易科技表示，苹果降频门其实是侵犯了消费者的知情权和选择权，它没有告知用户具体情况，也剥夺了用户选择的权力。【国内新闻】1、网约电动车涉嫌非法营运，南宁\"滴滴打驴\"被紧急叫停近段时间，南宁街头出现了一种新的网约车服务——“驴的出行”，可以在网上约电动车、摩托车、三轮车出行，被网友称为“滴滴打驴”。12月22日下午，南宁市交通局相关负责人表示，“驴的出行”接单客运经营行为涉嫌违规，已叫停相关服务。据央广网报道，创始人黄乐曾是一名滴滴司机。在此前接受媒体采访时他表示，因为在南宁看到有大量电动自行车可进行资源利用，于是就首创了这个网约电动自行车模式。2、\"同一天生日\"网络募捐被质疑造假，深圳民政局介入近日，网上出现“同一天生日”网络募捐活动，被疑造假、信息有误，引发关注。昨日，深圳市民政局官方微博发声，称已成立调查组开始调查此事，结果将及时对外发布。据《北京青年报》此前消息，一个名为“分贝筹”的爱心活动日前刷爆了微信朋友圈。活动页面宣传“一元助TA改变命运”，用户输入自己的生日，可寻找和自己生日相同的贫困学生，为其捐赠一元钱。然而不少网友贴出的照片显示，同一个受助的贫困学生，却在不同的生日界面中出现，而且名字也不同，甚至信息还显示有贫困学生出生在2009年2月29日。这些问题引发了不少网友的质疑。23日，“分贝筹”发布通报回应称，活动在测试阶段被工作人员发到朋友圈后传播开来，出现了信息错误和界面不稳定的情况，就此向公众道歉。目前已紧急协调优化界面，避免系统再次出错。目前分贝筹已经关闭了捐款通道，并称“已筹集善款2555898元将全部用于云南省镇雄县2130名贫困学生一年的生活补助”。3、水陆两栖飞机AG600首飞成功计划明年开展水上首飞24日上午9时39分，中国首款大型水陆两栖飞机——“鲲龙”AG600在广东珠海金湾机场成功实施首次研发试飞。AG600是全球在研最大的水陆两栖飞机，未来将主要用于森林灭火和水上救援，还能在海洋监测、海关缉私、航空运输等领域实现应用。此次飞行后，AG600从研制阶段正式迈入试飞阶段。按计划，飞机将在明年进行水上首飞。4、浙大研制出新型超级电池未来充电5秒钟可通话2小时浙江大学高分子科学与工程学系高超团队研制出的新型铝-石墨烯电池。这种电池可以在零下40摄氏度到120摄氏度的环境中工作，可谓既耐高温，又抗严寒。在零下30摄氏度的环境中，这种新型电池能实现1000次充放电性能不减，而在100摄氏度的环境中，它能实现4.5万次稳定循环。这种新型电池是柔性的，将它弯折一万次后，容量完全保持；而且，即使电芯暴露于火焰中也不会起火或爆炸。如果这种电池未来如果用到手机上，充电5秒钟通话2小时是完全可能的。【国际新闻】1、SpaceX今年第18次发射，痕迹太像UFO",
    "Title": "早报|开发者炮轰老iPhone变慢 马斯克火箭成\"UFO\"_网易科技"
}