{
    "Article": "（原标题：利益漩涡中的拳王：邹市明夫妇旗下5家公司，多由冉莹颖打理）拳王邹市明正在经历一场职业“罗生门”。2017年7月，邹市明在上海举行的WBO蝇量级世界金腰带赛事中，意外输给日本选手木村翔。原本这只是一场拳坛赛事中常见的比赛胜败。但数个月后，一场涉及经纪公司强迫拳王带伤比赛；拳王违背合约，合同期内私签新公司的舆论战意外爆发。而主角双方，正是曾经亲密合作，相互扶持打拼出当下巨大商业前景的经纪公司和拳王。由于理财帮的粉丝有不少圈外人，帮主先为大家简单介绍一下事情的来龙去脉。邹市明与经纪公司“翻脸”：被迫比赛，拖欠千万收入？2017年9月，在输给木村翔后，邹市明的代理方邹轩体育以比赛中包括裁判在内的多个环节不符合要求为由，两次向WBO（世界拳击组织）官方提出重赛申请，但均被WBO驳回请求。随后，邹市明发布了声明回应表示，对自己的申诉未得到WBO支持“深表遗憾，深感痛心”。彼时的帮主曾和众多国内拳击迷一般，坚定不移地站在邹市明一方，希望WBO能通过申请，希望拳王能重拾河山。但很快，事件发展得让帮主有点看不懂了。2017年12月，一条关于“邹市明因视力出现问题突然住院”的消息，刷爆朋友圈和微博。正当众多粉丝纷纷为邹市明祝福祈祷时，事情进一步发酵。12月25日，一张打着水印的“与邹市明妻子冉莹颖”的微信聊天记录在网上曝光，冉莹颖称经纪公司盛力世家逼迫邹市明在有伤的情况下比赛。很快，有媒体进一步报道称，盛力世家拖欠邹市明各种收入近千万元，还变相占用邹市明工作室资金。这一消息瞬间在网上引发轩然大波。无数粉丝开始蜂拥挤向盛力世家官微下留言，愤怒地指责对方压榨邹市明，要求还上拳王的薪水。当天傍晚，盛力世家发布“严正声明”，称“逼迫邹带伤参赛”是毫无基本常识的恶意中伤。同时指出邹市明是在合同依然有效存续的情况下，私自与自己控股的邹轩（上海）体育文化发展有限公司签订比赛协议，并宣布将于7月28日由该公司推广其卫冕战。盛力世家已经通过法律途径进行维权。而拖欠近千万收入、占用工作室资金的说法也“与事实严重不符”。自此，一场拳王和经纪公司的相互指责掀起帷幕，而这背后所涉及的或许正是，双方都不愿轻言放弃的巨大的利益。盛力世家牵手拳王：比赛门票卖到5000元事实上，邹市明和盛力世家早在2012年就结缘。那一年，邹市明正式宣告进军职业拳坛。尽管彼时已31岁，但两届奥运会冠军的荣耀，为邹市明带来了巨大的商业价值。外表斯文的他，也打破了人们对职业拳手凶暴残忍的传统认知。这种冲突性，让他颇具辨识度，更让众多经纪公司希望签下这个前途无量的拳坛“新人”。邹市明或许同样清楚，自己要想如同姚明、李娜般成为国际化品牌，背后必须要有国际化的团队。早在2011年，邹市明通过朋友介绍，认识了体育文化传播公司盛力世家的总裁李胜。帮主在查阅资料时发现，李胜曾是Visa中国区总经理，执行过Visa赞助奥运会的项目。2010年，从Visa离职后的李胜创办了盛力世家，并成功运作了申雪与赵宏博的花样滑冰秀。2012年伦敦奥运会结束后，邹市明以“3+3”的合约形式，签约盛力世家。并在其帮助下，牵手曾推出过阿里、福尔曼和帕奎奥的世界知名职业拳坛推广公司TopRank。除此之外，美国赌王阿德尔森也看到邹市明背后的商业价值。他计划着将旗下澳门威尼斯人酒店里的金光综艺馆，借助邹市明的影响力进而打造为亚洲的职业拳击中心。三方很快达成一致。根据分工，盛力世家主要负责国内推广，TopRank负责组织赛事以及国外推广，而澳门威尼斯人酒店则用广告和VIP活动来大力支持。2013年4月6日，邹市明进军职业拳坛的首战在金光综艺馆举行。为了给邹市明造势，TopRank邀请来了美国传奇拳王乔治·福尔曼作为观战嘉宾，还安排了两场世界拳王金腰带争夺战与一场洲际冠军争夺战进行暖场。而央视对比赛的全程直播，也让无数粉丝第一次在电视上看到了中国人打职业拳击。有媒体报道称，比赛当晚有80多家国内外媒体蜂拥而至，可容纳1.8万人的金光综艺馆座无虚席，门票最高卖到5000多元。很快，“邹市明效应”开始发酵。央视开始与TopRank谈判购买邹市明以后比赛的直播版权，而全球四大职业拳击组织之一WBO也找到TopRank，希望和邹市明进行深度合作，无数广告商挥舞着钞票，希望邹市明能为其代言。2016年，邹市明达到个人职业拳坛顶峰。2016年1月，他击败南美洲冠军桑塔纳获得WBO国际蝇量级特设金腰带，并在2016年6月成功卫冕，更是在11月成为WBO蝇量级世界拳王金腰带得主。此时的邹市明，风光无两。隐藏的忧患：商业价值凸显后分道扬镳邹市明身上的商业价值逐渐变现，自然让双方都有了各自的打算。帮主了解到，如果圈内流传的关于“当年签订的‘3+3’合同，夺得WBO蝇量级世界金腰带后自动续约”的消息属实，那么在双方没有提前终止合同的话，如今邹市明和盛力世家确属于合作期内。但就合同纠纷，邹市明团队曾公开发文解释：“原合同3年的合约现已期满，就原合同中关于+3部分的约定，由于合同履行过程中存在部分问题，同时涉及到一些未来具体的规划，双方还在进行探讨。”在盛力世家的《声明》中，其公开指出“2017年初，邹市明在获得WBO蝇量级世界金腰带后向盛力世家表达了解约意愿。但2017年5月18日，在双方协商未取得任何进展，合同依然有效存续的情况下，邹市明团队私自与邹轩（上海）体育文化发展有限公司签订比赛协议，并宣布将于7月28日由该公司推广其卫冕战。”帮主查阅资料发现，邹市明确实于5月18日，在上海浦东世博洲际酒店召开新闻发布会，宣布于2017年7月28日，在上海东方体育中心参加由阿里体育和邹轩体育联合主办的WBO世界拳王金腰带卫冕赛。在发布会现场，邹市明和太太冉莹颖还宣布正式成立邹轩（上海）体育文化发展有限公司，宣布打造“拳盟中华”赛事和相关品牌，并正式对外发布该品牌LOGO。而“金腰带卫冕赛”正是邹轩体育成立后承办的第一个大型赛事。而据媒体报道，在这场发布会上，盛力世家与TopRank均无人出席。12月29日，帮主查阅天眼通时发现，邹轩体育成立时间为2016年12月2月，注册资金为1000万元。由冉莹颖担任法人，而由其出资255万元，持股51%的莹皓（上海）体育文化发展有限公司占股100%。更让帮主留意的是，该公司最近一次变更经营项目为2017年5月25日，在经营项目和范围上新增了体育经纪和演出经纪。而这一节点，正是外界曝出邹市明与盛力世家意欲分道扬镳的关键时刻。邹市明冉莹颖夫妻名下多家公司12月29日，帮主查阅天眼通发现，邹市明旗下有5家公司，分别为莹满天下（北京）国际文化传播有限公司，贵州明冉体育文化发展有限公司，上海明冉商务咨询事务所，影投客（天津）资产管理合伙企业，莹皓（上海）体育发展有限公司。而其中贵州明冉体育文化发展有限公司，上海明冉商务咨询事务所两家公司，邹市明更是担任法人职务。在这些公司股东信息中，除了上海明冉由邹市明100%占股，以及影投客为多人控股外，其他几家大多为他和太太冉莹颖两人投资控股。实际上，在邹市明旗下公司运营层面上，更多地则是由冉莹颖经营打理。“无论成败兴衰，身边的爱人总是成本最低、信赖度最高的合作伙伴”，邹市明曾这样描述他和冉莹颖的“合作关系”。公开资料显示，毕业于对外经济贸易大学经济系，北京大学光华管理学院MBA的冉莹颖，曾任职于CCTV证券资讯频道。自然，对于商业财经领域的认知和掌控，冉莹颖远胜过邹市明。圈内传闻，在未签约经纪公司前，邹市明个人品牌的商业开发均是由冉莹颖一手打造，负责安排他的媒体采访和活动通告。曾有媒体报道，即使签约经纪公司后，冉莹颖同样在意打造邹市明公众形象。2015年5月，邹市明携子邹明轩参加《爸爸去哪儿》，进而大众认知度达到顶峰。这一机会正是冉莹颖向节目组总导演谢涤葵推荐获得。而在邹市明和经纪公司犹豫是否参与节目时，冉莹颖坚持邹市明能通过电视节目吸纳更多受众。“经纪公司的想法是不是一定是对的？我现在持怀疑态度。”或许正是这次坚持的成功，让冉莹颖对自己有了“能做得更好”的想法。据天眼查资料，邹市明和冉莹颖旗下的5家公司，其业务主要为体育、演出经纪、体育赛事活动策划。而这其中，由冉莹颖担任法人的邹轩（上海）体育文化发展有限公司，正是邹市明现在的经纪公司。2016年8月，邹市明成立了莹皓（上海）体育文化发展公司，其中邹市明出资245万元，占股49%，而冉莹颖出资255万元，占股51%；12月2日，冉莹颖以莹皓（上海）体育文化发展公司为主体，以1000万的注册资本成立了邹轩（上海）体育文化公司。此后，邹轩（上海）体育文化公司宣传部门运作邹市明的个人工作室认证号“邹市明工作室”，并开始筹备各项赛事和经纪演出。据媒体报道，邹市明和冉莹颖的公司目前拥有经纪部、品牌部、媒体部和赛事部四个业务部门，公司员工20余人，多为90后。除了邹市明和冉莹颖的个人经纪事务之外，旗下还签约了14名年轻的拳手，这些拳手在今年参加了一些职业赛事，但级别不高，仅有少量出场费回报，目前公司的主要收入来源仍来自邹市明和冉莹颖夫妻。本文来源：理财帮责任编辑：赵亚萍_NN9005",
    "URL": "http://news.163.com/17/1230/01/D6S8F2VT0001875P.html",
    "Source": "Netease",
    "KeyWords": "拳王,邹市明,冉莹颖,拳手",
    "Comment": {
        "Reply": 23,
        "Link": "http://comment.news.163.com/news_shehui7_bbs/D6S8F2VT0001875P.html",
        "Total": 321,
        "Content": "出来混的迟早要还的 卖惨博同情洗白被小日本KO卖情怀功成身退光荣退役留个好名声，不知道猜得准不看的透不？ 一只市明前面飞呀飞，一只木村后面追呀追，追上以后咔咔一顿捶，捶完之后谁也不认识谁！ 拳王离身体衰败不远了，退役后身体残疾，事业终止，那时候才是婚姻质量水落石出的时候 感覺鄒市明給他老婆坑了,他老婆本身玩商業遊戲水平很一般... 冉莹颖迟早要搞死邹市明！邹市明确实是个老实人 他的拳王是他凭本事挣来的……但我是真心不喜欢他俩夫妻 一切都是木村惹的祸， 别忘了傻根和马金莲 套路多，一场局 什么叫妖女， 比比那么多，盛力可以晒合同啊，可以拿着合同告啊，邹冉二人也可以拿着证据告啊，都尼玛不是什么好东西，我们吃瓜群众想看个热闹也不尽兴。 邹市明搞这么一出，是想干嘛？ 都一路货色！为了钱啥都可以干的出来！ 还有人跟着这胸大无脑的女的混了？成事不足败事有余跟这女的混早晚玩死 潘辰签少城了是真的至于潘虹樾不知道了 一只市明前面飞呀飞，一只木村后面追呀追，追上以后咔咔一顿捶，捶完之后谁也不认识谁！ 说到底就是钱的问题 坐等跟帖 一切都是木村惹的祸， 冉莹颖迟早要搞死邹市明！邹市明确实是个老实人 他的拳王是他凭本事挣来的……但我是真心不喜欢他俩夫妻 难道新时代也要建罗马角斗士场？ 卖惨博同情洗白被小日本KO卖情怀功成身退光荣退役留个好名声，不知道猜得准不看的透不？ 套路多，一场局 邹市明搞这么一出，是想干嘛？ 搞啥，吃饱了！ 出来混的迟早要还的 0回复。 拳王离身体衰败不远了，退役后身体残疾，事业终止，那时候才是婚姻质量水落石出的时候 某大厦楼顶。女：“我们分手吧。”男：“为什么？我那么爱你？”女：“我爸知道我们的事之后一直反对，你又不是不知道，现在都不让我回家了！”男：“我相信我们的爱可以感动你爸的，你是知道的，我是真心爱你的！”女：“我知道！但是我们真的不能在一起，我们的爱不会得到祝福的，就算我老爸同意，等我老公回来，他一定会跟你拼了的。”男：“我儿子什么脾气我会不知道？他没那个胆子！” 感覺鄒市明給他老婆坑了,他老婆本身玩商業遊戲水平很一般... 别忘了傻根和马金莲 什么叫妖女， 比比那么多，盛力可以晒合同啊，可以拿着合同告啊，邹冉二人也可以拿着证据告啊，都尼玛不是什么好东西，我们吃瓜群众想看个热闹也不尽兴。 真感觉他“四肢发达头脑简单”，这老婆又太刁钻，所以，被老婆连累死是极有可能的。 都一路货色！为了钱啥都可以干的出来！ 还有人跟着这胸大无脑的女的混了？成事不足败事有余跟这女的混早晚玩死 "
    },
    "Title": "利益漩涡中的\"拳王\":旗下有5家公司 签了14名拳手_网易新闻",
    "PublishTime": "12/30/201701:10:57"
}