{
    "Comment": {
        "Total": 24,
        "Reply": 5,
        "Link": "http://comment.news.163.com/news2_bbs/D77AD8SL000187VG.html",
        "Content": "在澳洲是要被起诉的 还好自己知道回家 昨晚梦到女儿给人偷抱走了，虽然找回来了，半夜还是吓起来了。这二口子心够大 还好自己知道回家 类似的梦前晚做了，醒来后盖的被子掉地上了，嘴里喊的口干舌燥！ 在澳洲是要被起诉的 宇宙的探索是离不开我的话的，只有把围绕地球公转的一切物质包括气体计算在地球体积之内才能找到地球真正的边和角，那是反引力汇聚地，是真正的真空隧道，宇宙高速路，太阳系内的动脉!把围绕太阳公转的一切物质包括气体计算在太阳体积之内才能找到恒星与恒星的边和角，那是恒星与恒星之间的真空高速隧道，找到真空隧道以近光速超光速飞行那不是个事!宇宙飞行器也不能按照飞机的二维结构原理制造，飞机是不能高速自转的，但只有高速自转才能产生真空电磁场，以近光速飞行，未来的宇宙飞行器必须按地球原理制造，八层以上结构，你看地球高速自转着前进，我们人坐在地球上有啥不适感觉吗？ "
    },
    "Title": "两口子吵架扭头各奔东西 半小时后才发现孩子丢了_网易新闻",
    "KeyWords": "云南省,两口子,吵架,孩子",
    "Article": "（原标题：两口子大吵一架扭头各奔东西半个多小时后才发现孩子丢了）夫妻俩在村里找到女儿云南网讯去年12月30日下午4时许，宜良县匡远镇黑羊村的杨先生和妻子徐女士急匆匆来匡远派出所，报警称女儿小怡（7岁）于当天中午1时30分左右在县城走失。民警询问走失原因，夫妻二人却支支吾吾。原来是两口子吵完架直接各走各的，把孩子忘了。民警通过监控视频发现，当天中午1时10分许，杨先生和徐女士坐在路边的凳子上发生争吵，徐女士一气之下离开，杨先生在妻子走后一直埋头玩手机，此时小怡独自往南边走去。过了一阵，杨先生起身往另一个方向走了。原来，夫妻俩都以为孩子跟着对方，直到半个多小时后才发现孩子丢了。民警通过监控视频看到小怡穿过几个路口后上了公交车，民警判断小孩极有可能乘公交车回家了。果然，大家赶到距离县城六七公里的黑羊村，在村里找到了小怡。本文来源：云南网责任编辑：苏泓珵_NBJ9980",
    "URL": "http://news.163.com/18/0103/08/D77AD8SL000187VG.html",
    "PublishTime": "01/03/201808:01:39",
    "Source": "Netease"
}