{
    "Source": "Netease",
    "PublishTime": "12/26/201718:32:25",
    "KeyWords": "周杰伦,吊带裙,昆凌",
    "Title": "网友偶遇周杰伦夫妇 昆凌穿清凉吊带裙长腿抢镜_网易娱乐",
    "Comment": {
        "Link": "http://comment.ent.163.com/ent2_bbs/D6JQF73O00038FO9.html",
        "Total": 175,
        "Content": "今天在澳洲的布里斯班，在商场我也碰到了 为什么你们都能偶遇到明星和政要我就偶遇不到呢？ 前两天还在日本过圣诞呐，又回娘家了？ 一个像夏天一个像冬天 首先你住哪里呢？ 一个像夏天一个像冬天 周董啊，可以出新专辑了 一个像夏天一个像冬天 一个像夏天一个像冬天 一个像夏天一个像冬天 前两天还在日本过圣诞呐，又回娘家了？ 一个像夏天一个像冬天 系呀系呀,看那一个个大长腿给衬的 为什么你们都能偶遇到明星和政要我就偶遇不到呢？ 周董啊，可以出新专辑了 正脸呢 一个像夏天一个像冬天 女方驼背怎么那么严重 今天在澳洲的布里斯班，在商场我也碰到了 首先你住哪里呢？ 不冷吗 上身就穿紧身一点啊,然后下面穿一条你喜欢的波西米亚风格的长裙,再配一双像以前法国淑女穿的那种有点像皮鞋的那种很小巧的鞋子 一个像夏天一个像冬天 ",
        "Reply": 16
    },
    "Article": "周杰伦昆凌网易娱乐12月26日报道12月26日，网友晒出在澳洲偶遇周杰伦昆凌同框的照片，照片中昆凌穿吊带裙，周杰伦穿着宽松短裤，两人都默契地穿着舒适的拖鞋。昆凌身材超好，长腿抢镜。网友评论道：“大嫂好瘦！”“大嫂穿得好清凉哦！”本文来源：网易娱乐责任编辑：张玉娜_NK4938",
    "URL": "http://ent.163.com/17/1226/18/D6JQF73O00038FO9.html"
}