{
    "Article": "（原标题：\"局座\"张召忠2018\"第一奶\":绝无可能爆发世界大战）2018年第二天，来自东方的神秘力量、“战略忽悠局（StrategicFool-youAgency，简称SFA）”局长、B站站宠@张召忠就迫不及待发功啦！大家知道，年终岁尾正是搞年终总结和新年展望的时候，众多国外媒体也开始预测2018，其中不乏一些比较令人震惊的说法：今年将可能爆发第三次世界大战；朝韩+台海+乌东部+北约南翼+波斯湾五场战争将在所难免；特朗普将因通俄门被弹劾等等。看到这些预测，局座技痒，忍不住送上2018第一奶。首先，他表示南海和台海都不会出现重大危机，最大危机仍将聚焦朝鲜半岛。年初平昌冬奥会可能成为南北握手言和的契机，但无法改变核导问题。鹬蚌相争渔翁得利，美国坐山观虎斗，乐见朝鲜在东亚生乱生战，给中国崛起增加变数。因此，美国借刀杀人策略继续。然后，世界其他地方的局部危机可能发展为武装冲突，但最多是局部战争，绝无可能爆发世界大战！以色列+土耳其+伊朗及什叶派+沙特及逊尼派的四方角力将继续，但不会爆发大规模中东战争。接下来，乌东部独立是大势所趋，不会出现美国+北约支持乌克兰收复克里米亚和乌东部的战争。至于其它的，特朗普不会因通俄门下台，普京胜选应无悬念，中印边境会再生事端但不可能爆发战争。最后，他还对2018年最重大事件进行了预测，那就是：中国经济对全球经济增长的贡献比例持续增大（2017年中国对全球经济增长的贡献占三分之一），在许多国际事务上将继续出现美退我进的局面，中国从此由地区大国走向世界大国……局座此前的神预测这里就不再赘述，对于他这一次发功，大部分铁粉高呼“奶得好奶得好！”局座率先使用因果律武器了。当然，也有人觉得他的预测不咋地……那么，这波到底是毒奶还是灵奶，我们明年这个时候再把这条微博挖出来看看？本文来源：观察者网责任编辑：李曦_NN2587",
    "URL": "http://war.163.com/18/0103/10/D77I958C000181KT.html",
    "KeyWords": "世界大战,张召忠,战争,美国",
    "PublishTime": "01/03/201810:34:07",
    "Title": "张召忠发布2018预测:绝无可能爆发世界大战_网易军事",
    "Comment": {
        "Content": "为了混碗饭吃故意出卖灵魂？ 军队中有这样的将军，还有个爱题字的将军。真为军队担心。 俺也斗胆预测，今年半岛、台海无战事。😌 坏了坏了，要吃好的穿好的，该花的钱赶紧花。这小子说没有的事，一定会有。 这个人我蛮喜欢的，接地气，受得了调侃和谩骂，自己心里也明镜的，但是知道自己的身份，公开场合只说该说的 好了，这下打仗了。 完了，上次局座预测海湾战争的结果还历历在目...... 拿着P民给与的少将待遇忽悠P民，他们一直是认为是物业给的 我去，既然张天师说2018没事，那看来我要去多买几袋米几袋盐储存起来了。张天师预测的海湾战争伊拉克战争阿富汗战争言犹在耳呢O(∩_∩)O哈哈~ 为什么要打仗，要钱他们给，要地他们给，还打他们干嘛呢，总不会他们连你们都打不过吧 他说话一般都是反的。。。 人家进了他家门凯撸，他只是在门外嚷嚷看着门口耗着。人家走人他又走开等人家走远才敢回家，你说这架还有法子打吗？ 你赶紧把你家房子什么的都变卖，所有的钱拿出来赶紧享受，否则战争一来你什么都得不到，手里的钱也会大打折扣，赶紧行动吧江苏人 脏将军，您说话有一次靠谱吗? 倒！张局，有必要这样吗？！ 据说，推背图，2018中日会再战 局座，你……你太狠了吧？？ 你是那双破鞋? b站粉蛆很喜欢他 2018神棍集团瑟瑟发抖。 你敢到B站说吗？ 老子负责任地说今年在俄罗斯会爆发30多个国家混战的世界大战......<br><br><br>世界杯 你的推背图是自己的原创吗？ 老夫夜观星空，星球大战延至2019 他也说过米国会陷入伊拉克的人民战争漩涡中 大家快备战备荒！！！这货说的话要反着信！！！！ 嗯，看来2018年世界注定不会平静啊 你就别操心别人了~！~琢磨琢磨自己吧~ 基本都是假的，后来人冒充、再后来人增增减减的，信的人没智商。 我们承诺，不首先使用局座，不对无局座国家使用局座。。。 2018心慌慌啊 这是个煞笔还是小丑，挣钱的方式有很多种，非要通过装疯卖傻么 我认为那些骂局座的人，你的才华与智慧给局座提鞋也不配。 局座是体制内的人，当然说话不可信啦。不过，依我看来，他是不敢说真话，揣着明白装糊涂，不然能把公子输出到美国？ 反向指标呀 都是这样混出来的将军，真不敢相信将来的他仗怎么能打赢？？？？ 那图有几个看过，又有几个会推，不要乱说 十几年了。伊拉克可没有安定下来，美军还在投入力量作战，甭管美军把对手叫啥，反正它没在伊拉克消停，这也算是陷入其中！特别是当几十年后回味起来，也不能说局座完全说错！70年代西方舆论场中，越战美国也天天赢着呢！ 张哈夫连经济都了解？ 传说中，张局座的预测都是反着来的。没准儿2018年正能打起来。 这菊座就是奇葩 我觉得储备点粮食了… 中国从此由地区大国走向世界大国……😊 我说错了？ 局座的公子，就在老美那！ 完了~！~这事定了100%开撸了O(∩_∩)O哈哈~ 是的，你妈让我日也说她是保持高度统一性。 预测：先外战，后内战，时长15年，至2033年。分12国，九女一夫……我说的是俄罗斯。🤒 2楼还不如华为 局座还语言卡扎菲能撑五年，然后巴沙尔半年内完蛋 狗比猴子滚蛋 那破图就是事后诸葛亮，事后加在各种事件上来圆图 我预测今晚不同房了，刚刚撸过管子，短时内硬不起来了。 我们有海带，我们还有雾霾，怕什么？ 我预测的与将军一样，厉害吧 你这么说，我真的就虚了。 该吃吃，该喝喝，完球蛋了！ 这件老垃圾最不要脸！！！ 雾霾将军又出现了 爆不爆发。。。不是某个人说了算。。。。。。。。。。 瞧你丫内煞笔样，土鳖一个！ 台海和南海用脚趾头也知道不会打，早就说了：搁置争议，共同开发... 什么叫绝无可能？听起来有点信口雌黄的味道，反正又不负什么责任，但是如果有人信了他的，就真会出现反着发生了！一个军人的口里出这样的话，是会诱惑敌人犯罪的！ 楼上，你在国外练功走火入魔了吧？你不知道现在人人求拆迁，只要一拆迁你祖宗3代加强来钱都没人家多。 他说话一般都是反的。。。 危险啊。。。 我还知道明天的太阳一定从东方升起 张局座想多了，当今世界根本不具备打世界大战的基础和条件。只有精神病人才会有如此脑残梦想。 [不屑][不屑]哈哈哈 明知道会有很多人骂他，也出来秀逗。这脸皮确实只有这种所谓的将军无敌。 我草，这事您老别说话。我怕。 都一大把年纪了，也是豁出去了，还在自轻自贱的卖，什么样的环境出什么样的人，代表某种东西，就不奇怪了 这预测太短浅，我预测2018绝不会发生星球大战。 张召忠先生是我最喜爱的相声表演艺术家 拿半圆发帖的劳改犯，比如10楼。 拿半圆发帖的劳改犯，比如三楼。 猪也是这么想的 一个军人也开始混娱乐圈了。 嘿嘿 雾霾防激光，海带阻潜艇 那我也预测一下，2018地球不会爆炸。 你靠喷粪就能保家卫国，错了家绝对保不住，拆迁队的黑社会你绝对干不过。 弱弱的问一句：四楼去哪了？ 局座的经典预言——美军进入巴格达会遭遇激烈的巷战，伤亡惨重 真不明白他们在南海为啥搞得那么起劲。 老子负责任地说今年在俄罗斯会爆发30多个国家混战的世界大战......<br><br><br>世界杯 老夫夜观星空，星球大战延至2019 也只有福建这位,你的才华与智慧才配给张贼提鞋 一楼应该是雾霾将军的干儿子 2025年…… 基本都是假的，后来人冒充、再后来人增增减减的，信的人没智商。 搅屎棍子又来刷存在感了 嗯好的 他表示南海和台海都不会出现重大危机（只是时不时遇到百年千年不遇的台风），平昌冬奥会可能成为南北握手言和的契机（然后叛逃士兵被伪装成奥运选手的北韩特工暗杀），以色列+土耳其+伊朗及什叶派+沙特及逊尼派的四方角力将继续，但不会爆发大规模中东战争（反恐反你们），中国经济对全球经济增长的贡献比例持续增大（例如房价） 他在这个地方.不这样说怎么说？不保持高度统一性.难道唱反调？谁会那么傻 有道理! 我认为那些骂局座的人，你的才华与智慧给局座提鞋也不配。 预测：先外战，后内战，时长15年，至2033年。分12国……我说的是俄罗斯。🤒 你是那双破鞋? 都是这样混出来的将军，真不敢相信将来的他仗怎么能打赢？？？？ 你他妈侵华日军留存的孽畜吧，找骂呢 传说中，张局座的预测都是反着来的。没准儿2018年正能打起来。 他是在：游戏军国大事。。。。。 这菊座就是奇葩 完了，世界！！！ 你拿键盘就能保家卫国 当年他也预测美帝打不下伊拉克 菊座 完了~！~这事定了100%开撸了O(∩_∩)O哈哈~ 他一张嘴我就害怕，毕竟局座说的都是反话！ 现在也只有网易的喷子会拿他以前被断章取义的话来说事了 朝鲜准备纳投名状了 麻痹夹趾，赶紧屯盐，食物，枪。 好怕，这家伙说的 这个预测是根据中央的精神走的，假如中央权威领导层不想打大战，朝鲜怎么挨挑衅也不说。美军舰军机巡航南海也不打，对台独爱咋咋地，灶坑里堵门——憋暗火，那南海战争还能打起来吗？但对中东的战争恐怕谁也说的不算，那要看美国要走到那步。因为他们的军火要卖，中东的石油利益他们要略夺，局部战争还是要打。究竟要打到什么规模，那要看双的忍耐承度。如果你是他们双方的肚子里的虫子，你才能当他们的参谋长。至于俄东，北约不搬倒普京，不剪除亚太前，他们还轻易不敢对俄罗斯动手。 当抓了石油船的现行，老米要来真的了，这边就怂了，朝就乖乖合作了。。。 警察还参与拆迁吗！ 尼玛，别开这玩笑好吗？ 完了，上次局座预测海湾战争的结果还历历在目...... 大事不好！ 战争不可预测 他说话一般都是反的。。。 如果真的发生战争，要是接受了这些所谓的大嘴专家的话，必输。 好日子才刚开始，打仗没好处 什么叫耻？ 因此，第四次世界大战也绝无可能 我预测到2026年中国男子足球队都出线不了世界杯 看来真要打起来~ 这小子说话大都是反正来的，他以前是不是说过供不会下台? 现在也就网易的喷子会喷局座了 伊朗肯定出事 老子预测最准，就是全世界没有一个国家能打赢美国 好像是海带战术？是说美国人会陷入伊拉克的人民战争？反正很多，记不清了， 静里突然动干戈。 给下一代留一条活路 局座！您别吓我！ 记住，他的话要反正理解就对了！ 张局座，我不想赞你，但我喜欢你。 老子负责任地说今年在俄罗斯会爆发30多个国家混战的世界大战......<br><br><br>世界杯 本来没啥感觉，局座一讲我真有点怕 这个还真是没准的事儿！ 我也来预测一下，2018年，地球绝对不会毁灭 我也预测些，2018年地球绝对不会灭亡。。。 成算命先生了 本来无战事，被这乌鸦嘴一张，玄了。 说这话就是弱智的表现 网易的自媒体都是墙头草 张局也就一张ꪦ大嘴巴，国有这样高调的将军感到无语。 局座海带 我认为那些骂局座的人，你的才华与智慧给局座提鞋也不配。 你是那双破鞋? 张菊也是新造神运动的一个组成部分 本来没啥感觉，局座一讲我真有点怕 完了~！~这事定了100%开撸了O(∩_∩)O哈哈~ 还带缠潜艇，雾霾拦导弹。 局座笑得好开心啊 太阳还照样每天从东方生起。 退休金少不了，总不能闲着！ 老夫预测明年一定是2019年！ 局座的公子，就在老美那！ 观点新颖，说现透彻，我喜欢。 你以为你是章鱼🐙 局座不当教授也是牛哄哄，八卦专家，中印边境，2018年，印不越境，相安无事，东海，日本想起友好条约40年，中日无战事，台湾蔡英文搞公投法，美舰停高雄，收复台湾战斗打响，朝韩美擦枪走火看美国，半岛大战看美国，张召忠，赤胆忠心爱国教授，预测战争，问美国 张乌鸦的嘴比贝利还臭，从来预言没中过 我预测三年内也不会有世界大战。 （多做好事，必有好报）美攻朝中收台战略对冲平衡（加快发展繁重工作替代性智能机器，不用延迟退休）公司上市后业绩异常下降，依法赔偿遏制骗钱（当务之急大小限减持和再融资要挂钩分红或回购，违则重罚，促进长期良好经营，缓解套现压力）尽快开征股指期货的印花税，才能降低杠杆及高频风险，限制其乱影响股市（基金只有盈利才收管理费，真正为投资者服务）连续2天涨跌停就限仓交易，共同受益，利国利民！ 现今，原子弹本来就是大国之间互相制衡的东西，或曰纸老虎，互相吓唬的工具。疯子流氓才敢不顾一切首先使用，除非你想要自掘坟墓。——这也是为什么不许朝鲜这类流氓无赖国家拥有的根本原因。 他这么一说劳资还真滴有点慌! 我预测中国在2018年会开始对外局部战争 这次是对的，不过一般人坐着用屁股想想都可以得出的结论。 局座说了算！ 这小子应该说相声，演小品， 呵呵！看来是真的的了[大笑] 这张乌鸦嘴…… 如果真的这样，买黄金吧 他说话一般都是反的。。。 挺好的！智慧！这样的国没敢惹！不光有知慧！辽不得…… 一楼你媳妇给局座相好吧厉害 猜对了，你小子眼力不错 这次预测绝对准确！ 这也要预测？好比预测白天结束就是夜晚一般，看来智商实在是低的不行了！ 全他妈完了。 这小子说话大都是反正来的，他以前是不是说过供不会下台? 据说，推背图，2018中日会再战 好像是海带战术？是说美国人会陷入伊拉克的人民战争？反正很多，记不清了， 张局这样预测看起来明年要开仗了，因为张局是反着来的 你是那双破鞋? 过完年搬农村亲戚家去住，他们家有果窖 这话不用他说 张将军是智多星 大家推断一下美国会攻打朝鲜吗？ 酱菌这类要投诚美国容易。而你们这类。倒贴多少美国也不要吧。<br>太弱智。 完了 换句话说，就是我们绝无可能赶上美国，打不起来是这意思不啦 局座倪萍全是共和国的脊梁啊 天下太平2018 哈哈 好，有戏看了。 怕了怕了 中国不会先打！看看老美怎么样完狗，完够啦狗再吃肉！ 我认为那些骂局座的人，你的才华与智慧给局座提鞋也不配。 我预测，2018年至2019年绝对无暴发星球大战的可能。 未来十年也绝无可能 传说中，张局座的预测都是反着来的。没准儿2018年正能打起来。 滚，总吹牛逼，涮脸。 这我用脚趾头都能想出来 我觉得储备点粮食了… 他的话必定相反，说不定三战真会发生 明年地球绝对不会毁灭。 什么预测？数十年来，老子一直说美国不敢打朝鲜，美国连朝鲜都不敢打，还哪来的世界大战？这还要用什么预测么？简直是贻笑大方！今天老子把话放在这儿：今后十年内世界上最大的战争首选就是中国的台海战争！预测；如果美国有胆量参战的话，那么日本和澳大利亚肯定会做美国的帮凶，那么中国将面临的是一场恶战！真那样的话，中国准备打原子弹吧！没有这个决心是要打败仗的！ 本來誰都不知道第三次世界大戰什麽時候會爆發,現在弄得大家都知道了. 这货之前说过的事还真是反着来的。 酱菌还没去美国和家人团聚吗？已经要过年了，别到时候来不及啊 完了~！~这事定了100%开撸了O(∩_∩)O哈哈~ 採你妹，劳资才过上好日子，你们就想打仗。 这货说话都是反的。 先打台湾 正解。中进美退，瞎扯，纵观美帝两百多年历史，何曾退缩过！ 真希望将军能预言准确一次。 这货说话就呵呵呵了！年轻同志们请观赏当年海湾战争！！！这货那一脸蒙逼样记忆犹新！！！ 完蛋了，将军发话了…… 俺也斗胆预测，今年半岛、台海无战事。😌 坏了坏了，要吃好的穿好的，该花的钱赶紧花。这小子说没有的事，一定会有。 完了，他说的是反话，地球人都知道的 是啊，我得挖几个防空洞再储点粮食和水，局座太准了！ 美国曾经陷在德国日本伊拉克，但是这些锅全部被打垮了，正义之师给这几锅民众带来了持续的幸福 坐等局座打脸 不愧为菊坐哈哈哈😄 对的，我就是那双破鞋Porsche 他说话一般都是反的。。。 怕了，舅服尔。 局座这么一说，赶脚有希望了！ 先安内再护外 希望是和平年。不过战争从来不会有人预测到。人类毁灭与否要看天地给的定数。 最严重抗议一楼抢先说了这话，自从有原子弹后，这是常识了，本来不当回事，战略忽悠局长一说，反而头皮发麻了。 基本同意局座的预测。 有点害怕 不，我相信南海和台海都不会出现重大危机。 他也说过米国会陷入伊拉克的人民战争漩涡中 来不及了，大战在即，赶快准备后事吧 你是那双破鞋? 顶上 这玩笑开了有点大！ 老子负责任地说今年在俄罗斯会爆发30多个国家混战的世界大战......<br><br><br>世界杯 细软？ 这个，要不要去山里先挖个地下室..... 完了，张局的预测一般都是相反的！ 楼上单名？咋签名就走？不送！ 这种狗屁还要他张哈夫来放？他还不如说今年太阳绝不会爆炸。 张局座，不对，应该是张将军，祖国前景一片大好，您的儿子能从美帝回国来么？ 遭了，局座说不会打仗.... 十几年了。伊拉克可没有安定下来，美军还在投入力量作战，甭管美军把对手叫啥，反正它没在伊拉克消停，这也算是陷入其中！特别是当几十年后回味起来，也不能说局座完全说错！70年代西方舆论场中，越战美国也天天赢着呢！ 我认为那些骂局座的人，你的才华与智慧给局座提鞋也不配。 局座自从退休，局座定律就不存在了 都是这样混出来的将军，真不敢相信将来的他仗怎么能打赢？？？？ 有黑色茶叶蛋的，都不会被打，所以，衷心并且唯一敬重的国头，只有一个金三哥。在烈强欺压、内部抢，权，旱涝天灾等假新门耳抵毁下，上台仅两年发出黑色茶叶蛋，同时，28岁上；台，可以在外部列强、内部势力压，迫下，游刃有余、活得风生水起，这个世界也就独此一位了。想想自己28岁能干什么？就算你能当上老大，以你的能力，上午上台，恐怕中午就被“病L逝”了。金哥，确实强 传说中，张局座的预测都是反着来的。没准儿2018年正能打起来。 完了~！~这事定了100%开撸了O(∩_∩)O哈哈~ 哈哈哈笑喷，我只看个标题，我打算先到山沟里租个房，主食副食都备好，开春先挖地道， 2018 吹响🐮…… 呵呵，你一点八焦耳杀伤力的武器都没有，它们肯定打赢。 完了！真心希望局座预测2018可能爆发世界大战. 你也是傻逼 局座退休以后，局座定律就不存在了，看样子还是屁股决定脑袋 不错！女祭司的话只能逆向思维！！！ 海带将军 预测到专业外的知识了 感觉东方势力动作不断，西方势力好像进退两难。 刚进入2018,就让人寝食难安,局座这是干啥?我现在到底是储备点粮食/还是黄金/还是美金/还是比特币/还是袋盐......局座都预测出来没有第三次世界大战了!你们不怕么,也许你们不信,我是信的! 乌鸦嘴 我去。看不懂就别回帖，没人当你是哑巴的。 我也负责任的说今晚纽约又要发生枪战🔫了！不信看看明天的你爹新闻！ 静候世界杯！<br><br>Worldcupiscoming！<br><br>👏👏👏👏👏👏👏 不好意思，不需要他去打仗，你滴懂？ 崛起，哈哈搞笑，下岗工人 哈哈哈哈大笑！<br><br>局座很镇定！<br><br>局座超级灵！<br><br>👍👍👍👍👍👍👍<br><br><br>😀😀😀😀😀😀<br><br><br>😉😉😉😉😉😉😉😉<br><br><br>2018！开心就好！ 完了，反向指标 这菊座就是奇葩 你去打吗 我认为那些骂局座的人，你的才华与智慧给局座提鞋也不配。 到哪里都有淘汰品不是么。 二0一八有点玄！ 我去，既然张天师说2018没事，那看来我要去多买几袋米几袋盐储存起来了。张天师预测的海湾战争伊拉克战争阿富汗战争言犹在耳呢O(∩_∩)O哈哈~ 他说话一般都是反的。。。 乌鸦嘴 人家是文职，只负责研究未来的仗怎么打。 悬了 局座可以顶到多少部队？[窃笑] 老子负责任地说今年在俄罗斯会爆发30多个国家混战的世界大战......<br><br><br>世界杯 真打起来找他算账？到美国去了。 脏将军，您说话有一次靠谱吗? 局座都不认识你还好意思混网络？当喷子也要将就基本法啊。 早退休好多年了，都是老年人了哪来的那么多中气。 赶紧卖房换钱享受啊，战争一来房子就要塌了，钱也不值钱了，你们现在不享受等待何时？<br><br>就怕，嘴上一套背后一套，第二天还特么得灰溜溜的爬起来去打工哦 撅起<br><br>你打错字了。 楼上没有幽默感。。本来就是一玩笑你这都看不懂么？？ 你是那双破鞋? 完蛋了，2018三战毁灭地球 混口饭吃 这屁放的一点没有， 支持局座发声 嗯，看来2018年世界注定不会平静啊 吓得我都尿在椅子上了。。。。。 张将军出台讲课时总觉得他讲话中气不足，象淫欲过度大伤元气一样！ 这家伙是乌鸦嘴，看样子得买点黄金企业的股票了！！！！！！ 拍照，刘明，2018.12.31再来! 同解 菊座预测也有灵的。比如说蛾毛航母跳水。一跳还是两次。 五年内不会暴发世界大战 军事大战不一定，但经济战绝对是要来了！ 他这一预测没准还真的要爆发世界大战。 局座威武···· 网易只有无脑喷子 都是这样混出来的将军，真不敢相信将来的他仗怎么能打赢？？？？ 蔡英文自求多福吧 不是传说，参考海湾战争，这货的话反过来，全对！！！！ 传说中，张局座的预测都是反着来的。没准儿2018年正能打起来。 只要我们一谴责，全世界都停火！ 当年美军入侵伊拉克，他分析会有一场激烈的旷日持久的巷战 局座，萨达姆的共和国卫队咋还没出打呢？ 这货精神分裂天天放屁污染环境 谁知道明天会发生什么？召忠忽悠，会被淘汰。 完了~！~这事定了100%开撸了O(∩_∩)O哈哈~ ",
        "Link": "http://comment.war.163.com/news_junshi_bbs/D77I958C000181KT.html",
        "Total": 9101,
        "Reply": 442
    },
    "Source": "Netease"
}