{
    "Article": "（原标题：大手笔！印度将购240枚俄制炸弹总价近2亿美元）【环球网军事1月3日报道】据俄罗斯卫星通讯社新德里1月2日电，印度国防部消息称，该国防长西塔拉曼批准了为该国空军从俄罗斯采购240枚航空炸弹的提案。俄罗斯卫星通讯社获得的消息复印件中称，“提案涉及从俄国防出口公司采购240枚炸弹，总价为125.4亿卢比(约1.96亿美元)。这些属于高精武器的炸弹已被印度空军使用。这笔交易旨在填补印度空军武器库中高精武器的空缺，以及加强其进攻能力”。本文来源：环球时报-环球网。更多精彩，请登录环球网http://www.huanqiu.com责任编辑：姚文广_NN1682",
    "URL": "http://war.163.com/18/0103/09/D77E062E000181KN.html",
    "KeyWords": "印度,炸弹,俄罗斯,空军",
    "PublishTime": "01/03/201809:19:12",
    "Title": "大手笔！印度将购240枚俄制炸弹 总价近2亿美元_网易军事",
    "Comment": {
        "Content": "炸弹竟然也要买···印度到底行不行啊· 被殖民的同时又被殖脑，马猎子孙嘛！ 查不到，你查得到给个链接啊 为了特权，不惜一切，哪怕是认洋祖宗出卖领土和民族灵魂！<br>否则，很难解释卖国黄恶的所作所为。<br>就连一向沉稳的默克尔都忍不住送地图表达内心的不解和鄙视！ 那个是阿二！ 有的是被殖民，有的是被殖脑 中国媒体为什么不敢说是对付我的？！ 毛子排过来的孙子殖民更厉害、把这里搞得是世界上最多的奴役、还有许许多多甘愿做狗的 2016年中国从俄，罗斯进口原油5248万吨，约等于等于3亿8千万桶（一吨油约等于7.2-7.3桶）真按照100刀一桶，就是380亿，而中国从俄，罗斯总进口额也就280.21亿，也就是说，起码2016年俄，罗斯不仅少收了足足100以的油钱，还白送了其他进口物资，真是好人 难道不知道，人，本来就具备不断自我发展，进取，改变，的本能吗？这种本能能够在好的开放，自由的环境中更加完好的体现，在北韩那样的环境中就会被遏制，退化。南北韩，东西德，大清和西方的对比，就完完全全的体现了人类的这种本能。 想冲突俄国没那个本身，印度就更没本事了。一殖民地国家有什么资格跟主权国家冲突。 阿三大手笔，每天都在买买买！这么有钱，那里来的钱！ 印度是唯一一个对争议领土之外，对中国有领土野心的国家 三哥真有钱 这个世界绝对没有真正的朋友，只有唯利是图的商人！ 核平杯精，消灭天草 《冤大头》系列之“炸弹篇” 难道会比自愿高价购其天然气且提前预付款的国家更有钱？ 不傻，只不过拿了自由资金的支持，不得不写。。。真有人不信：人在做，天在看。 被阿三扇了几个月的耳光，毫无底线，脸都丢尽了，哈哈哈 80万美元，价格挑战法国货啊！ 你扇你爸几个耳光，你爸没理你，脸就丢尽了？ 你想好好生活，你的国家想好好发展，关键得看别的国家对你有没有想法，伊拉克人从前不知道比中国人富有多少，萨达姆时代1980年伊拉克人均GDP11000美元的时候中国只有可怜的330，大部分中国人都没坐过的电梯伊拉克却按在了过街天桥上，现在伊拉克如何？民主了么？幸福了么？说萨达姆残暴，对比IS哪个更残暴杀的人更多造成的破坏更大？萨达姆靠他的铁腕一直把IS压制在萌芽状态，他意思，这个恶魔出现了，现在伊拉克人不过是刚刚看到了IS破灭的曙光，还没有完全脱离战争，即便是拜托了IS的攻击，伊拉克内战也会马上开始，库尔德人为了独立为了等到伊拉克国防军虚弱的今天已经等了很久很久了 野蛮的内部殖民比文明的外部殖民更悲惨。 阿三的新闻以后放娱乐版块吧 阿三威武，傻大逼一个。 阿三买炸弹炸谁？以阿三的一贯表现来看，很有可能掉头上炸了自己。 殖不殖我不知道，我知道我有房子有车有存款，日子过得比以前好！有牢骚但总体满足。要让我过衣不附体，食不果腹的日子，我就拿1.8焦打他的菊花 说的有道理 捣乱失败，再捣乱再失败，直至灭亡。 殖民，殖脑，那个厉害！ 不用我告诉给谁准备的吧俄罗斯说过印度是最可靠的盟友历史上没有以后也不会有冲突 被殖民的同时又被殖脑，马猎子孙嘛！ 老提这个梗，跟我讲讲多少钱签的合同，当时国际市场天然气价格是多少呗？ 买天然气是为了发展经济，买炸弹哪天说不定自己军火库炸了，听个动静。 回扣,买俄罗斯的东西有巨额回扣！ 以后不知道，但是现在的生活比以前不管哪个时候都是要好的。 傻B，你去买天然气会出2倍价钱买吗?还不是为了孝敬毛子爹找个理由送钱 给殖民唱赞歌，是该夸洗脑彻底？还是你傻？ 曾经的英国殖民地--美国，现在成了世界上最强大的国家。。。。毛子国现在又成了什么？？？？ 确实，兔子被扇完了以后，只在洞朗修了两个停机坪，几排房子，驻扎了1800名士兵而已，真丢脸，看看人家三哥都跑哪儿去猫冬了，差距啊。。。。。。。。哈哈哈哈哈哈哈哈哈 主要用来对付巴基斯坦和中国吧 真的么，海关价格查不到的么？这个梗改换了，早就被人打了无数次脸了 股市圈来的哦。 为了特权，不惜一切，哪怕是认洋祖宗出卖领土和民族灵魂！<br>否则，很难解释卖国黄恶的所作所为。<br>就连一向沉稳的默克尔都忍不住送地图表达内心的不解和鄙视！ 打谁的脸，啪啪啪的， 炸弹竟然也要买···印度到底行不行啊· 被殖民的同时又被殖脑，马猎子孙嘛！ 为了特权，不惜一切，哪怕是认洋祖宗出卖领土和民族灵魂！<br>否则，很难解释卖国黄恶的所作所为。<br>就连一向沉稳的默克尔都忍不住送地图表达内心的不解和鄙视！ 曾经的英国殖民地--美国，现在成了世界上最强大的国家。。。。毛子国现在又成了什么？？？？ …… 俄国最希望印度强大，牵制中国！！！ 傻B，你去买天然气会出2倍价钱买吗?还不是为了孝敬毛子爹找个理由送钱 中国媒体为什么不敢说是对付我的？！ 毛子排过来的孙子殖民更厉害、把这里搞得是世界上最多的奴役、还有许许多多甘愿做狗的 咱没有那，不存在丢的问题 楼上麻烦你去叙利亚和伊拉克利比亚说说这话，看看你的菊花爆成啥样 2016年中国从俄，罗斯进口原油5248万吨，约等于等于3亿8千万桶（一吨油约等于7.2-7.3桶）真按照100刀一桶，就是380亿，而中国从俄，罗斯总进口额也就280.21亿，也就是说，起码2016年俄，罗斯不仅少收了足足100以的油钱，还白送了其他进口物资，真是好人 难道不知道，人，本来就具备不断自我发展，进取，改变，的本能吗？这种本能能够在好的开放，自由的环境中更加完好的体现，在北韩那样的环境中就会被遏制，退化。南北韩，东西德，大清和西方的对比，就完完全全的体现了人类的这种本能。 普珠子也不送个台阶。 想冲突俄国没那个本身，印度就更没本事了。一殖民地国家有什么资格跟主权国家冲突。 没学历史么。<br>北美大陆。南美大陆的印第安基本灭族。<br>内部殖民额。哈哈。<br>外部殖民的文明，就是只屠男，留女。<br>是不是历史事实。<br>我要撕你这畜生的逼嘴。 你是智障吗？ 三哥真有钱 咋那么有钱呢😄 野蛮的内部殖民比文明的外部殖民更悲惨。 核平杯精，消灭天草 印度又想要和中国搞事咯，印度军人把中国领土当旅游土地了。中国边防军还不敢开枪。外交部也不敢说印度军侵犯中国领土。 巴不是认为有中俄就行嘛，也照单从俄那里来一份。 难道会比自愿高价购其天然气且提前预付款的国家更有钱？ 不傻，只不过拿了自由资金的支持，不得不写。。。真有人不信：人在做，天在看。 被阿三扇了几个月的耳光，毫无底线，脸都丢尽了，哈哈哈 80万美元，价格挑战法国货啊！ JDAM单价1万8000美金 现在内部殖民，未来照样内部殖民，不会有任何改变的 炸弹便宜，去丢炸弹，被干下一架飞机就2亿美元没了。印军没有绝对的制空权，丢炸弹就是去送死。 你是无脑可殖 殖民，殖脑，那个厉害！ 阿三小肥羊，咖喱味特浓浓的…… 你在家都打你爹耳光？ 不用我告诉给谁准备的吧俄罗斯说过印度是最可靠的盟友历史上没有以后也不会有冲突 被殖民的同时又被殖脑，马猎子孙嘛！ 老提这个梗，跟我讲讲多少钱签的合同，当时国际市场天然气价格是多少呗？ 你用你的小手扇你爸几个耳光，你爸没理你，脸就丢尽了？ 阿三买炸弹炸谁？以阿三的一贯表现来看，很有可能掉头上炸了自己。 我也觉得奇怪，制导武器老美那早就白菜价了，怎么俄毛的这么贵？给苏30用的再怎么样2000磅一个算到头了。2000磅的JDAM才两万美金不到，激光制导炸弹也就几万刀。老美的制导武器先进程度和可靠性比俄毛的好得多也就这么点价格。 怎么也比明清进步了，奴才下跪，那时皇上给个垫，现在地热加热垫，给皇上下跪的奴才感恩不尽，让其起来都骂人。 它们不会信的，它们只是找借口喷中国，欲加之罪何患无辞 扇耳光的阿三厕所先搞好这里的人是不是脑子有问题印度阿三也值得拿来吹吗的智障美狗以后只管吹吹美帝没人反对只会点赞懂吗 给殖民唱赞歌，是该夸洗脑彻底？还是你傻？ 有的是被殖民，有的是被殖脑 确实，兔子被扇完了以后，只在洞朗修了两个停机坪，几排房子，驻扎了1800名士兵而已，真丢脸，看看人家三哥都跑哪儿去猫冬了，差距啊。。。。。。。。哈哈哈哈哈哈哈哈哈 主要用来对付巴基斯坦和中国吧 那是砸种孝顺。 参考前苏联国家都是什么鬼 你也好意思说别人你有脑也是猩猩级别的是个人都知道不是准备丢你家就是丢巴的 你想好好生活，你的国家想好好发展，关键得看别的国家对你有没有想法，伊拉克人从前不知道比中国人富有多少，萨达姆时代1980年伊拉克人均GDP11000美元的时候中国只有可怜的330，大部分中国人都没坐过的电梯伊拉克却按在了过街天桥上，现在伊拉克如何？民主了么？幸福了么？说萨达姆残暴，对比IS哪个更残暴杀的人更多造成的破坏更大？萨达姆靠他的铁腕一直把IS压制在萌芽状态，他意思，这个恶魔出现了，现在伊拉克人不过是刚刚看到了IS破灭的曙光，还没有完全脱离战争，即便是拜托了IS的攻击，伊拉克内战也会马上开始，库尔德人为了独立为了等到伊拉克国防军虚弱的今天已经等了很久很久了 先进-----最低廉的成本造出最精美的物品。<br>落后-----二十六万一支的大啥，，，，，， 打谁的脸，啪啪啪的， 为了特权，不惜一切，哪怕是认洋祖宗出卖领土和民族灵魂！<br>否则，很难解释卖国黄恶的所作所为。<br>就连一向沉稳的默克尔都忍不住送地图表达内心的不解和鄙视！ 俄罗斯卖的炸弹没给触发装置，触发装置另算再加两亿美元! 这句貌似名言的话特煞笔 楼上家里不用天然气做饭么？ 这个世界绝对没有真正的朋友，只有唯利是图的商人！ 中国是不是伪速慰哀殖民地？ 速来！ 阿三威武，傻大逼一个。 被一脚踹飞选择性失明？被打倒在地拖了回去选择性失明？<br><br>不管怎么挨揍，只要阿三没被打死，阿三就是大胜利对么？ 有的是被殖民，有的是被殖脑 阿三威武，傻大逼一个。 回扣,买俄罗斯的东西有巨额回扣！ 人傻钱多 那个是阿二！ 有国早就是娱乐版块了。 不用我告诉给谁准备的吧俄罗斯说过印度是最可靠的盟友历史上没有以后也不会有冲突 想冲突俄国没那个本身，印度就更没本事了。一殖民地国家有什么资格跟主权国家冲突。 阿三大手笔，每天都在买买买！这么有钱，那里来的钱！ 阿三威武，傻大逼一个。 印度是唯一一个对争议领土之外，对中国有领土野心的国家 回扣,买俄罗斯的东西有巨额回扣！ 捣乱失败，再捣乱再失败，直至灭亡。 三哥真有钱 回扣,买俄罗斯的东西有巨额回扣！ 集百家之长看好阿三哦 炸弹跟导弹价格差不多了 难道会比自愿高价购其天然气且提前预付款的国家更有钱？ 《冤大头》系列之“炸弹篇” 阿三这次居然没有要求技术转让？ 俄罗斯不是什么好鸟，制约中国而已 给殖民唱赞歌，是该夸洗脑彻底？还是你傻？ 小编的数学是体育老师教的？ 嗯，很多被剥皮匠华盛顿植脑 明摆着不就2个亿摆平三峡吗 股市圈来的哦。 回扣,买俄罗斯的东西有巨额回扣！ 阿三的新闻以后放娱乐版块吧 给三个点个赞吧，牛逼。 ",
        "Link": "http://comment.war.163.com/news_junshi_bbs/D77E062E000181KN.html",
        "Total": 1156,
        "Reply": 93
    },
    "Source": "Netease"
}