{
    "Comment": {
        "Reply": 6,
        "Total": 156,
        "Link": "http://comment.news.163.com/news2_bbs/D6TU5KMR00018AOR.html",
        "Content": "警方已经依法对上述烟花爆竹进行了收缴，同时对沈先生非法储存烟花爆竹的违法行为予以行政处罚。 滑稽，这小品真的好笑。 連自首都不行了<br>拜託長官給條活路啊 送他煞笔二字不愧 沈先生你是猴子请来的逗比吗？ 河北那个主要还是为了保护空气，特意赶在节前抓的，也是杀鸡警猴 警方已经依法对上述烟花爆竹进行了收缴，同时对沈先生非法储存烟花爆竹的违法行为予以行政处罚。 沈先生你是猴子请来的逗比吗？ 連自首都不行了<br>拜託長官給條活路啊 送他煞笔二字不愧 滑稽，这小品真的好笑。 河北那个主要还是为了保护空气，特意赶在节前抓的，也是杀鸡警猴 "
    },
    "Title": "杂货店老板打扫时发现5箱陈年烟花 主动上交警方_网易新闻",
    "Article": "（原标题：打扫时发现5箱陈年烟花爆竹，上海一杂货店老板主动上交警方）打扫时发现5箱烟花爆竹存货，上海一杂货店老板主动联系警方，全部上交。澎湃新闻记者从上海杨浦警方获悉，市民沈先生一直在政通路经营一家杂货店。12月26日下午，他在库房整理货品时，发现角落里堆放着几个纸箱，打开一看竟都是小鞭炮。警方正在清点烟花爆竹。上海杨浦警方提供看到鞭炮，沈先生一下子记了起来。在2016年之前，沈先生的杂货店获有售卖烟花爆竹经营许可，每年都会出售烟花爆竹。在2016年元旦新修订的《上海市烟花爆竹安全管理条例》实施后，外环线以内全面禁售禁放烟花爆竹，而沈先生店里还有前之前出售的几箱存货。当时条例刚刚实施，舍不得直接上交的沈先生还想“轧轧苗头”，于是就把这几箱存货放在了杂货库房的角落里。由于其还一直经营其他货物，装有鞭炮的箱子堆放在角落不起眼，时间一长他也就忘了这件事。直到今年12月26日下午打扫卫生，这几箱鞭炮才又被发觉。于是，沈先生联系了属地五角场派出所的社区民警。经民警清点，箱内共计有鞭炮6万响。目前，杨浦警方已经依法对上述烟花爆竹进行了收缴，同时对沈先生非法储存烟花爆竹的违法行为予以行政处罚。随着上海这两年烟花爆竹禁燃工作的全面开展，越来越多的市民都切身感受到了禁燃禁放对城市安全和美好环境带来的改变，积极支持禁燃禁放。警方提醒：根据《上海市烟花爆竹安全管理条例》，外环线内禁止燃放烟花爆竹。在禁燃区域内，任何单位和个人不得经营、储存、运输烟花爆竹。本文来源：澎湃新闻责任编辑：邵小波_NN2479",
    "URL": "http://news.163.com/17/1230/16/D6TU5KMR00018AOR.html",
    "Source": "Netease",
    "KeyWords": "烟花,爆竹,禁燃",
    "PublishTime": "12/30/201716:47:00"
}