{
    "Comment": {
        "Content": "这个黄毅清从之前和黄奕的撕逼来看，也是一极品男 一百万的回扣。。。牛逼 贾乃亮，如果你因为这件事就不爱李小璐了，那么我鄙视你。你连她跟别的男人过夜都接受不了，凭什么说爱她？我对姚笛就从来没变过，从迟帅、文章、李威，到现在这个圈外男友，我对笛的爱从来没有半点犹豫。笛，就算你在别人怀里我依然爱你。 黄毅清也是过来人，感慨颇多！ 说实话的出来了 真是够久没出来了大兄弟还好嘛 终于出现了！！！ 握草！咋把你给炸出来了！ 2000w的车，回扣100w，才5个点的回扣，不错了，一般吃公家都是20个点吧 这小骚货，我要做你弟弟[窃笑] 上联：贾在哭，万在笑，小璐在挨炮下联：宋在操，马在叫，宝宝在咆哮横批指璐为马 宝强终于不孤独了 邓超是装傻，贾乃亮是真傻，你看他们上的浙江综艺节目 贾乃亮会成第二个王宝强吗 加上羽凡斗贴绿纸斗地主 若是真的，可以无视她！太受伤害了!长痛不如短痛，对孩子成长更不利 心疼黄海波，真心觉得嫖娼算什么错？人家这是花自己的钱解决需求伤害谁了？总比一些白睡粉丝的好吧？总比一些出轨偷别人老婆的好吧？哎，太冤了。 你去看他微博就知道了，贾乃亮自己家里就有上市公司，演戏只是爱好，名下车子有半个亿，真不知道这货有钱又帅，找什么李小璐🤷🏻‍♂️ 你们这些后生仔，连大美妞都不认识么？大美妞是网易娱乐圈的扛把子，ok？ 他家境好像不错 你这话说的不对，出轨队是又得一分，pgone难道没有为嫖娼队拿一分？ 妈的在明星身边做助理随随便便都有一百万可以赚，唉 我想知道什么车两千多万！？ 出轨队又得一分，吸毒、嫖娼队仍需努力💪 没关注过，贫穷限制了我的知识面。 黄毅清的那个前妻万人睡结婚后还被苏芒带动香港卖淫黄毅清对贾乃亮感动深受惺惺相惜也很正常！ 王宝强比他强，起码二话不说就离婚，贾乃亮这个傻逼他有这气质吗？肯定选择原谅啦 看过一个真人秀节目，觉得贾乃亮确实有点傻，智商比较低，李小璐出轨应是情理之中。 还是清哥仗义，敢说话，不怕得罪人。 心疼老贾，一看就是老实人。 老实被人欺 这些明星赚钱真特么容易啊，贾乃亮这种顶多算个二线明星吧？两千多万的车就让助理去买了，四五千万的拉法也买了，得赚多少才下得了手啊…… 我觉得标准是秦奋再到王思聪，再到其他 自己的头上都冒绿光，还有心情管别人！贵圈好人真多 嫂子包饺子，实在好吃耶～<br>吃了饺子玩嫂子，实在好玩耶～ 标准就是，王思聪，其他 真心老实人，爱的太卑微了。离了吧。 有病 每次出事后都是借酒消愁 突然觉得假奶亮真可怜… 他只要不和黄奕撕逼，脑子还是很清楚的。 啥叫富二代有标准没 唉………现在就是个玩嗨的年代……😨 你大爷的，，， 真心老实人，爱的太卑微了。离了吧。 淡蓝色的法拉利拉法你不看新闻吗 这一波居然把你炸出来了太意外了 那不是和宝强一样？ 轮流着这个词用的好[色色] 黄毅清也是过来人，感慨颇多！ 故事:呵呵…… 这一波居然把你炸出来了太意外了 牛逼🐮啊 握草！咋把你给炸出来了！ 黄毅清怎么知道的这么多？ 安哥拉？ 没想到在这里看见你，别来无恙？ 大哥这是一队的，那男的之前不早就爆过吸毒 我就是你的笛。打钱吧 菜鸟一个 当时嫁给贾乃亮就是觉得她就是聪明，找个年轻帅气家里又有钱的爱她的男人嫁了，比那些一定要入豪门的女星好多了，现在没想到是这样，恶心 宝宝:亮亮不哭 哪一点配不上李小璐的整形脸了！ 哈哈哈哈 大神出来了 他就是话多，呵呵。但他以一个过来人不小心说了实话…… 贾乃亮，如果你因为这件事就不爱李小璐了，那么我鄙视你。你连她跟别的男人过夜都接受不了，凭什么说爱她？我对姚笛就从来没变过，从迟帅、文章、李威，到现在这个圈外男友，我对笛的爱从来没有半点犹豫。笛，就算你在别人怀里我依然爱你。 哥们儿可算是出来了 他家境好像不错 你不是发声明退出姚笛后援团了吗？<br>怎么刚放过的P就不认了？ 嗨狗比好久不见 男人不坏女人不爱这句话是千古不变的真理。 贾乃亮为了李小璐丢掉了太多的东西了，一个男人我觉得还是要有点男人味，卑微时间久了换来的不是女人的感恩，而是唾弃！ 哈哈哈，这货还出来 出轨队又得一分，吸毒、嫖娼队仍需努力💪 其实一直觉得贾乃亮人挺憨厚的，但对李小璐从一开始就蜜汁讨厌，现在看来我的感觉是对的，李这人人品不行 黄毅清的那个前妻万人睡结婚后还被苏芒带动香港卖淫黄毅清对贾乃亮感动深受惺惺相惜也很正常！ 这不是要求朝阳群众多努力了吗？ 还是清哥仗义，敢说话，不怕得罪人。 帅又老实的 演艺圈的女人有不是鸡的吗？ 我想知道什么车两千多万！？ 要想生活过得去，头上就嘚顶点绿 什么红花会？？总舵主出狱了吗 我也好久没上网易了。我是副书记级别。不知道算不算老人了、？ 这些明星赚钱真特么容易啊，贾乃亮这种顶多算个二线明星吧？两千多万的车就让助理去买了，四五千万的拉法也买了，得赚多少才下得了手啊…… 最不可理解的是这么蠢的人都能拿出两千万买车，感觉这个世道就是修桥补路瞎眼，杀人放火儿多。 怎么没人去问王某强？ 吸毒队好久没有出现新人了。 和小王可以搭班 大家都是送帽子的而已 轮流着这个词用的好[色色] 出轨队已经完爆嫖娼队和吸毒队了，这两年让出轨队这顿壮大，那俩队都怂了 嘴巴毒也有毒的好处 快出新剧了吧 加油！美妞 平时看着精的很，没想到私下也是老实人 是鹿晗？ 真心老实人，爱的太卑微了。离了吧。 淡蓝色的法拉利拉法你不看新闻吗 大家好，我是PGONE，请大家欣赏我的新rap《好吃不过饺子》：<br>comeon！<br>乃亮大哥，有些话不能多说。<br>你家的饺子味道真不错！<br>你的头发有点绿。<br>你的眼神有点忧郁。<br>你的人生就像言情剧。<br>哦，爸爸去哪儿了。<br>哦，嫂子去哪儿了。<br>嫂子和兄弟一起去哪儿了。<br>她挽着我的手。<br>她搂着我的头。<br>她把白白的饺子塞到我的口。<br>她在我的身下尽情的嘶吼。<br>one！two！three！four！<br>two！two！three！four！<br>three！two！three！four！<br>onceagainoh～yeah～<br>和我一起说唱！<br>嘿，乃亮！<br>不仅你的奶亮，你的头也亮！<br>嫂嫂说去做头发，我的小名就叫头发！<br>你天天喊我弟弟，嫂嫂也喊我弟弟，我还有个弟弟！<br>嫂嫂玩着你的弟弟，还玩着我的弟弟！<br>就问你刺不刺激！yeah！ 黄毅清跟个智障似的哪都有他 非得加个黄奕前夫 惺惺相惜 有人问问王某强吗？ PGOne，本名王昊，中国内地男rapper，1994年4月5日出生于黑龙江省哈尔滨市，是红花会的成员。<br><br>因打篮球喜欢控球后卫(PG)的位置,而且做事情追求完美，喜欢得第一，因此取名为PGOne 李小璐个子还这么矮呢 一个词也把你弄高潮了？ 黄毅清也是过来人，感慨颇多！ 可怜之人必有可怜之处.. 贾乃亮，如果你因为这件事就不爱李小璐了，那么我鄙视你。你连她跟别的男人过夜都接受不了，凭什么说爱她？我对姚笛就从来没变过，从迟帅、文章、李威，到现在这个圈外男友，我对笛的爱从来没有半点犹豫。笛，就算你在别人怀里我依然爱你。 这能一样，你是意淫，别人是真夫妻出轨 这个黄毅清从之前和黄奕的撕逼来看，也是一极品男 真是够久没出来了大兄弟还好嘛 终于出现了！！！ 呵呵 买车估计是拉法吧。。贾乃亮还晒过，2000万左右吃100万回扣，牛B啊 唯恐天下不乱 握草！咋把你给炸出来了！ 大美妞好久不见啊，新年快乐！ 支持大美妞！ 离了吧长的这么帅有有钱不怕找不到好点的女人离了吧 青青的草原蓝蓝的天空 这么多人的评论我都不服，就服一楼 一楼大名人啊，大美妞好久不见……出狱了吧！ 大美妞，进错片场了。赶快回到你的一亩三分地，天天YY着崩姚迪吧 我说的不对吗？是不是太老实的男人老婆都是不是容易出轨，比如，武大郎，王宝强，贾乃亮…… 贾乃亮是老实人A？你的基因不是广东人的种，你是外来打工仔还是鸡的后裔？ 杂种李小璐这个婊子 这标题取得够八卦的 是不是说男人不能太老实。比如武大郎 好久不见现在还安好？ 恕我直言，你们看到的只是表面罢了。贾乃亮是老实人？老实人能在娱乐圈混，你也是在逗我，他们都是半斤八两，没有谁对不住谁 大神好久不见，管你真假受小弟一拜 大哥，我扶你起来喝药 终于等到你！ 大美妞，好久不见了！这段时间干嘛去了？ 可怜的贾乃亮 真是耻辱 如果出轨的是你配偶希望你也能如此对待 贾乃亮一看就是那种大大咧咧没心机的男人 二楼是新人吧？ 他只要不和黄奕撕逼，脑子还是很清楚的。 王宝强比他强，起码二话不说就离婚，贾乃亮这个傻逼他有这气质吗？肯定选择原谅啦 还是清哥仗义，敢说话，不怕得罪人。 楼上，你工资高吗？？兼职可以么？ 天使惹的祸的时候，多清纯啊 黄毅清这人让人恶心 心疼甜心 黄毅清也不是个好人吧 来，你过来，我的鸟窝是你的… 老实被人欺 可以可以 起来喝药了 比起苍井空老师，你们差得太多了 贾乃亮前面说相信老婆的忠诚，现在离婚，不就自己扇自己大嘴巴子了吗，在娱乐圈混不容易啊！话说李小璐以前还去腾讯星空演讲，就这么给大学生做榜样的成功人士啊，呸，恶心啊。只能说有良心的人，有道德底线的人不要涉足娱乐圈，你死都不知道怎么死的。 真心老实人，爱的太卑微了。离了吧。 有病 李小璐从明星混成了网红 3楼萌新！ 贾乃亮前面说相信老婆的忠诚，现在离婚，不就自己扇自己大嘴巴子了吗，在娱乐圈混不容易啊！话说李小璐以前还去腾讯星空演讲，就这么给大学生做榜样的成功人士啊，呸，恶心啊。只能说有良心的人，有道德底线的人不要涉足娱乐圈，你死都不知道怎么死的。 邓超是装傻，贾乃亮是真傻，你看他们上的浙江综艺节目 人家就是来搞笑的 看过TVB的千谎百计没？很好看的 每次出事后都是借酒消愁 好久不见 本来很讨厌贾乃亮，现在看他还挺可怜的。 你不认识一楼吧…… 傻逼 那不是和宝强一样？ 就欺负老实人了啊... 贾乃亮前面说相信老婆的忠诚，现在离婚，不就自己扇自己大嘴巴子了吗，在娱乐圈混不容易啊！话说李小璐以前还去腾讯星空演讲，就这么给大学生做榜样的成功人士啊，呸，恶心啊。只能说有良心的人，有道德底线的人不要涉足娱乐圈，你死都不知道怎么死的。 离吧 毕竟泰迪姐妹团 黄毅清也是过来人，感慨颇多！ 贾乃亮，如果你因为这件事就不爱李小璐了，那么我鄙视你。你连她跟别的男人过夜都接受不了，凭什么说爱她？我对姚笛就从来没变过，从迟帅、文章、李威，到现在这个圈外男友，我对笛的爱从来没有半点犹豫。笛，就算你在别人怀里我依然爱你。 我只想说<br>老实人刨你家祖坟了？ 万一出轨吸毒各加一分ne 擦，贾乃亮的拉法买的不便宜啊！本事好像就是秦真壕的二手车吧！这狗助理哦[惊讶] 一杯敬宝强，一杯敬奶亮，守着我的善良催着我成长，虽然从不相信所谓山高水长，人生苦短何必恋恋不忘。。。 他这是光脚的不怕穿鞋的，看热闹不嫌事大的心态。 背后有人要整他。 你大爷的，，， 这小骚货，我要做你弟弟[窃笑] 女儿是真的，长得那么像 这号是假的吧？我记得以前不是这样舔的啊…… 有钱就是好 你的笛现在正在啄我的金针菇。 又好像说是吸毒。。不是出轨。。不知真假。。 黄毅清以前觉得有点神经错乱但是这两天感觉他是一个真实的人！人家又不是明星也不想出名，敢说真话！就屁精1和麋小鹿的粉丝估计气的够呛 贾乃亮会成第二个王宝强吗 若是真的，可以无视她！太受伤害了!长痛不如短痛，对孩子成长更不利 心疼黄海波，真心觉得嫖娼算什么错？人家这是花自己的钱解决需求伤害谁了？总比一些白睡粉丝的好吧？总比一些出轨偷别人老婆的好吧？哎，太冤了。 泰迪果然是日天日地日空气 他是在暗示假奶亮，去做DNA 黄确实看着像一个跳梁小丑 可以5匹吗？ 奶量看起来不傻啊， 那货是个男的，你们去搞基吧 这次是出轨队和吸毒队双赢好不好，嫖娼队需要努力了[喷水][喷水] 就服你 难道娱乐圈的女人都这样？ 出轨队又得一分，吸毒、嫖娼队仍需努力💪 服你 我觉得黄就是一个跳梁小丑 看过一个真人秀节目，觉得贾乃亮确实有点傻，智商比较低，李小璐出轨应是情理之中。 还是清哥仗义，敢说话，不怕得罪人。 整个娱乐圈都一被窝下睡 一般吸毒以后就是大炮 是出轨+吸毒队同时加分。 我想知道什么车两千多万！？ 这傻逼怎么哪都有啊 老实人，爱的太卑微，有必要这样吗 嫖个男人又怎么样碍到谁了 不要憋屈自己，不就一个爱花钱不爱家的浪人嘛，再找一个爱你的亮亮 被轮流骗？难道小路被轮流。。。 服你！ 黄海波应该是给人下套坑的 握草了个dj。。。。。 职业转会运动员 pg一人独揽3分 买的起两千多万也不在乎那一百万 黄毅清一个吃饱了撑的🤮 吸完毒哪有不来一炮的。 最近你们怎么连表情包都是绿的？ 看乐了 岳云鹏朱时茂这可不止一分 同感，傻乎乎的 你这话说的不对，出轨队是又得一分，pgone难道没有为嫖娼队拿一分？ 轮流着这个词用的好[色色] 这个兄弟居然还在，佩服 看天浴的时候我才十几岁如今都三十二了李小璐到底多大年纪了？ 贾不是插刀教的吧？好像听老实的呀 黄毅清也是过来人，感慨颇多！ 一百万的回扣。。。牛逼 哦……哈哈，看李小璐也就被玩多了。 哈哈周围谁不知道 人才送你上去 好久都没看到你了，怪想你的 管好自己的事情吧 为啥没人骂黄毅清？？哪都有他，真给他欠的 你哥拿你当铁子，你却惦记你嫂子；你是嘻哈大手子，刚进娱乐圈就当浪子！你说过夜真的没啥子，真拿你亮哥当软柿子；你这品行真的狗篮子，赶紧他妈滚犊子！ 上联：贾在哭，万在笑，小璐在挨炮下联：宋在操，马在叫，宝宝在咆哮横批指璐为马 唉！替你心疼，以后我再也不叫你假奶亮了，加油挺住！学学王宝强，站出来 上个嘻哈节目觉得自己是杠把子，轻狂高傲各种diss，口口声声real的大骗子，忽悠铁子联系嫂子，真他妈狗篮子，伤了成千上万的迷妹子，却选择个小婊子，伤风败俗的小屌丝玷污了这个圈子，今后还想闯成个啥样子，赶紧收拾好你的的票子，快快滚犊子！ 人最怕的是贴标签 淫才 卧槽，你还活着呢 还是清哥仗义，敢说话，不怕得罪人。 就服你 你老妈说男人？！快，生物学家来研究下一楼！生物大发现啊！摁住了，中国下个诺贝尔奖有谱了！ 贾乃亮这么惨啊 感觉自己白读书了 贾乃亮，如果你因为这件事就不爱李小璐了，那么我鄙视你。你连她跟别的男人过夜都接受不了，凭什么说爱她？我对姚笛就从来没变过，从迟帅、文章、李威，到现在这个圈外男友，我对笛的爱从来没有半点犹豫。笛，就算你在别人怀里我依然爱你。 你怎么还没死呢 我艹 睡不到的永远都是最好的 这老娘门从小就不是善渣！一般男人可玩不讨它 贾乃亮一看就是老实人 温饱思淫欲 一次我同事在青岛出差在酒店电梯遇到贾乃亮的父母带着小甜心了。那时候甜心才两岁吧，一点都不怕人，很乖，老两口一点架子都没^O^哎贾家人真倒霉！ 善良没错！欺负善良的人混蛋 要想生活过得去，头上必须有点绿 这次黄毅清要是说的事实，老子就挺他一次说的没错！贾乃亮要醒醒 横批骑马上路会不会好点 轮着骗[鄙视][鄙视][鄙视]。意思身边人都绿了他了？ 在淫乐圈这事不奇怪，相反乃亮倒像个异类 这个轮字很抢眼 都说了不要找娱乐圈的女明星 胡歌的母亲坚决不让胡歌找圈内人做对象。 这个字母到底叫什么名字啊？是中国人吧？咋没中文名儿 两千万的车说买就买，再是几手拉法，这样的土豪有啥可怜的？ 2000w的车，回扣100w，才5个点的回扣，不错了，一般吃公家都是20个点吧 贾乃亮真得是傻 马大姐您这坎儿算是迈不过去了[微笑] 女人很贱的，绝对不能对她们太好，否则她会骑在你头上拉屎 怕毛，跟他前妻撕成那样说点真话对他来说小意思啦 别以为人家傻，没准人家故意让助理这么做，又省一百万，总当自己精 贾乃亮是真的爱李小璐，不然不会这么委曲求全。这个社会是好人的地狱，坏人的天堂。 黄毅清傻逼玩意 100万可以刑法伺候了哈哈哈哈 老实人上辈子挖了李小璐家祖坟了吗？这么欺负人 别总说实话 你也不是什么好鸟 黄毅清也是过来人，感慨颇多！ 大家好，我是PGONE，请大家欣赏我的新rap《好吃不过饺子》：<br>comeon！<br>乃亮大哥，有些话不能多说。<br>你家的饺子味道真不错！<br>你的头发有点绿。<br>你的眼神有点忧郁。<br>你的人生就像言情剧。<br>哦，爸爸去哪儿了。<br>哦，嫂子去哪儿了。<br>嫂子和兄弟一起去哪儿了。<br>她挽着我的手。<br>她搂着我的头。<br>她把白白的饺子塞到我的口。<br>她在我的身下尽情的嘶吼。<br>one！two！three！four！<br>two！two！three！four！<br>three！two！three！four！<br>onceagainoh～yeah～<br>和我一起说唱！<br>嘿，乃亮！<br>不仅你的奶亮，你的头也亮！<br>嫂嫂说去做头发，我的小名就叫头发！<br>你天天喊我弟弟，嫂嫂也喊我弟弟，我还有个弟弟！<br>嫂嫂玩着你的弟弟，还玩着我的弟弟！<br>就问你刺不刺激！yeah！ 娱乐圈的女人太脏，沾不得， 还好他会家暴 神经错乱 难以置信 好久不见 哎，，， 就他精 娱乐圈里的女人太脏了，沾不得 作为公众人物行为不检点的应该封杀！以免对社会大众造成不良印象和风气。 你就是个傻逼 你怎么不说是你二大爷，你个狗智障玩意，黄毅清是只疯狗，蹭热度的东西，想出名连狗脸都不要了，还你哥，你个傻逼 黄奕脸上玻尿酸打挺多 不是说退出姚迪后援会吗？ 贾乃亮，如果你因为这件事就不爱李小璐了，那么我鄙视你。你连她跟别的男人过夜都接受不了，凭什么说爱她？我对姚笛就从来没变过，从迟帅、文章、李威，到现在这个圈外男友，我对笛的爱从来没有半点犹豫。笛，就算你在别人怀里我依然爱你。 自己也是一样 你好的呢吗？ 上联：贾在哭，万在笑，小璐在挨炮，下联：宋在操，马在叫，宝强在咆哮。横批，指璐为马。 圣诞夜这首歌信息量好大哦！麋鹿……迷璐？都来我家住，红白色的底裤，撅起屁股，承受我的雨露……一幅活生生的春宫图！真是艺术来源于生活实践，屁万色情鸭，太有才了！ 真假的 肯定不是真的，傻B万是璐的私生子，母子一起睡觉怎么了 广那么多了，合影一下先 怎么哪里都有这傻逼 这么傻 自己就不是什么好鸟，还说别人。 出轨队又得一分，吸毒、嫖娼队仍需努力💪 出轨吸毒更加一分 唉😔 大美妞做梦都想让姚笛给他戴个绿帽呢。可惜人家连他是谁都不知道[微笑][微笑][微笑] 还是清哥仗义，敢说话，不怕得罪人。 有才 周围谁都知道了，连黄毅清都知道，我亮哥不知道 不错👍 关你屁事啊 当局者迷，大概就是这种情况了吧 看面相就知道亮亮是个单纯老实人，但老实人在社会就会被坏人欺负！ 哈哈哈哈哈哈哈哈今日最佳！ 可怜 越来越觉得这是文章那个窝囊废的小号 嘲讽贾你良知有吗? 不一样，你没有得到过你就无法体会失去和背叛的痛。你作为旁观者只是说了一通漂亮的风凉话。 我也觉得亮亮应该还可以，但是太单纯 那看来假不了了，黄毅清这人就是个没脑子的人，这种人说的话一般都是真的，眼睛看到的耳朵听到的信息没有经过脑子处理，直接嘴巴里出来了 他是过来人了，肯定看得更透，而且也是个富二代，接触的圈子够大，说不定小璐那点事情就发生在他身边 贾宝羽被人绿 你不是不干了么？ 大美妞我支持你[微笑] 这世道老实人不适合生存啊 P👀哥已经退役，你一个人还在孤军奋战啊！ 贾乃亮人品应该是挺好的，心疼小甜馨 [狗]你这有绿帽癖，借阁下老婆一用 有多少中间人不吃回扣的？还有把人家媳妇都上了的助理呐 二楼啊！多弱智 这个SB自己的事都理不清，还管别人的事 ",
        "Link": "http://comment.ent.163.com/ent2_bbs/D77ID8OG00038FO9.html",
        "Reply": 367,
        "Total": 10082
    },
    "KeyWords": "贾乃亮,黄奕,黄毅清",
    "PublishTime": "01/03/201810:36:21",
    "Title": "黄奕前夫黄毅清说贾乃亮太傻：被身边人轮流着骗_网易娱乐",
    "Source": "Netease",
    "Article": "黄奕前夫黄毅清黄毅清转发pgone微博网易娱乐1月3日报道近日，有网友针对李小璐“夜宿”风波引起的疑似出轨疑云，询问黄奕前夫黄毅清对此事的看法。黄毅清回复道“别人的事自己也不好多说，只能说贾乃亮太傻，身边的人都在想方设法骗他。”黄毅清还在回答中爆料，贾乃亮的助理就曾经通过帮他买车，从中间吃掉了100万回扣，以此来佐证贾乃亮为人处世确实过于单纯。此前黄毅清已经微博转发过另一位当事人pgone的微博澄清，还配文“这话说给自己听听就行了，周围谁不知道。”黄毅清和前妻黄奕离婚风波闹了几年，以黄毅清的官司败诉暂告一段落。但是黄毅清针对娱乐圈明星的爆料似乎并没有因此停止，这番对于贾乃亮的评论让网友评论道：“你怎么什么事都要掺和一下。”本文来源：网易娱乐责任编辑：陈少杰_b6952",
    "URL": "http://ent.163.com/18/0103/10/D77ID8OG00038FO9.html"
}