{
    "Title": "英国第2艘航母完成码头建造_网易军事",
    "URL": "http://war.163.com/photoview/4T8E0001/2286906.html",
    "Source": "Netease",
    "Comment": {
        "Total": 1198,
        "Reply": 61,
        "Content": "英国航母的窗帘也是中国生产的。 接受现实吧，你已经不是昨日帝国了！ 一定有傻粪得意地说英国人产不出龙门吊，龙门吊是我们出口英国的，所以女王号不如我们的新航母 人家不爱造，真造起来跟你们做烤鸭那么网易。 确实有优秀的企业！但是，谁要是把龙门吊这种乡镇企业级别的技术拿出来吹牛逼，就显得自己太傻逼了！ 英国不是衰落了，而是英国顺应历史潮流放弃了海外殖民地，所以再也不会有日不落帝国了。但是英国的科技和工业实力依然处在世界一流行列，而且根据美帝与北约签署的战略协议，再发生战争，绝不是英国一个国家在战斗，而是整个北约都会与英国站在一起的。如今影响现代战争的坦克、航母、雷达、声纳、垂直起降技术等都是英国发明的，所以别看不起英国，就连英国的福利制度，都让美帝羡慕不止，新航母漏水，又怎么了，改进就是了！ 网易回帖，很涨军事知识！ 那也秒你湖南100條街 英美联盟基本不需要英国自己去维护什么但是人家要恢复的话半年内就能把所有军工系统恢复 第一号干船坞没有举行特别仪式。。。。怎么没有标语彩带领导讲话 记得头些日子，我们对他投资了，这钱不是来造船了把 英国人零钱换整，把几千吨的驱逐舰压缩了，省下的钱造了两艘航母。<br>这是把航母当成战列舰用了。 我说这位拍照的英国网友<br><br>你走的太近了，到远一点的地方拍 英美加澳新那五个互助鸡台港澳新那五个互想往死里掐没招啊民族传统打下啥底就地啥底人家那个可以起万丈高楼这里的却是茅房上盖楼底儿臭外带忽忽悠悠 500年以后国内如果还有国内的话国内仍然是落后于西方很多的地方 你逼逼这么大堆话，就没看核心论点么？到底是什么肮脏下贱的破玩意造成这空前绝后的局面呢？话说你憋不住吼出来，被举报了，不关我事啊。 现在就是你这傻粪在说。 滑跃又怎么样。F35B采用STOVL方式，作战半径是450海里，而苏33才356海里。 舔洋狗，你以为不和你们一样舔洋人的就一定会舔某组织？这是你这种狗的思维，我们人类不舔任何人。 楼上别吹了行不行半年时间回复为什么他的45型驱逐舰都趴窝了？英国不复当年之勇了，想要崛起很难了。 不是三手航母能比的 弹射技术是英国发明的，是英国把技术转让给了美国，让二战后，国力强大的美国，去装备大型航母战斗群，专门对付高烈度全面海战。。<br><br>然后英国又去搞了一个滑跃起飞的技术，装备出了一个轻型航母战斗群，专门应付低烈度局部海战。<br><br>英美尖端军事科技，有共享机制，美国发展喷气式战机，引进的就是英国的“尼恩”发动机。<br><br>发展海军技术，英国一马当先；弹射器，滑跳起飞，垂直起降，助降镜，阻拦索，电磁弹射，电磁炮，全电推等等，都是英国先上，美国再发扬光大。。<br><br>人家是兄弟一家亲，互通有无，资源共享，省的浪费资源。。任何一方对外开战，一旦遭遇挫折，立刻无偿调拨给对方使用。。<br><br>英阿马岛之战，在英国最艰苦的时候，美国已经做好准备，挑选出了数艘，可以起降海鹞战机的，大型两栖攻击舰；一旦英国需要，立刻调拨给英国无偿使用。<br><br>英国、美国、加拿大、澳大利亚、新西兰，凡是世界大战，参战顺序可能有先后，最后这五个国家，一定是并肩作战，同仇敌忾。。。<br><br>英国110个诺被耳奖，美国330个诺被耳奖，英美两国掌握世界顶尖科技。。<br><br>国际金融，必须由伦敦金融城、纽约华尔街；两大国际金融中心，制定游戏规则。。<br>国际原油价格，必须由英国布伦特原油、与美国纽约石油定价。。<br>世界最先进的航空发动机，由英国劳斯莱斯、跟美国通用及普惠制造。。<br>舰船发动机，无论是核动力还是燃气轮机技术，英美均为世界顶尖。。<br><br>世界大学排行榜前十名，4个英国的，6个美国的。英美两国掌握世界顶尖科技。。澳大利亚、新西兰与加拿大，拥有海量的矿产资源与原材料。。与其为敌的国家无一不是，死无葬身之地。<br><br>二战以前，是以英国为首的，盎格鲁撒克逊国家集团，维持全球秩序。<br>二战以后，是以美国为首的，盎格鲁撒克逊国家集团，维持全球秩序。<br><br>大陆、台湾、香港、澳门，说起来也是血脉相连，还有一个表弟新加坡。。<br>但是，跟人家英美澳加新五兄弟，真是没法比，越比越寒心。。 美观 能看清，又是个滑跃的 对发达国家来讲，工程已不再是荣耀的载体，无论是桥梁、隧道、船舶还是飞行器，工程的大小，仅仅取决于想投入的资金的多少！而值得骄傲的是创新和发现！ 怎么没了二楼SB，还止说英国人还说美的了 原一娼，你刚死了的四个日本爹埋了没有啊？ 英国人不咋呼，不声不响一起造俩个航母。国人先搞个模型就能吹几年。 一定有傻粪得意地说英国人产不出龙门吊，龙门吊是我们出口英国的，所以女王号不如我们的新航母 英国造航母速度还是蛮快的。 有吗，白痴。 英国真是衰落了，造了两艘漏水的烂货，根本不能用，看来他们的国运已经到尽头了。 为啥不强调英国国产呢 怪不得几条舔屎狗嘴最臭，还真以为自己是体制狗了，你柱子带不了你们移美逃俄的。 mD，06年就在杂志看见这英国这两艘航母模型了，还不声不响， 英国不是衰落了，而是英国顺应历史潮流放弃了海外殖民地，所以再也不会有日不落帝国了。但是英国的科技和工业实力依然处在世界一流行列，而且根据美帝与北约签署的战略协议，再发生战争，绝不是英国一个国家在战斗，而是整个北约都会与英国站在一起的。如今影响现代战争的坦克、航母、雷达、声纳、垂直起降技术等都是英国发明的，所以别看不起英国，就连英国的福利制度，都让美帝羡慕不止！ 还真没有人说这个，你这个傻粪可能有点膨胀了 只有阿拉伯人和中国人对大工程赶兴趣。比如金字塔，长城，阿房宫。 舔屎狗 目前没有看到这样说的<br>不过说实在话，中国的重工业在世界上并不是全不行，还是有行的。 还是二楼有自知之明 应该是个华为傻逼这样说的吧？呵呵，喷狗就是喜欢臆造出目标来喷，喷得比女王号漏水还更汹涌。 这么大家伙，得有多少油水啊？英国怎么没有那么多的大老虎？ 一定有傻粪得意地说英国人产不出龙门吊，龙门吊是我们出口英国的，所以女王号不如我们的新航母 确实有优秀的企业！但是，谁要是把龙门吊这种乡镇企业级别的技术拿出来吹牛逼，就显得自己太傻逼了！ 能看清，又是个滑跃的 你逼逼这么大堆话，就没看核心论点么？到底是什么肮脏下贱的破玩意造成这空前绝后的局面呢？话说你憋不住吼出来，被举报了，不关我事啊。 第一号干船坞没有举行特别仪式。。。。怎么没有标语彩带领导讲话 记得头些日子，我们对他投资了，这钱不是来造船了把 英国人零钱换整，把几千吨的驱逐舰压缩了，省下的钱造了两艘航母。<br>这是把航母当成战列舰用了。 英美加澳新那五个互助鸡台港澳新那五个互想往死里掐没招啊民族传统打下啥底就地啥底人家那个可以起万丈高楼这里的却是茅房上盖楼底儿臭外带忽忽悠悠 500年以后国内如果还有国内的话国内仍然是落后于西方很多的地方 英国航母的窗帘也是中国生产的。 英国真是衰落了，造了两艘漏水的烂货，根本不能用，看来他们的国运已经到尽头了。 弹射技术是英国发明的，是英国把技术转让给了美国，让二战后，国力强大的美国，去装备大型航母战斗群，专门对付高烈度全面海战。。<br><br>然后英国又去搞了一个滑跃起飞的技术，装备出了一个轻型航母战斗群，专门应付低烈度局部海战。<br><br>英美尖端军事科技，有共享机制，美国发展喷气式战机，引进的就是英国的“尼恩”发动机。<br><br>发展海军技术，英国一马当先；弹射器，滑跳起飞，垂直起降，助降镜，阻拦索，电磁弹射，电磁炮，全电推等等，都是英国先上，美国再发扬光大。。<br><br>人家是兄弟一家亲，互通有无，资源共享，省的浪费资源。。任何一方对外开战，一旦遭遇挫折，立刻无偿调拨给对方使用。。<br><br>英阿马岛之战，在英国最艰苦的时候，美国已经做好准备，挑选出了数艘，可以起降海鹞战机的，大型两栖攻击舰；一旦英国需要，立刻调拨给英国无偿使用。<br><br>英国、美国、加拿大、澳大利亚、新西兰，凡是世界大战，参战顺序可能有先后，最后这五个国家，一定是并肩作战，同仇敌忾。。。<br><br>英国110个诺被耳奖，美国330个诺被耳奖，英美两国掌握世界顶尖科技。。<br><br>国际金融，必须由伦敦金融城、纽约华尔街；两大国际金融中心，制定游戏规则。。<br>国际原油价格，必须由英国布伦特原油、与美国纽约石油定价。。<br>世界最先进的航空发动机，由英国劳斯莱斯、跟美国通用及普惠制造。。<br>舰船发动机，无论是核动力还是燃气轮机技术，英美均为世界顶尖。。<br><br>世界大学排行榜前十名，4个英国的，6个美国的。英美两国掌握世界顶尖科技。。澳大利亚、新西兰与加拿大，拥有海量的矿产资源与原材料。。与其为敌的国家无一不是，死无葬身之地。<br><br>二战以前，是以英国为首的，盎格鲁撒克逊国家集团，维持全球秩序。<br>二战以后，是以美国为首的，盎格鲁撒克逊国家集团，维持全球秩序。<br><br>大陆、台湾、香港、澳门，说起来也是血脉相连，还有一个表弟新加坡。。<br>但是，跟人家英美澳加新五兄弟，真是没法比，越比越寒心。。 mD，06年就在杂志看见这英国这两艘航母模型了，还不声不响， 美国是英国的儿子，分家分出来的。 玉林餐桌上的怎么跑到南宁去了？天天吠也没用，还得老老实实呆着，迟早被送回玉林。 对发达国家来讲，工程已不再是荣耀的载体，无论是桥梁、隧道、船舶还是飞行器，工程的大小，仅仅取决于想投入的资金的多少！而值得骄傲的是创新和发现！ 网易回帖，很涨军事知识！ 原一娼，你刚死了的四个日本爹埋了没有啊？ 未来是你们的，也是我们的，但终究还是你们的..... 英国造航母速度还是蛮快的。 有吗，白痴。 滑跃又怎么样。F35B采用STOVL方式，作战半径是450海里，而苏33才356海里。 应该是个华为傻逼这样说的吧？呵呵，喷狗就是喜欢臆造出目标来喷，喷得比女王号漏水还更汹涌。 皇家海军又回到了世界最先进海军的行列。 英国不是衰落了，而是英国顺应历史潮流放弃了海外殖民地，所以再也不会有日不落帝国了。但是英国的科技和工业实力依然处在世界一流行列，而且根据美帝与北约签署的战略协议，再发生战争，绝不是英国一个国家在战斗，而是整个北约都会与英国站在一起的。如今影响现代战争的坦克、航母、雷达、声纳、垂直起降技术等都是英国发明的，所以别看不起英国，就连英国的福利制度，都让美帝羡慕不止！ 还真没有人说这个，你这个傻粪可能有点膨胀了 只有阿拉伯人和中国人对大工程赶兴趣。比如金字塔，长城，阿房宫。 目前没有看到这样说的<br>不过说实在话，中国的重工业在世界上并不是全不行，还是有行的。 楼上别吹了行不行半年时间回复为什么他的45型驱逐舰都趴窝了？英国不复当年之勇了，想要崛起很难了。 人家不爱造，真造起来跟你们做烤鸭那么网易。 纽约的二秃子还在深圳打工呢？ 那也秒你湖南100條街 英美联盟基本不需要英国自己去维护什么但是人家要恢复的话半年内就能把所有军工系统恢复 怎么没了二楼SB，还止说英国人还说美的了 那又怎么样呢？英国人的生活就比天朝差了？ ==///.......唉。。。。。。。<br><br>厉害啊!!! 我说这位拍照的英国网友<br><br>你走的太近了，到远一点的地方拍 将鱼叉导弹比较巨浪导弹的舔屎狗。呵呵 船头的红十字啥鬼？ 现在就是你这傻粪在说。 楼上说的好像自己什么都知道，其实你什么都不懂 舔洋狗，你以为不和你们一样舔洋人的就一定会舔某组织？这是你这种狗的思维，我们人类不舔任何人。 不是三手航母能比的 一楼自己说了，佩服 英国造航母速度还是蛮快的。 美观 昔日黄花建航母有卵用 英国不是衰落了，而是英国顺应历史潮流放弃了海外殖民地，所以再也不会有日不落帝国了。但是英国的科技和工业实力依然处在世界一流行列，而且根据美帝与北约签署的战略协议，再发生战争，绝不是英国一个国家在战斗，而是整个北约都会与英国站在一起的。如今影响现代战争的坦克、航母、雷达、声纳、垂直起降技术等都是英国发明的，所以别看不起英国，就连英国的福利制度，都让美帝羡慕不止，新航母漏水，又怎么了，改进就是了！ 英国人不咋呼，不声不响一起造俩个航母。国人先搞个模型就能吹几年。 如果经济起不来，就没钱砸科技，没钱砸科技就迟早被别人追上，全球化的今天太多的变数了。所以经济实力强劲才能伴随科技和军工产业的飞速发展，要不都是空谈啊。 一定有傻粪得意地说英国人产不出龙门吊，龙门吊是我们出口英国的，所以女王号不如我们的新航母 只有蠢货不明白和纠结 听说英国是民间藏汇最多的国家，不知是不是真的 为啥不强调英国国产呢 接受现实吧，你已经不是昨日帝国了！ 还是二楼有自知之明 舔屎狗 不拍近一点，你的发帖费就少了。 都是湖南的何必呢。 这么大家伙，得有多少油水啊？英国怎么没有那么多的大老虎？ ",
        "Link": "http://comment.news.163.com/photoview_bbs/PHOT25P9Q00014T8.html"
    },
    "Article": "英国第2艘航母完成码头建造2017年12月21日，英国造船公司VabcockMarine在苏格兰Rosaithe的第一号干船坞没有举行特别仪式，威尔斯王子号航母（R09）完成码头的建造。威尔士王子号进入舾装是在强雾下进行的，这给这个行动增加了更多的神秘感。",
    "PublishTime": "12/25/201711:09:27",
    "KeyWords": "英国,航母,威尔士亲王号,"
}