{
    "PublishTime": "12/30/201714:09:00",
    "Comment": {
        "Total": 18,
        "Reply": 5,
        "Link": "http://comment.news.163.com/news2_bbs/D6TL8II800018AOQ.html",
        "Content": "不怕黑社会，就怕社会嘿 还有定性不了的黑社会？美帝太low了？ 挽尊 不怕黑社会，就怕社会嘿 还有定性不了的黑社会？美帝太low了？ 有个调用 不是超过70岁不能入刑吗？ "
    },
    "Title": "82岁纽约黑帮头目终入狱 曾犯美国史上最大窃案_网易新闻",
    "Source": "Netease",
    "KeyWords": "纽约,黑帮,美国,违法犯罪",
    "URL": "http://news.163.com/17/1230/14/D6TL8II800018AOQ.html",
    "Article": "（原标题：82岁纽约传奇黑帮头目终入狱曾犯美国史上最大窃案）人民网讯据法新社纽约报道，当地时间28日，82岁纽约知名黑帮分子阿萨罗因纵火罪被判8年徒刑，恐在狱中度过余生。据了解，阿萨罗是纽约黑帮家族柏纳诺的领袖人物，在过去几十年间曾犯下谋杀、暴力和勒索罪，其中1978年纽约肯尼迪国际机场的保险箱盗窃案最为轰动，涉案金额为美国境内历来最高。阿萨罗在2014年被捕，但布鲁克林联邦法院陪审团在2015年认定，阿萨罗在肯尼迪机场盗窃案中无罪。不过，检方起诉阿萨罗在2012年下令对5年前挡他路的汽车进行纵火攻击。他于今年6月认罪，被判8年徒刑。布鲁克林代理联邦检察官罗德表示，这次判决，不只是针对阿萨罗的汽车纵火案，同时也是针对他一生的暴力犯罪行为。本文来源：人民网责任编辑：张宪超_NN9310"
}