{
    "URL": "http://ent.163.com/17/1228/19/D6P2H5IN00038FO9.html",
    "Comment": {
        "Reply": 24,
        "Content": "我又想起了女警服的照片了 可能素颜，但1000级美颜 好妈妈军团牛批 神烦现在的自拍美颜相机，都拿来自欺欺人罢了，拍出来都是一个调调。喜欢老照片那种质感，摄影师在暗室里冲印的照片，特别真实，特别有味道。怀念。 好母亲。 陈老师拍的警察制服最好看 希望柏芝越来越漂亮。 依旧是我心中的女神 柏芝就是美 水军真不要脸，一边骂马蓉一边赞张柏芝 看过陈大师拍的照片后，再看她其他照片已经无感。。。。。。 看那些高清达人秀，她参加的，真人真心老了好多，面上打了好多玻尿酸好僵硬，还好没拍电影。照片拍出来都是美的。真人不是那么回事 支持支持。 真牛逼，你这一小时回帖超过200了吧，看你一共就4个小时，回帖可能得有1000了 张柏芝适合清淡妆，街拍的照片也很漂亮 我又想起了女警服的照片了 可能素颜，但1000级美颜 好妈妈军团牛批 戴安娜，邓文迪,张柏芝都是婚内出轨,也不过是分手了事.非欲致老婆孩子于死地,唯王八强这种缺教少养的下三烂才干得出！更恶劣的是，自王八强始，一撮渣男争相比无耻，比无底线，把中国渣男有钱无德的丑陋暴露在全世界面前。 看那些高清达人秀，她参加的，真人真心老了好多，面上打了好多玻尿酸好僵硬，还好没拍电影。照片拍出来都是美的。真人不是那么回事 依旧是我心中的女神 加油 羡慕明星的生活 看过陈大师拍的照片后，再看她其他照片已经无感。。。。。。 metoo 呵呵 陈老师拍的警察制服最好看 神烦现在的自拍美颜相机，都拿来自欺欺人罢了，拍出来都是一个调调。喜欢老照片那种质感，摄影师在暗室里冲印的照片，特别真实，特别有味道。怀念。 双下巴加法令纹 好母亲。 最近是不是充值有点少吧，怎么这么点水军 身材和脸蛋都辣么好太太羡慕嫉妒哦 希望柏芝越来越漂亮。 都是当世潘金莲，命运何如地与天，圣女还是千夫指，全赖投胎在哪边。 柏芝就是美 水军真不要脸，一边骂马蓉一边赞张柏芝 支持支持。 真牛逼，你这一小时回帖超过200了吧，看你一共就4个小时，回帖可能得有1000了 张柏芝适合清淡妆，街拍的照片也很漂亮 ",
        "Total": 223,
        "Link": "http://comment.ent.163.com/ent2_bbs/D6P2H5IN00038FO9.html"
    },
    "Title": "张柏芝晒素颜自拍照 可爱抿嘴皮肤很水嫩_网易娱乐",
    "Source": "Netease",
    "KeyWords": "张柏芝,素颜,可爱,脸蛋",
    "PublishTime": "12/28/201719:29:30",
    "Article": "网易娱乐12月28日报道28日，张柏芝在社交媒体上晒出了自己的的素颜自拍照，并配文：“北京好冷啊。”照片中，张柏芝轻抿嘴唇，脸色红润，看起来心情非常不错。随后，网友纷纷留言：“美丽‘冻’人”、“好有气质的脸蛋”。本文来源：网易娱乐责任编辑：陈恺_NK4686"
}