{
    "Source": "Netease",
    "KeyWords": "火灾,佛系,厂房",
    "Title": "佛系\"二师兄\"在火中静静用餐：世界大乱也与我无关_网易新闻",
    "PublishTime": "12/25/201717:33:21",
    "URL": "http://news.163.com/17/1225/17/D6H4MB980001899N.html",
    "Article": "#endText.video-infoa{text-decoration:none;color:#000;}#endText.video-infoa:hover{color:#d34747;}#endText.video-listli{overflow:hidden;float:left;list-style:none;width:132px;height:118px;position:relative;margin:8px3px0px0px;}#entText.video-lista,#endText.video-lista:visited{text-decoration:none;color:#fff;}#endText.video-list.overlay{text-align:left;padding:0px6px;background-color:#313131;font-size:12px;width:120px;position:absolute;bottom:0px;left:0px;height:26px;line-height:26px;overflow:hidden;color:#fff;}#endText.video-list.on{border-bottom:8pxsolid#c4282b;}#endText.video-list.play{width:20px;height:20px;background:url(http://img1.cache.netease.com/video/img14/zhuzhan/play.png);position:absolute;right:12px;top:62px;opacity:0.7;color:#fff;filter:alpha(opacity=70);_background:none;_filter:progid:DXImageTransform.Microsoft.AlphaImageLoader(src=\"http://img1.cache.netease.com/video/img14/zhuzhan/play.png\");}#endText.video-lista:hover.play{opacity:1;filter:alpha(opacity=100);_filter:progid:DXImageTransform.Microsoft.AlphaImageLoader(src=\"http://img1.cache.netease.com/video/img14/zhuzhan/play.png\");}if(/(iPhone|iPad|iPod|Android|NETEASEBOBO|blackberry|bb\\d+)/ig.test(navigator.userAgent)||/safari|chrome|firefox/i.test(navigator.userAgent)&&navigator.plugins&&!navigator.plugins[\"ShockwaveFlash\"]){varstr1='<videocontrols=\"controls\"preload=\"auto\"width=\"100%\"poster=\"http://vimg3.ws.126.net/image/snapshot/2017/12/K/O/VU5JAA3KO.jpg\"style=\"max-height:100%\">';varstr2='<sourcetype=\"video/mp4\"src=\"http://flv.bn.netease.com/videolib3/1712/25/lKBAU3633/SD/lKBAU3633-mobile.mp4\">您的浏览器暂时无法播放此视频.</video>';document.getElementById(\"FPlayer1404863609673\").parentNode.innerHTML=str1+str2;}史上最淡定！“佛系”二师兄火中静静用餐：世界大乱，与我无关（来源：original）window.NTES&&function(d){varf=function(c){varb=c.getAttribute(\"flashvars\"),a=c.getAttribute(\"repovideourl\").replace(\".flv\",\"-mobile.mp4\");h=d(c.parentNode.parentNode.parentNode),g='<embedsrc=\"http://v.163.com/swf/video/NetEaseFlvPlayerV3.swf\"flashvars=\"'+b+'\"allowfullscreen=\"true\"allowscriptaccess=\"always\"quality=\"high\"wmode=\"opaque\"width=\"100%\"height=\"100%\"type=\"application/x-shockwave-flash\"/>';if(/(iPhone|iPad|iPod|Android|NETEASEBOBO|blackberry|bb\\d+)/ig.test(navigator.userAgent)){g='<videocontrols=\"controls\"preload=\"auto\"width=\"100%\"height=\"100%\"><sourcetype=\"video/mp4\"src=\"'+a+'\">您的浏览器暂时无法播放此视频.</video>';}h.$(\".video\")[0].innerHTML=g;},e=function(b){vara=d(b.parentNode.parentNode.parentNode);a.$(\"li\").removeCss(\"on\"),b.addCss(\"on\"),a.$(\".video-title\")[0].innerHTML=\"string\"==typeofb.textContent?b.textContent:b.innerText,a.$(\".video-title\")[0].setAttribute(\"href\",b.getAttribute(\"url\")),a.$(\".video-from\")[0].innerHTML=\"（来源：\"+b.getAttribute(\"source\")+\"）\",f(b);};window.continuePlay=function(){vara,b=d(d(\".video-list.on\")[0].nextSibling);3==b.nodeType&&(b=d(b.nextSibling));if(b&&d(\".video-innerinput\")[0].checked){e(b);}},function(){vara={init:function(){if(d(\".video-listli\")[0]){d(d(\".video-listli\")[0]).addCss(\"on\"),this.eventBind();}},eventBind:function(){d(\".video-listli\").addEvent(\"click\",function(b){e(d(this)),b.preventDefault();});}};a.init();}();}(NTES);【史上最淡定！“佛系”二师兄火中静静用餐：世界大乱，与我无关】12月24日，江苏宝应一养猪厂突然着起大火，厂房内一片火光，浓烟滚滚，整个厂房都被烧焦了。但一只二师兄静静站在火场里，始终淡定吃着饲料，任由周围大火蔓延，岿然不动，十分佛系。本文来源：梨视频责任编辑：徐萌_NN7485",
    "Comment": {
        "Content": "是不是要包装成明星猪圈起收费啊 的确需要这种安静. 真讽刺[大笑] 边吃边踢腿:真他妈烫脚啊 这叫临危不乱，刨食静观风火连天 这是在讽刺领导吗？ 差不多 小猪🐷好可爱呦！好想亲亲抱抱😘 领导就喜欢这样的猪，别管猪圈怎么乱，安心的吃你的猪食。 猪🐷：🐷生自古谁无死，早死晚死都得死，还不如做个饱死鬼。 大火烧于前而面不改色！ 这头猪就像中国人，除了吃饭睡觉啥都不关心 吃得肥自然有吃得肥的道理 养得连野外生存的警惕性都没了。 大宝应出名了，哈哈 这吃相和我国有关部门的公务员一样一样的 大火烧于前而面不改色！ 民以食为天很正常 真讽刺[大笑] 给你第一百个赞 死也要做个饱死猪🐷 人家定心足[大笑] 这叫临危不乱，刨食静观风火连天 你是猪吗？ 差不多 这么淡定的猪，一定很好吃！！！ 这叫临危不乱，刨食静观风火连天 边吃边踢腿:真他妈烫脚啊 吃得肥自然有吃得肥的道理 人家定心足 这货叫朱钧衡吧？ 是不是要包装成明星猪圈起收费啊 的确需要这种安静. 做饱鬼 大宝应出名了，哈哈 这是在讽刺领导吗？ 猪就是猪，没有什么！ 领导就喜欢这样的猪，别管猪圈怎么乱，安心的吃你的猪食。 吃相有点像我们村长 猪🐷：🐷生自古谁无死，早死晚死都得死，还不如做个饱死鬼。 这头猪就像中国人，除了吃饭睡觉啥都不关心 还特么是个老母猪 养得连野外生存的警惕性都没了。 小猪🐷好可爱呦！好想亲亲抱抱😘 这吃相和我国有关部门的公务员一样一样的 ",
        "Reply": 29,
        "Link": "http://comment.news.163.com/news2_bbs/D6H4MB980001899N.html",
        "Total": 863
    }
}