{
    "URL": "http://sports.163.com/17/1228/19/D6P1BN0T00058781.html",
    "Article": "网易体育12月28日报道：曼联中场、比利时悍将费莱尼在球场上的作风比较强硬，他的防守很顽强，进攻也很犀利，但多次因为恶意的犯规成为外界热议的焦点，英媒体不止一次称他是恶汉、球场杀手。对于这些，费莱尼一脸委屈：英国人故意黑我，我受到不公平的待遇。费莱尼和曼联的合同在明夏就到期，他还没有和球队续约，这意味着他在当地时间下周一就可以和海外俱乐部谈判，曼联无权干涉。费莱尼很可能离开曼联，因为他觉得自己在英国被妖魔化了，他感受不到快乐。英媒体多次批评费莱尼的动作粗野，但实际上他职业生涯只有3次被红牌罚下。费莱尼感到很无奈：“他们给我贴上了恶棍和杀手的标签。但是，我不是这样的。我有时候是会很激动，但这是球队要我这么做的。”“我就不理解了，怎么会有那么多关于我的负面新闻。试问，当有人揪你头发的时候，你该怎么办？这看上去是个笑话，但它总是在发生，这让我很受伤。上赛季，我在对阵曼城的时候用头撞了阿圭罗，但实际上是他自己故意向我走来的，然后他就倒在地上了。再然后，我就被红牌罚下了，接着又是禁赛的处罚。”费莱尼强调：“你们知道我上赛季一共拿了几张黄牌吗？45场比赛，只有4张。我的防守从来不会去故意踢人，更不会去危害别人的职业生涯。”除了感觉被冤枉，费莱尼还认为自己得到了英足总的不公平待遇。本赛季曼联对阵南安普敦的比赛中，费莱尼曾遭到肖恩-朗凶狠的犯规。“你知道我当时有多幸运吗？他的那个动作完全可以让我断腿。如果没有护膝，我就得在病床上躺六个月。如果是我这么犯规的话，那肯定会被禁赛三场，也可能是五场，这点我可以向你保证。但是，他只得到了一张黄牌，然后做了个道歉的样子，就这样，没其他了。”习惯了这些质疑后，费莱尼已经无所谓了。“我已经不需要再证明自己，无论是在英格兰还是比利时。也许依然会有批评，但这不会影响到我。我为什么要对那些所谓的名宿的批评上心呢？他们都是老古董了，现在的足球世界充满虚伪。”是否会与曼联续约？费莱尼回应道：“我已经和穆里尼奥谈过了。曼联也许会有新的报价，我不知道我是否会接受他们的续约要求。”《每日电讯报》的最新消息称费莱尼近日又拒绝了曼联提供的周薪15万镑的续约合同。本文来源：网易体育作者：风过乡责任编辑：朱楷正_NS4807",
    "Source": "Netease",
    "PublishTime": "12/28/201719:09:03",
    "KeyWords": "曼联,妖魔化,费莱尼,红牌",
    "Comment": {
        "Content": "中超跟英超能比嘛，五大联赛除了曼联谁愿意给十五万镑，经纪人想多揩点油 “我有时候是会很激动，但这是球队要我这么做的。”----这句话暴露了很多东西！ 蓬蓬头的头球确实具有统治力 如果蓬蓬头不能留下，只能说可惜，人各有志，要走的话，祝福。 现在的足球世界充满虚伪。——最讨厌假摔的 鸟屎不是吹费莱尼愿意为穆鸟断腿吗？ 祝你全家早日火葬场 来中超，是可以赚钱，但说实话，职业生涯基本也就结束了！而且层次感瞬间low了一大截！上不了台面！也别扯保利尼奥，暴力鸟确实是个奇葩，低开高走！ 如果弗兰尼在曼联有地位，我只觉得曼联现在悲哀 这也争？用蓬蓬头最牛掰的是在埃弗顿的千古奇冤。埃弗顿时大杀四方。曼联放走他对双方都应该是好事。确实不适合，一直不能持续表现 曼联其实需要他，马蒂奇不能打满所有比赛。球员间的轮换是必然的。不过费莱尼要更多的出场时间也不现实，毕竟曼联现在缺的是中前场的创造力。 留与不留，曼联都会记住你的贡献！ 除了曼联还真没几家俱乐部愿意给那么多，而且年龄也不小了，那么高价格买去踢中锋吗 也被网易妖魔化了，妈的一直发这张照片 这配图可以的 不快乐，20又如何 上赛季曼城是夺了几冠？你们这些傻逼怎么这么惹人烦？ 鸟屎还到处把曼联说的跟保级队一样，吹只有他鸟带来上赛季第6，三个垃圾杯被吹成世界杯，这赛季拿不到准备四大皆空就拼命骂曼联抠门不买人，坑他鸟叔，跟穆鸟一样最不要脸群体，曼联踩到狗屎香口胶 配图好魔性 自由转会拿得更多啊哥们。 草没怎么着呢又特么着急给主子邀功鸟粪这个奇葩群体真让人受不了 表情满分 中超给20万以上，你说拒绝不，特维斯不踢都拿世界前十高薪，何况蓬蓬头还能打 哦嘈!头球居然闭眼，穆犬养不咬死你? “我有时候是会很激动，但这是球队要我这么做的。”<br>费莱尼你又黑鸟大湿，小心被当内鬼[大笑] 屁话，我不信他会蠢到拒绝15万镑的周薪……利物浦热刺阿森纳的主力中场都不一定有15万镑的周薪[狗] 明显就是分手宣言 18万没问题的，这几轮如果他在，不会丢定位球的，打曼城时也不用卢卡库去后点防定位球 你比弗莱彻差远了，赶紧走 神配图[窃笑] 惹人烦的是十五分吧哈哈哈哈鸟粪不容易顶你 曼城可能给他那么多，但曼城不会要他这个水平的球员的 当初还不是木鸟力挺 还主力球员，破厂的替补都有这个价格了！大锅饭害死人。 “我有时候是会很激动，但这是球队要我这么做的。”----这句话暴露了很多东西！ 如果蓬蓬头不能留下，只能说可惜，人各有志，要走的话，祝福。 明年31岁，也不是曾经很风光的前锋和中场，现在去其他球队应怎么给他定位？估计走不了 鸟屎不是吹费莱尼愿意为穆鸟断腿吗？ 祝你全家早日火葬场 百度(毛卑零），就明白大幂幂为什么会火，不知道被多少个名导给潜了，那里真的是黑，去瞧瞧 除了曼联还真没几家俱乐部愿意给那么多，而且年龄也不小了，那么高价格买去踢中锋吗 这配图可以的 如果弗兰尼在曼联有地位，我只觉得曼联现在悲哀 垃圾废物曼联穆鸟🐦都是垃圾废物曼联 上赛季曼城是夺了几冠？你们这些傻逼怎么这么惹人烦？ 费来尼说的应该是实情，这家伙在太妃糖时踢得可不脏。 神配图[窃笑] 你全家早已火葬场 哦嘈!头球居然闭眼，穆犬养不咬死你? 明显就是分手宣言 费莱尼：开个价吧这照片我回收了 值20万 不管留与不留，都祝福你 喷人都不能把话说利索，你有多智障 15万磅还拒绝？和大卫席尔瓦一样的工资，艹，曼联老板够大方了吧！其他队不可能给你这个工资的。 惹人烦的是十五分吧哈哈哈哈鸟粪不容易顶你 当初还不是木鸟力挺 说的好啊 蓬蓬头的头球确实具有统治力 有个性哈，说得好，就一英糙，还很虚伪。 现在的足球世界充满虚伪。——最讨厌假摔的 说的好像他现在在曼联是首发一样，踢不上主力他肯定来中超的，权健都开到30万磅周薪了，是你你怎么选？ 蓬蓬头是没踢过中锋还是怎么的？ 你比弗莱彻差远了，赶紧走 曼联其实需要他，马蒂奇不能打满所有比赛。球员间的轮换是必然的。不过费莱尼要更多的出场时间也不现实，毕竟曼联现在缺的是中前场的创造力。 也被网易妖魔化了，妈的一直发这张照片 这图，我喷出来了[微笑][微笑] 15万磅还拒绝？和大卫席尔瓦一样的工资，艹，曼联老板够大方了吧！其他队不可能给你这个工资的。 曼联的压力 自由转会拿得更多啊哥们。 可以理解，为了钱。走好，双赢 有人故意破坏我发型，我能不激动吗？ 草没怎么着呢又特么着急给主子邀功鸟粪这个奇葩群体真让人受不了 15万磅还拒绝？和大卫席尔瓦一样的工资，艹，曼联老板够大方了吧！其他队不可能给你这个工资的。 曼城可能给他那么多，但曼城不会要他这个水平的球员的 别走啊，下场对曼城利物浦上三后腰，你肯定能首发 “我有时候是会很激动，但这是球队要我这么做的。”<br>费莱尼你又黑鸟大湿，小心被当内鬼[大笑] 屁话，我不信他会蠢到拒绝15万镑的周薪……利物浦热刺阿森纳的主力中场都不一定有15万镑的周薪[狗] 妖魔化妖魔化 拿他跟拉莫斯比简直就是天使 呵呵呵 …… 感觉角球任意球只有费莱尼才争得到点！我就郁闷了曼联一堆大个子！一场十几个角球！就是争不到球 百度(毛卑零），就明白大幂幂为什么会火，不知道被多少个名导给潜了，那里真的是黑，去瞧瞧 老实说费莱尼走对曼联是好事曼联要想复兴不可以留费莱尼 配图好魔性 表情满分 如果蓬蓬头不能留下，只能说可惜，人各有志，要走的话，祝福。 不快乐，20又如何 屁话，我不信他会蠢到拒绝15万镑的周薪……利物浦热刺阿森纳的主力中场都不一定有15万镑的周薪[狗] 百度(毛卑零），就明白大幂幂为什么会火，不知道被多少个名导给潜了，那里真的是黑，去瞧瞧 留与不留，曼联都会记住你的贡献！ ",
        "Total": 803,
        "Link": "http://comment.sports.163.com/sports2_bbs/D6P1BN0T00058781.html",
        "Reply": 64
    },
    "Title": "曼联硬汉再拒15万镑周薪续约 诉苦被英媒妖魔化_网易体育"
}