{
    "URL": "http://news.163.com/17/1228/17/D6OTABPG0001899N.html",
    "Article": "（原标题：省管干部投资“分红”1000万此前常委公示没过关）十九大后，国家监察体制改革试点在全国各地推开。小伙伴们应该都知道，从去年开始，北京、山西、浙江3省市设立各级监察委员会，从体制机制、制度建设上先行先试、探索实践，为在全国推开积累经验。12月28日，《中国纪检监察报》披露了浙江省监委的首例留置案——台州市原副市长陈才杰一案。陈才杰也因此成为试点工作开展以来，浙江省查处的首位省管干部。陈才杰（资料图）陈是浙江本土干部，团干部出身。历任浙江临海市委副书记，路桥区委副书记、区长，台州市政府秘书长等职务。2015年出任台州副市长，此时的陈还不满42岁。“政坛潜力股”是台州一船厂负责人王某对陈的评价。2009年开始，陈才杰向王某“借款”，并通过其胞弟陈才强投资入股王某的船厂，这次投资让陈才杰获得了高达1000万元的“分红”。明知“分红”有问题的陈，贪欲作祟，沿着王某设计好的路越走越远。2014年8月，国家审计署对浙江土地使用进行审计，王某通过陈才杰低价获得的多个项目也在其中。时任台州市政府秘书长的陈利用负责与审计组联络的机会，借机紧盯审计组的一举一动。也正是那段时间，陈、王二人决定将1000万元“分红”统一口径说成是“借款”，并以虚假还款形式“退赃”。2015年，王某因经济犯罪被立案调查。得知消息后，陈猛然惊醒，立即折价出售房产、退出参股公司等，共计退赃1400余万元，企图划清界限。但为时已晚！今年4月，台州市第五届人民代表大会第一次会议闭幕后，浙江省纪委将陈带走，并于4月2日采取留置措施，陈才杰主动交代了问题。长安街知事发现，陈才杰的问题早就已经暴露。去年4月，浙江省委组织部发布的“拟提拔任用省管领导干部任前公示通告”中显示，台州市副市长陈才杰拟任台州市委常委。但公示结束后，陈也未能如愿成为常委。11月8日，浙江省湖州市中级人民法院判处陈才杰有期徒刑5年，追缴其所得赃款。陈也在法庭上流下了悔恨的泪水。台州处于长三角经济圈辐射区内，经济氛围浓厚。陈才杰看到企业家优越的物质生活，萌生了赚钱念头。就如陈自己所说，“说心里话，一方面想干事，一方面也想赚钱。”正是这种“既想当官、又想发财”的念头，让一批批官员走向了堕落的深渊。陈才杰的问题被发现在副市长任上，很难想象，如果他主政一方，会给党和国家带来多么大的损失！本文来源：长安街知事责任编辑：张海桐_NN9053",
    "Source": "Netease",
    "PublishTime": "12/28/201717:58:24",
    "KeyWords": "长三角,常委,副市长",
    "Comment": {
        "Content": "可惜了 见怪不怪了 跟俺村差不多，儿子官二代， 1千万这也太少了吧！我们村书记儿子！至少5000千一年！村里的厂房！土地都承包给他家了！ 支持严查 当管不发财，请我都不来。 可惜了 见怪不怪了 跟俺村差不多，儿子官二代， 1千万这也太少了吧！我们村书记儿子！至少5000千一年！村里的厂房！土地都承包给他家了！ 支持严查 当管不发财，请我都不来。 ",
        "Total": 308,
        "Link": "http://comment.news.163.com/news2_bbs/D6OTABPG0001899N.html",
        "Reply": 6
    },
    "Title": "省管干部投资“分红”1000万 此前常委公示没过关_网易新闻"
}