{
    "Comment": {
        "Link": "http://comment.war.163.com/news_junshi_bbs/D6ISV0QO000181KT.html",
        "Reply": 84,
        "Content": "来自输萎艾滋病国 这张牌跟与不跟，美国都是稳赢不输，跟了会被拖死，而且还没有那个技术底子，变成了只烧钱不出成果的死循环，不跟的话，美国也不会停下脚步，整体优势会进一步扩大。现在特朗普就是在效仿和重复里根的做法和策略，对手没得选择。 别活在自己的世界里意淫了，美国的GMD战略中段反导系统经20年研发已完全成熟，中间试验无论成功失败都底气十足地向全世界公布。现在完成第一阶段部署44枚，这个数量是美俄战略反导协议限制的。中国，先琢磨下爱国者这种最低端的点末端反导怎么弄吧，别一天弄几个自媒体放俩PS图忽悠。 被一个萨德吓出💩了，还嘴硬😅 被一个萨德吓出💩了，还嘴硬😅 被一个萨德吓出💩了，还嘴硬😅 这套路都用了半个世纪了；自家没有的好东西首先按住不让你知道，怕在家里丢脸按不住了就黑人家是臆想人家真做了就黑人家质量有问题质量证明好了就黑人家垄断霸道自己暗地里却绞尽脑汁偷资料山寨山寨出来了次品货，就说自主创新，独一无二，超越接着就吓尿，震惊，哭了，愣了... 那个国家不交税？ 环球时报特约记者吴大愚魏云峰 搜刮全世界的资源为己所用，然后整天担惊受怕，你何必呢 难怪美帝7000亿军费这么高~~~ 前几天也门向沙特王宫发射中程导弹，沙特动用了最先进的爱国者3拦截，只用了一枚爱国者3就击落了导弹，以前用爱国者2一般都要发射5枚拦截，就可知道反导技术的进步有多大了 自从美国反导系统出现后，中俄之前数以千计固定轨道导弹全废了，这就是美国反导系统的作用。 还是关心下政治好，别以为和你没关系，哪项措施与你无关系？ 川普是和里根同样的伟大总统 劳资就想知道如果把美国换成俄罗斯，环球这位名嘴有会怎么说？^▽^ 矛尖盾固刀锋铠固可攻可防攻防兼备来去随意进退自如...深思熟虑未雨绸缪标新立异开拓进取洞察于萌芽防患于未然...这样的国家有谁可以比肩？有谁可以齐眉？有谁可以比拟？有谁可以匹敌？有谁可以肖似？有谁可以相仿？有谁可以撼动？有谁可以代替？...更难能可贵的是即使是实力早已能够独霸全球独统世界轻取天下却依然义无反顾的奉行着秉承正义主持公道普世济人救苦救难童叟无欺扶弱助小上善若水嫉恶如仇...金背山姆为黑暗之处送去了阳光为野蛮之处送去了文明为愚昧之处送去了智慧为荒芜之处送去了繁荣为凄寒之处送去了温暖为闭塞之处送去了通透为干涸之处送去了甘霖为炼狱之处送去了希望...这样的国家理所当然的受到芸芸众生的啧啧赞叹注目钦佩恭首敬仰心悦诚服甘拜匣镧五体投地... 当美国竭尽全力防止核武器扩散的时候，有的国家明里暗里偏袒朝鲜，指望拿朝鲜作为一张要挟美国的牌，结果被朝鲜利用了。<br>现在美国明显后退，把自己罩起来。下一步是日本、韩国、沙特、土耳其、台湾、哈萨克斯坦发展核武器的时候了！ 既然不管用，岂不是正和你意，你担忧南韩的傻🉐️干什么？ 纳粹宣传部长戈陪尔的名言：“谎言说一万遍就是真理”楼上谎言惟妙惟肖，深得其精髓 俄罗斯专家对中国技术赞不绝口[狗] 因为他是真的怕！ 爱国者在沙特都拦截了超过百枚弹道导弹，结果土鳖媒体天天黑不可靠，还是和瞎子一样的傻逼400最好。指望它们尊重事实比如指望狗不吃屎。 别活在自己的世界里意淫了，去年还是前年维基解密里面就有美国国防部针对中国反导试验的分析和评论。中国第三次路基反导开始前一个礼拜，美国就根据自己掌握的情报给英加澳新这几个国家通报注意搜集此次中国反导各项情报。具体的试验结果是美国认为末端拦截上成功率高于美国，但现阶段只有路基。具体自己可以搜搜那篇维基 热闹不是白看的你的吃喝穿衣戴帽买房买车用油都是上了税的 臭不可闻 当初老妹弄火箭回收技术也被傻粪们说成是天方夜谭可结果人家现在已经运用自如成常态了... 看待事情不偏不倚难道不是一个新闻报告的最重要的因数？ 环球屎报 30年前海湾战争爱国者1时候拦截射程200公里的飞毛腿成功率也只有20%，现在竟然只用一枚爱国者3就把射程1400公里的中程导弹击落了，而且爱国者3还是美国反导系统中最低级的 星球大战序幕已拉开 是战略忽悠还是军备竞赛这个就交给国家去判断了，我们这些小百姓就看看热闹好了。 我知道，只有我国的反导系统才好，其他国家的都不行，这样是最和谐的语言 缺少验证？<br><br>都什么年代了，还要验证。<br>亚洲这位，模型都能打败美帝，<br>还成天计较验证验证，真落后 没有老瓦之前，一个劲的黑航母无用。有了老瓦之后，一个劲的吹航母多么牛逼。 3楼你以为你在绍兴就有资格做师爷了？ 赣狗，你亲娘又诈尸了。 环屎又大言不惭面不红心不跳地代表起美国人民，美国各界，美国专家来了，俗称“脸皮厚” 这就是地摊杂志们的低级宣传手法，半个世纪了总有大把傻吊相信那些鬼话，可悲 笑之前请先换下被萨德吓尿的裤子 那些ＳＢ尽管笑吧，今天的不完美并不能代表以后的不好，当初莱特兄弟的飞机也飞不了多高，当时笑话的人也不少吧，现在再来看呢 交，但是这个国家重复交税！交了重税而你这个傻逼不自知！区别就是这个 首先请不要被萨德吓尿 质疑有什么问题呢，质疑是人的本性<br>就像咱这里，还有人质疑自己是不是投胎投错了地方呢。 想换祖宗？ 这张牌跟与不跟，美国都是稳赢不输，跟了会被拖死，而且还没有那个技术底子，变成了只烧钱不出成果的死循环，不跟的话，美国也不会停下脚步，整体优势会进一步扩大。现在特朗普就是在效仿和重复里根的做法和策略，对手没得选择。 肯定是假? 别活在自己的世界里意淫了，美国的GMD战略中段反导系统经20年研发已完全成熟，中间试验无论成功失败都底气十足地向全世界公布。现在完成第一阶段部署44枚，这个数量是美俄战略反导协议限制的。中国，先琢磨下爱国者这种最低端的点末端反导怎么弄吧，别一天弄几个自媒体放俩PS图忽悠。 “火星-15”洲际导弹是借口，真正的目的还是俄罗斯和中国。 爱国者3装备了高精度动能弹头和180个微型轨道调节发动机，可以拦截分离弹头，拦截能力是爱国者2远远不及的 弹道导弹的拦截任务不在地球上，只等激光武器技术成熟，可以在太空大规模部署的时候，弹道导弹就完全没用了。----所以各国都在努力研制大气层内的隐身巡航导弹和超高音速导弹，隐身导弹难于被发现，自然就难于被拦截。超高音速武器，走的自然是唯快不破的路子，而且我猜测，飞行器在大气层内高超声速飞行的时候，产生的激波和空气扰动，连激光武器都会被干扰。 这套路都用了半个世纪了；自家没有的好东西首先按住不让你知道，怕在家里丢脸按不住了就黑人家是臆想人家真做了就黑人家质量有问题质量证明好了就黑人家垄断霸道自己暗地里却绞尽脑汁偷资料山寨山寨出来了次品货，就说自主创新，独一无二，超越接着就吓尿，震惊，哭了，愣了... 沙特的爱国者3还是老型号的，现在的爱国者3最新型名字叫爱国者3mse，速度6倍音速，安装了弹道调节发动机，可拦截2000公里变轨弹道导弹 一阵臭味远远飘来，原来是环球屎报之走狗报 你交税了，你知道军费开支多少么？ 楼上你严重泄密 反导系统如此烧钱，效果又如此不确定，我看中国还是应该继续研究下去，决不能放弃。 前几天也门向沙特王宫发射中程导弹，沙特动用了最先进的爱国者3拦截，只用了一枚爱国者3就击落了导弹，以前用爱国者2一般都要发射5枚拦截，就可知道反导技术的进步有多大了 自从美国反导系统出现后，中俄之前数以千计固定轨道导弹全废了，这就是美国反导系统的作用。 还是关心下政治好，别以为和你没关系，哪项措施与你无关系？ 劳资就想知道如果把美国换成俄罗斯，环球这位名嘴有会怎么说？^▽^ 我们不是没有质疑，而是不能质疑。经不起质疑的都是弱小的。 烧钱 美帝反导系统效果再差也是有效果。<br>悄悄问环球一句：我们有反导系统吗？ 既然不管用，岂不是正和你意，你担忧南韩的傻🉐️干什么？ 那些ＳＢ尽管笑吧，今天的不完美并不能代表以后的不好，当初莱特兄弟的飞机也飞不了多高，当时笑话的人也不少吧，现在再来看呢 纳粹宣传部长戈陪尔的名言：“谎言说一万遍就是真理”楼上谎言惟妙惟肖，深得其精髓 笑话新生事物，这就是弱者的标志性心态！自己没能力搞，就用耻笑来平衡自己无能的失落感！ 没有钱好办，印就是了，反正全世界的国家企业都用美元结算！！ 这就是地摊杂志们的低级宣传手法，半个世纪了总有大把傻吊相信那些鬼话，可悲 别活在自己的世界里意淫了，去年还是前年维基解密里面就有美国国防部针对中国反导试验的分析和评论。中国第三次路基反导开始前一个礼拜，美国就根据自己掌握的情报给英加澳新这几个国家通报注意搜集此次中国反导各项情报。具体的试验结果是美国认为末端拦截上成功率高于美国，但现阶段只有路基。具体自己可以搜搜那篇维基 热闹不是白看的你的吃喝穿衣戴帽买房买车用油都是上了税的 安心做好矛，让别人钝去吧！ 俄罗斯专家对中国技术赞不绝口[狗] 如同里根总统的星球大战计划，哪怕知道首次反导试验是在靶弹上装了应答器才被击毁的，苏联也要跟进。有些国家军事上失败还有民主精神支撑可以再战，而有些国家如纳粹等等之流军事上败了就什么都不剩只有被国民清算的下场。 当初老妹弄火箭回收技术也被傻粪们说成是天方夜谭可结果人家现在已经运用自如成常态了... 看待事情不偏不倚难道不是一个新闻报告的最重要的因数？ 烧钱工程缺乏实效，不清楚特朗普如何收場？ 谁知道到底有没有用，不经过实战，谁也不知道，但谁敢跟美国进行实战！反正美国人凭此绑架了很多国家。军火商也赚的盆满钵满！总统想连任，也必须讨好军火商，因为他们赞助了很多钱！ 30年前海湾战争爱国者1时候拦截射程200公里的飞毛腿成功率也只有20%，现在竟然只用一枚爱国者3就把射程1400公里的中程导弹击落了，而且爱国者3还是美国反导系统中最低级的 希望中国的砖家也应该多进谏言。 是战略忽悠还是军备竞赛这个就交给国家去判断了，我们这些小百姓就看看热闹好了。 典型的战略忽悠，空城记。 我知道，只有我国的反导系统才好，其他国家的都不行，这样是最和谐的语言 美国升级反导系统无疑是逼迫中国与俄罗斯升级本国的核战略武器系统，这个军备竞赛中国和俄罗斯不得不参与。 哈哈 淫才 没有老瓦之前，一个劲的黑航母无用。有了老瓦之后，一个劲的吹航母多么牛逼。 3楼你以为你在绍兴就有资格做师爷了？ 让中国发射导弹过去让美国拦截来实验彼此的武器吧 环屎又大言不惭面不红心不跳地代表起美国人民，美国各界，美国专家来了，俗称“脸皮厚” 笑之前请先换下被萨德吓尿的裤子 哪个傻逼会承认自己是傻逼呢？ 为了要钱是什么招都使。 交，但是这个国家重复交税！交了重税而你这个傻逼不自知！区别就是这个 这250老汉还真厉害。 怕他们浪费钱 首先请不要被萨德吓尿 质疑有什么问题呢，质疑是人的本性<br>就像咱这里，还有人质疑自己是不是投胎投错了地方呢。 想换祖宗？ 爱国者拦截飞毛腿易如反掌。 来自输萎艾滋病国 热闹不是白看的你的吃喝穿衣戴帽买房买车用油都是上了税的 这张牌跟与不跟，美国都是稳赢不输，跟了会被拖死，而且还没有那个技术底子，变成了只烧钱不出成果的死循环，不跟的话，美国也不会停下脚步，整体优势会进一步扩大。现在特朗普就是在效仿和重复里根的做法和策略，对手没得选择。 臭不可闻 信美爹不交税！ 虽然《知音》确实品味过低,不过一个企业在准备上市前遭受同行如此集中式的、一边倒的质疑,也属罕见,不知此中有无蹊跷 被一个萨德吓出💩了，还嘴硬😅 美帝要死，也是死在吹牛撒谎上。 环球屎报 烧钱？不可能滴总有傻逼帮买单滴 缺少验证？<br><br>都什么年代了，还要验证。<br>亚洲这位，模型都能打败美帝，<br>还成天计较验证验证，真落后 星球大战序幕已拉开 是战略忽悠还是军备竞赛这个就交给国家去判断了，我们这些小百姓就看看热闹好了。 环球时报特约记者吴大愚魏云峰 .................. 搜刮全世界的资源为己所用，然后整天担惊受怕，你何必呢 难怪美帝7000亿军费这么高~~~ 因为他是真的怕！ 川普是和里根同样的伟大总统 干脆打造一个王八盖子，把美国盖起来，就安全了！历史一再证明，万岁的江山不存在！ 赣狗，你亲娘又诈尸了。 当美国竭尽全力防止核武器扩散的时候，有的国家明里暗里偏袒朝鲜，指望拿朝鲜作为一张要挟美国的牌，结果被朝鲜利用了。<br>现在美国明显后退，把自己罩起来。下一步是日本、韩国、沙特、土耳其、台湾、哈萨克斯坦发展核武器的时候了！ 被一个萨德吓出💩了，还嘴硬😅 既然不管用，岂不是正和你意，你担忧南韩的傻🉐️干什么？ 快去你没爹那，那里不交税 交，但是这个国家重复交税！交了重税而你这个傻逼不自知！区别就是这个 丁教主，吹集结号吧！枉壹的喷子已经准备好了 所以美国只有不断地在世界各地引发战争，他才能保证他的军工机器不能停止工作。否则没有了战争，美国就会停摆了。 矛尖盾固刀锋铠固可攻可防攻防兼备来去随意进退自如...深思熟虑未雨绸缪标新立异开拓进取洞察于萌芽防患于未然...这样的国家有谁可以比肩？有谁可以齐眉？有谁可以比拟？有谁可以匹敌？有谁可以肖似？有谁可以相仿？有谁可以撼动？有谁可以代替？...更难能可贵的是即使是实力早已能够独霸全球独统世界轻取天下却依然义无反顾的奉行着秉承正义主持公道普世济人救苦救难童叟无欺扶弱助小上善若水嫉恶如仇...金背山姆为黑暗之处送去了阳光为野蛮之处送去了文明为愚昧之处送去了智慧为荒芜之处送去了繁荣为凄寒之处送去了温暖为闭塞之处送去了通透为干涸之处送去了甘霖为炼狱之处送去了希望...这样的国家理所当然的受到芸芸众生的啧啧赞叹注目钦佩恭首敬仰心悦诚服甘拜匣镧五体投地... 效果怎么样也不是你担忧的！你着急什么？！屎报！你知道这样要下地狱的不？！ 被一个萨德吓出💩了，还嘴硬😅 ",
        "Total": 1593
    },
    "Article": "【环球网军事12月26日报道环球时报特约记者吴大愚魏云峰】以“不断增长的战略核导弹威胁”为借口，美国政府再次投入巨资打造国家导弹防御系统“升级版”。从全球最先进的陆基中段反导系统、太空监视卫星网络，到新概念的超高速炮弹拦截系统，美国这一轮超级反导热潮堪称超级“烧钱工程”。但美国国内对此却充满怨言——大都不看好它的实战效果。超级“烧钱工程”上马美国《洛杉矶时报》网站24日称，在美国总统特朗普签署的国防授权法案中，将对备受争议的国家导弹防御系统进行全面升级，包括在中西部或东海岸建造新的陆基中段拦截导弹发射井。每套新型拦截系统将部署一枚重新设计的外大气层“拦截杀伤器”。它们可以在外大气层以每秒6.4公里的高速直接撞击拦截目标。在太空失重状态下，杀伤器的飞行速度比地球上的超速子弹还要快得多。据悉，特朗普的“超级反导系统”计划还将要建造两部均价10亿美元的S波段雷达装置，以及在阿拉斯加的格利空军基地和加利福尼亚的范登堡空军基地增加部署20套反导拦截系统。美国的国家导弹防御系统过去已经花费400亿美元，根据特朗普的新计划，未来五年美国还要再花费102亿美元。美国政府将在明年初完成“弹道导弹防御评估”后，公布升级版反导系统的更多细节和预期成本。报道称，为实现准确拦截来袭导弹，五角大楼还在推进天基反导传感器系统。美国计划发射的新型跟踪卫星，可确保拦截系统的杀伤器能及时发现、撞击和摧毁外大气层的敌方弹道导弹。专家估计，至少需要部署24颗该型卫星，新增数百亿美元费用，才能为反导系统提供持续的监视和跟踪能力。加快反导部署进度《洛杉矶时报》称，由于“火星-15”洲际导弹已经威胁美国本土，美国加快了新型反导系统的部署进度。按照特朗普的计划，新反导雷达将在2020年投入使用，而第一枚重新设计的“拦截杀伤器”将在2021年底部署安装到位。全部相关系统则将在2023年底前部署完毕。按照美国官方的说法，国家导弹防御系统主要用于追踪和摧毁朝鲜、伊朗或其他非超级大国有限数量的弹道导弹。可五角大楼报告承认，即便在测试中，该系统的拦截成功率也仅有50%，通常需要4-5枚拦截导弹才能确保摧毁1枚来袭导弹，这样朝鲜等潜在对手只需要十几枚洲际导弹就能对美国构成压倒性优势。因此新版反导系统首先需要增加部署拦截系统，补齐拦截导弹的数量差距。但俄罗斯一直旗帜鲜明地反对美国反导系统。俄罗斯卫星网称，俄罗斯国防部进行的电脑模拟结果证实，美国的反导系统是针对俄罗斯和中国的。除了这些“烧钱工程”，五角大楼还推出“价格便宜”的新型精确制导炮弹执行常规反导任务。美国《国家利益》网站称，新型超高速炮弹长约两英尺，飞行速度可达每小时5000英里。曾出任美国副防长的鲍勃·沃克表示：“现在我们是利用价值1400万美元的拦截导弹对付5万美元的弹道导弹，这样没有意义。”他强调说，新的超高速炮弹理论上可以用美军的大口径火炮发射，这意味着美国陆军155毫米榴弹炮和美国海军127毫米舰炮都可以承担拦截敌人战术弹道导弹的任务，这两类火炮在美军中广泛装备，几乎相当于遍布全球的美军都具备这样的“廉价”反导能力。美国反导的三大缺陷美国各界对特朗普的超级反导系统也并不买账。他们认为，这些反导系统并不可靠，不可能保护美国免受弹道导弹攻击。首先是拦截技术存在先天短板。尽管美国导弹防御局的官员宣称，新的杀伤器将比以前的版本更可靠，但专家仍对此持怀疑态度。美国政府项目问责办公室发布报告称，目前无法确定，测试中被反导拦截系统摧毁的到底是敌方弹头，还是诱饵弹头或导弹发动机残骸。负责武器测试和评估的五角大楼导弹防御专家菲利普·科伊尔强调，“不希望把反导弹药浪费在没有价值的导弹发动机残骸等目标上，而需要拦截导弹命中正确目标。”其次是反导雷达型号选择失误。美军计划在阿拉斯加和夏威夷安装两部新型S波段反导雷达，但美国专家表示，五角大楼应该使用性能更强大的X波段雷达，而不该为省钱选择S波段雷达。美国国家科学院雷达工程师戴维·巴顿说，X波段雷达能更好地识别潜在目标的细节，分辨率是S波段雷达的3倍。最后是整套系统未经足够试验验证。按照美国导弹防御局计划，未来将只进行一次新型拦截导弹试验，就开始部署美国超级反导系统，而阿拉斯加的新型S波段雷达干脆“先上车再买票”，部署到位后再进行测试。美国航天专家戴维德·蒙塔古认为，不经过足够的试验，就没有办法证明美国导弹防御系统新设计的合理性，更不能验证其实战拦截的可靠性。奥巴马时代投入2.31亿美元开发“天基精密跟踪系统”，却一直没有投入部署。现在超级反导系统的新型天基卫星跟踪系统，外界也不清楚是如何运作的。五角大楼的仓促部署决定，将使反导系统“面临存在未知性和不可弥补性能力差距的风险”。本文来源：环球时报-环球网。更多精彩，请登录环球网http://www.huanqiu.com责任编辑：马超_NBJ9865",
    "PublishTime": "12/26/201709:56:46",
    "URL": "http://war.163.com/17/1226/09/D6ISV0QO000181KT.html",
    "Title": "美国超级反导计划遭质疑 缺验证引实战效果担忧 _网易军事",
    "KeyWords": "美国,反导,导弹,反导系统",
    "Source": "Netease"
}