{
    "Article": "多妹网易娱乐1月4日报道孙莉通过微博晒多妹观看演出的照片，并透露称：“看完演出小孩跟我说，妈妈我好想上台抱抱所有的人。”照片中，多妹大大的眼睛紧盯着前方的舞台，认真、专注劲儿十分的可爱呆萌，此微博曝光后，惹得众网友纷纷围观并留言称：“多情善感的妹妹人儿！”“我以为妹妹人儿会说：妈妈，我必须吃一个棒棒糖了呢！”“太可爱了，善良的宝宝！”本文来源：网易娱乐责任编辑：张楠_NK4501",
    "URL": "http://ent.163.com/18/0104/05/D79I6V8R00038FO9.html",
    "KeyWords": "演员,孙莉,多妹,可爱",
    "PublishTime": "01/04/201805:11:24",
    "Title": "善良的宝宝！多妹看完演出称想上台拥抱所有演员_网易娱乐",
    "Comment": {
        "Content": "每个孩子都是天使👼 孩子说什么了，还不是你们说了算？🤣 棒棒哒🎉🎉🎈🎈🎉🎉 。滚吧，谁想跟你报。用孩子蹭热度的父母都是傻逼。 以前郑元畅贺军翔吴尊那一波都挺拿得出手的,现在完了 别人家的孩子 每个孩子都是天使👼 。滚吧，谁想跟你报。用孩子蹭热度的父母都是傻逼。 孩子说什么了，还不是你们说了算？🤣 棒棒哒🎉🎉🎈🎈🎉🎉 ",
        "Link": "http://comment.ent.163.com/ent2_bbs/D79I6V8R00038FO9.html",
        "Total": 51,
        "Reply": 6
    },
    "Source": "Netease"
}