{
    "URL": "http://ent.163.com/17/1228/08/D6NTLFEI00038FO9.html",
    "Comment": {
        "Reply": 66,
        "Content": "不科学啊，我都系好安全带了，竟然没漂移！尼玛 我想要林志玲陪我！ 你妹的，，每隔几天就炒一次，你烦不烦 有些人太低调了，言承旭多少年没见了，这么好的捞金时代不出来，过自己的平稳生活…… 麻蛋的！最讨厌这些做作的人，都已经很明显说你们复合，还爹声爹气，恶不恶心啊 跟贴被火星网友带走啦~ “姨妈”又来了 结婚结婚早点迎娶你女友林志玲她进门吧，早日步入婚姻殿堂呗！言承旭哈哈 这一对是真的有点烦了，要分就分要和就和，都什么年级了自己心里没点数么，还当自己20来岁的少男少女呢？ 裝瘋賣傻，露腿漏胸。 这一对都40多岁了，赶紧地复合吧，结婚吧，都成高龄产妇了。 她是城市的白领，他是城市的搬运工人。高中毕业后，二个人划着不同的青春轨迹，可是他们依然保持着恋人的关系，仅仅是保持.<br>白天，她在公司里喝正宗的雀巢咖啡下班后，她吃他买来廉价的冰棒中午，她品味着公司里精致的饭菜晚上，他带她去脏兮兮的饭馆吃并不正宗的兰州拉面<br>她一直认为，这样的恋情从开始的那一天，便仿佛注定了某一种结局！他每天去接她，然后送她到所居住的公寓电梯口轻声道了晚安便匆匆离去<br>那天她突然想撤娇，便对他说：背我上去吧！他看了看电梯，电梯运转良好，然后他回头，说了声好没问任何理由，他背着她，爬到一半他累了问她：休息一下好不好？<br>她突然来了兴致，娇嗔着说不行他就真的没有休息，一直爬到她所居住的13楼，她问他累不累？他说累！比搬运家具还累，累！她知道他说的是真的，她有了一丝感动！但他们还是分手了！因为有时候，仅有感动，并不能够将爱情维持！爱情的本身，除了感动，好像还有太多的琐碎事！<br>城市里并不缺一个搬运工人，所以他回到乡下他偶尔会打电话给她，告诉她他现在种着一些农作物赚了一点钱..她听着，淡淡的<br>那时她已有了新的男友门当户对的，可以充门面，协调生活的那种然后某一天，有一次他打来电话，说他存够了五千元这些钱可以在乡下娶老婆了<br>她发现突然间，自己的眼角竟有些湿润……她新交的男友也是每天接她下班送她到电梯口，很绅士地道一声晚安，然后离去<br>某一天她说：背我上去吧！男友说了声：好！那时电梯停在一楼男友背起她,飞快地冲进电梯她伏在男友的背上,与电梯一起爬升<br>心却在飞快的下沉……<br>男友笑着，好像对自己这个小伎俩很是满意.那天，她没有接受男友照例的吻别.隔天，她打了通电话给他，问他那五千块钱花出去了吗？然后她便发现自己泪流满面，因为他已花出去了！<br>扔掉电话那一刻，她觉得自己正在失去整个世界。几天后她在电梯口看到他，他的手里拿着一枚戒指扬了扬，说：五千块钱！她开心的哭得一塌糊涂说：背我上去？他说：好。然后背着她一步一步爬着楼梯.途中他累了問给不给休息她说：不行、不行。于是他就沉默着,一直爬到了13楼这时她想，如果一个男人肯背着一个女人爬最漫长的楼梯，不问理由。那么，这个女人，还有什么理由拒绝他呢 志玲应该不会这么没眼光吧！ 就是因为岁数大了所以会谨慎啊，你当是小青年打一炮的事么？ 加油志玲姐姐，别怕娶了他 她跨年上去干嘛？唱歌又不会唱 不是拒绝，是没人邀请了吧，快过气了，也是有学问的才女一名，除了在镜头前工作，就不能干点别的吗…… 41岁。还是小时候看他流星花园。 扑朔迷离 一辈子难得有情人愿志玲，承旭幸福。 我说他俩没上过床你们信吗 言承旭成了背后的男人 这老女人 要复合就赶紧复合吧。这新闻都快成月经贴了。 打炮要紧啊[大笑] 林志玲好像也不差钱吧，人家现在生活重点是结婚生子不是急着赚钱 不接少赚几百万了 学生：老师，您教的都是一些没用的东西，<br><br>老师：我不许侣们这样说记己。 一个从红混到三线不到，一个是出了名的交际花。。。同病相怜吧 F4成员的。 祝福两个人都很喜欢 不科学啊，我都系好安全带了，竟然没漂移！尼玛 挺好的 有些人太低调了，言承旭多少年没见了，这么好的捞金时代不出来，过自己的平稳生活…… 就是因为岁数大了所以会谨慎啊，你当是小青年打一炮的事么？ 志玲姐姐好美丽 林志玲。哼哼哼。 到底嫁不嫁的出去啊，天天说 这老女人 庆生日！ 那句7 ... 你空间很 关键是那批次的F4不缺钱了，也不需要大赚。 尼玛，不按套路啊...小哥是不是忘了什么了 41岁。还是小时候看他流星花园。 扑朔迷离 一辈子难得有情人愿志玲，承旭幸福。 真好 言承旭成了背后的男人 志玲应该不会这么没眼光吧！ 哈哈哈 我想要林志玲陪我！ 志玲嫂子都奔五了。 学生：老师，您教的都是一些没用的东西，<br><br>老师：我不许侣们这样说记己。 炮友而已 白居易要 祝福两个人都很喜欢 你妹的，，每隔几天就炒一次，你烦不烦 这一对是真的有点烦了，要分就分要和就和，都什么年级了自己心里没点数么，还当自己20来岁的少男少女呢？ “姨妈”又来了 (facepalm) 曾经的道明寺都41岁了…… 她是城市的白领，他是城市的搬运工人。高中毕业后，二个人划着不同的青春轨迹，可是他们依然保持着恋人的关系，仅仅是保持.<br>白天，她在公司里喝正宗的雀巢咖啡下班后，她吃他买来廉价的冰棒中午，她品味着公司里精致的饭菜晚上，他带她去脏兮兮的饭馆吃并不正宗的兰州拉面<br>她一直认为，这样的恋情从开始的那一天，便仿佛注定了某一种结局！他每天去接她，然后送她到所居住的公寓电梯口轻声道了晚安便匆匆离去<br>那天她突然想撤娇，便对他说：背我上去吧！他看了看电梯，电梯运转良好，然后他回头，说了声好没问任何理由，他背着她，爬到一半他累了问她：休息一下好不好？<br>她突然来了兴致，娇嗔着说不行他就真的没有休息，一直爬到她所居住的13楼，她问他累不累？他说累！比搬运家具还累，累！她知道他说的是真的，她有了一丝感动！但他们还是分手了！因为有时候，仅有感动，并不能够将爱情维持！爱情的本身，除了感动，好像还有太多的琐碎事！<br>城市里并不缺一个搬运工人，所以他回到乡下他偶尔会打电话给她，告诉她他现在种着一些农作物赚了一点钱..她听着，淡淡的<br>那时她已有了新的男友门当户对的，可以充门面，协调生活的那种然后某一天，有一次他打来电话，说他存够了五千元这些钱可以在乡下娶老婆了<br>她发现突然间，自己的眼角竟有些湿润……她新交的男友也是每天接她下班送她到电梯口，很绅士地道一声晚安，然后离去<br>某一天她说：背我上去吧！男友说了声：好！那时电梯停在一楼男友背起她,飞快地冲进电梯她伏在男友的背上,与电梯一起爬升<br>心却在飞快的下沉……<br>男友笑着，好像对自己这个小伎俩很是满意.那天，她没有接受男友照例的吻别.隔天，她打了通电话给他，问他那五千块钱花出去了吗？然后她便发现自己泪流满面，因为他已花出去了！<br>扔掉电话那一刻，她觉得自己正在失去整个世界。几天后她在电梯口看到他，他的手里拿着一枚戒指扬了扬，说：五千块钱！她开心的哭得一塌糊涂说：背我上去？他说：好。然后背着她一步一步爬着楼梯.途中他累了問给不给休息她说：不行、不行。于是他就沉默着,一直爬到了13楼这时她想，如果一个男人肯背着一个女人爬最漫长的楼梯，不问理由。那么，这个女人，还有什么理由拒绝他呢 [微笑][微笑][微笑] 她是城市的白领，他是城市的搬运工人。高中毕业后，二个人划着不同的青春轨迹，可是他们依然保持着恋人的关系，仅仅是保持.<br>白天，她在公司里喝正宗的雀巢咖啡下班后，她吃他买来廉价的冰棒中午，她品味着公司里精致的饭菜晚上，他带她去脏兮兮的饭馆吃并不正宗的兰州拉面<br>她一直认为，这样的恋情从开始的那一天，便仿佛注定了某一种结局！他每天去接她，然后送她到所居住的公寓电梯口轻声道了晚安便匆匆离去<br>那天她突然想撤娇，便对他说：背我上去吧！他看了看电梯，电梯运转良好，然后他回头，说了声好没问任何理由，他背着她，爬到一半他累了问她：休息一下好不好？<br>她突然来了兴致，娇嗔着说不行他就真的没有休息，一直爬到她所居住的13楼，她问他累不累？他说累！比搬运家具还累，累！她知道他说的是真的，她有了一丝感动！但他们还是分手了！因为有时候，仅有感动，并不能够将爱情维持！爱情的本身，除了感动，好像还有太多的琐碎事！<br>城市里并不缺一个搬运工人，所以他回到乡下他偶尔会打电话给她，告诉她他现在种着一些农作物赚了一点钱..她听着，淡淡的<br>那时她已有了新的男友门当户对的，可以充门面，协调生活的那种然后某一天，有一次他打来电话，说他存够了五千元这些钱可以在乡下娶老婆了<br>她发现突然间，自己的眼角竟有些湿润……她新交的男友也是每天接她下班送她到电梯口，很绅士地道一声晚安，然后离去<br>某一天她说：背我上去吧！男友说了声：好！那时电梯停在一楼男友背起她,飞快地冲进电梯她伏在男友的背上,与电梯一起爬升<br>心却在飞快的下沉……<br>男友笑着，好像对自己这个小伎俩很是满意.那天，她没有接受男友照例的吻别.隔天，她打了通电话给他，问他那五千块钱花出去了吗？然后她便发现自己泪流满面，因为他已花出去了！<br>扔掉电话那一刻，她觉得自己正在失去整个世界。几天后她在电梯口看到他，他的手里拿着一枚戒指扬了扬，说：五千块钱！她开心的哭得一塌糊涂说：背我上去？他说：好。然后背着她一步一步爬着楼梯.途中他累了問给不给休息她说：不行、不行。于是他就沉默着,一直爬到了13楼这时她想，如果一个男人肯背着一个女人爬最漫长的楼梯，不问理由。那么，这个女人，还有什么理由拒绝他呢 她跨年上去干嘛？唱歌又不会唱 不是拒绝，是没人邀请了吧，快过气了，也是有学问的才女一名，除了在镜头前工作，就不能干点别的吗…… 裝瘋賣傻，露腿漏胸。 穿一身圣诞装....... 我说他俩没上过床你们信吗 有些人太低调了，言承旭多少年没见了，这么好的捞金时代不出来，过自己的平稳生活…… 打炮要紧啊[大笑] 林志玲好像也不差钱吧，人家现在生活重点是结婚生子不是急着赚钱 好好好 不接少赚几百万了 F4成员的。 这一对都40多岁了，赶紧地复合吧，结婚吧，都成高龄产妇了。 互相抄，快糊了 我来一个合理的猜测！林的颜已嘣！在紧急修理中...... 复合吧 今天早上打完飞机，全弄手上了，然后我就去超市，把黄瓜、茄子、连偶摸了个遍，孩子，爹只能帮，你到这里了 麻蛋的！最讨厌这些做作的人，都已经很明显说你们复合，还爹声爹气，恶不恶心啊 不要整天上头条秀恩爱，都一把年纪岁数大的男人，有本事儿赶紧迎娶你女友林志玲她进门啊，回家生小孩儿去哇！言承旭哈哈 结婚结婚早点迎娶你女友林志玲她进门吧，早日步入婚姻殿堂呗！言承旭哈哈 [疑问] 不错的 祝福 要复合就赶紧复合吧。这新闻都快成月经贴了。 一个从红混到三线不到，一个是出了名的交际花。。。同病相怜吧 。。 在一起挺好 么？ [疑问] [色色] 加油志玲姐姐，别怕娶了他 庆生......日！ ",
        "Total": 569,
        "Link": "http://comment.ent.163.com/ent2_bbs/D6NTLFEI00038FO9.html"
    },
    "Title": "元旦或与言承旭庆生？ 林志玲拒接各地跨年活动_网易娱乐",
    "Source": "Netease",
    "KeyWords": "言承旭,林志玲",
    "PublishTime": "12/28/201708:45:14",
    "Article": "林志玲、言承旭林志玲、言承旭网易娱乐12月28日报道据香港媒体报道，林志玲上月于马来西亚被曝光约会言承旭后，即传出二人复合，虽仅坦诚“恢复联系”，但近日有传林志玲今年未有接各地的跨年活动，不知是否与言承旭元旦生日有关。而林志玲日前出席节目时也坦言对婚姻有憧憬，言语之间希望找到一个心灵相通的另一半，再次传出二人闪婚的传言。未知言承旭会否以人夫身份迎接41岁生日。本文来源：网易娱乐责任编辑：李彤_NK4455"
}