{
    "PublishTime": "12/30/201716:30:13",
    "Comment": {
        "Total": 186,
        "Reply": 31,
        "Link": "http://comment.ent.163.com/ent2_bbs/PHOTJNQ8000300AJ.html",
        "Content": "是楚楚吗 一个一直扮演着美女的丑女，越整越怪异了，都忘了她以前长什么样了，但是依旧很壮。 那个徐峥的老婆才是真的好演员 左腿P过料了吧[喷水] 真好看冻龄女神 最近抽时间看了几部抗战电视剧，那些电视剧太差让人看后感到真让中国人丢脸。现在一部电视剧都是五、六十集，一集电视剧内容不到三十分钟而只三十分钟内废话一大堆笑话百就是几岁小孩都会看出毛病。一剑横空、战地枪王等这些电视剧那导演和编剧的水平太差了这样的水平也能拍摄电视剧？这些东西也不知道怎么能通过发行的？ 我还是喜欢那个桃红 哪个陶红啊？ 美美美 就问哪里“素雅”？！！～ 小龙女是陶虹这个是陶红因为年龄和辈分关系所以媒体都称这个是大陶红，小龙女就一直被称为小陶虹 这桩这脸不太像啊 睡一晚可以圆寂了 打针了 就问哪里“素雅”？！！～ 小龙女是陶虹这个是陶红因为年龄和辈分关系所以媒体都称这个是大陶红，小龙女就一直被称为小陶虹 真好看冻龄女神 真是不喜欢这个女的，演过的电视剧有她从来不看 陶红是银川人陶虹是无锡人 傻春 陶红身着红色蕾丝绣花连衣裙衬托出白皙美肌48岁的她拥有如此年轻状态真令人艳羡。令谁艳羡我怎么感觉有人在流口水别痴人做梦了即便是你把她捧上了天她也不会蔑你一眼。 美美美 陶红是银川人陶虹是无锡人 这桩这脸不太像啊 在炮火连天的年代 是小桃红吗。 是楚楚吗 睡一晚可以圆寂了 哪个陶红啊？ 左腿P过料了吧[喷水] 最近抽时间看了几部抗战电视剧，那些电视剧太差让人看后感到真让中国人丢脸。现在一部电视剧都是五、六十集，一集电视剧内容不到三十分钟而只三十分钟内废话一大堆笑话百就是几岁小孩都会看出毛病。一剑横空、战地枪王等这些电视剧那导演和编剧的水平太差了这样的水平也能拍摄电视剧？这些东西也不知道怎么能通过发行的？ 长得太敦厚了还是寡姐好看，居然不拍单人电影 陶红不是陶虹，妈的以为徐峥媳妇阵容了 这真的是徐峥的老婆 我还是喜欢那个桃红 这有点不敢相认 打针了 有点吓人 为什么要这么虐待素颜这两个字? 那个徐峥的老婆才是真的好演员 给你们变一个神奇的魔术:你们先点击一下我右上角的那个大拇指，点了之后就变成红色，这时，你再点一下，就会出现神奇的六个字！ 这不是素颜 一个一直扮演着美女的丑女，越整越怪异了，都忘了她以前长什么样了，但是依旧很壮。 美[羞羞] 陶红身着红色蕾丝绣花连衣裙衬托出白皙美肌48岁的她拥有如此年轻状态真令人艳羡。令谁艳羡我怎么感觉有人在流口水别痴人做梦了即便是你把她捧上了天她也不会蔑你一眼。 "
    },
    "Title": "陶红亮相百合奖颁奖典礼 素雅女王气场全开_网易娱乐",
    "Source": "Netease",
    "KeyWords": "陶红,",
    "URL": "http://ent.163.com/photoview/00AJ0003/646984.html",
    "Article": "陶红亮相百合奖颁奖典礼素雅女王气场全开12月29日，三料影后陶红受邀出席第16届电影频道电影百合奖颁奖典礼，当晚，陶红身着TADASHISHOJI宝蓝色丝绒镶条裙装惊艳亮相，造型干净清爽、知性优雅。在颁奖环节，陶红还作为颁奖嘉宾，与著名导演陈德森一起颁发“最佳女主角奖”。"
}