{
    "Article": "（原标题：武汉路桥中心公布ETC余额退款细则，取消后不会有变相收费）长江二桥武昌上桥处ETC卡口。楚天都市报记者黄士峰摄12月29日凌晨，武汉市路桥中心公布了ETC账户余额退款相关细则。29日，武汉市路桥收费管理中心主任邓耀光在接受网友答疑时表示，取消ETC收费后不会出现其他的每年定额的路桥费项目，也不会出现其他的变相收费项目。有网友表示，他是外地车牌，但工作地点在武汉，这种情况如何补缴？邓耀光表示，可直接到ETC服务网点或武汉路桥ETC服务管理站补缴欠费，及时补缴了欠费，将不会影响信用记录。武汉ETC征收范围涉及“九桥一隧一路”，ETC取消后，对过江车流是个极大考验。有网友询问，ETC取消后会不会采用限号通行，保证交通。对此，邓耀光表示，ETC通行费停止征收后，市交管部门将根据全市交通状况的变化和特点，及时研判，制定针对性措施，保障全市交通出行畅通有序。邓耀光补充说，车主在退款时，有时查询的ETC账户余额与退款金额不一致，这是因为实际退款金额包括当期结存的利息。同时，一些车主ETC欠费余额有零有整，是因为通行费预存时有优惠，预存款按活期利率计息。车主会收到退款受理成功的手机短信(通过支付宝办理退款，也会收到支付宝退款受理成功通知)，若有异议，可向武汉ETC客户服务热线96512提出复查申请，市路桥中心自收到申请之日起7个工作日内告知复查结果。本文来源：楚天都市报责任编辑：张宪超_NN9310",
    "PublishTime": "12/30/201713:18:00",
    "URL": "http://news.163.com/17/1230/13/D6TI7MM9000187VE.html",
    "Comment": {
        "Content": "什么意思？没看懂 养路费已经在油钱里了，为什么还要交高速费？ 不能 这不会是要免费吧 什么意思？没看懂 为什么取消啊？ 在不开门我可要开枪了啊 为什么取消ETC? 不能 终于等到这一天了 还没有取消,没交路桥费是不能能参加年审的,而且不交的话,滞纳金是相当高的,要三思! 就是免费 这不会是要免费吧 以前没装设备欠费的会怎么处理 终于不收了？ 养路费已经在油钱里了，为什么还要交高速费？ 你如果是用银行卡付的款,那么退款成功了亲,退款的钱会先在支付宝里显示为不可用余额等银行经过核实后,钱会退还到你付款的银行卡里的 ",
        "Link": "http://comment.news.163.com/news2_bbs/D6TI7MM9000187VE.html",
        "Total": 48,
        "Reply": 13
    },
    "Source": "Netease",
    "Title": "武汉路桥中心公布ETC余额退款细则:不会有变相收费_网易新闻",
    "KeyWords": "ETC,武汉,路桥中心,通行费,余额,交通建设"
}