{
    "Comment": {
        "Link": "http://comment.news.163.com/news_guoji2_bbs/D6VGQ3BQ0001875O.html",
        "Total": 19,
        "Content": "我只要安全活着，其他谢老师报恩恩人 摩托部队，该露一手了 谢谢老师，全夜直班辛苦了，我手机植入木马，图片全现出，今天清到零点，已后再说，我很危险，请求老师帮助我救救我命，收入全回报老师:相救我 小巴的人不行啊，一个人也没弄着 我只要安全活着，其他谢老师报恩恩人 摩托部队，该露一手了 谢谢老师，全夜直班辛苦了，我手机植入木马，图片全现出，今天清到零点，已后再说，我很危险，请求老师帮助我救救我命，收入全回报老师:相救我 ",
        "Reply": 4
    },
    "Source": "Netease",
    "PublishTime": "12/31/201707:34:29",
    "Title": "武装分子袭击印控克什米尔地区训练中心 伤亡不详_网易新闻",
    "Article": "（原标题：武装分子袭击印度中央后备警察队训练营伤亡不详）海外网12月31日电位于印控克什米尔地区附近普尔瓦马县的印度中央后备警察部队训练中心遭武装分子袭击，伤亡情况暂时不详。据印度ANI电视台报道，2-3名恐怖分子袭击了位于克什米尔地区附近普尔瓦马县的印度中央后备警察部队训练中心，他们先是向训练中心投掷手榴弹，随后开枪试图进入训练中心，目前暂没有伤亡报告。本文来源：海外网责任编辑：李天奕_NN7528",
    "URL": "http://news.163.com/17/1231/07/D6VGQ3BQ0001875O.html",
    "KeyWords": "武装分子,印度,克什米尔地区"
}