{
    "PublishTime": "01/01/201818:17:00",
    "Comment": {
        "Total": 1956,
        "Link": "http://comment.news.163.com/news2_bbs/D738G875000187V9.html",
        "Reply": 132,
        "Content": "是呀，偏远深山的语言，没有外人来学，除非研究语言的学者，，，，，，，，，，，，，， 力挺支持村本大辅👏 领土问题没有什么自古以来，只有看当时谁强势 大大的大实话！ 如果美国是《村本大辅》做头那么世界就大平了! 威武！宇宙无敌急先锋！！！！！！！！！！ 那是日本没有高达和奥特曼的情况下！ 这其实就是制度区别吧 有一句话说对了，中国根本不会侵略日本！我央央大中华还看得上你那弹丸之地？不过，你们要是先惹我们就另当别说了，大清朝已经亡了100多年了！我们已不是当年任人宰割的我们！ 美国加拿大澳大利亚自古以来属于英国 废话，肯定的是谁牛逼谁说话。 冲绳是不是琉球群岛 日本会在意这种事？ 大部分日本人确实就是这样。小部分自认为觉醒奋进的日本人在大力鼓吹日本觉醒，也是事实。 好的，什么时候登 明白人儿！ 说得好，批准你来中国开演唱会了 这大实话 这个日奸！！不喜欢日本就滚出去日本啊！！！垃圾！！日本人民的事情日本人民自己说的算！！！改天拿特链子咋他去！ 这家伙基本完了，日本是混不下去了 然后，就出了个日本明白人村本大辅 针对日本，早就有过军事模拟，解放军40分钟登岛插旗！ 支持村本大辅参选日本首相！ 那还等什么啊 想进军大陆演艺圈直说，我会照着你。 来中国吧亲！保证你赚🉐️盆满钵满！ 这样的人，在某新纳粹国家恐怕是要被当街打死了 顶你，真正有见识，才会反问。 要是中国艺人说把钓鱼岛送给日本人，结局会怎样？ 脑子清楚的日本人 一切为了和平 嗯嗯 脑子很清楚的日本人 啊？小米同志 现在的英国教育必修汉语，俄罗斯教育必修汉语，只因你强大，他们有这个需求一样。 智商欠费的只有日本网友和中国喷子 如果在中国综艺里有人说不要钓鱼岛会是什么下场？ 你懂入侵是什么意思吗？ 然后呢？40分钟后呢？能守几年？ 终于有日本人说实话了，可喜可贺 讲一个过去遗留下来的问题！不服来辩！英语作为美国人在中国精心布置的殖民产业，目前已成功植入中国高考及各大高校门槛和社会求职！殊不知这里是中国的汉语社会啊！搞个外语必修…很多人都不知道自己为什么学英语，莫名其妙接受了十几年的英语教育，最后不了了之!这不是精神殖民吗？自己的语言都学好了？细思极恐！外语必修就是精神殖民，为了链接世界，完全可以选修嘛，放眼世界，不管强与弱，哪个国家会搞外语必修？ 然后呢 不敢想象！废了是肯定的 是呀，偏远深山的语言，没有外人来学，除非研究语言的学者，，，，，，，，，，，，，， 这些傻瓜的子弟死个几十万跟说着玩似的，谁认得你 还是佩服日本，文化自信根本就不重视外语，日本那些科学家有些根本就不会英语 就是琉球。<br>国内已经有声音在建议媒体以后都把“冲绳”统一叫“琉球”😄 等有空了 威武！宇宙无敌急先锋！！！！！！！！！！ 美国加拿大澳大利亚自古以来属于英国 二楼你这日本🇯🇵货。素质那么低，骂他干嘛？人家是说大实话 钓鱼岛。。。嗯。。。距离有位哥哥砸日本车那年，已是太遥远的事了。 大部分日本人确实就是这样。小部分自认为觉醒奋进的日本人在大力鼓吹日本觉醒，也是事实。 以前中国人登钓鱼岛会被倭奴揍，现在倭奴登岛会被中国人揍，知道吗傻逼！！！ 你懂入侵是什么意思吗？ 领土问题没有什么自古以来，只有看当时谁强势 这个日奸！！不喜欢日本就滚出去日本啊！！！垃圾！！日本人民的事情日本人民自己说的算！！！改天拿特链子咋他去！ 英语是全球通用语言，离开华人区，你不说英语试试？除非祖国足够强大，全世界把汉语当做通用语言。 下了盘大棋 日奸 这样的人，在某新纳粹国家恐怕是要被当街打死了 傻子，看清楚没，是入侵 慈溪那老娘们当年模拟能打十一个，结果八个就吓得屁滚尿流跑路了！ 针对日本，早就有过军事模拟，解放军40分钟登岛插旗！ 不要谈论这么恐怖的话题好吗 还是日本人幽默你们是对抗日神剧的抗议吗 现在的英国教育必修汉语，俄罗斯教育必修汉语，只因你强大，他们有这个需求一样。 如果都每个国家的人都这么想就没有战争了，但世界上还是有很多人好斗，这种从动物身上遗传下来的基因。 演习主要得看守岛的是蓝军还是红军 讲一个过去遗留下来的问题！不服来辩！英语作为美国人在中国精心布置的殖民产业，目前已成功植入中国高考及各大高校门槛和社会求职！殊不知这里是中国的汉语社会啊！搞个外语必修…很多人都不知道自己为什么学英语，莫名其妙接受了十几年的英语教育，最后不了了之!这不是精神殖民吗？自己的语言都学好了？细思极恐！外语必修就是精神殖民，为了链接世界，完全可以选修嘛，放眼世界，不管强与弱，哪个国家会搞外语必修？ 然后呢 不敢想象！废了是肯定的 然后呢？ 哪个朝代地域版图都不一样，翻历史的话就该拿元朝版图说话 你没有学历史吗？那里是印第安人的地方 要是中国艺人说把钓鱼岛送给日本人，结局会怎样？ 有才 拿出武士道精神，我们更喜欢和你们倭人决一死战！ 戏子一席话，高潮一群豸😏😏😏 这其实就是制度区别吧 有一句话说对了，中国根本不会侵略日本！我央央大中华还看得上你那弹丸之地？不过，你们要是先惹我们就另当别说了，大清朝已经亡了100多年了！我们已不是当年任人宰割的我们！ 这说的好，两方都不得罪 废话，肯定的是谁牛逼谁说话。 冲绳是不是琉球群岛 好的，什么时候登 WomanRushHour是什么意思？ 懂历史的日本人太少了。 明白人！ 然后，就出了个日本明白人村本大辅 估计怕被做成手撕饼……还带肉松鸡蛋烤肠生菜的豪华版 支持村本大辅参选日本首相！ 他们民众部分人喜欢自嘲 傻逼，想来大陆赚钱了吧！ 痴人说梦话钓鱼岛本来就是中国的 可以请来参加春晚 顶你，真正有见识，才会反问。 先叫一声海参崴吧 是的。 这在日本其实很平常。日本电视上经常会有类似的辩论节目。至于辩论风格也是由节目性质决定的。不过日本艺人或者百姓在电视上当着政府人员的面言辞激烈的指责他们，也没事。要是能给官员骂到哑口无言，更出彩。而且大部分日本年轻人对于爱国热情和领土问题根本没有国内宣传的那么高。他们更关心的是自己的民生问题政府怎么给解决。电视台批评政客很常见甚至因为爆料政客的一些问题而让政客下台。不过电视台的这种权利现在也有很多人诟病，觉得好坏参半。 印第安人有国家概念吗？领地兄弟。 他这样说就说明这个岛更本不在我们手上，也知道抗议军不会去。默认是岛国的。 不是，冲绳只是琉球群岛的一部分。琉球群岛由多个群岛组成。 这家伙基本完了，日本是混不下去了 什么入侵？日本才是入侵,应该说抢不过中国，举白旗投降 如果在中国综艺里有人说不要钓鱼岛会是什么下场？ 终于有日本人说实话了，可喜可贺 领土问题没有什么自古以来，只有看当时谁强势 日本会在意这种事？ 如果美国是《村本大辅》做头那么世界就大平了! 没错，却是如此 日本也有明白人！ 太好了 那快去吧！光说不练嘴把式 北京欢迎你， 这是实话？你的智商真让人着急 戏子的话能信？谁有种试试看，准让你甲午重现。 这孩子对中国有了解。 针对日本，早就有过军事模拟，解放军40分钟登岛插旗！ 这是我见过最聪明，脑子最清醒的日本人，果然日本都是制杖，认为全世界都是他们的土地，但是我们中国人不会忘记日本人丑陋变态的模样 甲午战争前，北京胡同里，满是你这样的SX 还是得按照基本法的。两百年前你有大炮巨舰随便占随便签，现在不一样，就算你拳头硬，要占地那面临的各种反对压力也要大得多。 日本居然还有一个明白人啊…… 力挺支持村本大辅👏 因为他知道根本不会有那一天 这和中国艺人在日本说的话有什么区别 想赚钱也不要欺骗愚蠢的我们啊，该死的小日本 日奸 环球时报 你当美国不存在？ 高潮了 所以这个人的个人见解就成了我们意淫的东西？ 但他受到了大批日本网友的抨击 那是日本没有高达和奥特曼的情况下！ 那是没美国援助下吧 怎么报名？真心求答 去旅行社报名即可 所以你才是艺人 他在日本有人身安全危险！真的！ 这样好没面子哦。 可以来大陆赚钱了，小伙子有前途 你以为日本跟中国一样吗？ 来中国吧亲！保证你赚🉐️盆满钵满！ 小子觉悟很高！！不错！ 不好意思，由于顺丰快递延误护照没有按时进领馆，签证还没下来。 日本不搞那些玩意儿～ 不错不错，来人啊，赏他一根辣条 啊？小米同志 这家伙基本完了，日本是混不下去了 然后呢？40分钟后呢？能守几年？ 终于有日本人说实话了，可喜可贺 三观很正啊！都是实话！ 看来日本这么多年给日本人民洗脑大多数还是成功的。绝大多数日本人已经不知道钓鱼岛和冲绳是怎么来的了。 大大的大实话！ 脑子清楚的日本人 钓鱼岛就是个荒岛，什么都没有，神经病啊 这句话说的，还钓鱼岛被入侵，钓鱼岛本来就是我们的，何谈入侵 呵呵呵 说得好，批准你来中国开演唱会了 相反如果换成国内明星后果不堪设想 这大实话 再不收回，就没有机会了。 其实可以再打一场仗，看看关西地区会不会有解放军的“关西驻屯军”。 那还等什么啊 想进军大陆演艺圈直说，我会照着你。 村本？是个渣男，看来有政治前途啊 中国艺人回答：钓鱼岛在哪里？ 一切为了和平 嗯嗯 脑子很清楚的日本人 明白人儿！ 很好，湖南卫视欢迎你 和岗毒如出一辙 呵呵 智商欠费的只有日本网友和中国喷子 呵呵 现在的日本其实早已经是一个和平国家 呵呵了 终于日本人有的说实话 👍 "
    },
    "Article": "（原标题：日本艺人：如果钓鱼岛被“入侵”，日本举白旗投降就好！）他，已被日本网友骂惨!“如果中国索要冲绳，日本该怎么办？”日本搞笑艺人组合“WomanRushHour”成员村本大辅12月31日晚在参加朝日电视台的辩论节目中被问到这个问题。他回答说，“冲绳原本就是日本从中国手里夺取的土地”。对于中日钓鱼岛之争，村本大辅的回答也是出人意料：他主张“日本举白旗投降就好”，还表示“如果为了尖阁诸岛(即我钓鱼岛)，就要杀人保卫国土，不要也罢”。据日本媒体1月1日报道，日本艺人村本大辅和中川天堂组成的“WomanRushHour”是日本最大的艺人经纪公司、电视节目制作公司吉本兴业株式会社所属的搞笑组合。村本大辅12月31日晚参加了朝日电视台的“讨论到天亮”深夜直播节目。报道说，31日晚的节目论述主题为“‘平成30年’日本的未来”，参加节目的其他嘉宾既包括立宪民主党议员长妻昭这些国会议员，还有东大教授井上达夫，佳能全球战略研究所研究主任、原日银北京事务所所长濑口清之等学者。节目在讨论“尖阁诸岛”问题时，对于“如果‘尖阁诸岛’被入侵的话怎们办”，村本大辅主张“日本举白旗投降就好了”，并坦言“不明白为什么有人会认为中国或者朝鲜要‘侵略’日本”。村本大辅还说，“如果为了尖阁诸岛，就要杀人保卫国土，不要尖阁诸岛也罢”。节目中龙谷大学教授李相哲还质问村本大辅，“如果中国向日本索要冲绳的话，难道要给中国吗”，村本大辅则回应说，“冲绳原本就是日本从中国手里夺取的土地”。此前，村本大辅和中川天堂在12月17日富士电视台的“THEMANZAI”(相声)节目中，针对冲绳驻日美军基地问题说，“那是日本全体的问题，却只推给冲绳”、“(日本政府)对于麻烦的事，就装作视而不见”。他们还嘲讽美日关系，“对美国而言，大量采购美制导弹和战斗机的日本并非‘关系好的国家’，而是‘很方便的国家’”。在日本媒体这一报道下，日本网友攻击村本的言论占了绝大多数。不少人骂他“智商欠费”，称他是“日本教育失败的案例，想法幼稚如同小学生”。还有日本网友认为，朝日电视台播放这样的节目是“重大事故”，并要求朝日今后不要再请村本大辅这样的艺人。本文来源：环球时报-环球网。更多精彩，请登录环球网http://www.huanqiu.com责任编辑：范姜国一_NN9138",
    "Source": "Netease",
    "Title": "日本艺人:如果钓鱼岛被\"入侵\" 日本举白旗投降就好_网易新闻",
    "KeyWords": "日本,钓鱼岛,冲绳,白旗",
    "URL": "http://news.163.com/18/0101/18/D738G875000187V9.html"
}