{
    "URL": "http://news.163.com/17/1227/14/D6LVV6J500018AOQ.html",
    "Comment": {
        "Total": 23,
        "Reply": 8,
        "Link": "http://comment.news.163.com/news2_bbs/D6LVV6J500018AOQ.html",
        "Content": "真可怕。地基还不都碎了。 地基还不都碎了。 真可怕。地基还不都碎了。 地基还不都碎了。 所以呢？ 坚持住 犯罪高发区，上天都看不下去 洪门大夫洪门大夫[网易天津市河东区网友]举报2017-12-2715:58:42<br>真可怕。地基还不都碎了。 今年我们都是墨西哥人,墨西哥不哭，，，，晦大了 供热通风与空气调节 "
    },
    "Article": "（原标题：地震太频繁！墨西哥三个月内发生逾1万次地震）中新网12月27日电据俄罗斯卫星网报道，墨西哥国家地震局26日发布消息称，该国今年9-11月发生1.2万多次震级为1.2-8.2级的地震。资料图：当地时间9月21日，墨西哥首都墨西哥城地震救援人员救援人员在废墟上举起拳头，示意周边安静。据该部门数据，地下震动大多发生于9月，为5700次。其中，9月7日和19日发生两次强震，夺走了数百人的生命。墨西哥总统涅托估计，用以恢复这两次地震破坏所需金额为480亿比索(约合25亿多美元)。墨西哥10月又发生约3800次地震，11月份的地震数量超过3200次。瓦哈卡和恰帕斯州记录下墨西哥发生的最多数量的地下震动，之后为格雷罗州、米却肯州、科利马州和哈利斯科州。本文来源：中国新闻网责任编辑：王征_NN7526",
    "KeyWords": "墨西哥,地震,哈利斯科州",
    "Source": "Netease",
    "Title": "地震太频繁！墨西哥三个月内发生逾1万次地震_网易新闻",
    "PublishTime": "12/27/201714:36:00"
}