{
    "PublishTime": "01/02/201808:55:59",
    "Comment": {
        "Total": 201,
        "Link": "http://comment.ent.163.com/ent2_bbs/PHOTJNRP000300AJ.html",
        "Reply": 16,
        "Content": "演的可以 本来长的就不咋地，还演花美男。内地这买角也是没谁了。烧得跟个烤鸡似的，就退出娱乐圈，做点别的工作。还非的继续。这就是命里不让你承受这些，以后还得出事。现在啥人都想混娱乐圈，全民想娱乐圈，都娱乐了，谁端盘子，谁干苦活？ 加油！ 缺陷更美 灏明现在都只能饰演中年油腻大叔了让人唏嘘 变自信了，很棒，加油 这个短发挺好看 好好爱自己，加油！ 那个烧伤炒了半辈子了 那时花开月正圆里演的那个杜老板演得不错！ 文明上网，理性发言 那个烧伤炒了半辈子了 缺陷更美 灏明现在都只能饰演中年油腻大叔了让人唏嘘 变自信了，很棒，加油 十年过得好快 草泥马，炒，傻逼 演的可以 本来长的就不咋地，还演花美男。内地这买角也是没谁了。烧得跟个烤鸡似的，就退出娱乐圈，做点别的工作。还非的继续。这就是命里不让你承受这些，以后还得出事。现在啥人都想混娱乐圈，全民想娱乐圈，都娱乐了，谁端盘子，谁干苦活？ 加油！ 很励志的男孩，大家就不要喷了，2018年希望没有网络战争，大家和气评论不是更好？是人都有缺陷，大家能包容的包容，实在看不下去的少说粗话脏话，我们都会上有老下有小，为他们积福吧！<br>另外㊗️大家新年快乐，狗运骑天！ 你爹早就走出来不知道演了多少部影视剧了，你个小编还没走出来？ [可怜] 这个短发挺好看 好好爱自己，加油！ 那时花开月正圆里演的那个杜老板演得不错！ "
    },
    "Article": "俞灏明走出烧伤阴影与王栎鑫同框热拥2017年12月25日讯，北京，近日，俞灏明出席2017国剧盛典，在《那年花开月正圆》中，俞灏明虽然因为剧中角色被键盘侠恶言中伤，但是戏外却激发了他重新诠释自己演员身份的勇气，不仅在综艺节目上证明演技，也在国剧盛典收获好评，台上与快乐男声战友王栎鑫同台演唱，握手、拥抱相互打气，一展兄弟情，画面温馨！",
    "Source": "Netease",
    "Title": "俞灏明走出烧伤阴影 与王栎鑫同框热拥_网易娱乐",
    "KeyWords": "俞灏明,",
    "URL": "http://ent.163.com/photoview/00AJ0003/647033.html"
}