{
    "URL": "http://sports.163.com/17/1228/18/D6OTGNFL00058781.html",
    "Article": "网易体育12月28日报道：昔日的“国米国王”阿德里亚诺又进球啦！在一场慈善赛的赛场上，昔日的天才球员阿德里亚诺打进了一粒单刀进球，虽然阿德的体型有些发福，速度也大不如前，但是他的球感依旧。慈善赛的赛场上，阿德里亚诺在对方禁区前沿接到队友的传球，轻巧的将球卸到身前，然后漂亮的过掉门将之后一脚推射，皮球应声入网。在看到这里进球之后，我们也不禁唏嘘，昔日的国王在自甘堕落之后变得发福，变得动作缓慢，但他对于足球的天赋，对于足球的灵感依然还在。值得一提的是，当球迷看到阿德的这粒进球之后，社交媒体上也是一片哗然。一时间。诸如“要是放以前就直接爆射了”、“我以为是慢动作，谁知道是正常速度”、“看他跑步感觉脚底下都是坑”类似的评论充斥着整个社交媒体。说起阿德里亚诺，球迷无不唏嘘，他曾经被誉为是罗纳尔多接班人，当年各大媒体对于他的描述他是一名50年一出的天才，拥有极高的天赋、强壮的身体、炫目的盘带、黄金左脚，阿德里亚诺几乎具备一名顶级前锋的所有素质。然而这样的天才却在职业生涯巅峰时期沉迷于酒精和夜店，最让早早的离开世界主流赛场。出生于1982年的阿德现年35岁，就在伊布这样的老将还在赛场驰骋之际，阿德却已经身材却发福得像一位中年大叔。不过大叔依旧有着当年的球感，当看到阿德再次在赛场上进球之时，相信球迷也会感慨万千。本文来源：网易体育作者：凉茶责任编辑：朱楷正_NS4807",
    "Source": "Netease",
    "PublishTime": "12/28/201718:01:53",
    "KeyWords": "阿德里亚诺,足球,伊布,慈善赛",
    "Comment": {
        "Content": "比大罗差远了，大罗20岁成世界第一了，他25岁只不过是顶级前锋之一。如果自律，也不过是伊布的高度 实况8，当时和同学约定不能用阿德…… 当时看阿德踢球总担心球被踢爆了！ 被鸡窝粪坑黑洞坑惨了 伊布是啥？ 就这下停球，国足没几个能停好的 奉先从不会从中场带球突破 阿德马丁斯这锋线可以用十年 想想原来的国米，哎！ pes6 中间阿德，左路雷科巴，右路马丁斯，三叉戟所到之处闻风丧胆 还行，比大罗瘦 国猪为了比赛更具有观赏性，会直接停球给对面门将😂 最接近大罗 你拿阿德跟国内球员比是在侮辱阿德 和阿德比，卢卡库真是弱爆了 问过大罗没有[微笑] 最后一图裁判跑得好快 游戏里他和马丁斯的国米太恐怖 我觉得他是有史以来最强的中锋了，可惜啊 实况8 鸡蛋里挑骨头也许弱点就是右脚，尼玛这必怪兽一样速度头球任意球技术身体爆发力都是爆表的存在 国足可以直接停进球门 全部都是活在实况8里的伪球迷！就继续吹！不要拿如果来意淫 告诉我他3年巅峰期进了多少个球？拿了多少个奖？就这3年的巅峰期还不如现在的凯恩牛。 巅峰状态确实是，如果教练是爵爷就好了。 刚出道的马丁斯也是很牛笔的！身体素质那个强。那时候总觉得他会成为巨星，哎。。。。。。 你要这么说马拉多纳算个屁啊 曾经的国米国王😢 应该是他和维埃里 在我心中阿德一直都是拥有最完美前锋的一切条件，要不是他爹死太早没人管他了也许早会是另一个贝利，起码也是历史前几的前锋 球没离过脚，确实厉害 从天赋角度来说，比大罗要强，身高，力量，速度，技术，射门都是顶级的，阿德犹如NBA的詹姆斯，但是自律上一个天上，一个地下；国米培养的前锋有一个缺点就是没脑子，前有阿德，后有巴洛特利 坦白说一句，要是阿德当年能自律一点，真的可以成为世界第一中锋，伊布真的要让位 换五球王又要抱着头了 就这脚下技术也比郜飞机强数倍 我觉得这几下还行[微笑] 力量速度技术球商都和大罗一样！可惜自己毁了自己！！！ 巅峰时期是真牛逼，可惜 吹屁啊，他巅峰期哪怕那两三年难道不是无敌？ 如果按天赋发展下去，也许能说是史上最强中锋，可惜没有 所以说天妒英才啊，他要是好好自律，说句招人骂的话，近几年足坛应该没梅西C罗什么事。 给你个机会重新说！什么叫没几个，一个都没有好嘛！ 比内马尔天赋高多了，不知道为啥，内马尔被捧这么高 从国王到乞丐 想个屌！以前的尤文！米兰更屌！！！！ 知道为什么莫拉蒂聘请穆鸟吗？因为当时的国米已经在意甲无敌了，曼奇尼率领的国米连夺两次意甲冠军，莫拉蒂已经不满足于称霸意甲才把穆鸟请过去。二楼无知不是你的错，无脑才是 速度和技术就不要拿来和大罗比了 实况就是比非法好玩啊 巅峰阿德简直是个怪物，以他的身高体型来说，高速奔跑中还能做出眼花缭乱的盘带，放现在都是BUG，力量，速度，身高，弹跳，定位球，单刀球无所不能。 你要这么说马拉多纳算个屁啊 就这下停球，国足没几个能停好的 阿德马丁斯这锋线可以用十年 天赋确实爆表，伊布的顶配版加强版吧，可惜不自律啊 pes6 被鸡窝粪坑黑洞坑惨了 他确实可惜了 现在足坛没什么人才，稍微能盘带突破几下的都是顶级了。 最接近大罗 首先他远没到巅峰，才20多就开始堕落了，在一个国米当时不乱？去看看阿德在国家队的表现，美洲杯决赛读秒扳平比分，联合会杯打德国进超远任意球造点，决赛打阿根廷帽子戏法，世界杯无解远射都看不到？在国米曼奇尼不喜欢阿德，都是阿德，马丁斯，雷科巴，克鲁兹，维埃里轮着用，电话门后又来伊布，加上他父亲死了开始了堕落的道路，当年在意甲门将投票最不想遇到的球员里排第一，如果他当年答应了皇马的转会也许会不一样，对他的惋惜是巅峰还未到就开始堕落 伊布说他合作过最强的搭档是阿德。。。 大罗20岁世界第一？别闹，只比天赋伊布不如阿德，自己都承认阿德是怪物不可思议，这个采访网上能查到。 如果10分是满分，巅峰期的阿德跟大罗比，各项进攻技术比拼，除了头球，大罗的速度，技术，身体平衡性，力量，射门都要比啊得高0.5-1分 最后一图裁判跑得好快 阿德巅峰期就当时足坛你找个比他强的出来。 真是可惜，一个是他，还有一个小罗，没有伤病，结果巅峰太短暂。内马尔跟这货都没法比。 我觉得他是有史以来最强的中锋了，可惜啊 马拉多纳是中场要求能和中锋一样？阿德巅峰是牛逼但是不稳定巅峰期场均半球上半赛季之王的男人怎么成无敌最强前锋了？全是印象主义阿德最好那几年还年轻可以说有潜力当最好中锋可惜从来没达到那个高度 嗯，阿德的几八从你吗口里进入，直接从你吗P眼插出，你吗嗷的一声，泄了。 哎！巴西球员的天赋爆表，如果稍微自律些，职业生涯都会长很多！ 要速度有速度，要过人有过人，要体格有体格，要射门有射门，就是没有自律性和一颗脆弱的心，这家伙要是有c罗一半的自律性估计成就就非常高了， 国足可以直接停进球门 20岁就在那个年代拿了金球和世界足球先生！还不是世界第一？<br>阿德你们也就在实况8里可以吹一下 力量速度技术球商都和大罗一样！可惜自己毁了自己！！！ 马丁斯当年在边路还是挺犀利的 才35岁哎伊布36还在一线踢球 嗯，阿德的J8从你吗口里进入，直接从你吗P眼插出，你吗嗷的一声，泄了。 曾经的国米国王😢 国米未来十年组合。。。马丁斯呢？ 尼玛，实况里面。阿德真无解 马丁斯在上海绿地啊，足协杯夺冠第一号功臣 阿德+马丁斯=无解 还能跑的动吗😳 是啊！天赋超巴神！真的真的真的好可惜啊！实况8国米4114的阵容，天下无敌！ 最接近大罗之人 连对方后卫都能一起被国足停进球门去。 最强？大罗各项指标都胜过他除了头球 鸡蛋里挑骨头也许弱点就是右脚，尼玛这必怪兽一样速度头球任意球技术身体爆发力都是爆表的存在 配马丁斯可以跑，配雷科巴也行，自己单打也是扛着后卫死磕，很带劲 胜利十一人8 武磊看看人家怎么踢单刀的 可惜了 都在YY哦，又不是没看过阿德踢球 那个傻逼胡子终于换了 巅峰时期是真牛逼，可惜 米兰两个球队都没落了，意甲也没落 想想原来的国米，穆鸟去之前一个意甲冠军都没有，唉...... 吹屁啊，他巅峰期哪怕那两三年难道不是无敌？ 想想原来的国米，哎！ 我觉得速度和技术罗纳尔多肯定占优，射门各有优劣(阿德的射程要远，他的大炮轰门我觉得是可以媲美巴蒂的)，但综合来说差不多.身体平衡性差不多，力量肯定阿德强，毕竟是能硬顶着后卫往里进的人，罗纳尔多很少有这种踢法。若把他俩比做武器的话，罗纳尔多是倚天剑，阿德更像屠龙刀，风格还是有差异的。个人看法，不喜勿喷 比内马尔天赋高多了，不知道为啥，内马尔被捧这么高 意甲裁判下快攻速度可以的 实况8 现在来中超我觉得还可以虐国产后卫，只要能把体能锻炼好。 感觉35岁的步频也比国足快啊。还带急停 为什么总要用🐷和人? 自己把自己坑死了 被阿德支配的联合会杯！ 大小罗不自律才取得现在的成绩，阿德堕落倒是排第一，第二是董卓 当时看阿德踢球总担心球被踢爆了！ 国王加铍皇 当年大学宿舍实况8联赛，我的主队就是国米，首发前锋两个暴力牛阿德和维埃里，边路配一个速度99的小黑专门接直塞然后内切或者下底传中，连续拿了3届第一名。 伊布的速度头球任意球爆发力都不如阿德好吧，伊布速度太慢，技术身体出色而已，还是需要队友配合。阿德巅峰时期一个人干就够了 就这下停球，国足没几个能停好的 天上也可以的 坦白说一句，要是阿德当年能自律一点，真的可以成为世界第一中锋，伊布真的要让位 怀念大学时期的实况足球 绝对比C罗强，只是没赶上好体系，现在一个赛季动不动就进几十个球的是因为体系好。如果放在一个打法不算成熟的球队里，进球就会少很多。比如国家队 感觉来中超还是能打 呵呵 国猪为了比赛更具有观赏性，会直接停球给对面门将😂 来申花搭马丁斯吧！ 思想品德课和军训不能少？ 这带球，基本上除了速度快之外，球完全粘脚上，人球合一，现在也就梅西能做到。 曾经无敌过一段时间，可以有巴西球员的通病，白白浪费天赋 大罗20岁世界第一？别闹，只比天赋伊布不如阿德，自己都承认阿德是怪物不可思议，这个采访网上能查到。 以前实况选国米无敌，伊布左，阿德右，中间克雷斯波。2个边路基本给到球就可以一路扛着防守内切跑进去射门了。漏了还有抢点王克雷斯波 以前浩方平台挺多高手的，就一招可以无限进球 当年实况。。。我被宿舍哥们阿德虐出了阴影！ 你所谓他的巅峰他才多大？他的巅峰还没到就堕落了，另外阿德在国际赛场很牛，联合会杯杀的阿根廷，德国等队拿的他一点办法没有，世界杯表现也出彩，在国米的时候，电话门之前国米还是比较乱的人员流动很大，当时竞争不过尤文，而且那时候再牛逼的前锋也很少能赛季进球30+ 他最巅峰时期是跟穆图在帕尔马。 实况8的其中一个bug 游戏里他和马丁斯的国米太恐怖 我觉得他是有史以来最强的中锋了，可惜啊 实况8 鸡蛋里挑骨头也许弱点就是右脚，尼玛这必怪兽一样速度头球任意球技术身体爆发力都是爆表的存在 国足可以直接停进球门 实况数据技术阿德巅峰97郜飞机71貌似没有数倍哈哈 当年国米未来10年锋线 边线也可以的 实况8屌爆了，可惜了 呵呵呵 有史以来？ 高速坦克 应该是本可以成为有史以来最强中锋，身体力量速度技术应有尽有，可惜了 球没离过脚，确实厉害 当年感觉是要接班大罗啊，可惜了阿德 别闹，国足能直接停出底线…… 奉先从不会从中场带球突破 就这脚下技术也比郜飞机强数倍 阿德即便是在巅峰时期，赛季的进球数很难拿得出手，吹得过头了，具体多少不大记得，非黑，不信可以去查 这话就吹牛了现在的阿德恒大不要 实况里像神兽一样 都是老球迷，满满的回忆 身体、技术都是最顶尖的，可惜自制力…… 他最牛B的时候是跟穆图在帕尔马时期……回到国米以后名气大了，但是远远不如在帕尔马时期，那时候看帕尔马只要他上场几乎都会有进球。 曾经实况8的bug存在… 觉得自己可以虐国足的，赶紧去和球友们组个业余队报名足协杯把。我们南昌红谷滩这边都有个业余球队报名去参加预选分区赛了，虽然是酱油，但重在参与嘛，3楼你叼的话争取一路杀进正赛，我祝你一球成名！ 可惜没态度 该夸好呢还是[窃笑] 和阿德比，卢卡库真是弱爆了 力量99 可惜啊…… 活在实况8里的神话 实况8，当时和同学约定不能用阿德…… 可能就风光了半个赛季，很幸运，不知道为什么获得了一个国王的称号，就这个称号就能让不了解真相的人顶礼膜拜 就这下停球，国足没几个能停好的 当年的帕尔马，阿德和穆图的组合恐怖 百度(毛卑零），就明白大幂幂为什么会火，不知道被多少个名导给潜了，那里真的是黑，去瞧瞧 。。。不是中场发球就可以射门了么 武磊的单刀啊 实况中与伊布的国米，流氓的打法 知道你是郜林的粉丝 比现在的凯恩好哪里去了 卧槽，最后那个球神仙踢球 那也比国足强 这不是卖基吗 游戏里他和马丁斯的国米太恐怖 实况8 鸡蛋里挑骨头也许弱点就是右脚，尼玛这必怪兽一样速度头球任意球技术身体爆发力都是爆表的存在 吴磊表示不服啊 最下面这个带球尼玛球是粘在腿上的吗？ 百度(毛卑零），就明白大幂幂为什么会火，不知道被多少个名导给潜了，那里真的是黑，去瞧瞧 论打飞机，他比不上郜林 国米为了他提前和维埃里解约 跟麦基神似 曾经的国米国王😢 放在现在不得一亿两千万起步啊 阿德厉害 当年很不讲理，如今混黑社会 同样是82年的，阿德的胡子都白了，我还没胡子呢[鄙视] 那会的国米我都爱看，阿德真心牛逼，放现在身价3e欧[晕] 来国足会是主力 换五球王又要抱着头了 就这脚下技术也比郜飞机强数倍 我觉得这几下还行[微笑] 维埃里，阿德，伊布，挂两人不是事儿 曾经觉得他是史上最强中锋，没有之一。无论速度，力量，身体素质，爆发力，射门，任意球，头球，盘带，都堪称一个中锋顶级水平。可惜之后没有一个好的引路人把他带入正途，白白浪费掉这身逆天的天赋 国足可以直接停进球门 肥的一🐷 想想原来的国米，哎！ 阿德82的😱 玩过实况8的都知道，阿德有多猛。 Vs尤文的伊布（两高大神锋） 曾经以为可以延续巴西的香火，结果……艹，不争气啊！ 阿德里亚诺+马丁斯，国米未来十年组合，结果。。。。。 所以说天妒英才啊，他要是好好自律，说句招人骂的话，近几年足坛应该没梅西C罗什么事。 妈的国米培养的前锋是牛逼，前有阿德，后有巴洛特利，就是TM没脑子，妖怪一样的身体，妖怪一样的脑子 这就是一坦克。 实况8还好，实况9就完全是为他一个人打造的。前场四十五米范围内任何角度都能直接破门。 罗纳尔多、阿德里亚诺、罗纳尔迪尼奥、罗比尼奥这些巴西球员要是有德国球员的自律和团队精神的话从2006--2014这三届世界杯上就没其他球队什么事情了 是自家球门吧 射门力量99 国王 阿德……真可惜了，当年绝对超一流，实况里感觉比大罗都好用～真是自己作死 真有这本事那tm就牛了 人家现在是毒枭，小心点说话 不是一个级别的 好怀念以前的巴西啊， 后面那个黄衣服是裁判？跑位意识很到位呀 CM0304里最屌的前锋 要是在国米的时候都不用停球直接爆射了！ 小禁区线调整一下放向键往左，轻按方块键，低射，进球率百分之八十 换十年前。禁区外就射了 还行，比大罗瘦 百度(毛卑零），就明白大幂幂为什么会火，不知道被多少个名导给潜了，那里真的是黑，去瞧瞧 我觉得他是有史以来最强的中锋了，可惜啊 阿德就是bug 你拿阿德跟国内球员比是在侮辱阿德 这货没有强烈的求胜心，对中锋来说很重要 拿球就射就行了… 恐怖 肥版西西 尼玛的退役了还不能长胖？？ 我的大帝！ 百度(毛卑零），就明白大幂幂为什么会火，不知道被多少个名导给潜了，那里真的是黑，去瞧瞧 他后边的后卫跑得没我快 不仔细看还以为是囧神麦基 实况8 鸡蛋里挑骨头也许弱点就是右脚，尼玛这必怪兽一样速度头球任意球技术身体爆发力都是爆表的存在 国足可以直接停进球门 哎，他只给我们80后留下了深刻记忆！射门19的男人。 阿德才35？感觉离开视线好久了<br>怀念以前阿德+伊布，自带吸球属性，加速带过半场就按射门键 力量99射门99 看他跑步感觉脚底下都是坑 我看成了大罗，这一停一带一射 玩巴西完全是神一样的存在，射门太变态了 就这下停球，国足没几个能停好的 阿德是顶级前锋，自从他爸xx后，他就开始迷失自我，流连烟花之地 这体型在中超没人敢铲你 射门能力满分的人！ 巅峰真没有现在这种技术，06年加纳和巴西那场同样的单刀大罗不守门员过干净，阿德把球护送给守门员 就这脚下技术也比郜飞机强数倍 我作为一名皇马球迷也不得不承认能和巅峰期阿德媲美的只有梅西 那还是有的，这球球速不快的 长途奔袭尤文，已经是永恒的经典了！ 他的堕落对于球迷来说是无比心痛的 堕落的国王啊 楼上一群崇洋媚外不懂球的。这种友谊赛跟竞技体育比。对抗弱的比赛，国足也能玩出花。 巅峰状态确实是，如果教练是爵爷就好了。 停球依然世界级 从国王到乞丐 好像是父亲去世了，没人管了吧 实况8 有卵用！8最强的欧文，大罗和齐祖 游戏bug也不行了 06年切尔西出1亿买阿德，国米没卖。 这身体，可惜啊 ",
        "Total": 2541,
        "Link": "http://comment.sports.163.com/sports2_bbs/D6OTGNFL00058781.html",
        "Reply": 219
    },
    "Title": "一停二慢三看…35岁阿德破门 放以前直接爆射了_网易体育"
}