{
    "Comment": {
        "Content": "看看那些房子格局，和墓地有什么区别，只不过，大点小点，活的死的。 红旗下哪有懒汉?你们是给谁抹黑? 变相的国企 和那年代的大寨大队是一个模子... 人家只是当初没有分产到户，继续利用村集体发展了集体经济，而且有一个好的决策者，分别抓住乡镇企业发展、原材料加工制造业黄金发展时期，通过办许多企业发了起来。在当时包产到户才是政治正确时敢于坚持了少见的集体发展模式、有一个独到眼光的带头人而且这个人没琢磨着把集体的产业倒腾成自己的私产、分别抓住了乡企经济和加工制造业大发展潮流，这几个是其成功的关键因素，不能说这种模式好，不能说这种模式不好，只能说在那个时代他很独特很成功。至于其他地方、其他村子能否同时具备这几个关键因素，如果采用这种模式能否成功，很难预测，因为成功是不可复制的。未来他能否继续辉煌，也取决于新经济下形态下他能否抓住时代新的机遇。 说的这么委婉 新常态：偷机不可永久，风水轮回。 我看你是扯，当初包产到户才是政治正确，保留集体经济就是异类，不被打压就不错了，在那个时代。 看来按需分配是条绝路啊 雇媒体来洗白了 家天下‼ 负债，银行是傻逼吗？ 这些年中国老是被黑，固然有国人自己素质不高的原因，更重要的是中国已经太长时间没有打仗了。找个机会，不管是东南亚、台湾还是美国日本，来一仗，死掉几万人，大家这些就都满意了。什么和平崛起，好听不管用。 村子发展是你们村干部的功劳，村子负债是因为“养懒人”，你们可真会说啊 还死几万人一打战先把上头打死就行 那个年代讲究包产到户才是正确，政策都是鼓励和支持这个方向的，极少部分敢保留集体经济的绝对是异类和叛逆，哪个还敢给政策！华西村没有集散村集体，利用市场开放的大环境，借助村集体在哪个时代相比独家独户的财务合力，抓准时机先后开办了许多企业，这些原材料加工制造企业初期抓住了几十年房地产、基础建设高速发展形成的旺盛市场需求，后面又因为村带头人一如既往带领发展集体经济，而不是像那个年代一些人以改革之名将集体经济产业变换成私有名下，从而保证这些集体办企业保持了健康发展。 你对的行了吧，不知道那个华西村的政策这些为啥子其它村享受不到哦！ 江阴市每年的拨款、政策扶持、税收优惠在你眼里都是不存在的？那个时代政策制定者怀念过去时代的大有人在，这个村子就是这部分人扶持的产物。 不给退休金换个名字叫不养懒人，华为辞退50岁以上员工也叫不养懒人，你们犯法了知道吗？你们这样无耻的积蓄财富，等哪天贫富差距到了不可调和的地步的时候你们的财富也就变的不合法了知道吗？一个社会最基本的生存保障变成了养懒人，多么无耻而恶毒的叫法 这个华西村到底是国企还是私营？ 好多说自己没事的结果都成了flag 好，你上吧，我们跟你身后督战 扯，只是为了说明它们没错的一个产物而已：你看，集，，体还发展得更好，它们是正确的！ 当年华西人即有勤劳努力的自身因素，也有树典型立牌坊式的外部扶持。才有了今天的华二代，华三代，，，吴仁宝算啥角色？领路人？还是大家长？ 看看那些房子格局，和墓地有什么区别，只不过，大点小点，活的死的。 红旗下哪有懒汉?你们是给谁抹黑? 牵头的 随着人类新神包包阿紫的定价权理论的接受程度日益增，人类的思维得到了空前的解放，造船业与使用船的海上经济、消费的进出口信心大增，特别是低端国家，将出类式于承包土地式发放货币用于船、机器人、生物技术消费与生产工具消费的爆发，人类也就更实现自我需求现化的突破，因此这些生产者也是挣钱的大方向，，， 我也想知道 说的这么委婉 新常态：偷机不可永久，风水轮回。 就和以前的大集体差不多吧 变相的国企 看来按需分配是条绝路啊 早些年你家住上这样的房子觉得荣幸，现在倒觉的丧气，路人只会用鄙视的眼光投向你！ 江阴市每年给他拨了多少款啊？给什么政策和税收优惠是专门针对华西村的？说出来听听呀. 跟贴被火星网友带走啦~ 国家应该加大力度补贴！ 负债，银行是傻逼吗？ 这些年中国老是被黑，固然有国人自己素质不高的原因，更重要的是中国已经太长时间没有打仗了。找个机会，不管是东南亚、台湾还是美国日本，来一仗，死掉几万人，大家这些就都满意了。什么和平崛起，好听不管用。 关门仅意味再选1次，可以推掉还钱或者推迟个人来说，支持关门的，这样我有机会了咯，，，，，，，，，，，，，，，，，， 村子发展是你们村干部的功劳，村子负债是因为“养懒人”，你们可真会说啊 不给退休金换个名字叫不养懒人，华为辞退50岁以上员工也叫不养懒人，你们犯法了知道吗？你们这样无耻的积蓄财富，等哪天贫富差距到了不可调和的地步的时候你们的财富也就变的不合法了知道吗？一个社会最基本的生存保障变成了养懒人，多么无耻而恶毒的叫法 还死几万人一打战先把上头打死就行 好，你上吧，我们跟你身后督战 你对的行了吧，不知道那个华西村的政策这些为啥子其它村享受不到哦！ 很多人都是不做事，就有钱拿的 好多说自己没事的结果都成了flag 家天下‼ 和那年代的大寨大队是一个模子... 江阴市每年的拨款、政策扶持、税收优惠在你眼里都是不存在的？那个时代政策制定者怀念过去时代的大有人在，这个村子就是这部分人扶持的产物。 雇媒体来洗白了 犯什么法？请你这个法律专家指出来，法律名，条款号。罪名是什么？ 创业喊起来容易！创起来难！成功守住难上难！就华西目前的情况是无吴创不了业！无吴也守不了业！就这债那就有的还了！除来了个更能忽悠的假药停加甘！ 这个华西村到底是国企还是私营？ 趁改开前搞钢厂(这在当时已经是犯罪)赚了第一桶金。改开后经济搞活了的情况下顺势扩张。。。就好比玩网游。你一级的时候人家五级。抢Boos抢装备。后面只要不浪稳赢。 让你透支了青春再扫地出门叫不养懒人，这不是华为的套路吗？ 牛牛牛 有多少富三代 当年华西人即有勤劳努力的自身因素，也有树典型立牌坊式的外部扶持。才有了今天的华二代，华三代，，，吴仁宝算啥角色？领路人？还是大家长？ ",
        "Link": "http://comment.news.163.com/news_shehui7_bbs/D78EJPMA0001875P.html",
        "Reply": 40,
        "Total": 784
    },
    "KeyWords": "华西村,创业,懒人",
    "PublishTime": "01/03/201818:49:15",
    "Title": "巨债传闻下华西村富三代开始创业:村里不养懒人了_网易新闻",
    "Source": "Netease",
    "Article": "（原标题：巨债传闻下的华西村:\"富三代\"开始创业因为村里不养懒人了）最近，“天下第一村”江苏省华西村被传负下巨债——有媒体报道称，华西集团截至今年9月末，负债总额为387.42亿元，资产总额为558.26亿元，资产负债率69.4%。近几年，华西村多次被传出高额负债，这个“天下第一村”再次被推向风口浪尖。▲被称为“天下第一村”的华西村图片来源：红星新闻对此，华西村党委副书记孙海燕在接受红星新闻采访时称，负债是因为公司布局了许多新业务，对企业来说非常正常。近日，红星新闻前往华西村采访时发现，大批年轻人回村创业。近年来，随着华西村开始推行的股份制改革、合伙人制度等，改变了以前本村人每年守着分红，不工作也能生活很好的旧模式。“现在，华西不养懒人了。”正在村里创业的史宇杰这样对红星新闻说，他们被外界称为华西村的“富三代”。▲印着老书记吴仁宝话的海报，如今依然挂在华西村的广场旁。图片来源：红星新闻大胆启用年轻人硕士回村出任酒店总经理328米高的龙希国际大酒店是华西村的地标，楼内拥有800多套客房以及餐饮、娱乐、会议等设施。其中，在大厦的60楼有一头纯金打造，价值3亿的金牛。▲价值3亿的金牛图片来源：红星新闻站在大厦俯瞰华西村，9座几乎一模一样的橘红色高塔整齐排列，远处是华西村统一修建的别墅群，更远处是华西村的工厂以及世界公园，公园里汇聚着仿制的长城、凯旋门等全球著名建筑。▲华西村统一建造的别墅群图片来源：红星新闻在2010年，1984年出生的戴立明回到华西村，出任龙希国际大酒店的总经理，而现在他在非洲的莫桑比克经营着华西集团的另一个企业——和林矿业有限公司。2010年，戴立明从上海交大硕士毕业，他是华西村学历较高的年轻人。毕业前，他已经在上海一家企业找到了工作，后来有一次回家遇到老书记吴仁宝，对方邀请他回村建设家乡。“华西村需要你这样的人才。”戴立明现在都还记得老书记对他说的话，戴立明认为，自己学习的机械动力学和国际金融学，回到村里肯定有用武之地。刚开始，他被安排在华西村的金融投资企业上班，后来正好龙希国际大酒店筹建开业，毕业不久的他出任了酒店的总经理。他感慨道：“外面的企业肯定不可能给年轻人这种机会。”2013年底，华西村准备远赴莫桑比克开矿业公司，戴立明又被委以重任，去开拓市场。戴立明介绍，和林矿业有限公司是华西集团海外布局的项目之一，前期主要进行石材、矿产的开采，现在也建造了石材加工厂，将开采的石材加工后，一部分运回国内，另一部分卖到世界各地。目前，他每年有10个月待在非洲，在那里他曾遭遇过抢劫，险些被持枪绑架。他说华西的青年一代都不是被标签的“富三代”，更不是不思进取的人，“华西村一直在改变。”▲广场边华西村产业结构转型宣传图图片来源：红星新闻看不见的变化创业一代感慨：村里不再养懒人1989年出生的华西青年史宇杰和戴立明一样，大学毕业后又回到华西村。▲史宇杰(左二)和同事们图片来源：红星新闻最初他在村里的食品厂工作。2016年，他和另外6个华西青年，成立了华西米业有限公司。公司引进日本先进的技术，开展新农业，村民们对他们寄予厚望，称之为“七君子”。华西村党委副书记孙海燕认为，华西村近年开始的股份制改革、合伙人制度以及大力启用年轻人等改变，明显使整个华西集团充满活力。公司的任何员工，只要有项目，有市场就可以和华西集团合作，集团用品牌和资金进行推动，最后“赚多分多，赚少分少”。孙海燕介绍，在新能源、新农业的领域，华西村已经开始尝试这种模式。“七君子”中有5位是华西村成长起来的青年，另外两位则分别是华西村的女婿和媳妇。公司成立之初，他们从村里100多个报名者中被遴选出来，送到日本学习。育苗、插秧、操作农业器械等，这些从来没有务农经验的华西村民，被外界称之为华西村的“富三代”，他们坚持从零开始学。史宇杰认为，对于年轻人，村里“给职位，给时间，给耐心。只要肯做，就有平台。”对于刚毕业的学生，华西村除了每月的工资，每年还会给10万元的奖金。史宇杰和妻子工作3年，账上已经积累了80万。史宇杰说，公司刚起步，还没实现盈利，压力很大。“以前华西本村人守着每年的分红，不工作都能生活得特别好，但是现在不行了，华西不养懒人了。”▲史宇杰和同事们在田间工作图片来源：红星新闻村党委副书记否认巨亏传言调整股份制，本村人外村人同工同酬让史宇杰和所有华西村民感受到压力的一部分原因是：2017年，华西村开始进行的股份制改革。“以前村民每年的分红会有80%转化为股份，而这部分股份越滚越大，很多村民每年用利息就能生活。为了让本村人和外村人一样同工同酬，我们调整了股份制。”孙海燕坦言，这是华西村改革中很困难的一步，但是为了发展必须这样做。华西村是江苏东部的一个小村庄，当年在老书记吴仁宝的带领下，“70年代造田、80年代造厂、90年代造城、新世纪育人。”华西村坚持以集体经济为主的共同富裕发展道路，在上世纪90年代，凭借家家住别墅、存款超百万的生活为人们所知，一度成为全国首富村，被称为“天下第一村”。▲龙希国际大酒店建成前，金塔曾是华西村的最高建筑，也是游客观光的首选。来源：红星新闻▲今年85岁的赵林元是华西村的“元老”之一图片来源：红星新闻红星新闻发现，眼下华西村景区的游客很少，一排观光车停在广场上，一有人走过，导游就会上前问，“要不要参观?”雄伟的华西村建筑群，在这个时候显得有些空旷寂寥。华西村的金塔，是村里的标志之一，以前有不少人排队参观，一天人流量好几万。“今非昔比呀。”一位卖东西的售货员盯着手机屏幕，感叹道。▲在华西村卖纪念品的一位女子图片来源：红星新闻孙海燕介绍，现在当地旅游和以往相比有很多变化，华西村也正在做相应的调整变化。孙海燕坦言，旅游收入一直不是华西集团收入的主要部分，但集团很重视，因为游客能给华西村带来人气，带来品牌的影响。针对外界对华西村身陷巨额债务的说法，孙海燕提供的一份资料显示，2017年1月到9月，华西村钢铁实现营业收入142.06亿，毛利9.72亿。“钢铁、化纤等传统行业今年行情非常好，是近几年最好的一年。”对于网上的质疑，孙海燕认为，“今年负债是因为公司布局了许多新业务，属于企业的正常情况。”他称，即使前几年受大环境影响，传统行业不景气，华西冶金、化纤也没有出现严重亏损。▲华西钢厂的生产线图片来源：红星新闻华西钢铁厂办公室主任唐永明认为，华西钢厂规模比较小，主要做一些差异化的产品，除了卖到江浙，华西村自己就能消化一部分，“所以基本不会亏损。”孙海燕称，华西村转型非常成功，很早就开始施行股份制，“集体控股，个人参股，按照股份分红。”他说，2016年华西村65%的利润来自第三产业，只有35%来自传统行业。而在转型之初的2003年，90%的利润都是传统行业。对于很多人质疑华西村是“家族制”，他称，“用股份占比来说，华西集体所有占股比例为75.37%，村民个人所占股比例为24.63%，吴协恩书记一家占股比例只有0.43%。”▲傍晚的华西村图片来源：红星新闻本文来源：红星新闻责任编辑：荀建国_NN7379",
    "URL": "http://news.163.com/18/0103/18/D78EJPMA0001875P.html"
}