{
    "Article": "北京时间12月23日晚20:00，西甲第17轮，皇马主场0-3不敌巴萨。下半场补时阶段，梅西助攻比达尔破门，将比分定格在了3-0，而随后一个画面则更值得回味。在进球发生之后，比达尔、维尔马伦、安德烈-戈麦斯等队友连忙上前抱住梅西庆祝，皮克甚至作出了双手指天的霸气动作。只有拉基蒂奇一个人，默默地捡回了梅西的球鞋，他笑看巴萨队友们的庆祝，随后双手举起球鞋，膜拜梅西的神助攻，并等待自己王穿回战靴！近年来，越来越多的人加入了膜拜梅西的行列，身为殿堂级“梅吹”，拉基蒂奇再次用行动捍卫了自己的地位：当所有人都在赞美梅西“光脚”助攻有多厉害的时候，金发克罗地亚人已经在关心梅西脚丫冷不冷的细节了！本文来源：肆客足球APP责任编辑：郑鑫桐_BJS5086",
    "Source": "Netease",
    "KeyWords": "拉基蒂奇,梅西,战靴,比达尔",
    "Title": "这才叫真爱!别人忙庆祝 拉基蒂奇却帮梅西捡战靴_网易体育",
    "Comment": {
        "Total": 5029,
        "Content": "美国这货真是语不惊人死不休。梅西根本就没必要去解释了。在之前的年代没有现在疯狂的商业化、现在的足球进球更难你知道吗？防守队员的球商和技战术被商业化发展发展到了新的高度、你所谓的老球星到现在整不好都给弄报废掉。 也就是现在球星匮乏，才觉得梅西c罗多珍贵。放在90年代末，球星井喷，能媲美梅罗的车拉船载，不下50人。 梅西<br><br>词曲：地瓜<br><br>吃饭睡觉吹梅西<br>沉默呐喊还哭泣<br>哪天你若若别离<br>那绿荫成黑白<br>我的爱怎么继续<br>就让我的眼跟着你<br>在密不透风里如蝶般写意<br>就让我的心跟着你<br>从长发飘飘到满脸胡须<br>你好,梅西<br>你好,梅西<br>LionelMessi<br>LionelMessi<br><br>白线绿草黑夜里<br>眼珠转来又转去<br>哪天你若若别离<br>那后来的精灵<br>空恨我生君已去<br>就让我的眼跟着你<br>在密不透风里如蝶般写意<br>就让我的心跟着你<br>从长发飘飘到满脸胡须<br>你好,梅西<br>你好,梅西<br>LionelMessi<br>LionelMessi<br><br>有一天夜里<br>两点半醒来<br>我不敢再打开电视机<br>你好,梅西<br>你好,梅西<br>你好,梅西<br>你好...<br>（网易云，虾米《梅西》） 媒体界莱因克尔，球员界拉基蒂奇，教练界瓜迪奥拉 莱因克尔！原来他是第一梅吹，但后来这人吹了几波C罗，就被辣鸡撵下来了 我去，梅吹界第一名争夺已经白热化了，光靠嘴吹已经不好使了[窃笑] 友谊长存 现在的防守强度比以前低是事实，不过要说有50人比肩梅罗还是太过了，顶多不超过10人，并且要比就比整个职业生涯而不是巅峰期 明年世界杯小组赛，群主你会不会射乌龙?😂😂😂 现在足球进球容易多了，一来是优秀后卫尤其中后卫极度匮乏，基本上找不到马尔蒂尼，卡拉瓦罗，内斯塔，阿亚拉，马特乌斯这种级别的后卫了。二来，意大利国家队以及意甲的日渐式微造成链式防守已经失传，现在无非是大巴横行而已。第三，现在国际足联鼓励进攻，以前允许的各种防守动作现在都有限制，后卫都束手束脚。第四，现在边后卫流行进攻，造成两翼保护不力，容易造单刀。 C罗是给人希望，他让人知道了球员努力后能达到的上限有多高；梅西是让人绝望，他让人了解到有一种境界是球员无论如何努力都达不到的高度！ C罗梅西都已经走在足球运动员的中后期，所以梅吹罗吹可以和平了。他们陪伴了我们的青春，剩下的表演都静静欣赏，我相信每一个梅吹心里都有罗，每一个罗吹心里都有梅，因为这两位伟大的球星配得上我们的膜拜。 真的感觉恍如隔世，时间都去哪里了？ 不见得！据我多年观察！我一直觉得梅吹们确实是真心喜欢梅西所以骄傲的吹！而罗吹们却并不都是因为单纯的喜欢c罗而骄傲的吹！罗吹中有相当一部分是因为不喜欢梅西所以吹罗！而这些人也并不是真心喜欢c罗！只不过想黑梅西现在唯一能用的枪就是c罗！所以梅吹跟罗吹的战斗永远结束不了！老去的米兰球迷留！ c罗和梅西都非常棒，他们给大家带来很多赏心悦目的比赛，他们相互惺惺相惜也相互又好竞争，为的是提高自己，只是万里之外有一些人始终要分成两派来对骂才舒服。 来来来，你给我数一个除了梅罗以外接近10年能每年进4，50球还带十几二十个助攻的出来，这智商怎么去的美国 太感人了…… 拉基蒂奇确实是超值的转会 真为你们这些孤陋寡闻的小球迷感到悲哀，生不逢时，错过了足球的黄金时代还大言不惭。要说战术，安切洛蒂的四个十号，圣诞树见过吗？你们现在看惯了摆大巴，就没见过正真的战术。 这才是梅吹的最高境界 世青赛是哪一年来？04还是05？我就是那时候开始关注的梅西，好像当年曲波还是追风少年啥的，能和梅西相提并论的，现在都不知道干啥去了…… 一如篮球之乔丹 梅吹第一人名不虚传 你也是一路看过来的、你说出这么多后卫的名字也没用，他们能代表谁啊，只是因为那时候正好是我们都是半大孩子看的入迷，而当时意甲联赛号称小世界杯而已。现在的猛人比比皆是，只是因为那时候正好是中国制造大师的年代，我们知道的也就是那么几个周末总直播的后卫名字。 不要强行双娇，我们只喜欢梅西！那个绿茵场上帝！ 其实这个年代很多球星，只是他两的光芒太耀眼掩盖了其他人，远古吹就别吹了，类似鲁尼，阿扎尔。里贝里，还是罗本，本泽马贝儿苏牙，哪个不是很厉害的球星，只是他们悲哀，生在这个年代！ 看了梅西踢球，才知道我踢的像一坨屎--莱因科尔 那梅西就是乔丹 第一名好像是那个叫莱什么的，辣鸡第二 群主不但会吹还会做啊，在下1067432号梅吹自叹不如 马塞洛好歹也防住了梅西一只鞋，尽力了 梅西说马塞洛帮我看下球鞋我先来个助攻 辣鸡绝对是梅吹群第一群主。 好基友，巴萨的团结 第三名，木鸟，第四卡佩罗，第五，我估计是明年下课了的齐秃子，因为梅吹的反倒都是皇马旧教练 M马塞洛明知梅西永远不会和他互换球衣于是对梅西的球鞋发起了攻击！ 个人认为几十年出不了一个这样的 梅罗后球星就井喷了 莱因克尔 07年的德比19岁的梅西带帽了，小罗把他高高举起 防住梅西的一只鞋，够他吹一年了 我来吹一波：如果一支球队有一位让队友们心服口服一致公认的第一王牌的时候，队伍就比较容易团结了，如果这个王牌人品又好还无私那这球队真是运气爆棚，所有的低潮都能扛过去。<br>像梅西这种旷世奇才也许几十年才能出一个，很有幸能亲眼目睹他的整个职业生涯。 SB不要乱说话，这里很多老球迷，而且很多老球迷都是梅西粉，就因为他技术、意识、球商放在历史上也是首屈一指！论射门，梅西功力不在巴斯滕、克林斯曼、巴蒂之下，论过人，也就马拉多纳、齐达内、罗纳尔多可以与之相比，论组织梳理中场，堪比马拉多纳、斯托伊奇科夫、哈吉、古利特，说中前场传致命威胁球，又只有里瓦尔多、小罗、老马、齐达内能比，说任意球，也就老马、齐达内、小罗、米哈伊利琴科等能与之匹敌。然而梅西这些技能是样样精通，且动作合理，踢的聪明，球商也是史上数一数二！在梅西脚下阵亡的顶级球星不计其数，巅峰巴西世界最佳左后卫卡洛斯、金球后卫卡纳瓦罗、世界杯冠军主力门将布冯、卡西、诺伊尔、曼联92班中坚吉格斯、小贝、斯科尔斯、世界最佳左后卫马队，这些拉出来放在历史上也是响当当的人物！你不喜欢梅西没有人强迫你，但是睁着眼睛说瞎话，就不是球迷所为！ 其实不用夸，梅西只是像人一样的神罢了！ 你的智商很感人，正因为其他球星匮乏，梅罗才能进四，五十球。像是c罗之流，放在以前充其量就和埃尔博差不多，进不了国家队。梅西稍微强一些，也到不了罗马里奥的高度，估计一个金球到头。 恭喜你刚刚晋级为殿堂级。。。 那些说我就知道贴梅西屁股的人，我要说的是，那是多么美妙的屁股啊！”—莱茵克尔 c罗像是科比，不仅天赋高，而且特努力 好吧，那让我们看看未来几十年是不是仍旧如你所说的球星匮乏 看梅西从07年的长发飘飘到如今满脸胡茬 06年世界杯爱上这个精灵 二楼什么是群主 当年也是玩命的满场飞奔啊 哈哈哈……支持兄弟 媒体界莱因克尔，球员界拉基蒂奇，教练界瓜迪奥拉 群主太优秀了 那可能是你眼光狭隘吧！论足球天赋C罗顶多是梅西的一半，但他硬是整出绝代双骄来，不服不行 大家评论重心都错了，这是拉基蒂奇的帖子 还有总统界 恭喜你刚刚晋级为殿堂级。。。 真佩服 真心想看看如果明年小马去皇马后，趁梅西还凌厉，两个前场自由人酣畅淋漓<br>干一场，看谁的威慑力大。只是越往后梅球脚步越沉了！ 明年世界杯小组赛，群主你会不会射乌龙?😂😂😂 这话没毛病 C罗是给人希望，他让人知道了球员努力后能达到的上限有多高；梅西是让人绝望，他让人了解到有一种境界是球员无论如何努力都达不到的高度！ 拉基蒂奇闻到梅西脚太臭，捡起鞋叫梅西穿上 赞米兰球迷 不见得！据我多年观察！我一直觉得梅吹们确实是真心喜欢梅西所以骄傲的吹！而罗吹们却并不都是因为单纯的喜欢c罗而骄傲的吹！罗吹中有相当一部分是因为不喜欢梅西所以吹罗！而这些人也并不是真心喜欢c罗！只不过想黑梅西现在唯一能用的枪就是c罗！所以梅吹跟罗吹的战斗永远结束不了！老去的米兰球迷留！ 莱茵克，港译连尼加，86世界杯射手王，90世界杯几乎带着英格兰进决赛的射手都不知道，2楼可见还是年轻 我看球超过20年了，还有谁能让我熬夜看球，谁能让我拍案叫绝，除了梅西没有第二人。之前博格坎普让我有这样的感觉，但是现在梅西分分钟都能给你惊喜，这是任何历史球星都给不了的 太感人了…… 论盘带过人能力，金毛狮王才是第一。 C罗梅西都已经走在足球运动员的中后期，所以梅吹罗吹可以和平了。他们陪伴了我们的青春，剩下的表演都静静欣赏，我相信每一个梅吹心里都有罗，每一个罗吹心里都有梅，因为这两位伟大的球星配得上我们的膜拜。 煤老板威武！ 梅西应该是球神[窃笑] 莱茵克尔，也是当年英格兰的殿堂级前锋。 人球可以过鞋不能过。 梅吹第一人名不虚传 因为那个阵形是被迫无奈的选择，还以为安胖想用这个阵型一样。 一个总是在为自己努力，另一个是在为团队而努力，不一样 马塞洛可以吹一辈子了 内马尔在的话皇马就铁了心摆铁桶反击了，反而难打 群主 “梅吹”群 莱茵克尔1986年世界杯最佳射手1986年英格兰足球先生出道于莱斯特城整个职业生涯中取得了很多荣誉，最突出的一点就是从未得过一张黄牌，被誉为“足球绅士” 欧洲人，炒作，商业包装 南美好几个总统是梅迷。 梅西职业生涯，一出场就是高峰。梅西职业生涯应该比罗长，因为梅西岁数大了可以当中场组织者，罗只能当前锋，而前锋的职业生涯一般都很短！ 你的帖子因为太多禁词无法回复只想问你一句是不是农村来城里打工的？为什么言语那么肮脏？别人好好的一个讨论楼就你一个人在骂街还吧你亲生父母的生殖器官挂在嘴上真的很恶心不管你是鞑子还是Ip所在地的人这种行为真的很不好 长发飘飘时确实感觉挺飘逸 第一名好像是那个叫莱什么的，辣鸡第二 辣鸡表示：“恕我直言，所有现在没跟梅西同一支球队的梅吹都是垃圾”。 梅吹第一可不止是嘴上说说而已！[喷水][喷水][喷水] 长发梅西，短发梅西，胡子梅西。 马塞洛好歹也防住了梅西一只鞋，尽力了 为什么巴萨不管谁进球都跑向梅西？因为梅西不是自已进球了就是助攻别人进球了，所以大家都会很自然的跑向他庆祝。😘😘😘 有理有据，服了 新闻界就是网易新闻 美国那个装逼过头了，足球作为世界第一运动，吸引了太多了的金钱和资源，在这些的帮助下，战术水平，球员能力，身体素质，后勤保障，数据分析等等等等都会越来越高，足球整体水平也会越来越高。现在的球星压根不比以前少，只是梅罗太过逆天掩盖了其他人的光芒。梅西对比大罗，c罗对比巴蒂，苏牙对比舍甫琴科，哈维对比齐达内，随便举点例子，你能说以前的更强？再说后卫，不是铲得越凶跑得越快犯规更狠就是好后卫，现在的足球对后卫脚下技术的要求越来越高，边后卫攻击力甚至是第一考虑要素，最烦听什么梅罗到了九十年代会被铲废，大罗这么牛逼也不是后卫铲伤的吧，也是爆发力太强膝盖承受不住才伤了的 个人认为几十年出不了一个这样的 别忘了那几个总统 暴力鸟，尼玛，我的进球竟然就这么被吹了。 梅西随便一找一堆经典进球，而且为人处事很好、帮不开胡的队友松饼让点、很难想象这么一个低调务实的球王。 补一句，我觉得世界上罚任意球到现在为止最好的应该是儒尼尼奥，不论远近，角度，都可以打出完美的世界波 我来吹一波：如果一支球队有一位让队友们心服口服一致公认的第一王牌的时候，队伍就比较容易团结了，如果这个王牌人品又好还无私那这球队真是运气爆棚，所有的低潮都能扛过去。<br>像梅西这种旷世奇才也许几十年才能出一个，很有幸能亲眼目睹他的整个职业生涯。 你说秦琼厉害有人就说关公比他厉害多了，说关公厉害又有说孙悟空牛逼的，反正他们也没法比试，远古吹爱怎么吹就怎么吹呗~没必要解释这么多，他们高兴就好啦 上次绝杀皇马好像也是马塞洛的锅 你好弱智啊，4321是吧？如果这个战术很好用为什么现在没人用呢？不是因为特殊配置才出现的特殊阵容。……真尼玛蠢 确实 真爱 太到位了 原来你是自黑做引子的，费劲 硬是整出，确实不服不行，最开始就是个小小罗，借大小罗上位而已 看梅西从07年的长发飘飘到如今满脸胡茬 跟梅西同时代的球星是悲哀的…… 哎，对事不对人，别尽扯没用的。 拉基蒂奇告诉你了？真幽默 马屁精 莱因克尔，不过他儿子现在吹梅西的功力也不低了[鄙视] 美国人进不了世界杯活该，跟我没关系。你丫看过罗马里奥踢球吗？梅西也就是纪律好一些，天赋不一定比得过人家。 你说的是莱因克尔吗？[大笑] 我眼里的c罗根本不及鲁伊科斯塔，更不用说菲戈 得过世界杯最佳射手的那个英格兰前锋。 莱茵科尔，说和梅西比，自己就是一坨屎... 梅西在激励队友方面显然不如C罗出色，队友对C罗有一种畏惧感，所有人都得为他服务，这就是罗总强大的地方 张扬过度是不要脸！ 群主就是群主 同感，八九楼老球迷了 拥有他的球队就等于装了不对等作弊器，等到巴萨失去他的时候估计要好些年才能缓过来 c罗和梅西都非常棒，他们给大家带来很多赏心悦目的比赛，他们相互惺惺相惜也相互又好竞争，为的是提高自己，只是万里之外有一些人始终要分成两派来对骂才舒服。 说的真好 2222222 顶级梅吹。 😂😂😂😂 应该算足球世界不世奇才，足球史上有限的几个。 莱因克尔，英格兰名宿 C罗是给人希望，他让人知道了球员努力后能达到的上限有多高；梅西是让人绝望，他让人了解到有一种境界是球员无论如何努力都达不到的高度！ 其实当时我就在想谁给捡的鞋，哈哈，只不过没直播镜头没看到 梅吹第一人名不虚传 呵呵 两人踢球几乎没有交集，梅西怎么就虐过齐达内了？再说，齐达内球员时期凭借一己之力帮法国连夺世界杯和欧洲杯（更何况那时候世界足坛各豪强都在巅峰，冠军含金量远胜现在），开创了法国足球的黄金时代，梅西能比吗？要说教练，齐达内已经卫冕欧冠了，前无古人的壮举，梅西虐从何说起？ 深有同感！当时世界强队几乎都在巅峰，巴西，荷兰，意大利比现在盛强百倍，英格兰，阿根廷，法国也在黄金年代，只是德国西班牙略有逊色。黄金一代的葡萄牙初露峥嵘，还有东欧一瓢黑马，捷克，克罗地亚，南斯拉夫，保加利亚，罗马尼亚也强势崛起，98年世界杯和00欧洲杯绝对是近几十年来世界足坛的巅峰。 群主就是牛逼 那天看球我一直怀疑，梅西的脚没被队友踩坏么？ 05年登陆诺坎普同台齐祖大罗随后边开启了属于他的时代，说虐确实夸张了只是极不喜远古吹！梅西的能力即便是同巅峰时期的大罗齐秃这些顶级球星也无出其右，更何况他的高光时期要比这些长太久。 梅西何德何能和齐达内比？齐达内凭借一己之力带领法国连夺世界杯和欧洲杯，梅西有啥？更何况那时节足坛豪强林立，群雄并起，含金量比现在盛强百倍。另外，齐达内刚当教练就初露峥嵘，卫冕欧冠，前无古人，已是旷世奇功，梅西有啥不服的？ 期待下一波梅吹语录 第一名好像是那个叫莱什么的，辣鸡第二 群主不但会吹还会做啊，在下1067432号梅吹自叹不如 骡最好不要拿来和梅西比，有点自知之明好吧？ 群主新高度，这就是为什么他是群主了，明显功力领先太多 美国人怪不得没进世界杯，他妈的中国傻逼也不至于把罗马里奥比梅西 对的，没有那波人的高度 梅西刚出道的时候把尤文图斯冲的七零八落。被一个18岁的普通球星随便过，你的意思是不是说05年的尤文是渣渣防线？ 莱因克尔：说好了大家一起比嘴上功夫，你怎么还动起手来了！ 莱因克尔是教主，辣鸡是护法兼群主 个人认为几十年出不了一个这样的 巴洛特利大有超越的意思<br>句句经典 来来最看不下这种远古喷，齐秃子时代你说怎么样吧，梅西还不是从他球员时代虐到教练时代？？ 巴萨走了那么多人，有半个说过梅西坏话的吗？拉基蒂奇一直就说他是个好球员 梅吹的境界又提升了 梅西再怎么厉害也超越不了马拉多纳！除非拿个世界杯，但是C罗已经超越了所有的葡萄牙名宿 对瓜迪奥拉不敢去英超 不论是天赋还是后天自己的努力都会赢得尊重，因为一个张扬一个内敛，所以上帝赋予的自带buff不一样哈哈哈 我来吹一波：如果一支球队有一位让队友们心服口服一致公认的第一王牌的时候，队伍就比较容易团结了，如果这个王牌人品又好还无私那这球队真是运气爆棚，所有的低潮都能扛过去。<br>像梅西这种旷世奇才也许几十年才能出一个，很有幸能亲眼目睹他的整个职业生涯。 6楼把我想说的说了，远古吹之前还挺流行的，后来经过各种认证后都被打脸了，美国这货咋又原地复活了 拉基：梅吹委员会你来搞！ 这波梅吹可以的😊 哈哈哈性格决定命运，会吃亏的 拉基蒂奇用实际行动告诉梅吹们<br>梅吹届的鼻祖不是白当的 马塞洛：球王，留个纪念品吧。 群主的地位岂是他人可以轻易撼动的 梅西让我觉得当初的我就是一坨屎 梅西是勒布朗一样比较恰当。 小编这说的。基情四射啊 也就是现在球星匮乏，才觉得梅西c罗多珍贵。放在90年代末，球星井喷，能媲美梅罗的车拉船载，不下50人。 拉基蒂奇确实是超值的转会 莱因克尔，梅吹群真正的群主 足球不是篮球身高没那么重要天赋才是最重要的 你太抬举梅西了，几十年能出个吗 因为没有胡子的梅西更犀利！ 莱因克尔 友谊长存 诚然莱因克尔文采斐然，可他只能坐在场下吹梅西，拉基蒂奇嘴上功夫相形见绌，可毕竟近水楼台，能身体力行的捧！综合考量还是拉基蒂奇稍稍领先半个身位。 莱因克尔 英格兰名宿莱因克尔，他著名的话是：看到梅西踢球我才知道我以前就是一坨屎。 来说说找出来10个防守强度？战术？你的意思足球还倒退了？以前的金球得主内德维德舍甫琴科欧文卡卡大罗里瓦尔多小罗还有谁？？齐祖确实可以还有吗？防守有时候5-6个甚至整条后防线都防梅西瞎吗？ 三楼的话没有全错，对了一半，和罗比是不下50人的 莱因克尔 C罗是给人希望，他让人知道了球员努力后能达到的上限有多高；梅西是让人绝望，他让人了解到有一种境界是球员无论如何努力都达不到的高度！ 空间 我也觉得，防守强度又不是单纯指的凶狠铲抢.时代不同了，无论足球篮球训练方式方法都在进步。球员肯定是现代更强战术也更为先进.当然，每个时代都有旗帜鲜明的具有代表性的球员出现.但是总的趋势肯定是进步的. 错！梅西才给人以希望，一个小矮个子，一个经历过艰辛的人，可以通过努力改变自己的生活，获得成功。 竞技体育，身体是有优势的 其实你想多了～<br>梅西这样的球王是千年等一会，或者是后无来者～放心！有生之年你不可能再遇到的～ 英格兰名宿莱茵克尔😄 角度刁钻！ 才1800万，按现在的表现保底6000万。 莱因克尔？ 天赋碾压众星的努力 早晚得进马德里看守所 第一名好像是那个叫莱什么的，辣鸡第二 多了去了，还有瓜什么的，穆什么的，马什么的，罗什么的，亨什么的，鲁什么的........ 梅吹第一人名不虚传 拉基：说了你可能不信，我想跟梅西生孩子 莱茵克尔有后来居上之势，而且他的儿子也成了梅吹，但拉基蒂奇的水准一直处于领先地位，桑保利因为是国家队主教练内敛了一点，能执着梅西已经激动得颤抖 喜欢梅西但不喜欢巴萨因为我是皇马球迷但不喜欢C罗我很奇怪吧哈哈哈哈 群主发红包啦 博阿滕：小马你他妈的什么意思？ 很讨厌c罗，但不得不承认，这两人都是现象级球员，不分伯仲 把这两人去掉，现在顶级球星也有五六十人 马塞洛:别人是人球分过，梅西你人鞋分过是什么意思？[大哭][报警] 不矛盾啊，踢球的都明白谁水平高心里都有数没啥好争的，球迷就不一样了反正数数进球奖杯俩人也差不多 辣鸡还没达到狗屎的高度所以莱因克尔是第一辣鸡最多是现役球员等一 兄dei，灵光一现不是这么用的…… 马塞洛好歹也防住了梅西一只鞋，尽力了 必须是乔丹 人家是群主，不在乎吹的高度，只在乎每天有新的段子 那时候是足球推广的黄金时期，虽然有电视直播，但更多的接触还是纸媒，看了20多年球，现在的球星根本没有减少，以前的球星更有个性倒是真的，我当年最喜欢的是巴蒂斯图塔，但他往往只踢半个赛季的好球 M马塞洛明知梅西永远不会和他互换球衣于是对梅西的球鞋发起了攻击！ 个人认为几十年出不了一个这样的 可惜，骂C罗和梅西的两种类型狗狗看不到楼主的高度。人家两大巨星场上友好，国人却在网络狗咬狗。可笑至极！ 梅西非人类 莱因克尔？ [被黑][被黑][被黑] 这就是天生和后生的区别。 莱万多夫斯基 我来吹一波：如果一支球队有一位让队友们心服口服一致公认的第一王牌的时候，队伍就比较容易团结了，如果这个王牌人品又好还无私那这球队真是运气爆棚，所有的低潮都能扛过去。<br>像梅西这种旷世奇才也许几十年才能出一个，很有幸能亲眼目睹他的整个职业生涯。 辣鸡是群主，自认第一的。莱因克尔当然也不服气 在过去十年，梅西改变了我对足球的认知。 更奇怪的是你的名字是伊布拉希莫维奇[微笑] 我还是喜欢那个没有胡子，没有纹身的梅西 莱因克尔，还是英格兰名宿！ 你就扯几把蛋吧 c罗像是科比，不仅天赋高，而且特努力 拉基蒂奇！梅吹群群主 不是几十年，怕是空前绝后 你这波吹的不合格！球星匮乏？还那个时候不下五十人有这样的水平？你自己觉着你所说的那个时候谁能媲美现在这俩人？ 看梅西从07年的长发飘飘到如今满脸胡茬 梅西是勒布朗一样比较恰当。 莱因克尔 也是07年开始看的，经历了梅西最巅峰的人。那时候场均快2球了，而且很少点球。真是很强 辣鸡不是第七吗[微笑] 太感人了…… 很讨厌c罗，但不得不承认，这两人都是现象级球员，不分伯仲 莱茵克尔最近和他儿子组队梅吹了，估计是想挑战拉基蒂奇的地位。拉基蒂奇压力很大啊……竞争太TM激烈了。 莱因克尔，最绅士的球员，一生无红黄牌 是狗屎 人家能当群主是有原因的。 我去，梅吹界第一名争夺已经白热化了，光靠嘴吹已经不好使了[窃笑] 06年世界杯开始关注的。打塞黑一上场就一球一助攻。那一年最佳新秀奖给波多而斯基是相当的不服的。最后果然一个成了球王。一个泯然于众了 楼上给勒布朗贴金！哪点像？梅西可从来不会自称为王！梅西可不会抱大腿！梅西可不会对着高层撒娇！ 第一名说：自从看了梅老板踢球后，我才发现我以前踢的都是垃圾。 明年世界杯小组赛，群主你会不会射乌龙?😂😂😂 马塞洛要不是跟拉莫斯是连体婴的话，我还不怎么讨厌他。 莱因克尔 C罗是给人希望，他让人知道了球员努力后能达到的上限有多高；梅西是让人绝望，他让人了解到有一种境界是球员无论如何努力都达不到的高度！ 莱因克尔表示不服 还好小组赛，希望双双出线，阿根廷和克罗地亚打个平局。😄 梅西一场比赛做的高难度技术动作比我整个职业生涯都多--莱因科尔 莱因克尔 看完梅西踢球，我才发现我以前踢的像陀屎。 拉基蒂奇确实是超值的转会 那些说我就知道贴梅西屁股的人，我要说的是，那是多么美妙的屁股啊！”—莱茵克尔 不是欧洲造星的话c罗完全不能与梅西相提并论，若梅西是欧洲人，早就被欧洲吹上天了，当然，梅西已经凭实力得到了大多欧洲人的认可 厉害了 梅吹第一人名不虚传 明年小组赛，辣鸡记得传对人。。。 c罗像是科比，不仅天赋高，而且特努力 看了梅西踢球，才知道我踢的像一坨屎--莱因科尔 感谢国足，明年又可以看到高水平的世界杯了 。。。。。 第一名好像是那个叫莱什么的，辣鸡第二 名宿莱因克尔 马塞洛好歹也防住了梅西一只鞋，尽力了 幸好不是小组赛最后一场，不然真挺尴尬的 莱因克尔？ 转帖，说的好：C罗是给人希望，他让人知道了球员努力后能达到的上限有多高；梅西是让人绝望，他让人了解到有一种境界是球员无论如何努力都达不到的高度！ 机智！ 小罗说：你们玩吧，我玩腻了。后面一群孩子兴高采烈觉得终于有机会了 真爱啊! 莱因克尔，英格兰著名前锋，职业生涯没有得过牌 莱因克尔早就被辣鸡超出一个身位，辣鸡不努力，随时可能群主地位不稳，连魔力鸟和阿隆索都入群，谁还敢不努力 用实力捍卫自己的地位 真是能跑啊，拦截能力强，体力和暴力鸟一样好 毕竟是群主！群主就得以身作则！[微笑][微笑][微笑][微笑] 我来吹一波：如果一支球队有一位让队友们心服口服一致公认的第一王牌的时候，队伍就比较容易团结了，如果这个王牌人品又好还无私那这球队真是运气爆棚，所有的低潮都能扛过去。<br>像梅西这种旷世奇才也许几十年才能出一个，很有幸能亲眼目睹他的整个职业生涯。 其实不用夸，梅西只是像人一样的神罢了！ 巴塞又潻前场利器……美斯第一次系鲁营出场，粤语解说讲左句甘野 名句 选择眼瞎的确实还是有那么一部分人，有用吗 莱因克尔 老拉人不错 面对皇马的顶级后卫，梅西不得已使出了绝学--人鞋分过！ 正儿八经的名宿球员生涯0红牌当年英格兰数一数二的射手 莱茵克尔，小朋友，80年代末90年代初英格兰锋线第一人 这个问题困惑了我好久原来是群主我豁然开朗 看梅西从07年的长发飘飘到如今满脸胡茬 经典 莱因克尔 梅西<br><br>词曲：地瓜<br><br>吃饭睡觉吹梅西<br>沉默呐喊还哭泣<br>哪天你若若别离<br>那绿荫成黑白<br>我的爱怎么继续<br>就让我的眼跟着你<br>在密不透风里如蝶般写意<br>就让我的心跟着你<br>从长发飘飘到满脸胡须<br>你好,梅西<br>你好,梅西<br>LionelMessi<br>LionelMessi<br><br>白线绿草黑夜里<br>眼珠转来又转去<br>哪天你若若别离<br>那后来的精灵<br>空恨我生君已去<br>就让我的眼跟着你<br>在密不透风里如蝶般写意<br>就让我的心跟着你<br>从长发飘飘到满脸胡须<br>你好,梅西<br>你好,梅西<br>LionelMessi<br>LionelMessi<br><br>有一天夜里<br>两点半醒来<br>我不敢再打开电视机<br>你好,梅西<br>你好,梅西<br>你好,梅西<br>你好...<br>（网易云，虾米《梅西》） C罗是给人希望，他让人知道了球员努力后能达到的上限有多高；梅西是让人绝望，他让人了解到有一种境界是球员无论如何努力都达不到的高度！ 辣鸡：跟我抢群主？你们还是嫩了点 明年你们两个将在世界杯是代表各自的国家拔刀相向了！[可怜] 当所有人都在赞美梅西“光脚”助攻有多厉害的时候，金发克罗地亚人已经在关心梅西脚丫冷不冷的细节了！笑死 莱因克尔 毕竟是群主 莱文斯基 有幸看过05年梅西的几场世青赛，仍然记得当时替补出场时黄健翔激动的嗓音，梅西，来自巴塞罗那的梅西 明年世界杯小组赛，群主你会不会射乌龙?😂😂😂 我觉得他是百年一遇，立贴为证[微笑] 这才是梅吹的最高境界 你说的是职业生涯没得到过任何红黄牌的莱茵科尔吧，不过咱拉基蒂奇可以天天抱梅西啊 防住梅西的一只鞋，够他吹一年了 足球场上拉基蒂奇应该是最有实力的梅吹了，拉基蒂奇中场历史能进前20不？ 太感人了…… 吹出新高度，无敌了！ 世青赛是哪一年来？04还是05？我就是那时候开始关注的梅西，好像当年曲波还是追风少年啥的，能和梅西相提并论的，现在都不知道干啥去了…… 二人都强 梅吹大军中一员 梅西说马塞洛帮我看下球鞋我先来个助攻 梅吹第一人名不虚传 又多了一个名头：鞋吹[微笑] 腊鸡真爱粉[色色] 第一名好像是那个叫莱什么的，辣鸡第二 梅吹不可怕，可怕的是我已经找不到词语来捧梅西了。 第三名，木鸟，第四卡佩罗，第五，我估计是明年下课了的齐秃子，因为梅吹的反倒都是皇马旧教练 这段话拉基蒂奇表示五体投地！ 莱茵克尔兄弟你需要不不功课不然都不好意思说自己是梅吹群内的成员了 马塞洛好歹也防住了梅西一只鞋，尽力了 好基友，巴萨的团结 莱利 莱茵科尔 那个是梅吹群的管理员，垃圾是梅吹群主[狗] 现在的新闻真他妈好些 我也是看了他的整个职业生涯 我来吹一波：如果一支球队有一位让队友们心服口服一致公认的第一王牌的时候，队伍就比较容易团结了，如果这个王牌人品又好还无私那这球队真是运气爆棚，所有的低潮都能扛过去。<br>像梅西这种旷世奇才也许几十年才能出一个，很有幸能亲眼目睹他的整个职业生涯。 真爱 百年一遇，那智利了？ 辣鸡果然第一 英格兰巨星莱因克尔你不知道吗？ 我想他应该没这样的机会，因为要知道他的防守任务可重啦：得时刻盯紧魔笛啊！ 辣鸡那场表现也是非常出色的，他和布教授的双后腰无懈可击 莱因克尔 看梅西从07年的长发飘飘到如今满脸胡茬 ",
        "Reply": 297,
        "Link": "http://comment.sports.163.com/sports2_bbs/D6MNITOS00058781.html"
    },
    "PublishTime": "12/27/201721:39:44",
    "URL": "http://sports.163.com/17/1227/21/D6MNITOS00058781.html"
}