{
    "URL": "http://news.163.com/17/1227/20/D6MIQ7PT00018AOR.html",
    "Comment": {
        "Reply": 66,
        "Content": "一贯造谣生事，挑拨是非的流氓媒体 感觉老美好傻，F-16V升级完就比J20厉害，那还研制F22干啥，把F-16V再好好改改比J22厉害多了 F16V杀狗只如杀鸡 再多绕几次，台旺就可以放萨德了 呵呵，太小看16了，巴基斯坦认为二手也比歼十强！ 致台军：“你咋这牛逼呢！” 搞不懂，我有火箭军，为毛非要飞机怼飞机，舰艇怼舰艇。 高明，美国只要给台湾提供电子支援，瘫痪通讯和指挥系统，这样可以避免参战风险，而且还保卫了自由。 台湾有中央山脉，火箭弹是打不到反斜面的！ 呵呵，3楼，在福建沿海任意地区一次齐射2000枚火箭弹，你用什么拦截？再在这先之间夹个500枚中程弹道导弹，用巡航导弹估计都是浪费了，随你防御，随你什么先进的系统，台湾离大陆太近了，没有反应时间的。 看过，比大陆媒体客观多了 菜逼不杀！<br>台湾人一天不得安宁！ 再他妈升级也差了一代！台湾岛蛙这是走夜路吹口哨，给自己壮胆呢！哈哈！ 好可怜的湾湾啊，接着幻想 太看得起那仿品了，至今没有破音障的视频，每次只飞几分钟，模模糊糊的。 巴勒斯坦的火箭对以色列有用？ 痴人说梦，大陆只用远程火箭就把台湾炸的稀巴烂，你连起飞的机会也没有。 台湾貌似有全世界最密集的防空雷达和拦截导弹啊。除非你直接发射东风核弹啊，问题是谁敢啊。 哼哼哈哈，看我双截棍 F16要是和J20进入目视距离狗斗，也许F16真的可以打赢，但是J20要是让你进入目视距离了，飞行员和指挥员都会被清蒸油煎的 这个还真不用别人挑拨，你自己去youtube看看台湾媒体视频就晓得湾湾绿绿有多嚣张了 不仅仅是全世界最严密的防空系统，还有美国太平洋司令部提供的DSP导弹预警卫星系统、铺路爪远程预警雷达，均可以在10秒内解算出弹道轨迹和发射场坐标。你这边刚发射不到10秒坐标就被锁定了，接着就是各种导弹直接源头覆盖了……美军就是不参战，光给台湾提供情报进行电磁干扰就够了 傻逼，就火箭弹那精度还打机场？美军研发战斧巡航导弹还没你聪明？ 防空雷达和拦截导弹能防得住多管火箭炮的密集发射？ 《海外网》~........ 说句公道话歼20跟F16有一拼 湾湾忽略了战略城管大队 请问奸十在哪里实战过？出口过吗？对手有哪些？还是就一个吹字？ f16顶多能跟歼10比比 奴才嘴炮功力了得 台湾飞机有用不？炮弹都能打到台北，别折腾了 还有我们的99坦克也不如你们的猛虎厉害 短程战术导弹呢 感觉老美好傻，F-16V升级完就比J20厉害，那还研制F22干啥，把F-16V再好好改改比J22厉害多了 至少航发是的 远程火箭弹是面打击武器，战斧巡航导弹是精确的点打击武器，2种不同打击方式和用途的武器有啥好喷的。 别意淫了，火箭弹的精度根本就打不中目标。另外你知道一个导弹旅才多少发射器吗？ 2023年 你说到台独的G点了！ 台湾飞机有用不？炮弹都能打到台北，别折腾了 看过，比大陆媒体客观多了 菜逼不杀！<br>台湾人一天不得安宁！ 再他妈升级也差了一代！台湾岛蛙这是走夜路吹口哨，给自己壮胆呢！哈哈！ 密度是很高啊，可惜都是小谢树，霍克，天弓，岁数比你爸还大，前两天霍克的燃料柱泄露了。 请问奸十在哪里实战过？出口过吗？对手有哪些？还是就一个吹字？ 那是只要有你这张破嘴在，别说是火箭了，导弹的精度也是零 真厉害 对台没有什么是一顿卫士解决不了的，如果有，那就再来一轮。 这个还真不用别人挑拨，你自己去youtube看看台湾媒体视频就晓得湾湾绿绿有多嚣张了 舰炮呢。 巴勒斯坦的火箭对以色列有用？ 傻逼，你见过西方研发的面打击武器哪个超过40公里的？超过40公里CEP就降低到50米，超过100公里就降低到1公里，300公里以上基本没有精度可言。 防空雷达和拦截导弹能防得住多管火箭炮的密集发射？ 火箭炮拦截挺麻烦，这也就是韩国不敢打朝鲜的一个原因 f16顶多能跟歼10比比 流氓媒体，说就是屁 一贯造谣生事，挑拨是非的流氓媒体 你个傻逼，打机场用得着精度几米吗？战斧一枚多少钱？远程火箭一枚多少钱？ 其实直接火炮覆盖就可以了，总不能炮弹都能全部拦截吧，不过还是那个问题，谁敢啊 给自己壮胆而已 呵呵，太小看16了，巴基斯坦认为二手也比歼十强！ 拦截？不存在的，火箭弹又便宜，你能拦截多少？ 搞不懂，我有火箭军，为毛非要飞机怼飞机，舰艇怼舰艇。 傻逼，人家都说了用火箭弹 台湾有中央山脉，火箭弹是打不到反斜面的！ 也没准 那就不会害怕“爱国者”了 不是敢不敢的问题。核弹不是用来对付自己人的 太看得起那仿品了，至今没有破音障的视频，每次只飞几分钟，模模糊糊的。 防空导弹拦截远程火箭？湾湾真有钱 跟你美爹的媒体比造谣还是有差距的 痴人说梦，大陆只用远程火箭就把台湾炸的稀巴烂，你连起飞的机会也没有。 台湾貌似有全世界最密集的防空雷达和拦截导弹啊。除非你直接发射东风核弹啊，问题是谁敢啊。 升级后的f16情能可比歼十b？144架对付越南都没有必胜把握，遑论解放军 近程弹道导弹不是那么好拦截的，预警时间不够。 F16要是和J20进入目视距离狗斗，也许F16真的可以打赢，但是J20要是让你进入目视距离了，飞行员和指挥员都会被清蒸油煎的 饱和轰炸呢。比比谁的导弹多。 傻逼，就火箭弹那精度还打机场？美军研发战斧巡航导弹还没你聪明？ 《海外网》~........ 说句公道话歼20跟F16有一拼 湾湾忽略了战略城管大队 高明，美国只要给台湾提供电子支援，瘫痪通讯和指挥系统，这样可以避免参战风险，而且还保卫了自由。 奴才嘴炮功力了得 收了某某钱色的媒体 把铁塔打掉，没电了，哈哈 《海外网》~........ 哈哈哈j20打不过f16湾湾这么喜欢掩耳盗铃吗？ 出售和升级名字不同，实际就算买给台湾先进军事技术，中国就没有招了吗？ 哼哼哈哈，看我双截棍 再多绕几次，台旺就可以放萨德了 你说的是远程火箭炮吧，成本很高哦 F16V杀狗只如杀鸡 正经看民视、新台湾加油。去看看能说出比这条更无知的话来。 不怕不怕不怕干一仗试试 致台军：“你咋这牛逼呢！” 台湾飞机有用不？炮弹都能打到台北，别折腾了 ",
        "Total": 590,
        "Link": "http://comment.news.163.com/news2_bbs/D6MIQ7PT00018AOR.html"
    },
    "Title": "台军升级版F-16V出厂测试 台官员:歼-20不是其对手_网易新闻",
    "Source": "Netease",
    "KeyWords": "解放军,台军,战机,空军",
    "PublishTime": "12/27/201719:48:27",
    "Article": "（原标题：台军升级版F-16V出厂测试扬言解放军不敢再绕台）F-16A/B升级为F-16V战机（如图），台空军证实4架已出厂测试。海外网12月27日电据台媒报道，台空军“F-16A/B升级F-16V”的性能提升工程，首批4架已在汉翔公司完成改装工程，目前正由美国原厂洛克希德·马丁公司工程技术人员在汉翔进行地面测试中，预计明年初可进行在台首飞测试。对此，台防务部门官员扬言，“由于F-16V性能优越，就算解放军的歼20隐形战机目前都不是对手”，更称F-16V战机成军后，解放军军机绕台“机率都将降低”。台军扬言F-16V有信心胜歼20据台湾亲绿媒体报道，台空军司令部执行的“凤展项目”耗资1100亿元（新台币，下同），将原有的145架F-16A/B战机性能提升为F-16V，但在签约后，台军一架F-16失事坠毁，因此目前仅剩144架可进行性能提升。据报道，按照计划，今年底要完成首批4架的构型性能提升，明年即可完成第一个F-16V中队担任战备，预定2023年全部执行完毕，届时台空军也将成为“第一个使用F-16V机队”的地区。报道称，台空军在向台立法机构提出的“凤展计划”报告中称，台空军目前拥有的144架F-16A/B型战机，在换装AN/APG-83型先进主动相位数组雷达（AESA）以及新型任务计算机后，将可同时执行搜索、追踪、并锁定多个目标，侦测距离也比台空军原有F-16A/B型的APG66（V）3雷达增加30%以上，整体战场侦知能力将可提升220%，自我防护能力也可提升180%。绿媒报道提到，解放军最新战机歼20如在空中与F-16V战机接战，谁会赢？报道称，台空军前参谋长范大维曾在台立法机构备询时，直接强调“台空军的F-16V战机有信心胜歼20。”范大维还分析称，台军的F-16V机身小、推力大、动作灵活，且配备AIM-9X“响尾蛇”导弹性能优越，这些都是胜算因素。他叫嚣称，台湾在战术上采取防卫守势，“敌机”进入空域之后，台方“地面还有各种导弹及火炮支持掩护”，“战力更胜一筹”。台湾付款超前美方进度落后：争取6年完成更新此前据台湾《中国时报》报道，对于F-16V战机性能提升方案，台湾军方称，这是全球F-16战机的第一次升级，台湾空军嘉义与花莲联队各有2架，目前已进入台中汉翔公司厂棚进行改装升级。台湾防务部门负责人冯世宽也曾扬言，对F-16战机升级后的性能非常有信心，“可与解放军下一代主力战机歼20匹敌”。据报道，台湾空军挑出4架锈蚀较严重的战机，先进汉翔维修硬件，等待美方完成软件测试，最后再安装软件。台军方面表示，这项战机性能提升案，台湾方面付款进度均超前，美方软件测试进度落后，是因比较慎重，并没有罚款问题。台湾军方官员表示，今年只会先做4架，比预定进度慢，虽然改装第1年进度就可能落后，但美方保证在2023年完成的计划不受影响；而由于F-16V战机升级攸关台湾“空防实力”，台“立院国防委员会”初审预算时没删一毛钱。对于美国涉台问题，国台办曾多次强调，台湾问题事关中国的主权和领土完整，也是中美关系中最重要、最敏感的问题。我们坚决反对美台进行任何形式的官方往来和军事联系，坚决反对美国对台售武，这一立场是明确的，也是一贯的。而对于解放军下一步是否会进行常态化的绕岛飞行，国台办发言人安峰山也在12月27日的例行发布会上再次强调，这是计划内的例行性训练，大家慢慢就习惯了。本文来源：海外网责任编辑：徐萌_NN7485"
}