{
    "Article": "（原标题：医生拒绝剖宫产请求硬拽婴儿致其身首分离孕妇崩溃）惊悚！据英国每日邮报报道，上周一，阿根廷一名女子在医院生产，医生拒绝了她的剖宫产请求，用手硬拽婴儿身体，竟一把将婴儿的头扯断！医生只扯出了婴儿的身体，断掉的头还留在女子的子宫里！女子与丈夫得知后当场崩溃。这起可怕的事件发生在阿根廷西北部Tartagal的一家医院，婴儿是早产儿，情况比较凶险。这位悲惨的母亲是来自布宜诺斯艾利斯的30岁女子瓦拉斯克斯（ReinaNataliaValazquez）。昨天，她和她的丈夫向医院提出重大过失索赔后，公布了这起悲剧的细节。上周一，瓦拉斯克斯怀孕22周，正在家中准备过圣诞节的时候，突然早产。家人叫了救护车，将瓦拉斯克斯送到医院。她被救护车带到胡安·多明戈·庇隆医院，医生们认为，由于婴儿很小，他可以自然分娩，拒绝了瓦拉斯克斯剖宫产的请求。然而意外发生了：当宝宝的身体刚出来后，头部却仍卡在宫颈内。“在分娩的那一刻，我不晓得是医生还是助产师，他们把宝宝硬拉出来，但孩子的头部与身体却分离了。”不是颈椎骨折，而是真的身首分离……医生手上是宝宝无头的身体，孩子的头还卡在瓦拉斯克斯的宫颈内！瓦拉斯克斯女士说，她的丈夫出去买尿布，当他回来时，看到的就是一位手上拿着他儿子无头尸体的医务人员。这对年轻的父母当场崩溃了。她说：“我知道孩子在我肚子里时还活着，因为在我到达之前我进行了一次超声，宝宝的心在跳。当我们到达医院的时候，他们又做了一次超声，我的丈夫听到了宝宝的心跳声。”“当我的羊水破了时，医生带我到产房，开始推我的肚子，拉伸婴儿，然而那时我还没有经历产前阵痛。”“我要求剖腹产，但他们不准，我感觉到有人在拉宝宝的身体，她非常用力，我痛苦地大喊‘你们伤到我了！’，但她说没有。”“然后，我就看到了我此生最大的噩梦。孩子的头断了，留在了我的身体里。”“他们没有把整个宝宝都给我看。我只能看到腿。”“我要求正义，因为这可能发生在任何人身上。他们应该解雇这个女人，并取消她的行医资格。她不是医生，她是将我的儿子斩首的刽子手！”对此，医院院长费尔南德斯（JoseFernandez）表示，医生反对剖腹产，是因为瓦拉斯克斯子宫颈开口扩张已达11公分，“医生原本计划剖腹将宝宝的头取出，但断头最终跟着胎盘一同从母体流出来。”后来，这个婴儿被装进一个白色的盒子里，送给那对绝望的夫妇，据报他们乘出租车，把宝宝的遗体带回了家中。阿根廷检察机关今天证实，已经对婴儿的死亡展开调查。他们正在对这个体重为700克的婴儿进行尸体解剖，以查明死因。费尔南德斯表示，他们会配合调查，“我们已经提供了事件的细节，并提供了所有参与的医生和产科医生的名字。但是官方没有任何证据表明婴儿的死亡是由斩首造成的。”“我们没有理由对医生停职，一切都等待法官的决定吧。”本文来源：中国青年网责任编辑：韩佳鹏_NN9841",
    "URL": "http://news.163.com/17/1229/20/D6RNLI900001875P.html",
    "Source": "Netease",
    "KeyWords": "剖宫产,婴儿,分娩,剖腹产",
    "Comment": {
        "Reply": 70,
        "Link": "http://comment.news.163.com/news_shehui7_bbs/D6RNLI900001875P.html",
        "Total": 655,
        "Content": "22周活不下来的 22周就算剖腹产也不容易活24周还算有奇迹22周奇迹不大 22周引产好吧，这记者谁啊？瞎几把乱报道 体重为700克的婴儿 胎位不正、应该剖腹产。顺产应该是头先出来的吧？ 医疗重大事故赔几钱？ 不管怎样说，这孩子太倒霉了 想起来有护士和我聊天，说她们做人流手术时候，如果胎儿较大，就得用器械把胎儿肢解了再取出来，然后再放在一起。。。当然在饭局上，简直瞠目结舌。 买不起房买不起车买不起干净的食物不敢生孩子冬天没暖气！ 买不起房买不起车买不起干净的食物不敢生孩子！ 真他妈残忍！选择哪种生产方式跟宫颈开口没有多大关系，是产妇身体状况和宝宝的身体状况、胎位加是脐带绕颈（以及绕颈多少圈）情况。这真的……太残忍。生不出来按产妇肚子也可以啊，怎么强拽！太残忍…… 还没咱们国家医生靠谱 你嘛，这喷的水平已经上天了，还用指点？ 国外的等喷子 剖腹产收费多。傻傻医生 阿根廷的蛮荒故事，值得一看 医生居然没有停职，要是国内医院还不变灵堂！如何？ 国内正规医院最次的产科医师也不会犯下如此低级的错误。 美国女教师强奸男同学案，法官判学校赔偿男同学数千万美金；出了人命的话，按照西方发达国家以人为本的理念来说，没有四五千万应该是不足以解决问题的。 不是国内的，怪不得评论少得可怜 顺产是头先出，这个头是后出来的。要说接生医生没经验，也不可能从事这项工作！ 故意杀人 有道理。 国外的，媒体可以报道出来，<br><br>国内的，报道不出来真实情况 标题太吓人！不想看此类垃圾文章 这个怎么喷，急等 第三世界的人民都生活在水深火热中 家属没有在医院摆灵堂放鞭炮，没有组织人员霸占医院殴打大夫，可见法制国家，依法处理深入人心，人民素质高。<br>这个角度如何 剖腹产不是高难度的手术，为何医生不采纳？因医生的刚愎自用，从而导致了婴儿夭折，这罪过不容轻饶。 这种情况医生全责。胎位有问题顺产扯淡 不是国内的新闻，请问这个应该从哪个角度来喷？在线等 混帐医生……👎💔 求孕妇心理阴影面积[可怜] 说实话，22周就算剖宫产成功生下也很难保住，各方面都没有发育成熟 打胎就是把孩子肢解拿出来的，同样的刽子手 原来阿根廷的医院比中国还不靠谱啊 22周就算剖腹产也不容易活24周还算有奇迹22周奇迹不大 这是医生还是畜生 第一:国外有一点小事天天滚动播放，国内天大的事你都不知道<br>第二:五十步笑百步，国内的比这个黑多了<br>注:所有新闻均可参考以上两条，最后一行不 有道理。 不管怎样说，这孩子太倒霉了 真他妈残忍！选择哪种生产方式跟宫颈开口没有多大关系，是产妇身体状况和宝宝的身体状况、胎位加是脐带绕颈（以及绕颈多少圈）情况。这真的……太残忍。生不出来按产妇肚子也可以啊，怎么强拽！太残忍…… 临时工 求孕妇心理阴影面积[可怜] 心好疼！真不知道该说什么才好！太悲催了！ 阿根廷的蛮荒故事，值得一看 不是国内的，怪不得评论少得可怜 700克?正常婴儿至少4000克吧 都说了是阿根廷 我操，真的什么事都有啊，世界之大无奇不有 主要是沒發育成熟很脆弱，足月出生的寶寶都是正常的，我就親眼看到老婆生兒子時候頭先出來然後醫生拖着頭給拉出來的，八斤的體重 既然检查孩子也小，宫口也开全了比十分还多。产妇认定事故是医生导致的，我也认同！ 说实话，22周就算剖宫产成功生下也很难保住，各方面都没有发育成熟 安娜金？？？ 胎儿娩出后不都反应很好吗,麻药就算作用到胎儿还要经过胎盘屏障呀,剖宫产时间很短不会有影响的 我擦 吓人 不是一般的不正，上下颠倒了，往后会有严重的问题。依我看，肯定是前期就发现这个问题了，孩子就不要了，但是前期不能引产，因为不够成熟，会留罗烂，要得等到长得差不多了一堆引出来，不伤害器官。所以剖腹干嘛？ 背后发凉，多谢老天让我活这么久 这个太残忍了 国情有谁了解阿根廷？有明白人来科普下，🇬🇹 要么孩子是朽的，要么孕妇宫口奇特变紧卡住？医生感觉不到吗？怎么拽段。 买不起房买不起车买不起干净的食物不敢生孩子冬天没暖气！ 太不可思议了，发生这种事，也不好盲目的定谁对谁错！ 要说孕妇宫口太紧和孩子头太大，是不符合事实的陈述。真的难断定。 国外的等喷子 [可怜][可怜][可怜][可怜][可怜][可怜][可怜] 一切只期待尸检能找到答案，并让双方都能有个相对好的结局。 医生居然没有停职，要是国内医院还不变灵堂！如何？ 这是多么伤心的事 美国女教师强奸男同学案，法官判学校赔偿男同学数千万美金；出了人命的话，按照西方发达国家以人为本的理念来说，没有四五千万应该是不足以解决问题的。 医疗重大事故赔几钱？ 顺产是头先出，这个头是后出来的。要说接生医生没经验，也不可能从事这项工作！ 国外的，媒体可以报道出来，<br><br>国内的，报道不出来真实情况 标题太吓人！不想看此类垃圾文章 胎位不正、应该剖腹产。顺产应该是头先出来的吧？ 第三世界的人民都生活在水深火热中 混帐医生……👎💔 不是国内的新闻，请问这个应该从哪个角度来喷？在线等 22周活不下来的 必须严惩凶手 早些时候我们国家也有的啦，胎位不正，不能硬搞 22周引产好吧，这记者谁啊？瞎几把乱报道 体重为700克的婴儿 无德小编，标题不注明国外，导致喷子在网页打开前几天酝酿好的💩活生生塞了回去 还有这种操作？ 想起来有护士和我聊天，说她们做人流手术时候，如果胎儿较大，就得用器械把胎儿肢解了再取出来，然后再放在一起。。。当然在饭局上，简直瞠目结舌。 买不起房买不起车买不起干净的食物不敢生孩子！ 卧槽，我的地盘我做主。 宇宙的探索是离不开我的话的，只有把围绕地球公转的一切物质包括气体计算在地球体积之内才能找到地球真正的边和角，那是反引力汇聚地，是真正的真空隧道，宇宙高速路，太阳系内的动脉!把围绕太阳公转的一切物质包括气体计算在太阳体积之内才能找到恒星与恒星的边和角，那是恒星与恒星之间的真空高速隧道，找到真空隧道以近光速超光速飞行那不是个事!宇宙飞行器也不能按照飞机的二维结构原理制造，飞机是不能高速自转的，但只有高速自转才能产生真空电磁场，以近光速飞行，未来的宇宙飞行器必须按地球原理制造，八层以上结构，你看地球高速自转着前进，我们人坐在地球上有啥不适感觉吗？ 还没咱们国家医生靠谱 你嘛，这喷的水平已经上天了，还用指点？ ？？？？？ 国内正规医院最次的产科医师也不会犯下如此低级的错误。 应该喷小编瞎写，明明是国内新闻。非要说国外。怎么样？ 故意杀人 这种情况医生全责。胎位有问题顺产扯淡 这个怎么喷，急等 一看不是国内的，只要套上，国外真是水生火热，医生水平比天朝还不靠谱……就行了！ 就说投胎是门技术活，你看可好？ 家属没有在医院摆灵堂放鞭炮，没有组织人员霸占医院殴打大夫，可见法制国家，依法处理深入人心，人民素质高。<br>这个角度如何 剖腹产不是高难度的手术，为何医生不采纳？因医生的刚愎自用，从而导致了婴儿夭折，这罪过不容轻饶。 剖腹产收费多。傻傻医生 可怕 不是国内的新闻，请问这个应该从哪个角度来喷？在线等 "
    },
    "Title": "医生拒绝剖宫产硬拽婴儿致其身首分离 孕妇崩溃_网易新闻",
    "PublishTime": "12/29/201720:17:23"
}