{
    "Comment": {
        "Content": "马克思主义将得到发扬光大。 马克思主义将得到发扬光大。 ",
        "Link": "http://comment.news.163.com/news_guoji2_bbs/D77HQUV70001875O.html",
        "Reply": 1,
        "Total": 34
    },
    "KeyWords": "马克龙,法国,安理会,联合国",
    "PublishTime": "01/03/201810:26:22",
    "Title": "法总统马克龙新年伊始打破常规访华 或将前往西安_网易新闻",
    "Source": "Netease",
    "Article": "（原标题：法国总统马克龙新年伊始打破常规访华，法方已为此行多次预热）法国总统马克龙即将访华。据新华社报道，外交部发言人陆慷2日宣布：应国家主席习近平邀请，法兰西共和国总统埃马纽埃尔·马克龙将于1月8日至10日对中国进行国事访问。这次访问将是马克龙去年当选法国总统后第一次访问中国。去年7月，中国国家主席习近平在德国汉堡出席二十国集团（G20）领导人峰会时，曾会见法国总统马克龙。据法国媒体此前报道，按照惯例，通常法国总统新年的第一个月份里要忙于向各个团体、媒体、宗教组织等送去新年祝福。马克龙选择在此时访华被认为是一种打破了常规的做法。目前，无论是法国媒体还是中国国内媒体，都尚未披露这位刚刚40岁的法国总统的行程安排。法国驻华大使馆1月2日回复澎湃新闻采访时表示，暂时没有可对外公布的信息。三任法国前总统曾访问西安马克龙首次访华的行程目前还未公布。不过，澎湃新闻从多名消息人士处了解到，除北京之外，古城西安很大可能会纳入法国总统此次行程中。国务院发展研究中心研究员丁一凡在接受澎湃新闻采访时表示，“马克龙此行或将前往西安，这在他的前任中也有迹可循。”事实上，相较于其他外国领导人偏爱北京与上海。西安一直与法国总统的访华行程有着密切联系。此前，法国的三任前总统密特朗、希拉克和萨科齐都曾将西安作为访问行程中的一站。其中，2006年，希拉克将西安作为其访华的最后一站，2013年，萨科齐则把西安设为访华首站。密特朗则在1983年到访西安。丁一凡表示，“法国作为联合国安理会常任理事国、一个大国，势必希望通过此次访华展现‘大国风采’。预计届时双方的议题不仅将涉及双边层面，还会有诸多国际问题被谈及。”早在去年10月12日，在法国驻华大使馆新任驻华大使黎想的首次媒体见面会上，他就曾披露过马克龙将于2018年1月访华的消息，并表示在访华之前法中双方将举行一系列部长级以上的外事访问活动。此前，法方的确为此次访华进行了多次“预热”，甚至包括总统夫妇本身。上月4日，旅法大熊猫“圆仔”和“欢欢”的宝宝在法国圣艾尼昂市博瓦勒动物园首次公开亮相，正式获名“圆梦”，马克龙夫人布丽吉特亲自出席命名仪式。自去年10月至今，法国已经先后派出4位部长级官员访华。其中包括体育部长洛拉·弗莱赛尔、外交部长让·伊夫·勒德里昂、经济和财政部长勒梅尔以及法国总统外事顾问埃蒂安。对于这几次预热，上海外国语大学法国问题专家薛晟分析指出，“有两个现象是之前没有过的，一是法国主流媒体基本都保持了一个论调，就是以官方的话语为准，并且强调了中法两位联合国安理会常任理事国的配合。从这一点上来看，马克龙未来希望同中国在安理会层面上开展一定的合作，强化法国在国际事务中的影响力。”法方或关注中东和朝鲜问题国际热点也将会成为马克龙此次访华关注的重点内容之一，多位专家也在接受澎湃新闻采访时表示，中东与朝鲜半岛问题将是法方关注的重点。此前，中法两方已在相关问题上有过沟通，据新华社去年9月8日报道，国家主席习近平当天应约同法国总统马克龙通电话，就朝鲜半岛局势交换了看法。习近平强调，中方坚持朝鲜半岛无核化目标，坚定维护国际核不扩散体系，坚定维护东北亚和平稳定。朝鲜半岛问题最终只能通过包括对话协商在内的和平方式解决。希望法方作为联合国安理会常任理事国，为缓和局势、重启对话发挥建设性作用。马克龙表示，法方致力于维护朝鲜半岛和平稳定，重视中方在解决朝鲜半岛核问题上的立场和重要作用，愿同中方加强合作，推动妥善解决朝鲜半岛核问题。除此之外，双边贸易与经济问题也或将涉及。法国经济和财政部长勒梅尔1月2日在接受采访时称，法国希望与中国和俄罗斯增进贸易往来，减轻与美国及英国贸易关系日趋不确定的影响。勒梅尔称，法国的目标是建立一个经由俄罗斯连接欧洲和中国的贸易主干道。丁一凡分析指出，“此次访华，预计中法双边关系的相关议题会涉及一些固定话题，目前，法国在工业等方面相对于中国的优势正在缩小。相较而言，环境与气候保护，医学与生物制药，城市化方面会更有合作潜力。”本文来源：澎湃新闻责任编辑：邵小波_NN2479",
    "URL": "http://news.163.com/18/0103/10/D77HQUV70001875O.html"
}