{
    "PublishTime": "12/27/201710:45:04",
    "Source": "Netease",
    "Comment": {
        "Link": "http://comment.news.163.com/news2_bbs/D6LJMHSL00018AOR.html",
        "Total": 3,
        "Reply": 0,
        "Content": ""
    },
    "Article": "（原标题：国台办谈余光中:反对文化\"台独\"的作为会被传承）海外网12月27日电12月27日上午，国务院台湾事务办公室举行例行新闻发布会。国台办发言人安峰山就两岸政党交流、两岸军事互信和两岸文化往来等热点问题回答记者提问。有记者提问，近日2017海峡两岸年度汉字票选出炉，“创”字当选新的两岸年度汉字，发言人有何评价？第二个问题，著名诗人余光中12月14号在台湾高雄病逝，余老先生创作了很多诗歌，请问发言人如何评价余老先生在促进两岸文化交流方面发挥的作用？安峰山表示，您的第一个问题，由两岸媒体共同评选出的今年两岸年度汉字是“创”。此前，台湾媒体自己选出的年度汉字是“茫”。两相对比，一方是创业、创新，面对未来的时候是开创、进取。一方是迷茫、渺茫，在面对前途的时候是茫然若失。这也可以看作是两岸民众在即将过去的2017年各自亲身经历和感受的真实写照。您的第二个问题，关于余光中先生去世，我办发言人在第二天已经表示了哀悼。余老先生虽然已经去世，但是他那些充满民族情怀的诗词佳作，像《乡愁》《风铃》《寻李白》《乡愁四韵》等等都将为世人所传诵，他积极参与两岸文化交流，反对文化“台独”的作为也会被传承。本文来源：海外网责任编辑：何雨芳_NN5632",
    "Title": "国台办谈余光中:反对文化\"台独\"的作为会被传承_网易新闻",
    "URL": "http://news.163.com/17/1227/11/D6LJMHSL00018AOR.html",
    "KeyWords": "余光中,国台办,台独,安峰山"
}