{
    "Article": "（原标题：赤道几内亚政府说挫败一起政变图谋）新华社雅温得1月3日电马拉博消息：赤道几内亚国家安全部3日发布公告说，政府已挫败一起由某些激进的反对党人员策划、外籍雇佣兵实施的政变图谋。公告说，上月24日，有雇佣兵渗透至赤几城市蒙戈莫、首都马拉博、经济中心巴塔等地，意图攻击当时正在家乡蒙戈莫过节的赤几总统奥比昂。这些士兵受雇于赤几部分激进的反对党人员，并得到某些境外势力的支持。公告说，赤几政府已联合喀麦隆安全部门开展行动，抓捕了大部分涉案人员。上月27日，30多名配有重型武器的外籍雇佣兵在前往赤几途中，在靠近赤几边境的喀麦隆一城市被喀警方逮捕。据悉，赤几已向靠近喀麦隆的边境增派兵力。本文来源：新华社责任编辑：张海桐_NN9053",
    "URL": "http://news.163.com/18/0104/06/D79LIE870001899N.html",
    "KeyWords": "佣兵,赤道几内亚政府,政变",
    "PublishTime": "01/04/201806:10:05",
    "Title": "赤道几内亚政府挫败政变:外籍雇佣兵意图攻击总统_网易新闻",
    "Comment": {
        "Content": "查水表的开门 不用说，肯定是美帝的阴谋! 非洲问题一般是法帝的阴毛 做个调查，物价油价房价上涨感觉生存压力越来越大的点支持谢谢 必须美帝啊 非洲问题一般是法帝的阴毛 我觉得还好吧，没什么感觉。因为我没车没房食宿公司食堂 战狼2里有这个桥段。 查水表的开门 才到2018,能消停点不? 战狼？ 做个调查，物价油价房价上涨感觉生存压力越来越大的点支持谢谢 不知道是不是我们的老朋友，非洲的投资真的不容易，中必硬 美帝阴谋 不用说，肯定是美帝的阴谋! 在这条新闻后面搞这个调查，你意欲何为？ ",
        "Link": "http://comment.news.163.com/news2_bbs/D79LIE870001899N.html",
        "Total": 61,
        "Reply": 8
    },
    "Source": "Netease"
}