{
    "Article": "",
    "KeyWords": "网易订阅、rss、新闻、资讯",
    "Source": "Netease",
    "Title": "日本为“夺岛”研发巡航导弹，不用美国松绑自己就能造_网易订阅",
    "Comment": {
        "Link": "http://comment.war.163.com/news_junshi_bbs/D6NV9RSI0515F0DH.html"
    },
    "URL": "http://dy.163.com/v2/article/detail/D6NV9RSI0515F0DH.html",
    "PublishTime": "12/28/201718:02:39"
}