{
    "Article": "（原标题：美华裔市长就职称努力为华裔移民和中国游客服务）中新网12月29日电据美国侨报网报道，美国会众议员赵美心当地时间12月28日晚为蒙市市长林达坚主持了就职典礼，加州众议员周本立同时为副市长陈赞新主持了宣誓仪式，加州财务长江俊辉、洛杉矶华裔民选官员以及两百多位政商侨嘉宾到场祝贺。赵美心（左）为市长林达坚主持宣誓仪式。(美国《侨报》记者高睿摄)12月28日晚上6点，就职典礼正式开始。加州众议员周本立为副市长陈赞新主持了宣誓仪式，随后国会众议员赵美心为林达坚主持了宣誓仪式。林、陈分别发表了就职感言，两人表示会继续发扬团队合作精神，把蒙市打造得更加美好，进一步开发蒙市的商业建设，让这座城市成为华裔移民和中国游客赴美创业、旅游的首选地。林达坚表示，30多年前自己为了“美国梦”赴美创业，在蒙市安家落户，他在这里完成了学业、组建了家庭、成就了事业。为此，他感谢这座城市，“非常荣幸能和市政府其他议员一起努力，把蒙市打造成美国排名第三的宜居城市，让原来默默无闻的农村变成了今天的现代化城市，街道变美了，社区安全了，生活富裕了。”本文来源：中国新闻网责任编辑：韩佳鹏_NN9841",
    "PublishTime": "12/29/201716:36:00",
    "URL": "http://news.163.com/17/1229/16/D6RBA54P00018AOQ.html",
    "Comment": {
        "Content": "人家一直称自己为亚裔，少在这里贴金华裔， 这样美化美帝和美化汉奸有意思吗？ 小格局，不为全民、只为种族主义，这什么人 人家一直称自己为亚裔，少在这里贴金华裔， 人家一直称自己为亚裔，少在这里贴金华裔， 关我们球事👎 这样美化美帝和美化汉奸有意思吗？ 小格局，不为全民、只为种族主义，这什么人 哈哈，，，，，，，，，，，， ",
        "Link": "http://comment.news.163.com/news2_bbs/D6RBA54P00018AOQ.html",
        "Total": 35,
        "Reply": 6
    },
    "Source": "Netease",
    "Title": "美华裔市长就职 称努力为华裔移民和中国游客服务_网易新闻",
    "KeyWords": "华侨,移民,赵美心"
}