{
    "URL": "http://war.163.com/17/1228/07/D6NQVJLH000181KN.html",
    "Article": "（原标题：2017中国军机巡航次数井喷十余次飞越第一岛链）【环球网军事12月28日报道环球时报记者郭媛丹特约记者张祥】今年1月份的一次令日本航空自卫队高度紧张的轰炸机远航训练拉开了中国海空军井喷式战机远航的序幕。一年来，中国海空军战机进行了至少十多次穿越第一岛链的巡航，次数远远大于2015年和2016年之和。战机巡航兵力不断增强，组织难度增大，巡航方式也在不断变化，而且多出了一个新叫法——“绕岛巡航”，从顺时针绕岛到逆时针绕岛，从单机单方向绕岛到多机多方向绕岛，可以说达到历史巅峰。这反映出解放军海空军战机训练水平的提高，中国战机穿越第一岛链飞赴西太平洋海空域执行任务的能力越来越强。巡航次数井喷2017年，海空军战机巡航的一大特点便是次数大增。2015年到2016年，解放军空军公开的远航次数是年均4次，这只是2017年的某一个月甚至一周的巡航次数。以至于12月20日台当局防务部门表示，大陆军机远海长训已常态化，今后不再发布相关新闻。仅11月底到12月，中国空军连续6次主动公布远海训练信息，而且首次公布绕岛巡航视频。但中国空军并没有发布年度远海训练的总体次数，按照一位熟悉中国空中力量的匿名军事专家的估算，至少有十多次穿越第一岛链。根据台湾“国防部”26日公布的“国防报告书”，截至今年12月11日，解放军军机远海长航中，“对马海峡往返”共3次，“宫古海峡往返”7次，“绕台飞行”15次，“巴士海峡往返”1次。《环球时报》记者查找了密切关注中国海空力量动向的日本防卫省统合幕僚监部官网，按照该机构公布的信息，截至12月22日，中国军机2017年共进行将近20次远海训练，绝大部分是通过宫古海峡进出岛链，不过其中并没有突出是中国空军战机还是海军航空兵部队。训练难度极大提高2017年中国空中力量远海训练不仅数量井喷，而且巡航的质量也有很大提高。从今年官方发布的消息来看，中国空军前出的部署机场分布在西北、华北、华东等多地，这可以判断出作为出岛链训练的主角轰-6K列装部队正在不断增加，装备的发展更新是空军远海训练可以不断增加的基础。中国空军专家傅前哨接受《环球时报》采访时表示，现在执行远海训练任务来自各个部队，各战区空军都要承担训练任务，最终才能拧成一股绳。傅前哨表示，从空军公布的消息来看，海空军战机执行远海训练的间隔大大缩短。以前是一年几次，现在是远海训练可以连续出动，甚至同一天多批次出动。这种多方向、不同机型、机组编队连续训练模式说明空军实战能力大幅提升。一位不愿透露姓名的军事专家对《环球时报》记者表示，从几次公布的信息看，轰-6K是多次空军巡航的主力，该机通常携带疑似“长剑-20”或KD-63训练弹。护航战机主要以航程较远的苏-27/歼-11和苏-30MKK为主。今年还首次出现伊尔-78大型加油机。此外，图-154电子侦察机、基于运-8平台的干扰机、电子侦察机和指挥机也是巡航的常客。如果说轰-6K是用于高调威慑的话，上述侦察机则属于低调工作，这些装备都是大国空军才具备的。台湾方面称11月22日大陆战机从巴士海峡进入太平洋训练时，走了一条“非常实际的攻击航线”，令台湾方面非常紧张。而次日“空军发布”公布的一张照片首次显示轰-6K航线直指大武山，而大武山东部是台军志航基地。傅前哨表示，从机型来看包括轰炸机、歼击机、预警机、侦察机以及运输机等多型多架战机，完全是按照作战编队和保障编队进行编组，编队更加完善;从飞行航程来看，飞行距离越来越远，到过的陌生海域越来越多，难度比原来大，多次穿越第一岛链，返航或绕道飞行。经过这几年磨练，空军远海训练取得很大成绩，掌握了相关技能，实战水平不断提高。2018会飞得更多更远傅前哨认为，远海训练未来会越来越多，航程会越来越远，规模、编组会不断变化。而且远海训练兵种会继续扩大。他举例说，今年运-9机群奔袭数千公里，抵达南海某岛礁进行模拟空投演练，然后返回，这说明空军武器装备性能提升。虽然这次是模拟空投，但未来很有可能执行空降训练。空降兵可以在特定时期担负特定使命。不管是军事使命还是和平使命都要做相应准备。未来中国空军的其他兵种也可能要进行远海训练。傅前哨说，随着中国海外利益的增多，中国空军的远程化发展，尤其是远航训练必不可少。事实上，中国要承担更多的国际责任和义务，也同样需要中国空军走向远洋。空军的远海训练仍有很多路要走，从成体系的飞行训练到带有战术背景的体系演练，从单一军种的远海训练到多军种联合远海训练。海军军事学术研究所研究员张军社接受《环球时报》记者采访时表示，未来战争形态一般来讲都是联合作战，即便是非常小的战斗。未来海上作战也是海空军以及其他军种的联合作战，空军远海训练范围越来越广，有利于提升海空军海上联合作战能力。本文来源：环球时报-环球网。更多精彩，请登录环球网http://www.huanqiu.com责任编辑：姚文广_NN1682",
    "Source": "Netease",
    "PublishTime": "12/28/201707:47:00",
    "KeyWords": "空军,战机,中国空军,侦察机",
    "Comment": {
        "Content": "含着，别胡说。有这个胆子么！！！哈哈哈哈 先睁开眼看看现实吧 嗯，你喷了，也没有效果。<br>洗洗睡吧。把之前赚的积分兑换一下，看看能不能换来延长0.5年的留美签证。 拿下钓鱼岛，解放海参崴 美狗快来骂 战斧导弹也快了。 不是一般般 国当自强，中国从鸭片战争至甲午战争再到八国联军，是时候改变屈辱的国运当自强👍了。 井喷东北话俗称窜稀闹肚子是吃中毒了 呵呵，正在落实转到美帝的贪腐款到账没 好人不长寿，首长都长寿🙃 含着，别胡说。有这个胆子么！！！哈哈哈哈 嘴功比腿功更厉害的骡骚酱总是食言 为了特权，不惜一切，哪怕是认洋祖宗出卖领土和民族灵魂！<br>否则，很难解释卖国黄恶的所作所为。<br>就连一向沉稳的默克尔都忍不住送地图表达内心的不解和鄙视！ 灰机要转弯嘛，直着飞翻筋斗就掉下来了。 需要轰20巡航 井喷一词用的好不过想想也有脱岗洪荒之力 二战，美国实力最强，贡献最大，二战结速后，为什么美国的版图，没有扩大一寸哪？？你不觉得奇怪吗？<br><br>美国搞十来艘重型航母，全球到处跑的，军费每年就烧5、6千亿美元，但是美国的版图却没有扩大一寸，你不觉得奇怪吗？<br><br>鹅裸死军队一出手，那可就是要攻城略地开疆扩土的。。美国军队一出手，就是死一堆人，花一堆钱，最后一寸土地也没有捞到，你不觉得奇怪吗？<br><br>是谁在维护世界和平？？你装傻可以，全世界可不傻。。200多个小国弱国，最不怕的就是美国的航母靠岸。最怕的就是鹅裸死的军靴落地。<br><br>墨西哥人，心里那个恨啊，你美国为什么不在殖民时代，把墨西哥全拿走？？现在剩下的墨西哥人公投入美，美国也不要，真是气死墨西哥人了。你敢到墨西哥瞎比比，美国侵略吞并墨西哥领土试试？？小心墨西哥人揍死你。<br><br>波多黎各人痛苦啊，公投入美，美也不要，夏威夷人真是幸福死了，波多黎各人眼馋夏威夷人啊。。太平洋诸多岛国，都是排队的要公投入美啊。<br><br>美国驻军可都是请来的，波兰望眼欲穿了大半个世纪，这才终于热泪盈眶的请来美军啊。。你敢到波兰瞎比比美国驻军试试？？小心波兰人揍死你。<br><br>没有美国驻军，就没有工业发达，经济繁荣的南韩。。南越人那个恨啊，那个眼馋啊，你美国为什么就从南越撤军了哪？<br><br>美国驻军一旦撤离韩国，南韩必将重蹈，美丽富饶的南越，被野蛮灭国的厄运。<br><br>98年印尼爆发的，针对华人的大屠杀，惨!惨!!惨!!!惨！！！！<br>全世界都在打嘴炮，唯一派出军舰，武装干涉印尼内政的就是美国。<br>星条旗迎风飘扬，自由的旗帜永不落！！！面对美军武装营救，印尼华人热泪盈眶。<br><br><br>二战后，这个世界如果没有了美利坚。<br>和平，繁荣，发展，都将沦为泡影。<br>和平，繁荣，发展，就是美国向全世界提供的免费产品。<br>谁敢威胁和平，繁荣，发展，美国就敢弄死它。<br>什么苏联，傻大木，卡炸飞，塌俐班，爸傻儿，等等，都不在话下。<br><br>星条旗迎风飘扬，自由的旗帜永不落！！！ 效果很好，如你所愿，日本终于大规模增加军费了，不但要部署反导系统，下一步再加一把劲，航母就开始生产了。 厲害了我的祖國，梧桐臺灣就定在2018吧。 脸皮很厚啊 不愿意就死去呗，现实就在那里，接受不接受不是他们说了算。 厲害了我的祖國，梧桐臺灣就定在2018吧。 还要继续厚下去！最起码厚到诬陷他国有大规模杀伤性武器！ ggljhlufulifluyjulgf 你有实力绕美国海岸线飞人家也不会击落你呀！但是最好别开战。 稍加改装，立刻就是4艘轻型航空母舰。舰载机跟美国一样。 环球，为啥总绕着飞呢？从上边直接过去不行吗？ 美国驻日本占领军像日本的女人们问候新年好，感谢这一年来日本女性的殷勤伺候，感谢日本男人们辛苦的看门端尿壶，送纸巾！更是感谢这些年生下的儿子们这么孝心，你们虽然身在中国，但是我们想着你们！在新的一年里，我驻日本占领军会再接再厉，也希望日本女人能多喊几句亚麻跌……————大不列颠.美跌.驻日韩占领军 问问2000万台湾人愿不愿意吧？美貌的潘金莲嫁给恶名的西门庆，总归不是高兴的事吧？ 沿着线飞难度大 含着，别胡说。有这个胆子么！！！哈哈哈哈 先睁开眼看看现实吧 美狗井喷 俄杂，你妈被强奸100遍 井喷东北话俗称窜稀闹肚子是吃中毒了 造词汇的人大概都盼着打仗呢！ 好人不长寿，首长都长寿🙃 含着，别胡说。有这个胆子么！！！哈哈哈哈 嘴功比腿功更厉害的骡骚酱总是食言 为了特权，不惜一切，哪怕是认洋祖宗出卖领土和民族灵魂！<br>否则，很难解释卖国黄恶的所作所为。<br>就连一向沉稳的默克尔都忍不住送地图表达内心的不解和鄙视！ xcvb 你们知道我严正抗议井喷多少年不了？ 二战，美国实力最强，贡献最大，二战结速后，为什么美国的版图，没有扩大一寸哪？？你不觉得奇怪吗？<br><br>美国搞十来艘重型航母，全球到处跑的，军费每年就烧5、6千亿美元，但是美国的版图却没有扩大一寸，你不觉得奇怪吗？<br><br>鹅裸死军队一出手，那可就是要攻城略地开疆扩土的。。美国军队一出手，就是死一堆人，花一堆钱，最后一寸土地也没有捞到，你不觉得奇怪吗？<br><br>是谁在维护世界和平？？你装傻可以，全世界可不傻。。200多个小国弱国，最不怕的就是美国的航母靠岸。最怕的就是鹅裸死的军靴落地。<br><br>墨西哥人，心里那个恨啊，你美国为什么不在殖民时代，把墨西哥全拿走？？现在剩下的墨西哥人公投入美，美国也不要，真是气死墨西哥人了。你敢到墨西哥瞎比比，美国侵略吞并墨西哥领土试试？？小心墨西哥人揍死你。<br><br>波多黎各人痛苦啊，公投入美，美也不要，夏威夷人真是幸福死了，波多黎各人眼馋夏威夷人啊。。太平洋诸多岛国，都是排队的要公投入美啊。<br><br>美国驻军可都是请来的，波兰望眼欲穿了大半个世纪，这才终于热泪盈眶的请来美军啊。。你敢到波兰瞎比比美国驻军试试？？小心波兰人揍死你。<br><br>没有美国驻军，就没有工业发达，经济繁荣的南韩。。南越人那个恨啊，那个眼馋啊，你美国为什么就从南越撤军了哪？<br><br>美国驻军一旦撤离韩国，南韩必将重蹈，美丽富饶的南越，被野蛮灭国的厄运。<br><br>98年印尼爆发的，针对华人的大屠杀，惨!惨!!惨!!!惨！！！！<br>全世界都在打嘴炮，唯一派出军舰，武装干涉印尼内政的就是美国。<br>星条旗迎风飘扬，自由的旗帜永不落！！！面对美军武装营救，印尼华人热泪盈眶。<br><br><br>二战后，这个世界如果没有了美利坚。<br>和平，繁荣，发展，都将沦为泡影。<br>和平，繁荣，发展，就是美国向全世界提供的免费产品。<br>谁敢威胁和平，繁荣，发展，美国就敢弄死它。<br>什么苏联，傻大木，卡炸飞，塌俐班，爸傻儿，等等，都不在话下。<br><br>星条旗迎风飘扬，自由的旗帜永不落！！！ 效果很好，如你所愿，日本终于大规模增加军费了，不但要部署反导系统，下一步再加一把劲，航母就开始生产了。 脸皮很厚啊 不愿意就死去呗，现实就在那里，接受不接受不是他们说了算。 厲害了我的祖國，梧桐臺灣就定在2018吧。 还要继续厚下去！最起码厚到诬陷他国有大规模杀伤性武器！ ggljhlufulifluyjulgf 《教父》里，麦克给子女写信-------------------世界上最珍贵的是孩子，，，<br>可见那个教，是多么的敬仰美国啊~~~~~ 会发大水吗 真会比喻，脑子进水！ 稍加改装，立刻就是4艘轻型航空母舰。舰载机跟美国一样。 它得敢啊！ 美国驻日本占领军像日本的女人们问候新年好，感谢这一年来日本女性的殷勤伺候，感谢日本男人们辛苦的看门端尿壶，送纸巾！更是感谢这些年生下的儿子们这么孝心，你们虽然身在中国，但是我们想着你们！在新的一年里，我驻日本占领军会再接再厉，也希望日本女人能多喊几句亚麻跌……————大不列颠.美跌.驻日韩占领军 2楼介绍房事兵工作。 沿着线飞难度大 参观古董展了 国当自强，中国从鸭片战争至甲午战争再到八国联军，是时候改变屈辱的国运当自强👍了。 嗯，你喷了，也没有效果。<br>洗洗睡吧。把之前赚的积分兑换一下，看看能不能换来延长0.5年的留美签证。 战斧导弹也快了。 不是一般般 呵呵，正在落实转到美帝的贪腐款到账没 拿下钓鱼岛，解放海参崴 需要轰20巡航 井喷一词用的好不过想想也有脱岗洪荒之力 美狗快来骂 厲害了我的祖國，梧桐臺灣就定在2018吧。 灰机要转弯嘛，直着飞翻筋斗就掉下来了。 厲害了我的祖國，梧桐臺灣就定在2018吧。 煞笔弱智 0.5的爹爹貌似恶狗，实为美狗！<br>把国家领土和金钱送给毛子，却把贪腐钱款和儿女送给了美帝。<br>正所谓“反美是工作，赴美是生活” 你有实力绕美国海岸线飞人家也不会击落你呀！但是最好别开战。 环球，为啥总绕着飞呢？从上边直接过去不行吗？ 问问2000万台湾人愿不愿意吧？美貌的潘金莲嫁给恶名的西门庆，总归不是高兴的事吧？ ",
        "Total": 867,
        "Link": "http://comment.war.163.com/news_junshi_bbs/D6NQVJLH000181KN.html",
        "Reply": 45
    },
    "Title": "2017中国军机巡航次数井喷 十余次飞越第一岛链_网易军事"
}