{
    "Comment": {
        "Total": 1536,
        "Reply": 130,
        "Link": "http://comment.news.163.com/news_guonei8_bbs/D751V5M90001875N.html",
        "Content": "假新闻！我们的铁路公司收那一点钱，覆盖了960万平方公里啊，多不容易！每年都是含泪亏损经营的！[可怜] 铺张浪费，票价高。 不知道今年亏损了多少？？ 我们有核动力xx机 早些年表面赢利才2个亿啊。国铁，都是他们的。 傻逼就对高铁说中国人收入低所以高铁票价要低，傻逼中国航空机票价格、汽车价格是国外价格的2倍畜生你有怎么解释。 就告诉你总额，你不服？说增长，说GDP总额从不提人多力量大，只说各种英明领导，说到人均收入，免费医疗就是人口众多，负担大，还是发展中国家的屁话，这就是不要脸了，需要的时候你要贡献，不需要你就是那个负担了，哈哈哈 年底盈利，年初哭穷，坐等自己打脸 铁路市场化改革<br>必须积极推进 高铁的目的是让那里的人祖祖辈辈都有百万富翁，高铁没得黑的。 可有的还说亏损！<br>但总裁高薪不减反增！ 谁的钱？谁的收入？ 没错，高铁动车这几年投资建设的钱是个天文数字！只不过是换了个口袋放钱而已。 1楼杀笔 七楼你能不能有一点点，我说的是仅有的一点点最低最低的素质，意见可以不同问题可以探讨，你张口闭口傻逼傻逼，你不感到可耻脸红？傻逼是你家祖传吗？你的DNA里带来的？ 铁路应该学航空业票价远远高于外国，你高铁票价不到别国的40%，一方面因为票价低廉造成亏损挨骂，另一方面给社会提供低价车票乘客总是嫌贵，对乘客来说，票价没有最低，只有更低，即使免费乘车别人还嫌坐久了不舒服，饭菜不可口，为什么不专车接送。 7楼你TMD是傻逼？中国航空检修多严知道不？中国民航空难大大低于国外知道不？知道国外空难出事的廉价航空占大多数吗？你想玩命自己玩去啊。再说汽车只有2倍很多？别国加收我国出口的原材料20-50倍。你提都不提。是眼瞎还是别有用心？ 你知道运行一条高铁得多少费用么就只高铁的运行费用都够那种偏远地方的人什么也不干的了全世界只有日本的新干线不亏钱但是日本的人口密度是你那种荒郊野外能比的了的么还祖祖辈辈出百万富翁？祖祖辈辈在那看着玩吧 债务多少？ 左手放右手 高铁这玩意就是个吃钱的机器现在还能靠政策支持掩盖有一天政策也支持不起了那亏损的数字都能吓死人 别的国家不会发别的国家都不会修别的国家不会这样肆意挥霍你在偏远地区修一条高铁的钱都够把那个地区的人都变百万富翁了 然而，还不是依然亏损几万亿，依然还是债务缠身！ 利润不敢提 那么大的铁总一年收入和碧桂园、恒大差不多，悲哀 唉……有钱，你看看上一条医保的新闻，有钱他扔了也不会给百姓造福利！ 高铁如果做快递比顺丰强百倍！！安全，准时，节能，便宜！！！ 既然这么委屈就开放市场啊 那你就涨价啊你涨价了看看你高铁能不能多收你涨价了坐的人也少了票价只有国外的40%还低么？你也不看看人家国外的收入是你的多少倍你是傻逼里面爬出来的吧 营业收入不是利润。纯利润是多少？ 因为你确实是傻逼啊！人家讲点真相看把你这头傻狗急的 这帮屁民真不知好歹，修高铁其码你出行还能便利点儿，不然的话都送了非洲大兄弟，你敢有意见？ 大国先民 移动公司都有全民所有变为国家独有了，铁路就不用说了吧！ 傻逼就对高铁说中国人收入低所以高铁票价要低，傻逼中国航空机票价格、汽车价格是国外价格的2倍畜生你有怎么解释。 负债4.8万亿。。。 够付利息不？ 亏钱了吗？ 铁路市场化改革开放<br>将是天翻地覆<br>特别是物流通信技术 叽叽喳喳，吵个不停，郭嘉有钱，想咋修就咋修 应该把铁路站的商铺经营纳入营业收入，像上海机场一样，绝对赚，比万达更厉害 这不废话吗。 这话，只能说给外行。请问，每百公里均收入是增还是减？ 网易喷子！好好看别国的高铁多少钱一程，我们收多少一程！偏远地区没多少客流都发车。别国会发？敢发？ 运输收入不等于利润 参考津巴布韦。 假新闻！我们的铁路公司收那一点钱，覆盖了960万平方公里啊，多不容易！每年都是含泪亏损经营的！[可怜] 不要比莲 不知道今年亏损了多少？？ 七楼你能不能有一点点，我说的是仅有的一点点最低最低的素质，意见可以不同问题可以探讨，你张口闭口傻逼傻逼，你不感到可耻脸红？傻逼是你家祖传吗？你的DNA里带来的？ 呸！高铁这么造福百姓的事都被你说成这样，我觉得你他妈就是喷子，客流少就不开高铁？你怎么不反过来想想，开通高铁可以吸引人口和投资？你这理由就是这地区没有人用得起电，电网亏本就不用建设了！是不是这个理？ 垄断社会资源的也会亏欠？ 早些年表面赢利才2个亿啊。国铁，都是他们的。 傻逼就对高铁说中国人收入低所以高铁票价要低，傻逼中国航空机票价格、汽车价格是国外价格的2倍畜生你有怎么解释。 就告诉你总额，你不服？说增长，说GDP总额从不提人多力量大，只说各种英明领导，说到人均收入，免费医疗就是人口众多，负担大，还是发展中国家的屁话，这就是不要脸了，需要的时候你要贡献，不需要你就是那个负担了，哈哈哈 运输收入才六千多亿，去年铁总的固定资产投资八千多亿，不亏才怪 你的根据拿出来 你是从哪个傻逼里面爬出来的呢吉林现在也不是是你安徽能比的啊你看看你安徽的gdp是多少你再看看吉林是多少他妈傻逼啦啦你的时候是不是把你脑袋给夹了 铁路市场化改革<br>必须积极推进 高铁票价该降了吧？ 亏损多少能说说不 可有的还说亏损！<br>但总裁高薪不减反增！ 你说的太对了，我就吉林那破地方就不应该修高铁。 没错，高铁动车这几年投资建设的钱是个天文数字！只不过是换了个口袋放钱而已。 1楼杀笔 谁的钱？谁的收入？ 亏不?亏了早点卖点地还债，尤其大城市的 7楼你TMD是傻逼？中国航空检修多严知道不？中国民航空难大大低于国外知道不？知道国外空难出事的廉价航空占大多数吗？你想玩命自己玩去啊。再说汽车只有2倍很多？别国加收我国出口的原材料20-50倍。你提都不提。是眼瞎还是别有用心？ 别占了便宜还卖乖，真票价涨了你又喊爹哭娘的 开放站台，凭身份证进站，检票上车，卖站台票，客源大增。你是公共服务平台，别办成政府衙门，放低身段，创造和谐亲民氛围，中国缺人坐车吗？说是一家，车站和列车互不认帐，你堵我截。服务特差，叫卖不断，物价上车就失控。 亏是肯定的，看怎么算？每年投入近万亿修新线，铁路总债务近8万亿，每年实际赢利还利息都不错了。反正都是人家的，你我管得着吗？给外面多少钱？谁敢问？ 价格该涨了 所以很喜欢看网易喷子回复的内容！哈哈哈哈哈。不说高铁，单在惠州有个村子。政府修了一条柏油路，让村子直通高速，跨了几座山。资本主义国家会修？就像俗话一样。别TM给脸不要脸！ 中国铁路总公司18个铁路局还有各种下属企业和子公司7000亿营收？华为6000亿啊。 修高铁释放原线大量大宗商品等货运运能这才是大头大胸垫 赚再多还不是一样亏损 债务多少？ 这话，只能说给外行。请问，每百公里均收入是增还是减？ 别的国家不会发别的国家都不会修别的国家不会这样肆意挥霍你在偏远地区修一条高铁的钱都够把那个地区的人都变百万富翁了 既然这么委屈就开放市场啊 利润不敢提 那么大的铁总一年收入和碧桂园、恒大差不多，悲哀 铁路应该学航空业票价远远高于外国，你高铁票价不到别国的40%，一方面因为票价低廉造成亏损挨骂，另一方面给社会提供低价车票乘客总是嫌贵，对乘客来说，票价没有最低，只有更低，即使免费乘车别人还嫌坐久了不舒服，饭菜不可口，为什么不专车接送。将高铁票价提高有两个好处，一是票价收入增加不会亏损相反会盈利了，讽刺高铁亏损的人无话可说了；二是高铁票提价后客流减少，有钱人就容易买到高铁票了，而没钱人坐普铁节约了资金，反正他们时间成本也低，也少了对高铁票价敏感喜欢抱怨高铁票价贵的客户群了。 你他妈是从傻逼里面爬出来的吧你他妈愿意开不开只要你能赔的起开个高铁就能吸引投资了？投资需要很多因素的支持电网运行费用能跟高铁比的了么你们他妈云南那些大山里面早就通了电了不也还是那穷逼样 傻逼就对高铁说中国人收入低所以高铁票价要低，傻逼中国航空机票价格、汽车价格是国外价格的2倍畜生你有怎么解释。 还不够一年建设铁路的投资额 只看收入谁跟苹果比，问题对社会意义和地方经济发展有可比性吗 因为你确实是傻逼啊！人家讲点真相看把你这头傻狗急的 这帮屁民真不知好歹，修高铁其码你出行还能便利点儿，不然的话都送了非洲大兄弟，你敢有意见？ 不过还是干不过腾讯[大笑] 移动公司都有全民所有变为国家独有了，铁路就不用说了吧！ 呸！高铁这么造福百姓的事都被你说成这样，我觉得你他妈就是喷子，客流少就不开高铁？你怎么不反过来想想，开通高铁可以吸引人口和投资？你这理由就是这地区没有人用得起电，电网亏本就不用建设了！是不是这个理？ 还有回2楼天朝西部地区地质情况复杂各类矿产品种多储量大并且有很多战略物资并且还临边还是原话释放原线运能意义不大吗最后难道棕楠海里的还不如你聪明？搞笑 够付利息不？ 不是巨亏吗，他们哪里盈利了 昨天还说亏损，今天又说赚了几千亿。这孙子真坏呀 亏钱了吗？ 铁路市场化改革开放<br>将是天翻地覆<br>特别是物流通信技术 唉……有钱，你看看上一条医保的新闻，有钱他扔了也不会给百姓造福利！ 左手放右手 我也想问一句：还要补贴吗？ 当年老说亏本， 车票价格呢？你们收入那么多干嘛？独立王国吗？ 新闻没说盈利，这么大规模的铁路投资能盈利才怪 叽叽喳喳，吵个不停，郭嘉有钱，想咋修就咋修 网易喷子！好好看别国的高铁多少钱一程，我们收多少一程！偏远地区没多少客流都发车。别国会发？敢发？ 假新闻！我们的铁路公司收那一点钱，覆盖了960万平方公里啊，多不容易！每年都是含泪亏损经营的！[可怜] 营业收入不是利润。纯利润是多少？ 营业收入不是利润。纯利润是多少？ 傻逼，把你票价涨50％，绝对够还利息，行不？乱他妈喷 利好中国中车 中国机票、服装、医药、汽车价格和银行存贷利差等远高于美国，而中国铁路票价不到美国的50%。一群喷子就喜欢喷铁路，铁路倒闭后必然被外资联手国内买办收购，到时必然和现在的银行业一样，收费项目增加10倍，票价提高数倍，到时喷子就欲哭无泪了。 没可能盈利的，我不相信 真新闻吗 几万个亿有没有 你懂个屁，不问青红皂白，一见到中国好的就喷，一见到国外好的就舔，很怀疑你的动机。中国的人流、物流那么大，如果中国的高铁都不挣钱，全世界高铁就没有挣钱的。 支出呢 营业收入不是利润。纯利润是多少？ 怎么就不破产啊 我们有核动力xx机 够利息不呵呵 就告诉你总额，你不服？说增长，说GDP总额从不提人多力量大，只说各种英明领导，说到人均收入，免费医疗就是人口众多，负担大，还是发展中国家的屁话，这就是不要脸了，需要的时候你要贡献，不需要你就是那个负担了，哈哈哈 营业收入不是利润。纯利润是多少？ 年底盈利，年初哭穷，坐等自己打脸 刚好后贷款利息。 终于不赔了？ 据说我有股份？能分红吗，把我那一份分给我，100元我也要 傻屌，全国人民为银行打工你知道吗，银行存贷利差是国外的3倍以上你知道吗，中国机票价格远远高于国外你知道吗，中国高铁票价只有国际水平的40%你知道吗?不要做无脑的绿头苍蝇瞎起哄。 二十年，房价翻了十几番，包子从五毛涨到两块了。绿皮车价格一分没有涨。三块钱的方便面，车上才卖五六块钱，还送热水。我觉得挺不错。 那西部亏本。不修铁路行吗 中国机票、服装、医药、汽车、银行贷款利率等价格远高于美国，中国铁路价格不到美国的50%。一群喷子就喜欢喷铁路，铁路倒闭后必然被外资联手国内买办收购，到时必然和中国银行业一样，收费项目增加10倍，票价提高数倍，到时喷子就欲哭无泪了。 高铁这玩意就是个吃钱的机器现在还能靠政策支持掩盖有一天政策也支持不起了那亏损的数字都能吓死人 苍老师结婚了，一网友评论：此车车龄35年左右，车长大概1米55左右。车况保持一般，内饰较好，车前后保险杠脱落，疑似经常被追尾，排气管黝黑，烧机油严重。发动机巅峰状态，但拉缸严重。30分钟后下排气出水，缸内直喷。新手不建议入手，老司机方可一战，由于使用频率太高，磨损太大，建议要换大号加长加粗活塞，否则油耗高，感觉不到动力，老手能吃苦耐劳的尚可驾驶，新手看看尚可，滤芯儿更换不及时，造成通风不畅，有异味，千万不要轻易去碰，否则遗憾终身，根据我开车20年经验！两大灯少许下垂！打着后发动机噪音过大！缸筒活塞间隙过大！做过全车划痕处理！喷过全车漆！总结：此车长期被人野蛮驾驶，事故车！谨慎！谨慎！！！ 西部本来就有铁路，修他吗高铁给谁做？<br>你怎么不让农村每户搞一辆福特猛禽？ 咋叫喷？问你丫问题你能回就回回不了就特么闭嘴！ 这话，只能说给外行。请问，每百公里均收入是增还是减？ 不亏钱吧，你们会说这么高的票价，挣的都是老百姓的钱。亏钱吧，你们会说债务又多少多少，多垃圾的企业，鄙视这鄙视那的。至少把你回家的路程时间缩短了，和家人团聚的时间和次数多了，这就够了。 想盈利还不简单？加价啊，设地板价啊 我愿意，总比屁民是名义上的主人不会再差 然而，还不是依然亏损几万亿，依然还是债务缠身！ 收入都不够利息哈哈更不要说利润了 高铁如果做快递比顺丰强百倍！！安全，准时，节能，便宜！！！ 刚好后贷款利息。 多了个增值税 还亏不？ 营业收入不是利润。纯利润是多少？ 总投资是多少 欠债多少？扣除利息还剩多少 给百姓分点红吧 负债4.8万亿。。。 亏的算大家的，赚的你们分了吧。 不发表评论……因为很多内幕不知道，只知其一不知其二 亏钱了吗？ 可是依然巨亏对吗 铁老大，要打破内部壁垒。我知道的吃空饷的铁路员工就不知道有多少个 应该把铁路站的商铺经营纳入营业收入，像上海机场一样，绝对赚，比万达更厉害 这不废话吗。 你大概只相信西方媒体报道，而恰恰那些新闻是谣言满天飞。你这种吃屎舔腚眼的狗。 不亏能叫国企吗？ 全世界的高铁就日本的不亏钱 呵呵 假新闻！我们的铁路公司收那一点钱，覆盖了960万平方公里啊，多不容易！每年都是含泪亏损经营的！[可怜] 铺张浪费，票价高。 又亏了吧？老爷们的茅台还没喝够呢。 大国先民 谁的钱？谁的收入？ 铁路国之重器 通用看新闻，总体亏损差不了。高速收费站都能干亏损了，其他的能好得了？ 十三亿人民分红呗。七十年没分红了，还说是国企呢 造假都能亏本的时？ 宇宙的探索是离不开我的话的，只有把围绕地球公转的一切物质包括气体计算在地球体积之内才能找到地球真正的边和角，那是反引力汇聚地，是真正的真空隧道，宇宙高速路，太阳系内的动脉!把围绕太阳公转的一切物质包括气体计算在太阳体积之内才能找到恒星与恒星的边和角，那是恒星与恒星之间的真空高速隧道，找到真空隧道以近光速超光速飞行那不是个事!宇宙飞行器也不能按照飞机的二维结构原理制造，飞机是不能高速自转的，但只有高速自转才能产生真空电磁场，以近光速飞行，未来的宇宙飞行器必须按地球原理制造，八层以上结构，你看地球高速自转着前进，我们人坐在地球上有啥不适感觉吗？ 没错，我们还亏钱呢 还不够还利息吧 车票太贵了 "
    },
    "Title": "中铁总：去年铁路运输总收入近7千亿 增收额创纪录_网易新闻",
    "KeyWords": "铁路,中铁总,国铁",
    "Article": "（原标题：铁总：去年铁路运输总收入近7千亿增收额创历史记录）中新网客户端北京1月2日电中国铁路总公司党组书记、总经理陆东福2日在北京透露，2017年，经营效益大幅提升，铁路运输总收入6958亿元，同比增收1010亿元、增长17%，增收额创历史纪录。资料图：2017年12月6日早8时22分，D4251次动车组列车离开西安北站向南驶去，西安至成都高铁正式开通运营。中新社记者张远摄中国铁路总公司工作会议2日起在北京召开，陆东福在工作报告中还透露，2017年，多元经营营业收入2841亿元，同比增收348.9亿元、增长14%。“成本支出得到有效控制，经营结果好于预期。”陆东福说。谈及2018年铁路经营的工作目标时，陆东福表示，铁路运输总收入7458亿元，多元经营营业收入3200亿元。陆东福说，在铁路经营方面，如何适应市场化经营要求，全面提升国铁企业提质降本增效能力和铁路全要素生产率，推动国铁企业由运输生产型向市场经营型转型发展，确保国有资产保值增值，有大量工作要做。本文来源：中国新闻网责任编辑：程钢_NN7377",
    "URL": "http://news.163.com/18/0102/11/D751V5M90001875N.html",
    "PublishTime": "01/02/201811:10:33",
    "Source": "Netease"
}