{
    "PublishTime": "12/30/201706:26:48",
    "Source": "Netease",
    "Comment": {
        "Content": "他转形成功了，有导演找我拍三级，我也拍！ 窦靖童 这玩艺不应该用钱来衡量吧？ 女儿长得挺好看 舒淇心中的魔鬼 任达华，徐锦江这些，人家拍戏就拍戏，不拍戏不和你搞那些乱七八糟的事，这才是职业，不像一些人拍戏不咋地，乱七八糟的事爱搞，还爱吃窝边草，这种人交不得！ 是一个好老公，好父亲，这么多年没啥绯闻 以后就以娶明星女儿，啥也有了，所以你得练好身体，在生理上制服她。 明星收入年收入几千万，买个钻几百万，老百姓年收入十万，买个钻戒三五！明星不买千万的钻都比不上普通百姓！ 我去！！瞬间萎了！！ 不是听说之前他们都是自己玩自己的吗？ 羡慕😊 你算错了，老百姓把日常开销刨除的话，一年剩不了几万，那个钻戒算是一年的剩余钱。明星抛开百来万的生活开销，还剩几千万...钻戒只是个玩具而已 是男妓形象吧 猛男形象深得人心 女儿真漂亮 任达华看起来很花其实很专一 一直好奇：杨幂杨颖的脑残粉会吃她的💩喝她的尿么？在线等😏😏😏 老百姓那有十万胡址 钻戒真是个世纪大骗局 大哥大 羡慕😊 窦靖童 俺们大东北不能滑雪吗？非要去瑞士。。 任达华，徐锦江这些，人家拍戏就拍戏，不拍戏不和你搞那些乱七八糟的事，这才是职业，不像一些人拍戏不咋地，乱七八糟的事爱搞，还爱吃窝边草，这种人交不得！ 明星收入年收入几千万，买个钻几百万，老百姓年收入十万，买个钻戒三五！明星不买千万的钻都比不上普通百姓！ 以后就以娶明星女儿，啥也有了，所以你得练好身体，在生理上制服她。 有心人啊 你算错了，老百姓把日常开销刨除的话，一年剩不了几万，那个钻戒算是一年的剩余钱。明星抛开百来万的生活开销，还剩几千万...钻戒只是个玩具而已 都不是一个境界的地方 舒淇心中的魔鬼 这2楼和任达华有血海深仇？ 女儿真漂亮 怎样?你觉得呢? 算了吧..显然我跟你都不是 他转形成功了，有导演找我拍三级，我也拍！ 任达华看起来很花其实很专一 女儿长得挺好看 这玩艺不应该用钱来衡量吧？ 我去！！瞬间萎了！！ 不是听说之前他们都是自己玩自己的吗？ 是一个好老公，好父亲，这么多年没啥绯闻 是男妓形象吧 猛男形象深得人心 以后就以娶明星女儿，啥也有了，所以你得练好身体，在生理上制服她。 ",
        "Link": "http://comment.ent.163.com/ent2_bbs/D6SQHEHJ00038FO9.html",
        "Total": 240,
        "Reply": 28
    },
    "Article": "网易娱乐12月30日报道据香港媒体报道，影帝任达华与太太琦琦昨日结婚20周年，可惜却要分隔两地，琦琦与女儿正身在瑞士滑雪，而任达华则留港拍戏。不过，琦琦甜笑表示自己有个好老公，每日都过得很开心，每日也是结婚周年。不同形状各有含意虽然未能在正日庆祝，但任达华非常有心思，早为爱妻送上三颗不同形状的钻石作为礼物，琦琦说：“分别系圆形、心形同方形，他说想我每个形状都有。三颗代表我的一家三口，圆形代表一家人团圆、完美；心形就代表可爱的女女，以后大了，可以转送心形钻石给他；方形就代表我的个性，四四方方、黑白分明，好有创意。想起来都好Sweet！”微博晒照放闪而琦琦则表示送了由她亲自设计、独一无二的钻石十字架颈链给老公，寓意十全十美。两公婆平日对结婚周年表现低调，但有感20周年特别有意义，故琦琦昨日专程在微博上晒出恩爱合照放闪，并留言：“HappyAnniversary！和你在一起的每一个定格都是自然美好的！”琦琦又开心地说：“好浪漫，又有桃花，同周年纪念好配合。”任达华必定开心到爆。本文来源：网易娱乐责任编辑：宋玉鑫_NK6612",
    "URL": "http://ent.163.com/17/1230/06/D6SQHEHJ00038FO9.html",
    "Title": "模范好老公！任达华3颗钻石赠妻庆结婚20周年_网易娱乐",
    "KeyWords": "任达华"
}