{
    "Comment": {
        "Link": "http://comment.news.163.com/news_shehui7_bbs/D6KTOIG20001875P.html",
        "Reply": 50,
        "Content": "按照文章分析淘宝上解锁的都是通过购买用户邮箱号、购买木马等犯法手段来进行解锁的，那是不是应该刑事侦查淘宝阿里？马云，听到没有？？没事别装清高，每天估惦着下个月赚几个亿！！ 是靠木马盗取，不是什么高科技 不是说苹果不能解锁吗？？？ 一楼的话和那口号差不多，只要砖还在，还怕砌不出墙吗？ 你朋友比FBI都厉害 天天锤华强北。。。那天没华强北你们就知道痛苦了。。。不是华强北。哪里有今天的制造业 [微笑] 按照我们近期的思维，这是可以讹苹果公司的，谁能讹来这钱才是真本事！ 苹果内部人员解开的AppleID锁，我朋友捡到一部手机有ID锁定就是他们内部人员解开的。 没有华强北也会有华强南，但是你为什么要说没有华强北哪来的制造业，你在开玩笑吧 华为表示不服，为什么没人偷我的，形成一个产业链 fbi和cia解不了的苹果密码，在国内简单的不得了！ 有技术到哪里都有饭吃 不是fbi解不了锁，是非法解锁获取的信息不能作为证据，凡是密码类的解锁，不管多少加密都是最简单的加密方式，不懂技术不要瞎说，我宁可相信一切都不是安全的，增加解密障碍的方式多一些，也不相信FBI解不了苹果，一个ID数，一个密码数，弄来弄去就那么多固定的数，熟悉规则了，做出来的工具，就是分分钟的事，就是看有没有价值。 按照文章分析淘宝上解锁的都是通过购买用户邮箱号、购买木马等犯法手段来进行解锁的，那是不是应该刑事侦查淘宝阿里？马云，听到没有？？没事别装清高，每天估惦着下个月赚几个亿！！ 不太懂不做无谓的评论 是靠木马盗取，不是什么高科技 没有华强北也会有华强南，但是你为什么要说没有华强北哪来的制造业，你在开玩笑吧 真的是坑呀 我屌，说的那么残忍，再配个这种表情…… 不是说苹果不能解锁吗？？？ 所以说，在深圳丢了台iPhone，最多能做到的是远程抹掉内容，永远别指望捡到手机的人会联系你还回来的。 苹果内部人员解开的AppleID锁，我朋友捡到一部手机有ID锁定就是他们内部人员解开的。 。。 华为表示不服，为什么没人偷我的，形成一个产业链 吹牛b不打草稿！ 瞎搞。。。。。。。 有技术到哪里都有饭吃 是靠木马盗取，不是什么高科技 不是fbi解不了锁，是非法解锁获取的信息不能作为证据，凡是密码类的解锁，不管多少加密都是最简单的加密方式，不懂技术不要瞎说，我宁可相信一切都不是安全的，增加解密障碍的方式多一些，也不相信FBI解不了苹果，一个ID数，一个密码数，弄来弄去就那么多固定的数，熟悉规则了，做出来的工具，就是分分钟的事，就是看有没有价值。 你朋友比FBI都厉害 天天锤华强北。。。那天没华强北你们就知道痛苦了。。。不是华强北。哪里有今天的制造业 [微笑] 呵呵了。。。。。。。。。。。。。 呵呵了。。。。。。。。。。。。。 [可怜]我的7p估计是被肢解了吧 哪里有买卖哪里就有伤害！ 就是坑啊。。。。。。。。。。。 有没有我的手机两年了 天天锤华强北 苹果内部人帮解开这 有技术都好办 瞎搞。。。。。。。 应该学习日本，只要不是自己的东西，哪怕是捡来的，也是犯罪 呵呵了。。。。。。。。。。。。。 大佬你先去我殿后！ 不是fbi解不了锁，是非法解锁获取的信息不能作为起诉证据，这是法律规定的，但是只要证明信息不是通过解锁方式获取的，就能当做作证据了，FBI为什么找苹果，苹果拒绝呢？是因为要求苹果提供技术，这等于苹果取出了信息，出卖自己的用户，苹果是举证方，苹果当然不干。还有一点要说明凡是密码类的加密方式，不管多少加密都是最简单的加密方式，不懂技术不要瞎说，我宁可相信一切都不是安全的，加密只是增加解密障碍的方式多一些，也不相信FBI解不了苹果，一个ID数，一个密码数，弄来弄去就那么多固定的数，熟悉规则了，做出来的工具，就是分分钟的事，就是看有没有价值。 FBI算个P！ 呵呵。。。。 很容易的 呵呵了。。。。。。。。。。。。。 可能性不大 只要墙是砖垒的，就有办法破墙，翻墙。 一楼的话和那口号差不多，只要砖还在，还怕砌不出墙吗？ 产业链?发展真快,赞一下. 真的，解开一部要1000呢。我帮他刷机过有ID锁定，后来手机在他手上，他远程使用电脑报序列号给他们，然后他们叫他手机关机，解开后打电话叫开机，就可以直接使用了。真实的，就发生在我身边的朋友。 就是坑啊。。。。。。。。。。。 这话说的 就是坑。。。。。。。。。 按照我们近期的思维，这是可以讹苹果公司的，谁能讹来这钱才是真本事！ 瞎搞。。。。。。。 我從來不打開可疑鏈接！ 你朋友是有多刁？ fbi和cia解不了的苹果密码，在国内简单的不得了！ ",
        "Total": 238
    },
    "Article": "（原标题：被盗手机“洗白白”，倒手价值翻十倍）被盗手机“洗白白”，倒手价值翻十倍苹果手机灰色“盗改销”产业链调查资料图：山西太原警方发还民众被盗手机。张云摄被盗的苹果手机去哪儿了？近期，深圳警方成功侦破公安部督办的一起专案，摧毁系列“盗改销”苹果手机特大犯罪团伙及相关产业链，缴获涉案苹果手机2800余部，涉及全国28个省份。记者调查发现，解锁被盗苹果手机ID已经形成产业链，不少被盗手机解锁后再次进入市场流通。被盗苹果“砖头机”解锁后价值翻十倍家住深圳宝安的石先生十分郁闷，刚买不久的苹果手机被偷走，几个月后，又收到多条邮件，均含有索要被盗手机账号密码的钓鱼链接。业内人士介绍，苹果手机因其封闭系统这一特点，有密码的“ID机”被盗抢后就变成了俗称的“砖头机”，只能拆开当零件卖，估价只有三五百元。如果将ID解锁，一些品相好的可能价值两三千元，还在保质期内的苹果手机可以旧换新，价值更高。一些不法分子盯上了这条“生钱之道”。深圳警方近期破获了以孟某为首、长期在深圳罗湖东门一带活动的盗窃手机团伙，抓获9名犯罪嫌疑人，查获苹果手机30多部。办案民警介绍，盗抢手机团伙通常是松散的组织，犯罪分子盗抢得手后，往往通过二手手机店铺、微信群、QQ群等多个渠道销赃。这些被盗的手机最终流向哪里？深圳警方侦查发现，一个以方某为首的特大犯罪团伙专门从事非法解锁苹果手机账号再转卖活动。今年3月至9月间，专案组在广东、四川、重庆、安徽、江西等地开展行动，共刑拘57名犯罪嫌疑人，其中30人已被检察机关逮捕，缴获涉案苹果手机2800余部，涉及全国28个省份。多种方式解锁ID后再次流入市场记者调查发现，在苹果手机“盗改销”产业链中，解锁ID是最重要的环节。在深圳市福田区，警方抓获嫌疑人方某等4人，当场缴获苹果手机751部。方某交代，自己在网上购买钓鱼软件，通过手机机身码在一些平台购买用户注册邮箱、手机号码等信息，再冒充苹果公司客服给失主发送含有钓鱼链接的邮件。失主以为是苹果官方的网站，点击进去输入自己的ID和密码，就可以通过后台盗取。为方某提供代发钓鱼邮件服务的李某说，自己按天收费，一天收客户200元，至案发时，李某已非法获利超过5万元。另一个为方某提供钓鱼网站服务的犯罪嫌疑人李某某，收费方式则是800元的“包月套餐”。在四川被抓获的犯罪嫌疑人文某说，自己在网上接单，平均每解锁一个手机收费上百元，每天每人能解锁5至10个手机。警方介绍，截至案发，文某团伙10名犯罪嫌疑人账上的流水已约200万元。据调查，解锁后的手机，有些被以旧换新成新的手机，有些通过更换外壳等方式翻新，再通过网上渠道、二手手机市场等进行倒卖。加大打击力度完善二手手机流通机制记者调查发现，解锁苹果ID已经形成公开的产业。在某电商平台，记者搜索“解锁苹果ID”发现，有超过600个相关店铺，一些店铺单月销量数千，价格则在几十元到500元不等。在一家月销超过1300笔的店铺，记者询问是否能解锁苹果ID，客服问记者“是自己的机器还是捡的”，记者说“是捡的”，客服随后表示“可以解锁”，“不需要邮寄，也不需要远程控制”，只需要提供机身IMEI码和激活界面即可，需要1至7天，并强调有九成概率，收费200元。不少法律界人士认为，这种解锁ID行为游走在法律边缘。北京市隆安(深圳)律师事务所合伙人赖冠能认为，目前网络解锁苹果ID行为有可能触犯掩饰、隐瞒犯罪所得罪，但这一罪名需认定“明知”是盗抢等犯罪所得的赃物等条件，因而很难界定，需要相关司法解释加以明确。据了解，目前多地已加强打击手机“盗改销”犯罪行为。深圳警方近期在深圳电子市场比较集中的华强片区举行专案返赃大会，加强对类似犯罪行为的法制宣讲和震慑力度。深圳华强片区一名电子产品从业人员告诉记者，以前华强片区二手手机市场内，部分摊位的招牌公然写着“解锁”，公开收购二手苹果手机，经过打击，最近一段时间已经很少再有了。一些办案人员建议，综合录入被盗抢手机机身码，建立被盗抢手机信息共享平台，可方便追查、比对赃物流向，打击异地销赃。同时，应在二手手机市场中，加强对交易行为的监管，如交易前须在相关平台登记手机信息等。本文来源：科技日报责任编辑：乔敬_NN6607",
    "PublishTime": "12/27/201704:49:12",
    "URL": "http://news.163.com/17/1227/04/D6KTOIG20001875P.html",
    "Title": "苹果手机灰色\"盗改销\"产业链：解锁后价值翻十倍_网易新闻",
    "KeyWords": "苹果手机,手机,犯罪,产业链",
    "Source": "Netease"
}