{
    "Article": "（原标题：伊朗示威者冲撞市政大楼爆冲突死亡人数升至20）海外网1月2日电伊朗反政府示威愈演愈烈，抗议者在试图闯入伊斯法罕省一市政大楼时与伊朗安全部队再发生冲突，导致流血事件，目前，在双方冲突中死亡的人数已经上升至20人。死亡人数升至20人据阿拉伯卫星电视台消息，自12月28日以来的伊朗反政府示威仍未平息，已经蔓延至伊朗全国各地，目前，在伊朗安全部队和抗议者的冲突中死亡的人数已经上升至20人，其中17人为示威者，3人为伊朗安全部队人员。伊朗警方发言人于周一（1月1日）表示，一名警察被纳杰法巴德市的抗议人士开枪打死，另有三名警察在袭击中受伤。这是自上周反政府示威活动开始以来，伊朗官方首次通报其安全部队的死亡人数。其后，阿拉伯卫星电视台接到改革派人士消息称，又有5名抗议者在伊斯法罕省Qahdregan市遇害。抗议者当时试图冲进市政厅大楼，并与政府安全部队发生冲突，5人被打死。此外，阿拉伯卫星电视台还援引该市地方媒体的报道称，还有两名伊朗革命卫队的士兵在冲突中丧生。加上此前已被证实死亡的12人，在伊朗发生的反政府示威已经导致20人死亡。伊朗逮捕多名“代理人”据海外网此前报道，这场抗议活动于28日在伊朗第二大城市马什哈德以抨击生活费用高涨开始，但很快就转变成反政府示威。有人甚至高呼口号，支持被1979年伊斯兰革命推翻的君主制，其他人则批评政府支持巴勒斯坦人及其他地区运动，对国内难题不闻不问。对此，伊朗情报部门当地时间周一（1日）发布声明表示，已识别并逮捕多名骚乱背后的“代理人”。伊朗总统鲁哈尼当地时间1日表示，伊朗民众会对“少部分利用抗议的暴徒和不法分子”进行处置。他强调，伊朗的敌人无法容忍伊朗在外交领域、尤其是在面对美国和以色列政权方面取得的成就，有人甚至明确威胁称会将区域问题引向伊朗。鲁哈尼还于2017年12月31日回应了美国总统特朗普支持伊朗抗议活动的言论。他表示，“这个身在美国却来同情我们的人民的人，忘记了几个月前他曾称伊朗为支持恐怖主义的国家。这个反对伊朗人的人，没有权利同情伊朗人。”伊朗内政部长日前向抗议民众发出严厉警告，称那些引起公共混乱的抗议者们将面临法律追责，他们会为此“付出代价”。美以帮腔美国总统唐纳德·特朗普连续几天在社交网站上“声援”示威，称伊朗人民“似乎不愿再忍耐下去”，美国“正密切关注”示威者的权利是否受到侵害。同为伊朗宿敌，以色列政府也开始对伊朗局势“品头论足”。以色列情报部长以色列·卡茨1日称，“我当然希望”伊朗示威者能“获得胜利”。但以色列总理内塔尼亚胡1日否认以色列是伊朗游行示威背后的一个推手。本文来源：海外网责任编辑：谷莹_NN6577",
    "Title": "伊朗示威者冲撞市政大楼爆冲突 死亡人数升至20人_网易新闻",
    "PublishTime": "01/02/201814:57:49",
    "Source": "Netease",
    "Comment": {
        "Content": "你去超纤好 一定又是美帝的阴毛 跟贴被火星网友带走啦~ 加油，勇敢伊朗人民 一楼是条舔犬 去你马拉个币的吧， 胆大包天，武警和军队怎么不枪毙他们？ 因为他们自己就通过鹅毛干涉成功的，所以特别敏感 祝贺全伊朗人民团结起来铲除你们的毒瘤 本末不可倒置，民心不稳，军事再强也没用，宗教问题也是中东乱源之一。 卫队不是自己的心腹么？ 只要不打仗，怎样都行，对不？ 群里视频很多！ 公道自在人心 历史一向有耐心……迟早的事 胜利属于伊朗人民.2018开年大戏 不算，因为波斯人上街不关老美和犹太人的事。推上说一开始是保守派组织上街，结果往相反的方向发展，然后逐步蔓延扩大。 跟贴被火星网友带走啦~ 美国是名副其实的超级大锅。。。 革命卫队已宣称站在人民一边，不会镇压市威者。 就不能好好的过日子吗 美国是世界最坏的国家 人家鸡蛋涨点钱就闹事，什么素质。。看看我们房价一年翻一翻，还在辛勤劳作为了建设祖国而奋斗。 公道自在人心，正义永不缺席！ 其实老百姓才不管民主什么的，但物价上涨民生凋敝老百姓绝对要有表示 又黑又大又多的锅 2018注定不会是平凡的一年！ 在正义的网民眼中，任何反抗政府的行动，都是美帝阴毛？ 伊朗也是会玩，越革越倒退 屠杀平民了 你有没有了解过事情，就是日子不好过才反的，失业率高企，物价上涨。 奴性思维！ 神棍统治的国家能好么？ 总比战争好 那个群？能介绍我进去看吗？[窃笑] 放着好好的日子不过，要听美以怂恿，难道要像叙利亚那样满目苍痍才开心？ 嘴炮们该实际行动起来了 在微信上看到貌似卫队总司令签署的文件，士兵不得向人民开枪。看不懂阿语，只听微友解释，真假莫辨。 据说视频被禁了 华为跪倒 这是不满意自己的政府的行为 这是不满意自己的政府的行为 说美国好的中国人只有两种，不是傻就是坏！ 跟贴被火星网友带走啦~ 我越来越觉得同胞都是最窝囊的 此刻我要是支持伊朗抗议群众算不算是和美国以色列一伙的...... 今天向一妹子表白，妹子拒绝了我，她狠心的对我说道，你也不撒泡尿照照自己，你这么样配的上我吗？于是我脱下了裤子，撒泡尿照照自己的样子，就在我脱完裤子，准备撒尿时，妹子吞了口口水说到:等等，也许我们可以试试...[抠鼻]哎… 你想过，也过不成。 你去超纤好 美帝的阴毛 跟贴被火星网友带走啦~ 加油，勇敢伊朗人民 美国是世界最坏的国家 一楼是条舔犬 去你马拉个币的吧， 胆大包天，武警和军队怎么不枪毙他们？ 因为他们自己就通过鹅毛干涉成功的，所以特别敏感 米国和以色列在下黑手！ 不算，因为波斯人上街不关老美和犹太人的事。推上说一开始是保守派组织上街，结果往相反的方向发展，然后逐步蔓延扩大。 祝贺全伊朗人民团结起来铲除你们的毒瘤 本末不可倒置，民心不稳，军事再强也没用，宗教问题也是中东乱源之一。 卫队不是自己的心腹么？ 只要不打仗，怎样都行，对不？ 群里视频很多！ 公道自在人心 历史一向有耐心……迟早的事 胜利属于伊朗人民.2018开年大戏 加油 说美国好的中国人只有两种，不是傻就是坏！ 伊朗为啥不戴帽子 就不能好好的过日子吗 美国是名副其实的超级大锅。。。 嘴炮们该实际行动起来了 公道自在人心，正义永不缺席！ 伊朗人民离自由近了一步 你想过，也过不成。 又黑又大又多的锅 跟贴被火星网友带走啦~ 呵呵呵呵呵呵 在正义的网民眼中，任何反抗政府的行动，都是美帝阴毛？ 伊朗也是会玩，越革越倒退 你就是国家生你养你，国家。。。🔫🔫🔫 你有没有了解过事情，就是日子不好过才反的，失业率高企，物价上涨。 阿拉伯和波斯人踏马总拿一手好牌打的稀巴烂 奴性思维！ 神棍统治的国家能好么？ 此刻我要是支持伊朗抗议群众算不算是和美国以色列一伙的...... 外部势力干扰的 那个群？能介绍我进去看吗？[窃笑] 屠杀平民了 今天向一妹子表白，妹子拒绝了我，她狠心的对我说道，你也不撒泡尿照照自己，你这么样配的上我吗？于是我脱下了裤子，撒泡尿照照自己的样子，就在我脱完裤子，准备撒尿时，妹子吞了口口水说到:等等，也许我们可以试试...[抠鼻]哎… 放着好好的日子不过，要听美以怂恿，难道要像叙利亚那样满目苍痍才开心？ 在微信上看到貌似卫队总司令签署的文件，士兵不得向人民开枪。看不懂阿语，只听微友解释，真假莫辨。 据说视频被禁了 华为跪倒 想到是为楼上这样的而战，一楼马上萎靡了[微笑][微笑][微笑] 美的阴毛！ 跟贴被火星网友带走啦~ 跟贴被火星网友带走啦~ 我越来越觉得同胞都是最窝囊的 其实老百姓才不管民主什么的，但物价上涨民生凋敝老百姓绝对要有表示 人家鸡蛋涨点钱就闹事，什么素质。。看看我们房价一年翻一翻，还在辛勤劳作为了建设祖国而奋斗。 和平演变挺有成果嘛 穆斯林的双重标准：1我们要宗教自由。2杀光一切不信真主的人 2018注定不会是平凡的一年！ 历史一向有耐心……迟早的事 就因为没油了才乱何来油加 一定又是美帝的阴毛 找回下家接盘没啊都造反？ 外部势力干扰的 什么群？给一个 这是不满意自己的政府的行为 加油伊朗！ 这是不满意自己的政府的行为 好久不见你了，哪个群留个 群里视频很多！ ",
        "Reply": 64,
        "Link": "http://comment.news.163.com/news_guoji2_bbs/D75EV9MO0001875O.html",
        "Total": 2833
    },
    "KeyWords": "伊朗,以色列,鲁哈尼,示威者",
    "URL": "http://news.163.com/18/0102/14/D75EV9MO0001875O.html"
}