{
    "URL": "http://news.163.com/17/1229/10/D6QKTDQI000187VE.html",
    "Article": "（原标题：山东淄博两男子深夜抱走游乐园“光头强”被刑拘，称为哄孩子）几个月前，淄博博山的一个小山村里来了四个大明星。这四个大明星在小朋友中非常受欢迎，分别是：熊大、熊二、光头强，还有吉吉国王。然而近日，游乐场项目负责人告诉记者，“光头强”和“吉吉国王”被人盗走了。负责人表示，“光头强”是用四个膨胀螺丝固定安装的，被盗后固定用的膨胀螺丝已被人拽起来，破坏得很厉害。而“吉吉国王”用以固定的膨胀螺丝还在，雕塑已被抽走。警方查看监控发现，两件雕塑是在夜间被人盗走的。警方顺藤摸瓜在莱芜苗山镇找到了嫌疑人，也在嫌疑人的小院里找到了被盗的光头强和吉吉国王。嫌疑人表示，盗走两个玩具是想给小孩玩。原来，嫌疑人去博山送货的时候，在这个迷宫玩过好几次。最近一次去的时候，发现光头强和吉吉国王是活动的，于是便动了歪心思。目前，光头强和吉吉国王已经“回家”，嫌疑人因构成刑事犯罪，被警方刑事拘留。本文来源：齐鲁网责任编辑：何雨芳_NN5632",
    "Source": "Netease",
    "PublishTime": "12/29/201710:01:00",
    "KeyWords": "光头强,淄博,哄孩子",
    "Comment": {
        "Content": "突然想起以前女朋友，不知道她死了没有。 哈哈哈哈😂 言传身教。如此教孩子，不脸红吗？ 把他们做成光头强，膨胀螺丝钉在原地，代替雕塑三个月就可以了 熊大熊二没出来施救 半夜去偷光头强？这俩人是熊大熊二成精？ 半夜去偷光头强？这俩人是熊大熊二成精？ 简直脑残 熊大熊二没出来施救 突然想起以前女朋友，不知道她死了没有。 山东人怎么老是上新闻，记者和山东有仇吗？ 不能这样做的哦！ 以身作则给孩子树立的很坏的榜样，“想要的东西去偷也无妨”，严惩对他一家都有好处 哈哈哈哈😂 言传身教。如此教孩子，不脸红吗？ 沙发 把他们做成光头强，膨胀螺丝钉在原地，代替雕塑三个月就可以了 説好的老實人嗯呢 ",
        "Total": 135,
        "Link": "http://comment.news.163.com/news2_bbs/D6QKTDQI000187VE.html",
        "Reply": 12
    },
    "Title": "两男子深夜抱走游乐园\"光头强\"被刑拘 称为哄孩子_网易新闻"
}