{
    "Article": "（原标题：5岁姐姐逗3月弟弟“喂”下金属片）红网时刻1月3日讯“我怎么也没有想到，转个身意外就发生了。”1月3日，看着刚刚做完手术的二宝小雨（化名），宁乡的罗女士懊悔不已。前两天，3个月大的小雨躺在摇床上，5岁的姐姐逗小雨玩。罗女士转身拿个东西，突然俩孩子同时大哭。反复询问后，罗女士得知，大宝不小心把一个雪花形状的金属片掉进小雨嘴里了。罗女士赶紧抱起小雨往当地医院跑，经检查考虑为食道异物，后将孩子转到湖南省儿童医院治疗。该院为小雨做了手术，取出一枚完整的“八角形”金属装饰物，由于异物尖锐，食道壁粘膜有明显充血肿胀，需要继续抗炎治疗。本文来源：红网责任编辑：苏泓珵_NBJ9980",
    "PublishTime": "01/03/201809:57:07",
    "URL": "http://news.163.com/18/0103/10/D77GVH0Q000187VG.html",
    "Source": "Netease",
    "Comment": {
        "Content": "孩子这么小应该把小东西藏起来 孩子看孩子一定要把危险物品收起来 ",
        "Reply": 2,
        "Total": 2,
        "Link": "http://comment.news.163.com/news2_bbs/D77GVH0Q000187VG.html"
    },
    "Title": "5岁姐姐逗3月弟弟玩 “喂”下八角形金属片_网易新闻",
    "KeyWords": "手术,姐弟,肿胀"
}