{
    "Source": "Netease",
    "PublishTime": "12/26/201707:41:34",
    "KeyWords": "普京,叙利亚,反恐,俄罗斯",
    "Title": "普京：若有需要 俄将继续在叙利亚进行反恐斗争_网易新闻",
    "Comment": {
        "Link": "http://comment.news.163.com/news2_bbs/D6IMMAP200018AOR.html",
        "Total": 3045,
        "Content": "装逼遭雷劈的典范！ 掂量掂量家底 美帝纸老虎，以色列渣渣！大地跌挺住，不能怂不要舔！你是一面旗帜，你是一种信仰，你是流氓界的坑把子，我们以你为荣！ 没有，快滚！ 鸭子死了，嘴壳子硬。干嘛跑了？不用跑，坚持战斗噻。 主要是看以色列脸色吧 在中东，打仗不搞屠杀根本不行，只有杀怕了才会老实。 先处理你国内的反对派吧 去吧！小宝贝，欢迎作死。 钱，有吗？ 凭心情呗 不是说is都打完了？ 反恐，是一个跨不过的话题！ 很有必要啊！大京 谁跑了？ 啥意思？自己反自己？ 普京玩尽心机太聪明，反误了区曲性命。可惜又可叹啊！ 这逼装的，干嘛跑了。 赶紧过去，巴傻儿吓得都胡言乱语了，你哪点家伙什400都被以色列当废品卖给收破烂了，顺便去傻子那运点钱来 呵呵，可怜的吧萨尔 普京同志，俄罗斯有底气吗？钱从哪来 反恐，是一个跨不过的话题！ 煞笔 反美斗争 消灭了又要去？那到底消灭了吗 砖家说鯆鲸在下一盘大棋 我咋迷糊了呢 小普京:等我攒够了钱，我再去买水果糖！ 苏联笑话了，普京又是笑话…… 不去是孙子。 没有你巴沙尔就不行了 如何界定有需要或没需要? 刚刚夹着尾巴走，真的厚颜无耻 普京：若有需要俄将继续在叙利亚进行反恐斗争<br>巴沙尔哭着喊着太需要了，你去吧 不来的没jj 当逃兵的还有优越感了 去吧毒瘤，那里有手术刀 太有了 普京就是俄国的壮阳药，药性一过，俄国五十年硬不起来。。。。 当逃兵的还有优越感了 装逼遭雷劈的典范！ 掂量掂量家底 美帝纸老虎，以色列渣渣！大地跌挺住，不能怂不要舔！你是一面旗帜，你是一种信仰，你是流氓界的坑把子，我们以你为荣！ 没有，快滚！ …… 中国好，中国棒！ 鸭子死了，嘴壳子硬。干嘛跑了？不用跑，坚持战斗噻。 主要是看以色列脸色吧 在中东，打仗不搞屠杀根本不行，只有杀怕了才会老实。 先处理你国内的反对派吧 煞笔 去吧！小宝贝，欢迎作死。 钱，有吗？ 太好了，就怕你丫不回来 不是说is都打完了？ 反恐，是一个跨不过的话题！ 很有必要啊！大京 谁跑了？ 啥意思？自己反自己？ 普京玩尽心机太聪明，反误了区曲性命。可惜又可叹啊！ 赶紧过去，巴傻儿吓得都胡言乱语了，你哪点家伙什400都被以色列当废品卖给收破烂了，顺便去傻子那运点钱来 呵呵，可怜的吧萨尔 普京同志，俄罗斯有底气吗？钱从哪来 反恐，是一个跨不过的话题！ 普京有智慧，有胆识 反美斗争 消灭了又要去？那到底消灭了吗 砖家说鯆鲸在下一盘大棋 我咋迷糊了呢 小普京:等我攒够了钱，我再去买水果糖！ 凭心情呗 苏联笑话了，普京又是笑话…… 不去是孙子。 没有你巴沙尔就不行了 如何界定有需要或没需要? 刚刚夹着尾巴走，真的厚颜无耻 普京：若有需要俄将继续在叙利亚进行反恐斗争<br>巴沙尔哭着喊着太需要了，你去吧 不来的没jj 呵呵 去吧毒瘤，那里有手术刀 太有了 普京就是俄国的壮阳药，药性一过，俄国五十年硬不起来。。。。 这逼装的，干嘛跑了。 ",
        "Reply": 44
    },
    "Article": "（原标题：普京：若有需要俄将继续在叙利亚进行反恐斗争）海外网12月26日电当地时间12月25日，俄罗斯总统普京表示，如果有必要，俄罗斯将继续在叙利亚进行反恐斗争，但不会像过去一样广泛地动用俄罗斯武装部队。12月11日，普京下令从叙利亚撤走驻叙部队。据塔斯社报道，俄罗斯总统普京在接见联邦高级立法者时表示，“大家提到了叙利亚，你们知道我的评价，不需要像之前那样，在叙利亚广泛地动用俄罗斯武装部队，即便我们有两个基地（赫迈米姆空军基地和塔尔图斯海军基地）。”普京强调，“我们当然要打击叙利亚境内的恐怖主义，如果有必要，我们还会继续下去，肯定会在那里作战。但不需要这么多的装备和人员，至少现在不需要。”12月11日，俄罗斯总统普京在抵达俄驻叙赫梅米姆空军基地后,下令将撤走驻叙部队。普京称，俄军和叙军用两年多时间粉碎了最有战斗力的国际恐怖组织，国防部在叙利亚的任务已经完成。俄罗斯空天部队总司令兼俄驻叙利亚部队司令苏罗维金当天也表示，俄驻叙部队已开始分批撤离叙利亚。但当时就有媒体分析道，有四大因素影响使俄将难以“割舍”叙利亚。重要的地缘战略地位、传统的盟友合作关系、扩散的恐怖主义势力、长期的反恐战争存在都是俄罗斯无法“放弃”叙利亚的原因。据俄罗斯卫星通讯社公布的数据显示，自俄罗斯2015年9月派遣军事力量进入叙利亚实施军事行动以来，俄罗斯方面共进行了至少23000次战斗，发动空袭约77000次，消灭极端组织武装份子约28000名，其中包括2000名俄罗斯籍的武装份子。还收复了叙利亚境内至少500个被“伊斯兰国”极端组织占领的居民点，其中包括叙利亚最大城市阿勒颇和库维利斯。本文来源：海外网责任编辑：杨强_NN6027",
    "URL": "http://news.163.com/17/1226/08/D6IMMAP200018AOR.html"
}