{
    "Article": "（原标题：服刑犯千里救儿：家中欠巨债妻子坚持不放弃）昨日，一则《福建、河南监狱千里调犯服刑父亲等待救五岁病儿》的新闻引发网友的广泛关注。目前，身患白血病、年仅5岁的男孩龙龙（化名）正在福建省福州协和医院血液科小儿病房接受化疗，等到病情稳定后便可在2018年1月底进行骨髓移植。福建监狱系统也积极联合公益组织向社会发起募捐，为龙龙筹措手术费用。姐姐母亲配型失败监狱中的父亲成唯一希望“不知道为什么，苦难一直伴随着我这一家人。”32岁的黄琴，看起来将近50岁，她一边俯下身体给5岁的儿子龙龙举着雾化瓶，一边轻声低喃。面对记者的来访，她的眼圈发红，眼眶里有泪水不断打转。?自今年1月，年仅5岁的儿子查出急性白血病后，这位年轻的母亲曾经几度精神崩溃。龙龙的病需要进行造血干细胞移植，经采样，母亲和姐姐配型均告失败。黄琴形容自己“听到消息时已经腿软，当时几乎流干了眼泪，站都站不起来。”几经辗转，儿子与在监狱服刑的父亲配型成功，这成了她和儿子的“最后一根救命稻草”。?幼小的龙龙静静蜷在病床一角，脸色蜡黄。化疗阶段，他一天要打34支吊针，低烧、呕吐、水肿和全身疼痛是最常见的不良反应。生病让他变得寡言少语，在他少有的清醒时刻，他会默默看着手机里和爸爸的合影发呆。目前，龙龙的病情仍较凶险，需病情稳定后才能进行移植，手术时间暂定2018年1月底。民警说陈宽是个误入歧途的浪子龙龙的父亲陈宽（化名）已经很久没有回过家了。福建省福州监狱狱政科科长张学武说：“2016年，陈宽因轻信朋友谗言误入歧途，犯诈骗罪被判刑8年3个月，在河南第一监狱服刑。服刑期间，家里没有劳动力，远在福建南安的妻子黄琴只能带着儿女打零工艰难度日。陈宽家的经济条件不好，几年前，陈宽的父母都因癌症去世，治病花光了家里所有的钱。大女儿出生时患有先天眼疾，不治疗可能会有失明的风险，陈宽和黄琴举家借债，才保住了女儿的眼睛。”“嫁给他的时候就知道他家里穷得叮当响，但是不管日子有多难，我只想找一个人来保护我。”黄琴与陈宽自由恋爱，两人感情一直很深。丈夫的入狱“来得太突然”，但妻子坚信，他只是因为“穷怕了”，一时糊涂轻信朋友误入歧途，黄琴坚信丈夫本质并不坏，是可以改造好的。黄琴所期待的来自丈夫的“保护”，却因为家庭屡遭变故，在苦难中不断缺席。自陈宽入狱这个家庭连遭重创2016年9月，黄琴生下了一名男婴，但因羊水过少，孩子抢救4天后不幸夭折。丧子之痛，让黄琴悲痛不已：“都是因为他不在家里，如果有人在家照顾我，这个孩子根本不会没。”坐月子没人照顾的黄琴每每谈起这事，总是一脸的忧伤。家中债台高筑，儿子龙龙又因病入院，为照顾儿子，黄琴无力再打零工，家中的最后一点经济收入也断了。近来，他们几乎是有了上顿没下顿，榨菜、稀饭、方便面对付着果腹是经常的事。住进福建省福州协和医院血液科后，每日的治疗费用需2000元，东挪西借一直欠着医院的账，还好，福州监狱的民警前期捐助了一些善款，但还是入不敷出。龙龙的后期化疗和移植大约需要花费60万元，对于已经欠下几十万外债的这个穷苦家庭来说，无异于是个天文数字。同室的病友得知黄琴的情况后，经常会分一些吃的给她们母子，说黄琴虽然艰难困苦，但性格开朗，快言快语，是个坚强的母亲。面对高昂的医药费，有不少人劝黄琴“别治了，带孩子回家吧。”但黄琴说，“我已经失去一个孩子，这一次，哪怕只有一丝希望也要救回他。”教育感化罪犯与帮助犯人困难家庭福建监狱系统双措并举福州监狱的领导也表示，为了教育感化陈宽，也为了真正帮到这个困难家庭，挽救孩子的生命，司法部微信公众号、福建省监狱管理局和福州监狱已联合人民网、腾讯网、福州市晋安区慈善总会、红苹果公益、福建省互助大军公益等媒体和慈善机构向社会发起募捐活动。只要有一丝希望，监狱民警会全力以赴配合，帮助他们一家走出困境。本文来源：壹现场作者：王雯雯责任编辑：邵小波_NN2479",
    "PublishTime": "12/30/201715:39:14",
    "URL": "http://news.163.com/17/1230/15/D6TQ4VOG0001875P.html",
    "Comment": {
        "Content": "加油争取早日团聚 呵呵，他们家里欠了巨债，你猜猜这笔巨债给了谁？<br>我没看过这新闻，我猜是医院 愿你有个和他们一样的下场 这个社会需要帮助的人太多 能上新闻的也是冰山一角 感动，也算是为家里做了件事 合着医院应该免费给你做手术呗？医院的工作人员应该喝西北风呗？ 愿你有个和他们一样的下场 感动，也算是为家里做了件事 骨髓移植 骨髓移植是人们通过一些药物将骨髓中的造血干细胞动员到外周血中,通过血细胞分离机分取造血干细胞,称为外周血干细胞移植 能上新闻的也是冰山一角 这个社会需要帮助的人太多 合着医院应该免费给你做手术呗？医院的工作人员应该喝西北风呗？ 轻松筹上有没有钱都在愁 愿你子子孙孙都当医生 加油争取早日团聚 捐赠者提供的骨髓仅仅是一部分异体骨髓移植就是在配型成功的前提下,过一段时间,捐赠者骨髓会再生到以前的水平,把捐赠者的骨髓取出一部分,移植到接收者的体内 呵呵，他们家里欠了巨债，你猜猜这笔巨债给了谁？<br>我没看过这新闻，我猜是医院 被欠债的那些人才叫惨 ",
        "Link": "http://comment.news.163.com/news_shehui7_bbs/D6TQ4VOG0001875P.html",
        "Total": 53,
        "Reply": 13
    },
    "Source": "Netease",
    "Title": "服刑犯移植骨髓千里救儿:家中欠巨债 妻子不放弃_网易新闻",
    "KeyWords": "骨髓,白血病,生病,黄琴"
}