{
    "URL": "http://ent.163.com/photoview/00AJ0003/646989.html",
    "Article": "张雪迎全牛仔LOOK青春靓丽机票遮脸摆pose30日，上海，张雪迎身着全牛仔LOOK现身机场，头戴白色针织帽青春靓丽，见镜头用机票遮脸眼睛笑成一条线。",
    "KeyWords": "张雪迎,",
    "Source": "Netease",
    "Comment": {
        "Reply": 24,
        "Content": "图四和袁姗姗像 别吵了，再炒要糊了 有那么一点好看，比杨颖还差点 比鹿小姐的男盆友好看多了[窃笑] 漂亮吗？ 一个天然，一个整容。能比吗？ 漂亮 不错不错不错 这才是这个年纪该有的打扮 第二张没P显原形了 一直觉得她好看 比关晓彤这个b漂亮 别吵了，再炒要糊了 有那么一点好看，比杨颖还差点 源儿爱你啊 漂亮 小黄鸭 这就是娱乐圈 人家没整容，杨颖没整容试试！ 第二张没P显原形了 一直觉得她好看 觉得张雪迎挺好 图四和袁姗姗像 我女朋友 确实很普通 比鹿小姐的男盆友好看多了[窃笑] 漂亮吗？ 一个天然，一个整容。能比吗？ 期待《夏至未至》！ 不错不错不错 靠脸吃饭 这才是这个年纪该有的打扮 能和纯天然比吗？哈哈，你那个杨颖太牛逼，张妹子比不了的 比关晓彤这个b漂亮 丑b 阿拉义乌浓 ",
        "Total": 261,
        "Link": "http://comment.ent.163.com/ent2_bbs/PHOTJNQD000300AJ.html"
    },
    "PublishTime": "12/31/201707:43:34",
    "Title": "张雪迎全牛仔LOOK青春靓丽 机票遮脸摆pose_网易娱乐"
}