{
    "Article": "（原标题：视频｜害人害己！无知店主为口感往包子里加铝泡打粉怀孕女儿竟也在吃）#endText.video-infoa{text-decoration:none;color:#000;}#endText.video-infoa:hover{color:#d34747;}#endText.video-listli{overflow:hidden;float:left;list-style:none;width:132px;height:118px;position:relative;margin:8px3px0px0px;}#entText.video-lista,#endText.video-lista:visited{text-decoration:none;color:#fff;}#endText.video-list.overlay{text-align:left;padding:0px6px;background-color:#313131;font-size:12px;width:120px;position:absolute;bottom:0px;left:0px;height:26px;line-height:26px;overflow:hidden;color:#fff;}#endText.video-list.on{border-bottom:8pxsolid#c4282b;}#endText.video-list.play{width:20px;height:20px;background:url(http://img1.cache.netease.com/video/img14/zhuzhan/play.png);position:absolute;right:12px;top:62px;opacity:0.7;color:#fff;filter:alpha(opacity=70);_background:none;_filter:progid:DXImageTransform.Microsoft.AlphaImageLoader(src=\"http://img1.cache.netease.com/video/img14/zhuzhan/play.png\");}#endText.video-lista:hover.play{opacity:1;filter:alpha(opacity=100);_filter:progid:DXImageTransform.Microsoft.AlphaImageLoader(src=\"http://img1.cache.netease.com/video/img14/zhuzhan/play.png\");}if(/(iPhone|iPad|iPod|Android|NETEASEBOBO|blackberry|bbd+)/ig.test(navigator.userAgent)||/safari|chrome|firefox/i.test(navigator.userAgent)&&navigator.plugins&&!navigator.plugins[\"ShockwaveFlash\"]){varstr1='<videocontrols=\"controls\"preload=\"auto\"width=\"100%\"poster=\"http://vimg3.ws.126.net/image/snapshot/2018/1/1/U/VA67TJ01U.jpg\"style=\"max-height:100%\">';varstr2='<sourcetype=\"video/mp4\"src=\"http://flv.bn.netease.com/videolib3/1801/02/PRIio4928/SD/PRIio4928-mobile.mp4\">您的浏览器暂时无法播放此视频.</video>';document.getElementById(\"FPlayer1404863609673\").parentNode.innerHTML=str1+str2;}害人害己！无知店主为口感往包子里加铝泡打粉怀孕女儿竟也在吃（来源：original）window.NTES&&function(d){varf=function(c){varb=c.getAttribute(\"flashvars\"),a=c.getAttribute(\"repovideourl\").replace(\".flv\",\"-mobile.mp4\");h=d(c.parentNode.parentNode.parentNode),g='<embedsrc=\"http://v.163.com/swf/video/NetEaseFlvPlayerV3.swf\"flashvars=\"'+b+'\"allowfullscreen=\"true\"allowscriptaccess=\"always\"quality=\"high\"wmode=\"opaque\"width=\"100%\"height=\"100%\"type=\"application/x-shockwave-flash\"/>';if(/(iPhone|iPad|iPod|Android|NETEASEBOBO|blackberry|bbd+)/ig.test(navigator.userAgent)){g='<videocontrols=\"controls\"preload=\"auto\"width=\"100%\"height=\"100%\"><sourcetype=\"video/mp4\"src=\"'+a+'\">您的浏览器暂时无法播放此视频.</video>';}h.$(\".video\")[0].innerHTML=g;},e=function(b){vara=d(b.parentNode.parentNode.parentNode);a.$(\"li\").removeCss(\"on\"),b.addCss(\"on\"),a.$(\".video-title\")[0].innerHTML=\"string\"==typeofb.textContent?b.textContent:b.innerText,a.$(\".video-title\")[0].setAttribute(\"href\",b.getAttribute(\"url\")),a.$(\".video-from\")[0].innerHTML=\"（来源：\"+b.getAttribute(\"source\")+\"）\",f(b);};window.continuePlay=function(){vara,b=d(d(\".video-list.on\")[0].nextSibling);3==b.nodeType&&(b=d(b.nextSibling));if(b&&d(\".video-innerinput\")[0].checked){e(b);}},function(){vara={init:function(){if(d(\".video-listli\")[0]){d(d(\".video-listli\")[0]).addCss(\"on\"),this.eventBind();}},eventBind:function(){d(\".video-listli\").addEvent(\"click\",function(b){e(d(this)),b.preventDefault();});}};a.init();}();}(NTES);食品安全涉及千家万户，与健康息息相关，一直都是社会关注的焦点。但是有些食品生产经营人员为了牟利，不惜在食品中大量使用不符合食品安全标准的添加剂，近日，江苏泗洪的两名店主就因此被判刑。江苏泗洪县青阳镇居民刘某，在城区开了一家大饼铺，从2015年11月份开始，为了增加大饼的口感，刘某在制作过程中违法使用含铝泡打粉，直至2017年8月28日被市场监督管理局查处，随后，刘某被检察机关以涉嫌生产、销售不符合安全标准的食品罪提起公诉。刘某表示，他也是看别人使用添加剂制作的大饼受顾客欢迎，这才跟风效仿，而且自己家人也食用这种大饼，并不知道有什么危害，现在也是十分后悔。最终，刘某被判处有期徒刑6个月，并处罚金2000元。同样，泗洪县双沟镇村民陈某，在经营包子铺时，为了让包子口感更好，也大量使用了含铝泡打粉。陈某说，因为自己的无知，怀孕的女儿也经常食用他制作的包子，现在想想真是害人又害己。最终，陈某也被判处有期徒刑7个月，并处罚金2000元。本文来源：看看新闻Knews责任编辑：范姜国一_NN9138",
    "Title": "无知店主为口感给包子加铝泡打粉 怀孕女儿也在吃_网易新闻",
    "PublishTime": "01/02/201820:05:23",
    "Source": "Netease",
    "Comment": {
        "Content": "真是弱智，害人害己 食品摻雜違禁毒素，殺無赦。 那是符合国标的泡打粉，生产它有啥错？ 全国都一样，查不到拉倒，不知道危害的人更多，中国人民生活水平真高 江苏的污染一塌糊涂，登报的仅冰山一角，官们阴险狡诈混账透顶 有人相信它会给女儿吃吗？ 就是违法陈本太低，所以大家都疯狂违法！？ 这个女儿是不是虚构的。。。 有无铝双效泡打粉为什么不用？？？？？？？ 虎毒不食子，江苏人连自己的儿女都忍心下毒？ 卧槽！！这是真没有主观故意！！ 不禁生产？不禁售？<br>别说什么山寨货，禁不了。<br>人家锅外的猿比田超的猿，无论是数量，还是比例，都差几条街。<br>人家禁得了，你禁不了？<br>捉个用家？<br>呸！！！ 问题是这种不合格的添加剂哪来的？生产的，运输的，销售的，是不是应该一起抓起来？ 也只有写这篇文章的人会相信这个店主说的话。还无知店主，我看是写的人无知。<br>我们这里很多前一天晚上给青菜打农药的，第二天拿到菜市场来卖，卖不完的都会扔掉，都不敢带回去喂猪喂鸡 可以生产，可以销售，就是买回来不能用 故意说自己女儿也吃，为了减轻罪责 这罚2000呢？应该罚100万到破产 请问对使用加铝泡打粉有罪，那生产泡打粉的厂家又是什么罪啊？？ 违法成本太低，国家就是不治食品安全 江苏的污染一塌糊涂，登报的仅冰山一角，官们阴险狡诈混账透顶 可能有些人真不知道吧，蒸蒸日上<br>这是什么鬼打出来的字这样<br>我家以前做肠粉还加明矾，现在我都不知道这东西加了有什么坏处 一万个艹尼🐎，为什么只判六个月，难道不该判个六年吗？草民的命确实不值钱 这罚2000呢？应该罚100万到破产 有人相信它会给女儿吃吗？ 全国都一样，查不到拉倒，不知道危害的人更多，中国人民生活水平真高 泗洪人路过 就是违法陈本太低，所以大家都疯狂违法！？ 法律是不是应该更加严格 有无铝双效泡打粉为什么不用？？？？？？？ 不禁生产？不禁售？<br>别说什么山寨货，禁不了。<br>人家锅外的猿比田超的猿，无论是数量，还是比例，都差几条街。<br>人家禁得了，你禁不了？<br>捉个用家？<br>呸！！！ 问题是这种不合格的添加剂哪来的？生产的，运输的，销售的，是不是应该一起抓起来？ 卧槽！！这是真没有主观故意！！ 这个女儿是不是虚构的。。。 违法成本太低，国家就是不治食品安全 罚的太少了 那是符合国标的泡打粉，生产它有啥错？ 真是弱智，害人害己 虎毒不食子，江苏人连自己的儿女都忍心下毒？ |<br>。 天天乱增加那个来查，查到一家么假装发出来给老百姓看看，天天在办公室里面打游戏喝茶从来不出来查！ 也只有写这篇文章的人会相信这个店主说的话。还无知店主，我看是写的人无知。<br>我们这里很多前一天晚上给青菜打农药的，第二天拿到菜市场来卖，卖不完的都会扔掉，都不敢带回去喂猪喂鸡 可以生产，可以销售，就是买回来不能用 故意说自己女儿也吃，为了减轻罪责 食品摻雜違禁毒素，殺無赦。 请问对使用加铝泡打粉有罪，那生产泡打粉的厂家又是什么罪啊？？ ",
        "Reply": 26,
        "Link": "http://comment.news.163.com/news_shehui7_bbs/D760IEQV0001875P.html",
        "Total": 580
    },
    "KeyWords": "包子,怀孕,泡打粉",
    "URL": "http://news.163.com/18/0102/20/D760IEQV0001875P.html"
}