{
    "URL": "http://sports.163.com/17/1228/12/D6OBRN6L00058781.html",
    "Comment": {
        "Reply": 72,
        "Content": "老板够意思，kop知足了，渣叔看你的了…… 马德里排球队的贝尔是不是这样来的！？ 别得瑟了吗的夏天那引援觉得吊炸天结果这成绩次奥 证明库鸟真的走了 后卫居然7500万英镑，这是利物浦当了冤大头还是通货膨胀就有这么高了，貌似这应该是实际发生的转会里后卫最高身价了吧，估价的后卫不算在没 冤大头，买这么贵的 巴傻:套球衣，拉关系，挑唆罢训，放风假消息，玩失踪。。。 穷屌，眼红了么？ 米兰蠢狗。这辈子估计也没希望崛起了。 库鸟想去巴萨 不贵呀。一个中场可以花一个亿。为啥一个后卫不可以。而且这个后卫是一个球队的重要拼图。克洛普夏天就想买。说明他很早发现问题。给了洛夫伦半个赛季时间，证明还是要花大价钱。重点引援策略就是钱花刀刃上。下个赛季凯塔替代亨德森。利物浦大有可为。 红军进攻无解，防守更无解 作为KOP感觉很骄傲，有个听话的老板哈哈 别忘了利物浦买下一个贵价货还在德甲呢 对比我厂老板和主教练简直是悲哀 没有违约金的合同，你想怎么撸？说夸张点，你就算出100亿，利物浦不想卖，你也只能干瞪眼 可靠消息来源。。。库鸟说：你把范迪克撸来我就留队 马桶就是人傻钱多！ 夏天不就买了个萨拉赫么，哪来的吊炸天？最大的成果是留住了库蒂尼奥，留住了，只是留住。签来个凯塔还要明年夏天才来。和巴萨扯皮库蒂尼奥时为防万一弄来个张九零。 希望有用吧，红军的后防真是前锋进多少个球都觉得没底儿！ 你觉得米兰球迷会这么没素质吗? 利物浦好歹转变转会思路了，从之前低价淘宝买来水货一堆。到现在终于明白一分钱一分货，一次投资买精品。 要是皇马能把鸭子撸过去，然后利物浦把皇马现在的门将撸过来。拿就太完美了 昨天还说曼城要买呢 看它名字就知道是忘恩负义的东西 还有门将和边后卫 跟曼城抢人？曼城马上报价库鸟 勒马尔也在路上 一楼著名油表 kop一本满足，枪迷真的苦 厉害利物浦加油萨拉赫利物浦加油 您妈在家裸死，快滚去收尸 好门将基本都稳定在其它球队，好像也没谁可以买啊，悲哀！ 利物浦和皇马C罗有什么仇怨？ 我现在就怕vvd会跪[被黑] 这个价格太离谱了 别得瑟了吗的夏天那引援觉得吊炸天结果这成绩次奥 穷屌，眼红了么？ 不贵呀。一个中场可以花一个亿。为啥一个后卫不可以。而且这个后卫是一个球队的重要拼图。克洛普夏天就想买。说明他很早发现问题。给了洛夫伦半个赛季时间，证明还是要花大价钱。重点引援策略就是钱花刀刃上。下个赛季凯塔替代亨德森。利物浦大有可为。 你觉得米兰球迷会这么没素质吗? 红军进攻无解，防守更无解 利物浦红袜队，亨利老板好样的 作为KOP感觉很骄傲，有个听话的老板哈哈 现在能稍稍缓解一下了，再来个门将，特拉普也行，就差不多了 要是皇马能把鸭子撸过去，然后利物浦把皇马现在的门将撸过来。拿就太完美了 得给巴萨点颜色瞧瞧！ 签下奥布拉克，亨利[色色] 马桶就是人傻钱多！ 英超真是不差钱 那货已经在德甲开始摆烂了，踢球不积极，怕受伤，偶尔给你来个红牌，歇息几场，要说莱比锡也是，哪有这么卖人的，还预约，这样一来，球员铁定不可能卖力了 木鸟：…… 冬窗告诉尤文，买詹可以，说服布冯来守一年门 一楼这到底是肥料还是38？ 还有门将和边后卫 看它名字就知道是忘恩负义的东西 跟曼城抢人？曼城马上报价库鸟 后卫居然7500万英镑，这是利物浦当了冤大头还是通货膨胀就有这么高了，貌似这应该是实际发生的转会里后卫最高身价了吧，估价的后卫不算在没 尼玛就是活好价廉！ 等我发挥 kop一本满足，枪迷真的苦 厉害利物浦加油萨拉赫利物浦加油 凉了吧 老板够意思，kop知足了，渣叔看你的了…… 马德里排球队的贝尔是不是这样来的！？ 哈哈哈哈，被骂了多少年的亨利终于开窍了 利物浦好歹转变转会思路了，从之前低价淘宝买来水货一堆。到现在终于明白一分钱一分货，一次投资买精品。 如果可以打得出来，就是赚了<br>打不出来，2000万都是亏 红军现在越来越牛比了，看到希望了，加油 巴傻:套球衣，拉关系，挑唆罢训，放风假消息，玩失踪。。。 能再来个门将吗 那么多年花了那么多钱居然没有冠军…<br>啊埃弗顿还差点降级<br>所以利物浦双雄应该好好反思 曼联老板这几年的投入也相当大，真可耐何……都用坏了，再就是曼城了，成功的几率都很大，很少有废的 红军老板这2年没得说 范迪克，岂不是成了最贵的后卫？ 冤大头，买这么贵的 别忘了利物浦买下一个贵价货还在德甲呢 对比我厂老板和主教练简直是悲哀 半年时间，贵50%，别忘了利物浦还有一个贵价货在德甲呢 这特么不是红袜吗 球迷真可爱 库鸟想去巴萨 七字真言送给你，米尼奥莱莫雷诺[微笑][微笑][微笑] 看到你几个小时前说自己是傻逼的回帖后，我恍然大悟，同发现的kop右上角[窃笑] 红军后防下血本了 哈哈 利物浦这波操作真的可以。有价无市的球员抢到就是赚到。 买不到就不要眼红了[鄙视] 一楼著名油表 您妈在家裸死，快滚去收尸 7500万磅的范迪克换达尼漏，换吗 昨天还说曼城要买呢 英超有点中超的意思！一个比一个高 希望有用吧，红军的后防真是前锋进多少个球都觉得没底儿！ 迫切需要三比一 ",
        "Total": 891,
        "Link": "http://comment.sports.163.com/sports2_bbs/D6OBRN6L00058781.html"
    },
    "Title": "梦想成真!红军球迷9月呼唤引援范迪克 老板:买买买_网易体育",
    "Source": "Netease",
    "KeyWords": "范迪克,英超,利物浦",
    "PublishTime": "12/28/201712:53:18",
    "Article": "网易体育12月28日报道：利物浦在北京时间今日凌晨宣布从南安普敦签下了范迪克。而在不久后，一段老视频又被扒了出来，一位利物浦的球迷在今年9月份的美国棒球比赛中，对着红袜老板同时也是红军老板约翰亨利大叫，要求他在2018年的冬窗签下范迪克，现在红军球迷梦想成真了，kop们是否应该感谢这位“请愿”的球迷呢？#endText.video-infoa{text-decoration:none;color:#000;}#endText.video-infoa:hover{color:#d34747;}#endText.video-listli{overflow:hidden;float:left;list-style:none;width:132px;height:118px;position:relative;margin:8px3px0px0px;}#entText.video-lista,#endText.video-lista:visited{text-decoration:none;color:#fff;}#endText.video-list.overlay{text-align:left;padding:0px6px;background-color:#313131;font-size:12px;width:120px;position:absolute;bottom:0px;left:0px;height:26px;line-height:26px;overflow:hidden;color:#fff;}#endText.video-list.on{border-bottom:8pxsolid#c4282b;}#endText.video-list.play{width:20px;height:20px;background:url(http://img1.cache.netease.com/video/img14/zhuzhan/play.png);position:absolute;right:12px;top:62px;opacity:0.7;color:#fff;filter:alpha(opacity=70);_background:none;_filter:progid:DXImageTransform.Microsoft.AlphaImageLoader(src=\"http://img1.cache.netease.com/video/img14/zhuzhan/play.png\");}#endText.video-lista:hover.play{opacity:1;filter:alpha(opacity=100);_filter:progid:DXImageTransform.Microsoft.AlphaImageLoader(src=\"http://img1.cache.netease.com/video/img14/zhuzhan/play.png\");}if(/(iPhone|iPad|iPod|Android|NETEASEBOBO|blackberry|bbd+)/ig.test(navigator.userAgent)||/safari|chrome|firefox/i.test(navigator.userAgent)&&navigator.plugins&&!navigator.plugins[\"ShockwaveFlash\"]){varstr1='<videocontrols=\"controls\"preload=\"auto\"width=\"100%\"poster=\"http://vimg3.ws.126.net/image/snapshot/2017/12/Q/4/VD5QE5TQ4.jpg\"style=\"max-height:100%\">';varstr2='<sourcetype=\"video/mp4\"src=\"http://flv.bn.netease.com/videolib3/1712/28/CVADM2588/SD/CVADM2588-mobile.mp4\">您的浏览器暂时无法播放此视频.</video>';document.getElementById(\"FPlayer1404863609673\").parentNode.innerHTML=str1+str2;}利物浦球迷高喊:快买范迪克（来源：网易体育）window.NTES&&function(d){varf=function(c){varb=c.getAttribute(\"flashvars\"),a=c.getAttribute(\"repovideourl\").replace(\".flv\",\"-mobile.mp4\");h=d(c.parentNode.parentNode.parentNode),g='<embedsrc=\"http://v.163.com/swf/video/NetEaseFlvPlayerV3.swf\"flashvars=\"'+b+'\"allowfullscreen=\"true\"allowscriptaccess=\"always\"quality=\"high\"wmode=\"opaque\"width=\"100%\"height=\"100%\"type=\"application/x-shockwave-flash\"/>';if(/(iPhone|iPad|iPod|Android|NETEASEBOBO|blackberry|bbd+)/ig.test(navigator.userAgent)){g='<videocontrols=\"controls\"preload=\"auto\"width=\"100%\"height=\"100%\"><sourcetype=\"video/mp4\"src=\"'+a+'\">您的浏览器暂时无法播放此视频.</video>';}h.$(\".video\")[0].innerHTML=g;},e=function(b){vara=d(b.parentNode.parentNode.parentNode);a.$(\"li\").removeCss(\"on\"),b.addCss(\"on\"),a.$(\".video-title\")[0].innerHTML=\"string\"==typeofb.textContent?b.textContent:b.innerText,a.$(\".video-title\")[0].setAttribute(\"href\",b.getAttribute(\"url\")),a.$(\".video-from\")[0].innerHTML=\"（来源：\"+b.getAttribute(\"source\")+\"）\",f(b);};window.continuePlay=function(){vara,b=d(d(\".video-list.on\")[0].nextSibling);3==b.nodeType&&(b=d(b.nextSibling));if(b&&d(\".video-innerinput\")[0].checked){e(b);}},function(){vara={init:function(){if(d(\".video-listli\")[0]){d(d(\".video-listli\")[0]).addCss(\"on\"),this.eventBind();}},eventBind:function(){d(\".video-listli\").addEvent(\"click\",function(b){e(d(this)),b.preventDefault();});}};a.init();}();}(NTES);利物浦在最近的几个赛季的进攻发挥不错，但是球队无法却无法取得佳绩，在媒体与球迷眼中，红军队内缺乏实力中卫是一个重要的理由。在过去的几个转会窗，有关利物浦将会求购圣徒后卫范迪克的消息也多次被爆出，但是每个转会窗，这笔交易都未能达成。在今年的夏天，红军再次与范迪克联系在了一起，而范迪克本人为了离队还专门发表声明罢训，但是最终，范迪克转会红军依旧没有发生。在今年的9月份的一场美国职业棒球赛中，红袜队的老板约翰-亨利也来到了现场看球，而约翰-亨利也是红军的老板。一位在现场看棒球的球迷也是红军的粉丝，在其看见约翰-亨利后也大声喊出：“老板，一月份签下范迪克。”约翰-亨利面对这球迷的请愿没有任何表情。但是没想到在今年年底，约翰-亨利就为红军签下了范迪克。为了得到荷兰后卫，约翰-亨利掏出了高达7500万英镑，花费可谓巨大。而随着范迪克的到来，本就进攻实力出色的红军的防守实力也进行了提升，下半赛季的红军可期。本文来源：网易体育作者：小西责任编辑：马鑫_NS4811"
}