{
    "Article": "（原标题：特朗普签署命令解散选举舞弊委员会因遭多州抵制）海外网1月4日电据美联社消息，特朗普签署命令，解散了极具争议的“选举舞弊委员会”。据称，这是因为该委员会被美国多州选举官员强烈抵制，拒绝提供信息要求。此前据美国中文网等媒体报道，2017年5月11日，特朗普签署了一项新行政命令，成立一个委员会，调查此前大选可能涉及的“选举舞弊(voterfraud)”。该委员会由副总统彭斯及堪萨斯州州务卿柯巴赫(KrisKobach)共同负责，专门调查各州选举与全国选举中的不当投票与造假选民登记。白宫当时在声明中称：“委员会将审视那些维护或损害美国民众对联邦大选公正性信心的政策和行为。包括造假选民登记，不当投票、假选民、假选票以及压制投票等行为。”据美国ABC新闻报道，该委员会的审查范围相当广泛，不限于特朗普对大选的指控，还涉及“多年来在选举完整性方面出现的制度性问题”，以及民主党关心的选民压制问题。在2016年大选后，特朗普认为希拉里拿到的普通选票比他多出近300万张的原因是大范围的选民欺诈(voterfraud)。不过，特朗普和他的团队尚未提供具体证据。特朗普宣布建立“选举舞弊委员会”正值FBI局长科米被解雇一事掀起政治风暴之际。民主党人和其他批评者认为，特朗普解雇科米，是因为科米将要调查俄罗斯对大选的干预问题。美国选民权益组织对特朗普的这一决定表示抗议，选举官员则担忧特朗普的有大量不正当选票存在的指称会动摇合法选民的信心。本文来源：海外网责任编辑：李天奕_NN7528",
    "URL": "http://news.163.com/18/0104/08/D79U2U630001875O.html",
    "KeyWords": "委员会,特朗普,选举,选民",
    "PublishTime": "01/04/201808:38:55",
    "Title": "特朗普签署命令解散选举舞弊委员会 因遭多州抵制_网易新闻",
    "Comment": {
        "Content": "特朗普，很靠谱 特朗普，很靠谱 ",
        "Link": "http://comment.news.163.com/news_guoji2_bbs/D79U2U630001875O.html",
        "Total": 2,
        "Reply": 0
    },
    "Source": "Netease"
}