{
    "Comment": {
        "Link": "http://comment.news.163.com/news_shehui7_bbs/D6L737PC0001875P.html",
        "Reply": 78,
        "Content": "你家钱房子给我好不好，因为你有我没有 法院就是一群流氓 想孩子可以理解，甚至有点同情，但毕竟法院判给男方了，你可以去看看，也可以再上诉嘛 这男的绝对不会对这个孩子好的，闹得沸沸扬扬，能不能娶到媳妇儿都很难说😞😞😞 本人觉得还是归女方好些！ 现在试管生育都很完善了，不像以前那么困难找罪了，很多都选择试管 这个孩子和男方没有任何关系，因该归女方．女方更会爱护这个孩子．国家这时应该照顾男的，没生育能力．孤儿院这么多． 男方老家法院百分百被收买了！ 楼上说得好！！——芝士 一次不公正的审判，其恶十倍于犯罪，因为犯罪只是污染了水流，而不公正的审判则是污染了水源。——培根 你懂啥啊试管还是很痛苦的！正常怀孕都很辛苦。 男的妹责任感，孩子还不是老一辈带。 中国法律，人性靠边！ 这就是中国法律！ 汪迪波教授说得是对的 垃圾人。对这个母亲来说见不到孩子跟孩子死了一样难受！甚至更牵肠挂肚更担心！更愤怒！ 这根本就不是好些坏些的问题，这孩子就该是女方的，法院乱作为 很蠢，应该生孩子之前就离婚的😳 二楼的理论让人开眼 对女人太不公平了 而且男的还喜欢玩不务正业，还不是老人抚养 法院判官潜规则了？正常女的抚养会好一些 年纪不大的孩子怎么会判给男方？法官在说胡话嘛…… 那么小的孩子应该跟着妈妈，做试管受的那些苦十月怀胎的累，只有妈妈自己知道，她会更疼惜自己的宝贝。 女方想要孩子可以再生，男方生不了。 收钱了，这不是误判，是恶判…… 反正都没血缘，男方可以去收养啊，试管婴儿多受罪你们这些b不知道么！！！ 和这男的没感情，应该早离婚自己和孩子过 借腹生子想想就很带劲 用银行卡从取款机刷出来的钱不归银行卡所有 应该归女方！男方不务正业！ 一次不公正的审判，其恶十倍于犯罪，因为犯罪只是污染了水流，而不公正的审判则是污染了水源。——培根 精子库是不是应该担责？孩子有先天性心脏病，精子库应该审核捐精者身体健康情况吧 你丫不会生孩子还去抢一个你还有理了？？？ 不想大过年骂人但你逻辑是不是谁家死人了。你跑去安慰说可以再生 关键是此卡0存款！ 很不公平 就是法院是废物吗怎么能这么判吗 男方生不了也不是女方的错，女方十月怀胎生的孩子是说割舍就割舍的吗 谁有病谁有理? 神经病可以随便杀人有证 尼玛币，这是死了吗？死贱人。 法庭判决最权威，这女的感觉都有点神经病了，一面之词只适合记者发稿，先天心脏病的试管婴儿还是跟着经济条件比较好的一方吧，不然悲剧的很 谁有病谁有理？ 你家钱房子给我好不好，因为你有我没有 很蠢，应该生孩子之前就离婚的😳 生不了怪女方喽？既然知道生不了，干嘛不好好对这母子两个？这男的一家人的报应就是，有一天孩子大了。知道真相了，呵呵。等着竹篮打水一场空吧。 这种案子很难判，想给谁，不想给谁，都说得通 本人觉得还是归女方好些！ 年纪不大的孩子怎么会判给男方？法官在说胡话嘛…… 尼玛币，这是死了吗？死贱人。 这个孩子和男方没有任何关系，因该归女方．女方更会爱护这个孩子．国家这时应该照顾男的，没生育能力．孤儿院这么多． 南方也想不通，孩子都没有自己的基因抢屁啊 楼上说得好！！——芝士 一次不公正的审判，其恶十倍于犯罪，因为犯罪只是污染了水流，而不公正的审判则是污染了水源。——培根 shit 用注射器…… 你懂啥啊试管还是很痛苦的！正常怀孕都很辛苦。 有关系的捐，多留后代 借腹生子想想就很带劲 先天性心脏病？精子有问题？ 这就是后台硬和不硬的区别，法律算什么！ 这个如何是好 怎么个景 这根本就不是好些坏些的问题，这孩子就该是女方的，法院乱作为 估计是男方怕以后再婚又生不出孩子觉得丢脸 ==确实有点看不懂了 收钱了，这不是误判，是恶判…… 这个比喻不恰当…… 我怎么有点没看懂..... 而且男的还喜欢玩不务正业，还不是老人抚养 法院判官潜规则了？正常女的抚养会好一些 好复杂的恋情啊 那么小的孩子应该跟着妈妈，做试管受的那些苦十月怀胎的累，只有妈妈自己知道，她会更疼惜自己的宝贝。 女方想要孩子可以再生，男方生不了。 垃圾人。对这个母亲来说见不到孩子跟孩子死了一样难受！甚至更牵肠挂肚更担心！更愤怒！ 朋友姐夫生不了孩子，朋友姐姐做试管。期间我们去看过一次。全身浮肿，胖了3圈，连脸都变形了。不知道多受罪。 主要北方太冷了。 。。。。。。 先天性心脏病完全是随机发生的，又不是遗传病，爹妈身体完全健康也可能生下病孩子 新闻没看错的话，这男的是浙江的 有道理？ 用银行卡从取款机刷出来的钱不归银行卡所有 应该归女方！男方不务正业！ 一次不公正的审判，其恶十倍于犯罪，因为犯罪只是污染了水流，而不公正的审判则是污染了水源。——培根 精子库是不是应该担责？孩子有先天性心脏病，精子库应该审核捐精者身体健康情况吧 你丫不会生孩子还去抢一个你还有理了？？？ 关系懂不懂 对啊 哎难哦 没关系，水源够大，稀释的几乎没有——二楼 就是法院是废物吗怎么能这么判吗 不要反驳姐,你生个孩子再来说话 法官都是瞎判的 法庭判决最权威，这女的感觉都有点神经病了，一面之词只适合记者发稿，先天心脏病的试管婴儿还是跟着经济条件比较好的一方吧，不然悲剧的很 对女人太不公平了 法官判的是狗屁 法院就是一群流氓 唉！ 想孩子可以理解，甚至有点同情，但毕竟法院判给男方了，你可以去看看，也可以再上诉嘛 这男的绝对不会对这个孩子好的，闹得沸沸扬扬，能不能娶到媳妇儿都很难说😞😞😞 男方老家法院百分百被收买了！ 本人觉得还是归女方好些！ 也不是这一个法官的错，国内离婚案基本都是这么判的，谁抢到算谁的，因为孩子的问题很难强制执行。就像南京彭宇扶老太案，在彭宇案之前全国的类似案例基本也都是和彭宇案一样的判决，只不过彭宇案被大规模报道出来罢了 女方想要孩子可以再生，男方生不了。 关键是此卡0存款！ 汪迪波教授说得是对的 很不公平 在干嘛 不管给谁，应该是双方都可以见面，可以养的 谁有病谁有理? 中国法律，人性靠边！ 法官糊涂！ 什么法官？孩子谁抢到就是谁的？ 用银行卡从取款机刷出来的钱不归银行卡所有 这就是中国法律！ 谁有病谁有理？ 和这男的没感情，应该早离婚自己和孩子过 ",
        "Total": 1091
    },
    "Article": "（原标题：这个离婚案大跌眼镜！她用别人精子生下试管婴儿，结果……陷入绝望的女人想不通啊！）整整两年五个月，她再没见过自己的儿子。那天妹妹在楼下大喊，“阿姐，孩子，孩子被他们抱走了”。陈萍(化名)像发疯一样，推开夫家前来劝和的亲戚们冲下楼，跑过桥，对岸哪还有儿子的身影啊。她就像重重挨了一记闷棍。即便如此，当时陈萍还是没想过自己会从此见不到儿子。一个月前离婚官司判下来，一审法院将孩子的抚养权判给了男方林伟(化名)。陈萍想不通。这里还涉及到一个隐私问题，林伟患有无精症，孩子是当时在林的同意下，陈萍通过妇保医院精子库精子和自己的卵子受孕而得的试管婴儿。用陈萍的话来说，又不是他亲生的。图片来源视觉中国一起简单的离婚官司背后有隐情案件是陈萍的代理律师拨打钱江晚报96068热线爆料的，并提供了一审临海法院的判决书。从判决书看，案情不复杂。2009年，双方结婚;2013年底通过试管婴儿有了孩子;2015年7月，女方提起离婚起诉，2015年8月18日，法院驳回。一般来说，如果没有家暴等特殊情形，法院对于第一次起诉通常是不会直接判离的。2016年女方再度提起离婚诉讼，今年11月7日临海法院一审判离，孩子归男方抚养。在孩子抚养权判归父亲这一点上，法庭考虑到的因素有“孩子跟父亲生活了将近三年，对现有的生活环境和生活习惯较为熟悉”，“男方丧失生育能力”等。女方说男方家抢走了孩子陈萍和林伟今年三十出头。双方的父母都是做南北货生意的，他们是父母介绍认识结婚的。“感情一直不好”，陈萍说，林伟就像个孩子，成天玩游戏，晚上迟归。后来大家想着有个孩子是不是感情能好一点，这时候林伟被查出患有无精症。这个孩子来之不易，在浙江省妇保，陈萍用了精子库的精子，接受了三次人工授精两次试管婴儿，好不容易受孕成功，在孕8月的时候孩子早产出生。陈萍说，对于有个孩子能改善夫妻感情，她早早凉了心，做试管婴儿她住院三个多月，林伟来探望她不过两三次。孩子早产后被查出先天性心脏病，“只有我一个人抱着孩子到处找医生”。所以等孩子2岁多的时候，陈萍还是提出离婚，“自己带，反倒清静”。陈萍提出离婚，她从来没想过这个从出生开始一直粘在她身边的小东西会离开她。2015年8月9日，陈萍在老家长兴。傍晚时分，夫家来了一车五人，有林伟的舅舅阿姨等人，大家说要谈一谈，就上了陈萍在二楼的房间。孩子，这个时候由陈萍妹妹抱着在河对岸玩。妹妹说，是陈萍的婆婆将孩子从她手中强抱过去，快速离开。两年五个月，她再也没有见过孩子钱江晚报记者试图联系林伟，被告知电话号码已经是空号。辗转又联系上了陈萍的婆婆，老人家说，法院已经判了，一切你去问我们老家法院。孩子不见之后，陈萍回到杭州的婆家，大闹一场，砸了婆家所有的东西，婆家报警。但是陈萍还是没看到孩子。之后婆家换了门锁，林伟换了电话。陈萍经常晚上去婆家小区，看着窗户里的灯光，屏住呼吸听有没有孩子的声音，但是，没有。就这样，两年五个月，陈萍说她再也没见过孩子，林伟也是在陈萍第二次起诉后在庭审时才见到，“就像陌生人一样”。在采访中，陈萍一直说，两年半了，宝宝估计都不认识我了;当时被抱走的时候，正好是要打疫苗，不晓得那针疫苗后来有没有打哦。她一遍遍反复，让听的人直发憷，又很悲伤。图片来源视觉中国【新闻+】是不是有血缘关系不重要怎么获得孩子的抚养很关键婚姻家事鸡毛蒜皮，搬到法庭上，尤其是这种抚养权问题，一个孩子大家都要，法官无论做何定夺都会得罪人。临海法院一审法官表示，案件现在女方已经上诉了，所以她就不发表意见了。有人说，这个爸爸跟孩子都没血缘关系，为什么要跟爸爸呢。这在法律上是有规定的，在夫妻关系存续期间，双方一致同意进行人工授精，所生子女应视为夫妻双方的婚生子女，父母子女之间权利义务关系适用《婚姻法》的有关规定。也就是说，在这个案子中，即便爸爸跟孩子没有血缘关系，但是在孩子的抚养权利和义务上，他和妈妈是平等的。他也完全有权抚养孩子。中国法学会婚姻法学研究会理事，浙江省法学会婚姻法学研究会会长柯直说，将子女抚养权判给爸爸，是对无法生育后代的一方的人性关怀。而孩子长期同男方一起生活后，改变其习惯也是不利于子女的健康成长。尽管这个结果对妈妈来说是难以接受的，但是孩子只有一个，无论给谁对另一方都很残忍。但是，浙江省婚姻法学研究会秘书长、杭州师范大学法学院副教授汪迪波却不这么认为。汪迪波说，我注意到一审判决书上法院在抚养权的判定上考虑到了基于对孩子抚养有利的角度，不轻易改变其生活环境和习惯。但“孩子是怎样离开母亲，随父亲长期生活”应该是本案需要了解的一个重要事实。假设能够查实真如女方所说，孩子是被抢走的且找寻不到，那么，不是女方没有尽到母亲义务，而是她被迫失去对孩子的照顾，那么由此判定孩子长期跟男方生活，为不改变孩子的生长环境就交由男方抚养是对法律的机械理解。这样的裁判易形成一种不良的社会导向。另外，男方没有生育能力这一点也不成为获得孩子抚养权的一个“砝码”，在这一段刚结束的婚姻中，男方不是也是通过人工方式来实现当爸爸的梦想的吗，该事由不能成为忽略男方并非孩子生物学父亲的理由。本文来源：钱江晚报责任编辑：谷莹_NN6577",
    "PublishTime": "12/27/201707:32:19",
    "URL": "http://news.163.com/17/1227/07/D6L737PC0001875P.html",
    "Title": "丈夫无法生育 她借精生下试管婴儿却2年见不到孩子_网易新闻",
    "KeyWords": "试管婴儿,生育,抚养权,离婚",
    "Source": "Netease"
}