{
    "Comment": {
        "Link": "http://comment.ent.163.com/ent2_bbs/D6L7M19K00038FO9.html",
        "Reply": 4,
        "Content": "神经病 给粉丝医药费报了吧！挺不容易了 神经病 给粉丝医药费报了吧！挺不容易了 好人 开心的一晚 ",
        "Total": 7
    },
    "Article": "患病歌迷努力站起来与杨千嬅合照网易娱乐12月27日报道据香港媒体报道，杨千嬅早前在“拉阔音乐会”的舞台上，读出身在荷兰患病女歌迷GiGi母亲的信，感动得泣不成声。前天GiGi来香港欣赏杨千嬅的“三二一GO！演唱会”，结束后GiGi在后台见偶像，GiGi出尽力令双脚站起来与杨千嬅合照，虽然只是几十秒，但已令杨千嬅好开心和感动，为今年圣诞节留下美好回忆！荷兰患病女歌迷GiGi患有先天性疾病，接受了开脑手术失败后昏迷，醒来重新学习，而她第一个勉强写出的字，并不是自己的名字，而是“杨千嬅”3个字。杨千嬅是她的精神支柱，前天在后台见到偶像，GiGi表现兴奋，杨千嬅蹲在她的轮椅旁鼓励她，说：“你一定要勇敢面对！妈妈、我还有你好多朋友亲人都会陪着你、支持你。（你来荷兰玩呀？）好呀，我都没去过荷兰。”杨千嬅又鼓励GiGi多练习写字，除了她的名字，还要多写妈妈的名字：“妈妈为你付出好多心机，你一定要加油，努力，好多人好疼你。”之后GiGi在妈妈和亲友的协助下，双脚站起来与杨千嬅合照，短短几十秒已是GiGi很大的努力和进步，杨千嬅和现场各人都非常感动，还拍掌为她打气。离开前，杨千嬅叮嘱GiGi保重和多休息，GiGi反而叮嘱杨千嬅：“你回去要睡觉，不要再玩直播！”因为前晚结束后杨千嬅回家仍上网做直播，被GiGi反过来教训，杨千嬅表示会听话！此外，前晚正好是圣诞节，杨千嬅换了3套新装亮相，包括“彩虹仙子Look”、“黑丝型格look”和“圣诞ShoppingBag”。而安哥环节变成歌迷点唱时间，有人点唱圣诞歌，杨千嬅笑称：“我只会唱《LastChristmas》会不会好扫兴？没彩排过又没歌词！”这当然难不到台上专业的乐手，而导演也立即安排歌词字幕，全场大合唱，充满节日气氛。之后还点唱了《再见二丁目》和《抬起我的头来》，其间有歌迷点唱《塔罗迷》，杨千嬅搞笑说：“塔罗牌？你应该上网找师傅，如果我会塔罗牌不得了，我那么聪明一算就算到今晚11点收工！”本文来源：网易娱乐责任编辑：李彤_NK4455",
    "PublishTime": "12/27/201707:42:35",
    "URL": "http://ent.163.com/17/1227/07/D6L7M19K00038FO9.html",
    "Title": "患病歌迷荷兰赴港捧场杨千嬅 努力站起来合照偶像_网易娱乐",
    "KeyWords": "杨千嬅,gigi",
    "Source": "Netease"
}