{
    "Article": "（原标题：日本警方查获超7千名恋童癖法官警官议员均涉案）日媒报道截图海外网1月2日电日本警视厅近日查获一起儿童色情交易网站案，总计约有7200人涉嫌购买相关产品，除多名嫌犯为普通民众外，多名地院法官、皇宫护卫官、警官、议员甚至僧侣均牵涉其中，更有日本知名漫画《神剑闯江湖》作者和月伸宏也再次涉入其中。检察官、警察、医生、议员、僧侣均有涉案据台湾《风传媒》援引日本《读卖新闻》消息，日媒近期采访日本警视厅调查相关人员，警方指出，截至2017年5月为止，警方一共从儿童色情交易网站（包括影像、照片等等）等相关管道，扣押约7200人的购买名册。名册内除有40多岁的东京地方法院检察官、30多岁的皇宫护卫官，多名30至40岁的警视厅警员、职员，及知名企业职员外，知名漫画《神剑闯江湖》的作者、47岁的和月伸宏（本名西脇伸宏）也涉嫌购买儿童色情产品。另外甚至还有部分僧侣涉其中。引起日本舆论一片哗然。目前涉案的检察官、警官等人皆已遭到行政处分，警方也对同仁涉案深表遗憾，表示会严格处理。警视厅近日以违反儿童买春、儿童色情禁止法相关条例嫌疑，将200人函送检方。由于涉案人数众多，日本警视厅新的一年也预计持续追踪可疑嫌犯，力求将不肖人士送检。依日本现行相关法律规定，除禁止拍摄未满18岁青少年、儿童色情影像及照片外，仅是持有相关影像资源也违法，最低可以判处100万日圆（约合人民币57670元）的罚金，最高则可判处1年以下的有期徒刑。相对于警方在2016年间接获约56起相关检举，这次的搜查可以说是2015年7月开始管制持有相关影像资源后，规模最大的一次。日媒报道部分涉案人员知名漫画家又中箭称对少女有癖好而早在这起规模庞大的儿童色情交易案爆出前，知名漫画《神剑闯江湖》的作者和月伸宏就在2017年11月遭以违反相关法律函送检方侦办，引起漫画迷热议。警方表示，嫌犯在调查过程中坦承，自己对小学高年级至中学二年级的少女有特殊癖好，警方也在其家中搜出多达100张儿童色情DVD。从购买名单来看，除前述的检察官、警察等人外，其中甚至还有僧侣。还有普通上班族得知警方在调查儿童色情交易案后，主动自首的情形。调查人员指出，购买儿童色情产品的消费者中，其实有很多都是从事普通工作的民众。同时表示，只要有民众愿意掏钱购相关产品，就会有不肖人士持续制作儿童色情产品，除致力打击制造厂商外，也必须从消费者方面下手，才能有效遏止儿童色情产业发展。日媒报道儿童色情交易泛滥联合国点名批评调查相关人员表示，日本警视厅少年培育课于2017年5月初，接获民众检举某儿童色情交易网站，而后以儿童色情相关法律逮捕61岁的韩国籍男性等4名嫌犯。警方指出，这家网站采用会员制度，自2016年初后营业额急遽成长，在被举发前总计获利约2亿5千万日圆（约合人民币1441.8万），由此可见儿童色情产品的泛滥。警方搜查4名嫌犯的住家后，除扣押约2万片儿童色情相关DVD外，还在电脑中查获7200人名单中，警方透过专业医师分析影片内容，确定7千多名消费者中，至少3千人涉嫌购买儿童色情相关产品。其中甚至还有学龄前儿童的影片，业者行为十分恶劣。据了解，日本向来以情色产业闻名国际，但近年却陆续传出无知女性遭成人影片制造厂商诱骗，被强迫拍摄成人影片的消息，甚至有许多业界相关人士受访揭开产业黑幕。这些事件每每都引起日本社会舆论哗然，甚至联合国及其相关组织亦多次对日本儿童色情多次提出点名批评。本文来源：海外网责任编辑：谷莹_NN6577",
    "Title": "日本警方查获超7千名恋童癖 法官警官僧侣均有涉案_网易新闻",
    "PublishTime": "01/02/201813:33:58",
    "Source": "Netease",
    "Comment": {
        "Content": "嫖宿幼女罪废除 对于匿名骂人者，已基本上不属于人类，甚至猪狗不如！ 你个无名无姓猪狗不如的畜生！ 依日本现行相关法律规定，除禁止拍摄未满18岁青少年、儿童色情影像及照片外，仅是持有相关影像资源也违法，最低可以判处100万日圆（约合人民币57670元）的罚金，最高则可判处1年以下的有期徒刑。<br>哎这么严的吗？这边戴套都不算QJ，还有什么嫖宿幼女罪，12，13岁强制生子什么的。 我国不知道有多少[不屑] 除了警察僧人法官之外，我听说过更狠的，有教授，校长，老师，各种局长，书记，光溜溜叔叔，欢迎补充 如果你家奶奶、老婆、岳母、姐姐、女儿4个女人，你女儿爱卖春，那比例就是20% 公务员啊， 某猿去台湾·在公厕·边摸·边叫·给人民币·[不屑] 在校长面前，这些都是渣渣 你个无名无姓猪狗不如的畜生！😒 华为🐶看不到那个什么教授哦？[微笑] 顶我鸿雁！匿名骂人家人者畜生都不如！ 顶鸿雁。 日本人 高实在是高[喷水] 你个无名无姓猪狗不如的畜生！ 有句俗话，光屁股笑话叉叉裤[狗] 何必回火星人贴，搞得自己心情不爽。 为什么不能发，丑闻就放在底部发酵腐烂？<br>黑暗面应该打开让公众都能知道，警醒其他人！<br>掩耳盗铃难以进步！ 谁允许匿名跟帖骂人，我操他八代！匿名骂人者，你家世代为娼！ 宅男看多了那些东西自然就偏离掉了 不是人，就是不干人事 强烈要求将匿名骂人者采取永久封号措施！ 顶我鸿雁！匿名骂人家人者畜生不如！ 谢谢二位！网易纵容匿名太龌龊！ 日本人只是买几张光盘漫画，我们校长和官员都是动真格的，大不了按嫖宿幼女罪处理。 还有句：乌鸦笑猪黑，自己不觉得^_^ 这种新闻不用发了，太打脸了 支持楼主，打死匿名🐶 你身份上不叫“鸿雁在天”，你全家过不了年关！过年是你全家都祭日[不屑] 咱这儿童色情还是法律空白了吧？ 还有句自己一身小白毛还笑别人是冬瓜 中国数不胜数 水深火热的资本主义呵呵 跟别的没关系，这就是病，跟基佬一样 这种人在哪个国家都不在少数，如果成年女人都骚浪贱，那么有洁癖的男人就会把目光转向儿童。另一方面，女人太强势，也会让一些内心脆弱的男人转向儿童。 变态哪儿都有，就是敢不敢查的事....... 不知日本怎样统计神州的。 强烈要求将匿名骂人者采取永久封号措施！ 👍👍👍不解释，赞鸿雁！ 除了警察僧人法官之外，我听说过更狠的，有教授，校长，老师，各种局长，书记，光溜溜叔叔，欢迎补充 依日本现行相关法律规定，除禁止拍摄未满18岁青少年、儿童色情影像及照片外，仅是持有相关影像资源也违法，最低可以判处100万日圆（约合人民币57670元）的罚金，最高则可判处1年以下的有期徒刑。<br>哎这么严的吗？这边戴套都不算QJ，还有什么嫖宿幼女罪，12，13岁强制生子什么的。 我国不知道有多少[不屑] 中国很正常啊？ 公务员啊， 华为🐶看不到那个什么教授哦？[微笑] 强烈要求将匿名骂人者采取永久封号措施！ 高实在是高[喷水] 娈童癖和恋童癖都分不清楚的媒体也配叫媒体？就没有恋童这么一说。 人话都不会说，你个狗日的杂种。 某猿去台湾·在公厕·边摸·边叫·给人民币·[不屑] 谁允许匿名跟帖骂人，我操他八代！匿名骂人者，你家世代为娼！ 为什么不能发，丑闻就放在底部发酵腐烂？<br>黑暗面应该打开让公众都能知道，警醒其他人！<br>掩耳盗铃难以进步！ 宅男看多了那些东西自然就偏离掉了 难道你家女儿经常这样？ 日本人有畜生，国人中也有 还有句自己一身小白毛还笑别人是冬瓜 跟别的没关系，这就是病，跟基佬一样 这种新闻不用发了，太打脸了 支持楼主，打死匿名🐶 你身份上不叫“鸿雁在天”，你全家过不了年关！过年是你全家都祭日[不屑] 那些说同性恋合法是对人性支持的圣母呢？现在恋童跟人畜，乱伦也提上日程了 如果你家奶奶、老婆、岳母、姐姐、女儿4个女人，你女儿爱卖春，那比例就是20% 有脸说日本人？哪国不是从严惩处性侵幼女的？只有天朝搞个嫖宿幼女罪给特殊群体减刑期。 洛离鵼蒸鹅心(滑稽脸） 所以我国是有道之国 水深火热的资本主义呵呵 顶顶👍👍👍 明明就是人渣，还要给他们找借口？ 不知日本怎样统计神州的。 中国数不胜数 小心你全家都在2018年2月15日被车撞死， 嫖宿幼女罪废除 你个无名无姓猪狗不如的畜生！ 顶我鸿雁！匿名骂人家人者畜生不如！ 不是人，就是不干人事 你这样不好，顺带把三楼也骂了！[大笑] 顶我鸿雁！匿名骂人家人者畜生不如！ 在校长面前，这些都是渣渣 你个无名无姓猪狗不如的畜生！😒 一楼居然说出了畜生的心声。在下佩服。 顶我鸿雁！匿名骂人家人者畜生都不如！ 顶鸿雁。 日本人 强烈要求将匿名骂人者采取永久封号措施！ 有句俗话，光屁股笑话叉叉裤[狗] 何必回火星人贴，搞得自己心情不爽。 咱这儿童色情还是法律空白了吧？ 亲爹干亲闺女的估计是地球人最BT的了…… 不科学，占日本gdp0.7%的援交还不够么 谢谢二位！网易纵容匿名太龌龊！ 日本人只是买几张光盘漫画，我们校长和官员都是动真格的，大不了按嫖宿幼女罪处理。 还有句：乌鸦笑猪黑，自己不觉得^_^ 你就是杂种 天天喷日本，有小德，无大义什么的，感觉真好笑，一屋不扫何以扫天下？ 人渣 正常的 顶我鸿雁！匿名骂人家人的畜生不如！ 👍👍👍不解释，赞鸿雁！ 你个无名无姓猪狗不如的畜生！ 哈哈哈哈哈哈 这种人在哪个国家都不在少数，如果成年女人都骚浪贱，那么有洁癖的男人就会把目光转向儿童。另一方面，女人太强势，也会让一些内心脆弱的男人转向儿童。 变态哪儿都有，就是敢不敢查的事....... 所以那幼儿园呢？ 不科学啊 没人评论？ 女人做爱就肮脏，男人做爱就纯洁？ 变态 除了警察僧人法官之外，我听说过更狠的，有教授，校长，老师，各种局长，书记，光溜溜叔叔，欢迎补充 三年不亏 这种人在哪个国家都不在少数，如果成年女人都骚浪贱，那么有洁癖的男人就会把目光转向儿童。另一方面，女人太强势，也会让一些内心脆弱的男人转向儿童。 不让评论？ 检查身体爷爷 现在变态越来越多了。。。。 ",
        "Reply": 73,
        "Link": "http://comment.news.163.com/news_guoji2_bbs/D75A5OG20001875O.html",
        "Total": 970
    },
    "KeyWords": "日本,僧侣,警视厅",
    "URL": "http://news.163.com/18/0102/13/D75A5OG20001875O.html"
}