{
    "Title": "做生鲜加码乳业 阿里入股恒天然供应商纽仕兰新云_网易科技",
    "URL": "http://tech.163.com/17/1226/07/D6IL422C00097U7R.html",
    "Source": "Netease",
    "Comment": {
        "Total": 14,
        "Reply": 4,
        "Content": "加油吧 good 以后国内进口知名品牌牛奶，都是淘宝，天猫旗下的了。 有渠道，做什么都容易了 加油吧 有渠道，做什么都容易了 good 以后国内进口知名品牌牛奶，都是淘宝，天猫旗下的了。 ",
        "Link": "http://comment.tech.163.com/tech_bbs/D6IL422C00097U7R.html"
    },
    "Article": "（原标题：阿里入股恒天然供应商纽仕兰新云，原大股东大康农业收两涨停）澎湃新闻记者王歆悦阿里系资金这次盯上了一只农业股。12月21日晚间，湖南大康国际农业食品股份有限公司（大康农业，002505.SZ）公告，阿里及上海云锋新呈投资中心（简称“云锋”）拟通过增资的方式，认购大康农业控股子公司纽仕兰新云（上海）电子商务有限公司（简称“纽仕兰新云”）部分股权，以加强纽仕兰新云的供应链能力。受此利好消息影响，大康农业12月25日继续上演一字涨停。公开资料显示，纽仕兰新云主要从事进口贸易业务，将原产新西兰的乳制品（包括鲜奶、常温奶以及各类奶粉产品）在中国市场的线上及线下销售，此次引进战略投资者，是为了公司进一步拓展渠道和增强营销能力。交易前，纽仕兰新云是大康农业的控股子公司，后者持有前者85%的股权。增资完成后，阿里巴巴将持有纽仕兰新云40%股权、云锋持有纽仕兰新云17%股权，作为增资的对价，阿里向纽仕兰新云缴付2.33亿元，云锋缴付9883.72万元。值得注意的是，引入阿里和云锋后，大康农业对纽仕兰新云的持股比例从85%下降到33%，将最大股东让位于阿里巴巴。同时，在公司架构方面，纽仕兰新云董事会增资后将由五名董事组成，董事由股东会选举产生。其中阿里有权提名两名董事，云锋有权提名一名董事，大康农业有权提名一名董事，管理层股东有权提名一名董事。阿里此次入股纽仕兰新云与其新零售的布局方向是相吻合的。大康农业主要产业布局包括农业、食品两大产业，以及粮食贸易、乳业、食品分销、肉牛和生猪等五大核心主业。纽仕兰新云在新西兰就拥有29个自有牧场。而阿里也一直不断在加码生鲜领域，且在之前已经在乳业方面有所布局。就在12月12日，阿里巴巴旗下的盒马鲜生宣布，与新西兰乳企恒天然集团旗下乳制品品牌安佳达成战略合作，推出“盒马-安佳”日日鲜鲜牛奶。而大康农业旗下的纽仕兰新云就是恒天然的新西兰原奶供应商之一，其同时在中国为蒙牛特仑苏的奶源供应商。大康农业透露，纽仕兰新云还将完成对一家目前由大康农业间接全资拥有的新西兰公司MilkNewZealandDairyLtd100%的股权收购，以将其目前运营的乳制品加工及供应业务纳入纽仕兰新云。此外，纽仕兰新云方面向澎湃新闻透露：“纽仕兰致力于打造全球差异化供应链集成平台，乳制品只是第一步，后续更有代表国家基因地理标示的产品群，如新西兰几十万年的冰川水、澳洲新西兰的零食坚果、巴西的五谷杂粮等。”继上周五涨停后，大康农业12月25日收获涨停板，收报3.14元。本文来源：澎湃新闻责任编辑：王凤枝_NT2541",
    "PublishTime": "12/26/201707:39:42",
    "KeyWords": "兰新云,恒天然,阿里,乳业"
}