{
    "URL": "http://tech.163.com/17/1227/16/D6M77H0L00097U7S.html",
    "Comment": {
        "Total": 2126,
        "Reply": 128,
        "Link": "http://comment.tech.163.com/tech_bbs/D6M77H0L00097U7S.html",
        "Content": "体制内么，人多效率慢，习惯就好。今天去联通补卡，两个服务窗口，前面只有5个人，排队一个小时多点，然后补卡花了半小时。你还不敢吐槽她。联通要求电子化，人在电子书写板上签名还必须正楷，不然系统认不出。。。。其实流程很简单，如果培训熟练的话，补卡最多也就10分钟，输手机号，比对身份证，电子拍照，输新卡的uk码，签字，激活，收钱。有时候还能碰到开卡一个多小时的。 你是被综合大姐搞残了 可以说一句放屁吗？不知道写个屁呀！ 我在省电信的。我工作的部门，这两年，年年招人，但是新招进来的离职率达到百分之50，招2个第二年就要走一个这样。说明什么问题？ 难到私企就能办到？ 管理还是人太多 美其名曰裁员，然后从分子公司抽调一大波人，是借调…… 政府部门、各类院校是不是也可以这样减？ 减得人哪去了！ 联通历次改革都是失败重组告终，这次也不会例外，再撑三五年就会移动联通重组了。 大裁员？ 老子看你敢不敢精简支部。 改为编外人员，总员工数有增无减，政府精简机构这么多年，上岗了一大批拿低薪卖命的合同工，辅警就是最明显的编外人员，还有各个部门一大堆窗口人员和老百姓接触不到的内务人员，很多都是合同工 说明不懂行情啊 又不裁员只是下调总部往各个省公司塞省公司的往市公司塞市公司的往区县公司塞区县的临时工遭殃要不走人要不调其他岗位好位子要留给上面下来的人 公司化了！那有编 憨比联通，宽带闲着还不是闲着，不会像移动一样免费送！ 的确如此，优秀的人进来发现不对就跑了，留下来的都是没地方去的，讲究混混日子，国企真不是年轻人该来的地方 关系户太多，谁也不想得罪人 只是有些领导下调管的片区而已，工资没少，一线照旧累死累活， 所以国有单位效率低下浪费资源 在一楼看来一个将军没有一个炮兵值钱 经常进出省联通，什么啊猫啊狗都还在啊，少谁了？呵呵！ 管理人员比技术人员还多，管理人员比技术人员高薪几倍，这种企业如你所愿。在这种公司申请A4打印纸都能跟你官僚半天，你填单子问几句都嫌你麻烦，这种公司如你所愿。 中国移动，中国电信，看你们还能嚣张到几时！ 别老想着裁剪，啥时候能多几个干活的，流程别那么复杂，每天围着那些破流程 的确这样 将军不能比兵还多吧 这种精简都是扯蛋！关系户都留下来了！没关系干有能力的也得走点关系才能留下来~最后又是走关系进来人，越来越多~和原来一样 移动在五元三十兆都补回去了 国企管理者是个什么水平你心里真的没点逼数？ 根本就留不住年轻人，一天忙死，钱又少，还没什么发展。这就是现实。 取消编制才是真的变革 私企是企业赚多少老板赚多少，国企是无所谓反正亏了赚了工资不会多也不会少，只要把位置保住上层领导的差事应付一下关系搞好就可以了，一个是无所谓一个是有所谓，效率自然不一样 哈哈 所谓的混@改，其实是即使垄@断了，也已活不去了。。。。不知对不对。。。。。<br>[悠闲][悠闲][悠闲 上层不作为中层没担当员工不信任对外没诚信 通信机械工程电子材料这些行业技术人员多成什么样了你心里没点逼数？ 我是山西联通的，占比20%的中高层拿着50%的人工成本，剩余80%基层一线的拼了老命干活去赚那剩下的50%！再混改也是把一线的给坑了！ 中国现在的失业人员得多少啊！ 我一个朋友电信的，全家都在里面搞事，一个镇上4家电信营业厅都是他们家的，完全垄断，一个宽带得200安装费还得200买光猫还得捆绑他送的手机强制预存话费送！没办法县城乡镇基本就电信宽带没得选择！ 行政一大堆人 很早以前去过广东联通总部，顶层是内部娱乐层，歌厅舞厅咖啡厅，但是上班时间从没见过有人玩，几个穿着旗袍的漂亮小姑娘天天待上面玩手机。 垃圾单位 500个将军指挥了200个炮灰，谁更多余？ 管理人员比技术人员还多，管理人员比技术人员高薪几倍，这种企业如你所愿。在这种公司申请A4打印纸都能跟你官僚半天，你填单子问几句都嫌你麻烦，这种公司如你所愿。 管理也是一门高级技术活！ 裁了这么多人还能正常运行，可见以前这么多年养了多少闲人 每一次的精简背后都是一场后门关系户刷新纪录 这种情况很多人都会说国企工作效率低，都是垄断惹的祸。其实真不是这样，如果小区信号差基本都要在周边设新的信号塔才能解决，但问题就在这里，没地方给你建信号塔啊！个个都说辐射大不租。 可以说一句放屁吗？不知道写个屁呀！ 上层不作为中层没担当员工不信任对外没诚信 基层都是承包商在运作，员工工资一般也就三千多到四千之间，还不给交住房公积金，这就是中国大部分企业的现状，房价还老高，哎。 我在省电信的。我工作的部门，这两年，年年招人，但是新招进来的离职率达到百分之50，招2个第二年就要走一个这样。说明什么问题？ 难到私企就能办到？ 没有编制,现在都是合同.. 哟，IT部的？ 你是被综合大姐搞残了 你省通管体制内跳槽也不少 客户经理或者营销部门干啥的 老子看你敢不敢精简支部。 说明多年来养了一大堆垃圾 国企涅槃？ 销渠部还是客调 公司化了！那有编 我就没见过联通宣传宽带。。。。放弃了？ 的确如此，优秀的人进来发现不对就跑了，留下来的都是没地方去的，讲究混混日子，国企真不是年轻人该来的地方 屁大点个事开几十次会！就应该先把你们裁了！[鄙视] 经常进出省联通，什么啊猫啊狗都还在啊，少谁了？呵呵！ 这些人去哪里了 所以国有单位效率低下浪费资源 改为编外人员，总员工数有增无减，政府精简机构这么多年，上岗了一大批拿低薪卖命的合同工，辅警就是最明显的编外人员，还有各个部门一大堆窗口人员和老百姓接触不到的内务人员，很多都是合同工 他爷的。又一大批人失业了！好一个高质量发展。 山西联通机关就没有减人 中国移动，中国电信，看你们还能嚣张到几时！ 体制内么，人多效率慢，习惯就好。今天去联通补卡，两个服务窗口，前面只有5个人，排队一个小时多点，然后补卡花了半小时。你还不敢吐槽她。联通要求电子化，人在电子书写板上签名还必须正楷，不然系统认不出。。。。其实流程很简单，如果培训熟练的话，补卡最多也就10分钟，输手机号，比对身份证，电子拍照，输新卡的uk码，签字，激活，收钱。有时候还能碰到开卡一个多小时的。 红旗汽车🚗正是这样发展不起来 你是被综合大姐搞残了 小区已交房1年多，移动和电信在交房3个月之后就进驻小区，联通到现在都没通网，说一定会通但是要等，手机信号也很弱，维修人员去测过，说是目前基站无法解决，需要新设信号塔，让等通知，然后就没下文了 其实移动也很一般，只不过全靠同行承托。 路过 本来就不需要那么多人 错，我就招应届生来干活，反正每年一堆应届生想来打杂 新人被同化，没激情的混日子，有激情的跳槽 取消编制才是真的变革 私企是企业赚多少老板赚多少，国企是无所谓反正亏了赚了工资不会多也不会少，只要把位置保住上层领导的差事应付一下关系搞好就可以了，一个是无所谓一个是有所谓，效率自然不一样 吹逼了 腐败 居然还没倒闭，呵呵呵，三大运营商都是吊得一米多高，要是放开估计他们还能高好一点。 拿高薪的没干活，干活的拿薪少！环卫同样！ 编制人员减少，同工同酬的增多… 最近准备改卡了，移动卡消费越来越高，经常推销，和去年比增一倍 都皇亲国戚，裁谁好呢？ 精简毛，解散更好 我是山西联通的，占比20%的中高层拿着50%的人工成本，剩余80%基层一线的拼了老命干活去赚那剩下的50%！再混改也是把一线的给坑了！ 大量第三方 你拉倒吧，我上次去补卡就我一人，我在门口一根烟都没抽完，就搞定了[喷水] 我是第三方用工，好像听说混改后不能转编 辽宁联通的工资太少了 联通不是减员很多次啦？应该快减光了吧？不然大上海居然营业厅都好多和合作的呢？？ 吃干饭的人占一半了，另一半人磨洋工！ 管理人员比技术人员还多，管理人员比技术人员高薪几倍，这种企业如你所愿。在这种公司申请A4打印纸都能跟你官僚半天，你填单子问几句都嫌你麻烦，这种公司如你所愿。 干活的都走了，扯淡的更欢了 新进的电信的正式员工基本都是本科名校的，很多人都是以为中国电信是好公司都往里面跳，结果进来的人基本分配的岗位是客户经理或者是营销部门，每个月辛辛苦苦拿到的钱不超过三千块，所以很多人落差太大都辞职了。 体制内么，人多效率慢，习惯就好。今天去联通补卡，两个服务窗口，前面只有5个人，排队一个小时多点，然后补卡花了半小时。你还不敢吐槽她。联通要求电子化，人在电子书写板上签名还必须正楷，不然系统认不出。。。。其实流程很简单，如果培训熟练的话，补卡最多也就10分钟，输手机号，比对身份证，电子拍照，输新卡的uk码，签字，激活，收钱。有时候还能碰到开卡一个多小时的。 垃圾桶 落实到最后一线裁的最多，不信走着瞧 这种企业都是闲人，上班一小时，然后就是喝喝茶看看网页聊聊天，应该还能裁50% 美其名曰裁员，然后从分子公司抽调一大波人，是借调…… [微笑][微笑] 政府部门、各类院校是不是也可以这样减？ 留下的都是腻害人～ 全下放到基层当了领导，呵呵 减得人哪去了！ 不知道您是做哪块的，我是做基建配套的，有没有合作的机会 联通历次改革都是失败重组告终，这次也不会例外，再撑三五年就会移动联通重组了。 老子看你敢不敢精简支部。 要不断发展壮大！ 又不裁员只是下调总部往各个省公司塞省公司的往市公司塞市公司的往区县公司塞区县的临时工遭殃要不走人要不调其他岗位好位子要留给上面下来的人 工资低，杂事多，升职无望 憨比联通，宽带闲着还不是闲着，不会像移动一样免费送！ 我在省电信的。我工作的部门，这两年，年年招人，但是新招进来的离职率达到百分之50，招2个第二年就要走一个这样。说明什么问题？ 说明不懂行情啊 只是有些领导下调管的片区而已，工资没少，一线照旧累死累活， 工资不变，绩效降低，待遇差很多的…… 年轻人的多学点不然没经验咋行？ 管理人员比技术人员还多，管理人员比技术人员高薪几倍，这种企业如你所愿。在这种公司申请A4打印纸都能跟你官僚半天，你填单子问几句都嫌你麻烦，这种公司如你所愿。 的确这样 根本就留不住年轻人，一天忙死，钱又少，还没什么发展。这就是现实。 这种精简都是扯蛋！关系户都留下来了！没关系干有能力的也得走点关系才能留下来~最后又是走关系进来人，越来越多~和原来一样 移动在五元三十兆都补回去了 国企管理者是个什么水平你心里真的没点逼数？ 8个将军元帅指挥一个炮兵、在将军元帅能有炮兵值钱？ 其实还可以裁一半 这种公司都是初中毕业生可以是领导的还有什么希望？ 可是精减了领导，他们的工资依然照旧，也没见着哪个领导被裁了呀 上次去联通换卡也是这样，没事和保安聊天，L 这个夸张了…… 所谓的混@改，其实是即使垄@断了，也已活不去了。。。。不知对不对。。。。。<br>[悠闲][悠闲][悠闲 上层不作为中层没担当员工不信任对外没诚信 肯定减！把工会后勒弄一起！ 吃大锅饭的必然结果 大国企通病 都是被华为玩坏的公司，现在华为正在挺近这些客户的地盘，哭也没用 中午11点去销卡，内无一人，她电脑操作20分钟，不知流程麻烦还是业务不熟练 中国现在的失业人员得多少啊！ 我一个朋友电信的，全家都在里面搞事，一个镇上4家电信营业厅都是他们家的，完全垄断，一个宽带得200安装费还得200买光猫还得捆绑他送的手机强制预存话费送！没办法县城乡镇基本就电信宽带没得选择！ 行政一大堆人 失业了 很早以前去过广东联通总部，顶层是内部娱乐层，歌厅舞厅咖啡厅，但是上班时间从没见过有人玩，几个穿着旗袍的漂亮小姑娘天天待上面玩手机。 国企公司只是中国现状的一个缩影 没关系的清退其他加薪 减少一半，可以减少很多交叉业务，也降低多次的“上会”及“讨论决策” 问题是现在做技术的除了互联网，其它土木通信机械之类的真太泛滥早就饱和了，人一多就不值钱了 不知道了，好多窗口员工都是外包也就是临时工 管理人员比技术人员还多，管理人员比技术人员高薪几倍，这种企业如你所愿。在这种公司申请A4打印纸都能跟你官僚半天，你填单子问几句都嫌你麻烦，这种公司如你所愿。 管理也是一门高级技术活！ ... 裁了这么多人还能正常运行，可见以前这么多年养了多少闲人 每一次的精简背后都是一场后门关系户刷新纪录 你以为国企一线水平就高吗？ 放羊的太多 哈哈 永远好嘛？红2,3代的 500个将军指挥了200个炮灰，谁更多余？ 国企最大的毛病就是管理机构层层叠叠 管理还是人太多 别老想着裁剪，啥时候能多几个干活的，流程别那么复杂，每天围着那些破流程 在一楼看来一个将军没有一个炮兵值钱 电信改革的牺牲品 军转干部你也敢减? 行政岗位为啥需要那么多？为啥？ 技术类滚蛋。。哈哈 第三方的人增加不？ 中国移动，中国电信，看你们还能嚣张到几时！ 大裁员？ 管理人员比技术人员还多，管理人员比技术人员高薪几倍，这种企业如你所愿。在这种公司申请A4打印纸都能跟你官僚半天，你填单子问几句都嫌你麻烦，这种公司如你所愿。 管理也是一门高级技术活！ 垃圾单位 这个报道是哪个二逼写的？ "
    },
    "Article": "（原标题：中国联通机构精简新进展：总部人员编制减少51.6%）澎湃新闻记者周玲12月27日，中国联通披露瘦身健体精简机构的最新成果：在总部层面，部门数量由过去的27个减少为18个，减少33.3%；人员编制由1787人减少为865人，减少51.6%。在省分公司层面，省分公司现有机构数减少205个，减少20.5%；本部管理人员职数减少342个，减少15.5%；地市公司机构减少2013个，减少26.7%；地市公司班子职数减少73个，减少4.2%。全国省级公司管理人员职数减少415个，精减率9.8%。中国联通表示，瘦身健体精简机构是推进混改企业内部改革的“第一刀”，核心是要瘦机构臃肿之身，改人浮于事之象，健高效管理之体，打造“小管理、大操作、强协同”组织架构，建立起面向客户与市场、为一线提供服务的倒三角服务支撑体系，为公司持续健康发展提供坚强组织保障。据介绍，自2017年9月对瘦身健体进行统一部署以来，联通成立专门的体制机制改革工作领导小组，系统推进瘦身健体、干部政策等工作，混改以来公司党组仅围绕混改工作就召开42次党组会、研究混改议题52个，比过去一年的党组会议总数都多。各分、子公司党委是本单位精简机构的责任主体，成立以主要领导为组长的瘦身健体精简机构工作领导小组，统筹部署安排，鼓励广大党员尤其是党员领导干部做改革的促进派。在干部选聘上，中国联通在全集团组织进行了机构精简后的管理人员首次选聘工作，截止目前，管理人员平均退出率在14.3%左右。首聘结束后，各级聘任人员签订《业绩任务责任书》。落聘人员参加下级岗位选聘，易岗易薪。中国联通还强调，下一步将持续在以下三方面做好机构调整和流程优化工作，推动各项工作常态化动态化：一是动态优化调整组织机构，强化体制机制创新。二是建立市场化运营机制，激发企业发展活力。三是推动人力资源改革，形成员工充满活力、干部有序流动、人才优化配置的动态管理机制，保持集团公司党组管理人员每年1.5%的常态化退出比例。中国联通强调，“瘦身只是手段，健体才是目的”，公司将重点在“破”“立”“降”上深化供给侧结构性改革，深入落实聚焦创新合作战略，全力加快互联网化新运营，着力增强创新发展新动能，推动中国联通实现更高质量、更有效率、更可持续的发展。本文来源：澎湃新闻责任编辑：王凤枝_NT2541",
    "KeyWords": "中国联通,管理,职数",
    "Source": "Netease",
    "Title": "中国联通机构精简新进展：总部人员编制减少51.6%_网易科技",
    "PublishTime": "12/27/201716:53:54"
}