{
    "URL": "http://ent.163.com/17/1227/18/D6MD7LUB00038FO9.html",
    "Comment": {
        "Total": 88,
        "Reply": 13,
        "Link": "http://comment.ent.163.com/ent2_bbs/D6MD7LUB00038FO9.html",
        "Content": "81了，也该休息了 老不死的 这个老不死的家伙，他怎么就不提好人死了呢 一个老流氓 看来真的萎了，袋鼠尾巴扛不住补 谢老爷子活得够潇洒了。这辈子都是美女相伴，自己身体也好，跟他同龄的老人很多连走路都颤颤巍巍了[大笑] 老不死的 有些感情从一开始就不会有好结果也不会收到祝福 一个老流氓 看来真的萎了，袋鼠尾巴扛不住补 81了，也该休息了 早知现在何必当初她如何去想? 可以啊,不是情人可以是朋友,更何况本来就是你的错,所以你该大方一点,也许有机会复合呢 动的了吗？ 这个老不死的家伙，他怎么就不提好人死了呢 是不是遗嘱的事？啥也没给？ 谢老爷子活得够潇洒了。这辈子都是美女相伴，自己身体也好，跟他同龄的老人很多连走路都颤颤巍巍了[大笑] 妈卖币昨天79今天81日你妹一天一岁啊 人地钟意老牛吃嫩草。 "
    },
    "Article": "网易娱乐12月27日报道据台湾媒体报道，81岁资深男星谢贤和小49岁圈外女友CoCo爱情长跑12年，日前传出两人再度分手，谢贤还回头找前妻狄波拉诉苦，狄波拉的现任老公江耀城（胡须Kong）也同行，27日有媒体在机场捕获谢霆锋，问他爸爸是不是真的恢复单身？谢霆锋说不清楚，最近都没有联系，见到面再说。谢贤和32岁的CoCo相恋12年，谢贤坦言“希望这是自己最后一段感情”，但因不想害对方，所以无意和女友结婚，近日港媒爆料谢贤和CoCo疑似分了，心情不好的谢贤便找狄波拉一吐心中郁闷，可见两人离婚后仍情同家人。本文来源：网易娱乐责任编辑：陈恺_NK4686",
    "KeyWords": "谢霆锋,谢贤,狄波拉",
    "Source": "Netease",
    "Title": "81岁谢贤爆与小49岁女友分手 谢霆锋说话了_网易娱乐",
    "PublishTime": "12/27/201718:38:50"
}