{
    "Title": "侠客岛:美国在联合国大会遭\"打脸\"后还能任性吗？_网易新闻",
    "URL": "http://news.163.com/17/1225/18/D6H7A9IH0001899N.html",
    "Source": "Netease",
    "Comment": {
        "Total": 676,
        "Reply": 35,
        "Content": "没有实力，一切都是扯淡。 美国已经变成新那随 联合国的谈判让巴沙尔地盘越来越大，伊朗朝鲜问题不但没解决，而且更加嚣张肆无忌惮，什么谈判根本就是帮巴沙尔伊朗朝鲜，为虎作伥，联合国快解散了 我想知道，如果美国真撤资，TC是不是打算补上这个空缺？ 苏八旗子弟做理论最为先进 你的主子后代和存款为啥都往流氓跑？ 铁杆兄弟？干儿子？ 不是捅了马蜂窝，是搅了粪坑 中国人被假恶斗灌输的不知道什么是道德，礼仪，国人的宝贵生命就这么被假恶斗吞噬，分辨善恶明真相，复兴五千年传统文化，抛弃邪恶。 这个是实力说话，犹太人可以影响美国的国策，更重要的是犹太人自己夺回了耶路撒冷，美国只是给了名分而已。<br>明明耶路撒冷在犹太人手里已经51年了，世界之大，偏偏没人承认。明明巴勒斯坦已经光了，大家还是异口同声的说，你的衣服真漂亮。 首先拿中国开刀，你等着 大哥就是大哥 我是想写特朗普就是个笑话，看那三条。 有时候会意外的出现在三楼 难道这之前不流氓吗？ 联合国走到尽头了，每天的谈判不是在维护和平正义是在帮巴沙尔，谈判让巴沙尔地盘越来越大，联合国的谈判贡献不小 美国一贯的做法是给以色列实际利益，给阿拉伯世界表面尊重。没想到特朗普不按规则出牌，里子要一下给足，面子非但不给了，还照阿拉伯脸上一巴掌。 在网易，说曰本不好，说英国不好，说韩国不好都可以。但千万别说美国不好，不然就捅了马蜂窝了。 你连脸都没有还笑？ 联大多数国家反对美国决议，说明美国不能操纵联大。可是，每当联大以压到多数通过中国否定的决议，苏狗理论家就说是美国操纵了联大 尼玛从哪看出美国被打脸了!? 美国现在都快成笑话了，连最起码的原则都不讲了，直接变成流氓。 在网易里说那么多国家不好说明人缘得有多失败，多差 自古2楼出大傻 所以，真正操纵联大的，恰恰是侠客岛口中的负责任大国。 刺痛了哪根神经？ 联大多数国家反对美国决议，说明美国不能操纵联大。可是，每当联大以压到多数通过中国否定的决议，苏狗理论家就说是美国操纵了联大 侠客岛全文的经典在最后的结尾：：有人能拿出本钱，贿赂喽啰，就不用再看美国的脸色了。 没有实力，一切都是扯淡。 美国已经变成新那随 联合国的谈判让巴沙尔地盘越来越大，伊朗朝鲜问题不但没解决，而且更加嚣张肆无忌惮，什么谈判根本就是帮巴沙尔伊朗朝鲜，为虎作伥，联合国快解散了 我想知道，如果美国真撤资，TC是不是打算补上这个空缺？ 那就是捅了苍蝇窝了 苏八旗子弟做理论最为先进 你的主子后代和存款为啥都往流氓跑？ 铁杆兄弟？干儿子？ 不是捅了马蜂窝，是搅了粪坑 从特朗普上台就标指着美国奉行上世纪3o年代的不干预政策。美国需要休养生息了，特朗普将连任。美国今后将更强大，没美国维持秩序，世界将更乱。 23日，联合国安理会通过制裁朝鲜的最新决议。<br>朝鲜外务省称这是“战争行为”，并称此次制裁决议造成的一切后果完全由赞成决议通过的国家承担。<br>联合国安理会通过制裁朝鲜的最新决议，就是战争行为。谁怂恿了这个决议，未来在核战争结束后，绝对受到人类苏醒的惩罚。这个预言结论，就是“没理尖、每离间、每利奸、媚力贱、美..”即牢握核大棒，又恐惧真的爆发核对抗的原因。<br>朝鲜从被欺压的重山底下逃脱葬送生命的希望寄，托在制造世界顶级杀伤武器上作对了。 中国人被假恶斗灌输的不知道什么是道德，礼仪，国人的宝贵生命就这么被假恶斗吞噬，分辨善恶明真相，复兴五千年传统文化，抛弃邪恶。 这个是实力说话，犹太人可以影响美国的国策，更重要的是犹太人自己夺回了耶路撒冷，美国只是给了名分而已。<br>明明耶路撒冷在犹太人手里已经51年了，世界之大，偏偏没人承认。明明巴勒斯坦已经光了，大家还是异口同声的说，你的衣服真漂亮。 首先拿中国开刀，你等着 大哥就是大哥 我是想写特朗普就是个笑话，看那三条。 连最起码的原则都不讲了 有时候会意外的出现在三楼 其实一直这么“流氓” 难道这之前不流氓吗？ 侠客岛全文的经典在最后的结尾：：有人能拿出本钱，贿赂喽啰，就不用再看美国的脸色了。 一票否决制早就应改成民主集中制了，联合国改革改了2o多年，屁都没改一点，不改早点解散。 美国一贯的做法是给以色列实际利益，给阿拉伯世界表面尊重。没想到特朗普不按规则出牌，里子要一下给足，面子非但不给了，还照阿拉伯脸上一巴掌。 在网易，说曰本不好，说英国不好，说韩国不好都可以。但千万别说美国不好，不然就捅了马蜂窝了。 呃，呃呃呃，呃呃呃呃。 你连脸都没有还笑？ 乌克兰危机让人看清楚了，弱国的命运根本不由自己掌握，强国依然主宰着国际局势，几个阿拉伯国家有个屁用 联大多数国家反对美国决议，说明美国不能操纵联大。可是，每当联大以压到多数通过中国否定的决议，苏狗理论家就说是美国操纵了联大 尼玛从哪看出美国被打脸了!? 美国现在都快成笑话了，连最起码的原则都不讲了，直接变成流氓。 在网易里说那么多国家不好说明人缘得有多失败，多差 自古2楼出大傻 所以，真正操纵联大的，恰恰是侠客岛口中的负责任大国。 联大多数国家反对美国决议，说明美国不能操纵联大。可是，每当联大以压到多数通过中国否定的决议，苏狗理论家就说是美国操纵了联大 联合国走到尽头了，每天的谈判不是在维护和平正义是在帮巴沙尔，谈判让巴沙尔地盘越来越大，联合国的谈判贡献不小 ",
        "Link": "http://comment.news.163.com/news2_bbs/D6H7A9IH0001899N.html"
    },
    "Article": "（原标题：不好意思，今天的文章实在想不出好标题了）在联合国大会上，美国也品尝到了被“针对”的滋味。21日，联合国召开紧急大会，以压倒性多数通过决议，认定任何单方面宣称改变耶路撒冷地位的决定和行动“无效”，以色列和巴勒斯坦必须通过谈判决定耶路撒冷的地位问题。这项议题是由也门和土耳其，分别代表阿拉伯国家和伊斯兰国家合作组织联合向联合国提出，可谓是直接挑战了美国前段时间对耶路撒冷的决议，因此也遭到了美国的极力阻挠。威胁“老大哥”美国看见自己被质疑，当然不会坐视不管。只是让人没有想到的是，为了阻止这次决议的通过，美国竟在联合国公然“拉票”，且或多或少有一些“威胁”的意味。威胁一：美国驻联合国代表黑莉女士通过群发邮件的方式，要求180多个国家的代表，为了跟美国的友好关系，在议题表决环节上支持美国的态度；威胁二：可能是考虑到自己的说法不够有说服力，黑莉女士专门强调了“特朗普总统将非常仔细地观看此次投票”，且明确指示她记下“每一张反对票”；威胁三：“耿直”的特朗普直接指出，那些拿了美国援助的国家要是还投票反对美国，可就是帮着美国“省钱”了，“我们不会再被占便宜”。话都说到这份儿上了，然而最后的结果却还是有些“打脸”。最终，这项决议以128票对9票的结果通过，其中35个国家投了弃权票。更“打脸”的是，一些诸如英国、日本这样的美国“铁杆兄弟”和“干儿子”角色的国家也投了赞成票。对此，黑莉女士也只能板着脸发言表示，“美国真的记着这次投票了”。秋后算账？被“打脸”后的美国，真的会如特朗普所说的“秋后算账”吗？其实从特朗普就任之后的一贯风格看来，美国可能还真的存在秋后算账的心思。毕竟现在美国政府每年投向世界各地发展中国家的援助，有380亿美元左右，美国国际开发署数据显示，2016年，美国向撒哈拉以南非洲国家提供大约130亿美元经济和军事援助，向东亚和大洋洲国家提供16亿美元，西亚北非国家大约130亿美元，南亚和中亚国家67亿美元，欧洲和欧亚国家15亿美元，美洲国家22亿美元。跟美国动辄几千亿的军费开支比起来，这笔钱好像不值一提，但是如果考虑到绝大多数受援国家的体量本就不大的话，这笔钱确实不算小了，足以直接影响他们的国内经济乃至政治形势。应当承认的是，美国的援助除了用来传播“民主和爱”那部分外，客观上也确实帮助了受援国家的教育卫生事业发展。至于约占三分之一的军事援助部分，对于维护受援国自身的稳定乃至地区局势平静也有一定的正面作用。可是，美国的援助从来不是白给的。在这些受援国中，真正能够拿到较大份额的，要么是美国地区政策的“支柱”国家，比如以色列；要么就是在美国需要的时候，披挂上阵，担任“临时客串”，比如菲律宾前总统阿基诺政府在“南海问题”上的所作所为；至于对巴基斯坦和埃及这种关系说不上亲密的国家来说，那就干脆是因为美国自身利益所系。众所周知，如果没了巴基斯坦和埃及在反恐问题上的合作，美国可能为此付出巨大代价。另外，美国的援助主要集中在军事领域，一旦美国中断在这些国家的军事援助，这些国家可能立马“瘸腿”，导致原本就不妙的安全形势迅速恶化。美国也经常借此拿捏这些国家，从而成为服从自己政策的工具了。还能任性吗？这次，如果美国真的对其他国家的援助“一刀切”，短期内可能真的“很省钱”，但是长久来看，日后最终吃苦的恐怕也是美国。那些为美国当“防波堤”的国家如果真的倒下，美国的安全形势会如何暂且不论，单是那些接受美国援助的国家就此背离美国，恐怕对美国也不是什么“福音”。毕竟这个世界上，有钱的不光是美国一家，援助的方式也不见得只有“拿钱”这一种。如果这些国家通过和其他国家合作，也解决了自己国家发展中资金不足的问题，那么就证明了他们离开美国也还能活。未来，美国还想继续利用援助去对他们产生影响力，恐怕就难了。而且，虽然在表面上看，这些国家很依赖美国的援助，可是实际上美国对他们也很看重。冷战后的近三十年，现实已经证明了仅凭美国自己的力量，想在世界某个地区推行自己的意志是根本不可能的，除非取得与特定国家之间的政治影响力和经济驱动力之后，方才有可能获得成功。（即便如此，失败也是有的，例如“大中东民主计划”。这项计划虽然有欧盟积极支持，可是美国还是差点被领进坑里）。所以这个道理很简单，有了喽啰的“大哥”不见得事事都成，没了“喽啰”就连“大哥”也不复存在了。美国要想继续任性，怕是有一点困难了。今时不同往日还是回到岛叔以前常说的那套：美国以前一手拿着盾牌，一手拿着钱袋子，从安全和经济两方面去驱动盟友凑在他身边不是什么难事。但是现在世道不好，大家日子都紧巴，美国要想还一手拿着刀子比量别人，一手往人家的腰包里伸，队伍还能带起来吗？而且，美国现在明显对自己成不成孤家寡人不在乎。毕竟目前为止，特朗普表现出来不想继续摆“大哥”排场了，明言多边机制“好看不好吃”了，不如“美国第一原则下的公平伙伴关系”经济实惠了。不得不说，特朗普专注搞“双边”关系的算盘，打得还是蛮精明。其实很好理解，手里拿着刀子去搜人家腰包的时候最忌讳什么？当然是最忌讳对象扎堆了。一旦这里面有个胆大的挑头一下众人一拥而上，饶是美国英明神武盖世无双，也最终要变得“拔毛凤凰不如鸡”了。只可惜，美国一方面太习惯了当大哥的架势，干啥都得人家前呼后拥，另一面又毫不顾忌人家的感受。当年真有资本时候，大家也许敢怒不敢言，现在自己也拿不出本钱了，谁还肯总是看你脸色？偏偏美国还认不清这一点，闹出打算“秋后算账”的滑稽吃相。美国有句成语，“Heisburninghisownbridge”，翻译过来就是：自己拆自己的台，日理万机的特朗普总统怕是忘记了吧。本文来源：侠客岛作者：千里岩责任编辑：李杭_BJS4645",
    "PublishTime": "12/25/201718:19:12",
    "KeyWords": "美国,援助,联合国,政府"
}