{
    "Article": "（原标题：朴槿惠元旦可以松口气：检方放弃调查年后告她！）韩媒报道截图海外网12月29日电朴槿惠近日麻烦连连。“亲信干政门”案件的审理尚未结束，又因涉嫌指使国家情报机关“上供”，被韩国检方盯上。12月26日，检方亲自上门，要对朴槿惠开展“狱中调查”，但因后者拒不配合，调查无果而终。就在外界猜测检方要对朴槿惠继续上门调查，或者采取强制措施时，检方却主动宣布：放弃调查，考虑年后起诉。这也意味着，朴槿惠在跨年时可以歇口气，而一旦元旦假期结束，她极有可能再次被告上法庭。朴槿惠的江南新房早前韩国检方怀疑，朴槿惠在执政期间，曾指示国家情报院（简称“国情院”）每月定期上交原属于国家预算的特殊活动费，总金额达40亿韩元（约合2400万人民币）。对于“小金库”资金的流向，检方推测朴槿惠将其用于私人目的，如做微整、买衣服以及填补买新房的资金缺口等。为查清是否将钱用于购置衣物，检方两度传唤朴槿惠的闺蜜崔顺实，但都遭到后者的拒绝。12月26日，检方亲自前往拘留所，调查朴槿惠将“上供费”用于何处。当天，朴槿惠与检方会面，但她拒绝回答检方的所有提问，调查无果而终。据韩联社TV28日报道，检方近日表示，“再继续调查朴槿惠没有意义”，考虑研究证据资料后，于年后的下月初起诉朴槿惠。其实，除了最近愈演愈烈的“上供门”，朴槿惠还卷入“白名单”事件。检方怀疑，朴槿惠政府滥用职权，强迫动员韩国各大企业出资69亿韩元支持保守团体。媒体分析认为,如果相关犯罪嫌疑被查证属实,被收押在监的朴槿惠恐将又添一新罪证。目前，检方正在就朴槿惠是否介入“白名单”事件，进行调查。朴槿惠七人律师团10月16日集体请辞朴槿惠近期活动梳理10月13日，韩国中央地方法院以朴槿惠有“销毁证据的可能性”为由，决定延长关押期限。朴槿惠的拘留时间最长将再延长6个月，即明年4月才能释放，这引发朴槿惠方面强烈不满。10月16日，朴槿惠庭审时罕见发言。她否认自身嫌疑，称审判于她而言是“政治报复”。当天，朴槿惠7名辩护律师集体表明辞意。律师柳荣夏指责法院延期拘捕朴槿惠的判决“毫不合理”，称“这将是韩国司法史上最耻辱的黑历史。”朴槿惠表示，“对法官的信任已经没有意义，今后就按照法官的意思审吧。”10月19日，朴槿惠以健康为由，拒绝出席律师团辞职后的首场听证会。10月25日，韩国法院宣布，已经为朴槿惠案物色5名新律师。11月3日，韩国最大在野党自由韩国党召开最高委员会会议，作出开除朴槿惠党籍的决定。11月27日，韩国首尔中央地方法院重启对朴槿惠案件的审理，朴槿惠以健康为由拒不出席，庭审延期次日（28日）举行。由于朴槿惠再次拒绝出庭，法院最终决定以缺席审理的方式进行。12月22日，朴槿惠以健康问题为由，拒绝接受检方传唤参与当天针对“上供门”的调查。12月26日，检方前往首尔拘留所，调查朴槿惠“上供门”事件，但因后者不配合无果而终。本文来源：海外网责任编辑：李天奕_NN7528",
    "PublishTime": "12/29/201716:44:34",
    "URL": "http://news.163.com/17/1229/16/D6RBFSG50001875O.html",
    "Comment": {
        "Content": "韩国总统哪个有好结局 别年后了现在吧折磨人没个完 伺候日美像个孙子，对付自己人棒子心狠手辣。 韩国总统哪个有好结局 折腾够了 这个年也过不好了啊，小朴 别年后了现在吧折磨人没个完 有点过分了啊，没完没了啊，一个女流之辈这么折磨人还不如给个痛快，还显着有气度，棒子国 秋后算帐 伺候日美像个孙子，对付自己人棒子心狠手辣。 ",
        "Link": "http://comment.news.163.com/news_guoji2_bbs/D6RBFSG50001875O.html",
        "Total": 72,
        "Reply": 7
    },
    "Source": "Netease",
    "Title": "朴槿惠元旦或可松口气 检方放弃调查:考虑年后起诉_网易新闻",
    "KeyWords": "朴槿惠,韩国,法院,检方"
}