{
    "Comment": {
        "Link": "http://comment.news.163.com/news2_bbs/D6LONSV000018AOR.html",
        "Reply": 59,
        "Content": "监狱里没有死刑犯，死刑犯都在看守所里 还真治不了，现在监狱要求文明执法！ 难道不要考虑一下这吉某是否“临时性精神病发作”？ 别侮辱大众的智商，钱大于一切！ 给这死刑犯判死缓是否在等家人送好处来？还不赶快判个斩立决！ 都死缓了还不知道低调些！！！ 他这样嚣张，监狱能治不了他？狱友也不是好惹的吧 南京牛逼 也有可能是被狱霸欺凌而反抗的 不判死刑立即执行都对不起老百姓！！！ 系婚姻家庭纠纷引起，就可以杀人减刑？为什么我认为这应该罪加一等呢？果然南京法官的思路和我们一般人不一样。前面有南京彭宇案让大家都扶不起，后面有南京宝马案让大家知道有个间歇性精神病可以免责。 感觉是得罪狱友了，送他们快点上路的 早就应该判处死刑。就因为是富二代没有判处死刑？ 别留着育肥了，早死早托生吧 立即执行 这货精神上多少还是有点不正常 他死缓，除了死刑犯，他会怕谁？ 该死不死的后面犯的罪法院承不承担责任？ 他是不是自己很想死 没有一个有这傻逼作得凶，案情也没他恶劣 就是说啊，如果法院做不了，让百姓投票看看多少人当时赞成死刑的 这货只有到枪毙的那一刻才能敬畏生命，其他时候在他看来，自己的命和别人的命都如同蝼蚁一般 死不足惜？早就应该判处死刑。就因为是富二代没有判处死刑？ 唉！！！ 生死看淡，不服就干。。。。 您说对了，如果是穷人家的孩子，即使是被压迫而愤起杀人，被抓判刑后大多立即执行。比如，马佳决…… 不承担 狱友都被他打趴下了 兄弟，你是没进去过 这些人渣留着干啥？早枪毙早安生省得危害社会浪费粮食 家庭纠纷就可以情有可原，就可以缓刑？？ 鲜花插在狗屎上 他可能不堪忍受监狱的痛苦打算一死了却终生故意伤害别人以达到死刑脱离苦海 完美诠释了作死 一切早已命中注定。。。有些人就是生性好勇斗狠。 难道不要考虑一下这吉某是否“临时性精神病发作”？ 我们投诉无门！我们力量很弱！我们该怎么办！？希望法律能给弱势群体带来更多正能量！<br>新疆石河子市天富供暖公司，暖气不热不解决问题，不通知不提示，反而暴力拆除居家供暖管道，连接头管子一起拿走，不给还！<br>打服务中心电话，接线员态度很差，说不了解情况，并说我没有反应记录，无法解决，让居家户自己去找拆管道的人解决问题，请问，这么大的国企，怎么这样霸道和土匪？请问我们找谁说理去呢！！？谢谢大家支持！请国家也关注我们这些投诉无门的弱势群体！ 别侮辱大众的智商，钱大于一切！ 给这死刑犯判死缓是否在等家人送好处来？还不赶快判个斩立决！ 他死缓，除了死刑犯，他会怕谁？ 家庭婚姻就不判死刑了？ 感觉是得罪狱友了，送他们快点上路的 别留着育肥了，早死早托生吧 这货精神上多少还是有点不正常 全世界就我们有死缓一说，人家国外，要么死刑，要么终身监禁，要么几百年。 该死不死的后面犯的罪法院承不承担责任？ 没有一个有这傻逼作得凶，案情也没他恶劣 就是说啊，如果法院做不了，让百姓投票看看多少人当时赞成死刑的 这货只有到枪毙的那一刻才能敬畏生命，其他时候在他看来，自己的命和别人的命都如同蝼蚁一般 死刑犯狱友也怕 死不足惜？早就应该判处死刑。就因为是富二代没有判处死刑？ 你们啊，都是喷子，监狱里的情况你们懂多少？那里面不是谁把谁打趴下谁就赢了这么简单，我见过好多释放的，没精神病的出来基本也是半疯了，很多东西是你们想象不到的，这个案子很复杂，从开始结婚到后来案发，可以说原因很多，不过杀人偿命是我国的法律，这个没疑问，但是一个新婚的女孩子天天跟人家去酒吧喝酒这个正常么？视频里也说了，男方怀疑孩子不是亲生的，这是什么情况？我估计这个女孩可能不是处女的，再加上婚后不检点，男方在偏激，就造成这个结局了，女的身份证出现2次开房记录，正常女人把身份证借给别人开房？而且还是不止一次？说了这么多，男方既然杀人，判死刑也没啥讨论的了，但是看这个新闻的女孩子需不需要反思呢？既然没玩够，还留恋夜店和朋友，就不要结婚 恶念丛生可怜了他的父母 生死看淡，不服就干。。。。 您说对了，如果是穷人家的孩子，即使是被压迫而愤起杀人，被抓判刑后大多立即执行。比如，马佳决…… 不承担 狱友都被他打趴下了 兄弟，你是没进去过 鲜花插在狗屎上 还真治不了，现在监狱要求文明执法！ 父母害了他，将生惯养，受不得丝毫委屈，你去阴间和小鬼斗吧！！！ 她老婆死的真的太惨了！跟剁肉馅似的 他这样嚣张，监狱能治不了他？狱友也不是好惹的吧 都死缓了还不知道低调些！！！ 家庭纠纷就可以情有可原，就可以缓刑？？ 也有可能是被狱霸欺凌而反抗的 不判死刑立即执行都对不起老百姓！！！ 系婚姻家庭纠纷引起，就可以杀人减刑？为什么我认为这应该罪加一等呢？果然南京法官的思路和我们一般人不一样。前面有南京彭宇案让大家都扶不起，后面有南京宝马案让大家知道有个间歇性精神病可以免责。 南京牛逼 马加爵死有余辜，如果杀一个还可能不死刑，另两个简直就是无辜 早就应该判处死刑。就因为是富二代没有判处死刑？ 指导低调就不会判死缓了 他是不是自己很想死 死刑就死刑，又来个死缓。神经病吗？ 还有人为这次准备取消缓刑的南京法官叫好，当初依法该杀不杀，这难道不是法官的失职吗？女方的家人如何看待这个社会？？？ 死缓是地位最低的吧，别人惹你打你，最多加刑，而你如果犯了事，就是枪毙。。其实这样也好，让死刑学会忍受和曲服。。。。如果这种情况下还不能忍耐，习惯实施暴力，那还是枪毙了对社会安全。。 作死的典型代表。 唉！！！ 死缓，无期……呵呵呵 肯定是爹妈惯的，老爹是有钱商人。身边见过这种小太保，出手很重因为知道爸爸出钱免灾。这人两次打人都用开水烫人让人失去反抗能力，一次直接拿膝盖顶人面部让人家鼻子粉碎性骨折。这么贱这么恶劣的手法监狱里都没人治他？看来有钱真的可以为所欲为。 不是立即执行吗？望速判 杀人偿命，就该死刑。不必质疑 出来都50多岁了，死缓和死刑又有多大的区别？别天真了。 他可能不堪忍受监狱的痛苦打算一死了却终生故意伤害别人以达到死刑脱离苦海 暴力倾向 这些人渣留着干啥？早枪毙早安生省得危害社会浪费粮食 死有余辜！ 死不足惜 死不足惜 立即执行 完美诠释了作死 ",
        "Total": 750
    },
    "Article": "（原标题：杀妻富二代或改判死刑历数“作大死”的死缓犯）法制晚报·看法新闻2017年12月27日，据紫牛新闻报道，4年前震惊南京的“富二代杀妻案”的罪犯吉星鹏因在坐牢期间5次伤人，或将面临改判为“死刑立即执行”。据紫牛新闻报道，吉星鹏第一次致人轻伤发生在缓刑考验期之内，而就在司法机关对此次致人轻伤的行为进行司法调查期间，他再次伤害其他犯人，又致人轻伤。对此，南京中院认为吉星鹏实属“不堪改造”，并于今年11月下旬以破坏监管秩序罪判处吉星鹏有期徒刑三年。目前，吉星鹏已经上诉，该判决尚未生效。一旦判决生效，将报最高人民法院核准，撤销缓刑，对吉星鹏执行死刑。听闻妻子与他人有染80后丈夫刺死90后娇妻2012年5月8日，吉星鹏与被害人馨馨（化名，女，殁年22岁）登记结婚。婚后3个月，吉星鹏怀疑馨馨与他人有染，两人产生矛盾，并数次争执。2013年4月24日晚，与朋友聚会饮酒时，吉星鹏听朋友讲述馨馨与他人有染之传闻。次日早晨6时许，吉星鹏酒后回到家中，与馨馨就朋友所述之事发生争执。争执中，吉星鹏持菜刀、水果刀对馨馨头部、胸背部、四肢等部位砍击和捅刺数十下，致馨馨当场死亡。吉星鹏行凶期间，其父拨打110电话报警，后公安民警在其住处将其抓获。该案发生后，引起社会极大关注。2014年4月18日，吉星鹏被判构成故意杀人罪。南京中院认为，吉星鹏的罪行极其严重，论罪当处死刑。但鉴于该案系婚姻家庭纠纷引起，结合具体案情，可不予立即执行。最终，南京中院判处吉星鹏死刑，缓期两年执行，剥夺政治权利终身，同时判决对其限制减刑。2014年8月30日，江苏省高院裁定核准上述刑事判决。2014年9月15日上述二审裁定送达被告人吉星鹏，2014年9月25日，吉星鹏被解押至某监狱服刑。据紫牛新闻报道，吉星鹏在坐牢期间5次暴力伤害其他犯人，致2人轻伤。2016年5月12日晚间，吉星鹏在监区洗漱间内，因不满旁边的服刑人员高某某将水溅到他衣服上，用拳头和膝盖击打高某某头面部数下，致高某某左侧鼻骨粉碎性骨折，构成轻伤二级，鼻背部创口构成轻微伤。2017年6月9日，吉星鹏连续三次未经允许擅自离开管控区域打开水，负责管控岗的犯人丁某对吉星鹏进行了劝阻和警告。当天11点多，吉星鹏在监狱十二监区开水间保温桶内舀了四勺热水，径直向蹲在食品储藏间门口的罪犯丁某连水带盆泼去，并冲上前对丁某拳打脚踢，后被周围罪犯拉开并控制。经监狱医院诊断，丁某头颈部、上下肢一些部位被开水烫伤Ⅰ度-浅Ⅱ度。办案机关于2017年6月23日在某监狱内参照监控录像记录的情况，进行侦查实验，实验结果为，吉星鹏用于伤害丁某所用的热水水温约为78.5摄氏度，水量约5400毫升。经南京市人民检察院司法鉴定中心鉴定，丁某的损伤程度属轻伤二级。今年11月下旬，南京中院以破坏监管秩序罪判处吉星鹏有期徒刑三年。目前，吉星鹏已经上诉，该判决尚未生效。一旦判决生效，将报最高人民法院核准，撤销缓刑，对吉星鹏执行死刑。虽然立即执行和缓期执行同属于死刑刑罚，但实践中大多数死缓最后都没有执行死刑，有的减为无期徒刑，有的减为15年以上25年以下有期徒刑。而死刑立即执行却从根本上剥夺了犯罪人的生命，排除了其继续生存和改造的可能。二者之间隔着生与死的距离。事实上，由死缓改判死刑立即执行的罪犯虽有先例，但并不常见，且多为狱中伤人。死缓犯自认为判决太重，狱内袭警罪犯朱某，男，36岁，山东省莒县人。曾因犯抢劫罪判处有期徒刑十五年；2007年7月26日刑满释放后，又因犯抢劫罪于2012年1月14日被徐州市中级法院判处死刑，缓期二年执行，剥夺政治权利终身，并处没收个人财产并限制减刑。朱某在无锡市某监狱服刑期间，因被判决死缓且限制减刑，自认为法院判得太重，遂产生发泄念头。当日朱某在监狱劳动改造时，持劳动工具突然刺戳监管民警季某颈部，在逃离过程中还刺伤了上前阻拦的其他两名服刑人员，后被监狱内其他民警抓获。经鉴定，监管民警季某的损伤程度已构成轻伤。案发后，无锡市院监所检察处迅速介入，依法对罪犯朱某的重新犯罪一案进行了立案审理，认真研究并提起了公诉，并对案件诉讼全过程进行了监督。2014年8月7日下午，无锡市某监狱内警灯闪烁，警声笛鸣，罪犯朱某由无锡市中级法院两名法官验明正身后被押赴刑场执行死刑，无锡检察院派员进行了临场监督。该案是《刑法修正案(八)》颁布后，全国首例限制减刑的死刑缓期执行罪犯在监狱内袭击管教民警的案件。殴打狱友和狱警，死缓犯被改判“死立执”被告人李某因犯故意杀人罪于2015年11月25日被判处死刑，缓期二年执行，剥夺政治权利终身。2016年1月29日，上述判决被核准。本次案发时，被告人李某在某监狱服刑，且处于死缓考验期内。2016年11月16日9时许，李某在某监狱一监区工场间服刑劳动时，因回收工具之事与罪犯王某发生纠纷。民警瞿某发现后，将其带至工场间外蹲在地上等候处理。后李某见王某收工经过身边，即辱骂王某，并用头部撞击地面。民警杨某见状上前制止李某时，被李某击打面部一拳，致杨某口腔黏膜破损等。司法鉴定结论认定，杨某构成轻微伤。一审法院经审理认为，被告人李某在服刑期间殴打监管人员，情节严重，其行为已构成破坏监管秩序罪。李某在死刑缓期执行期间故意犯罪，应将新罪所判刑罚与前罪判处的死刑缓期二年执行，剥夺政治权利终身并罚，且死刑缓期执行的期间重新计算。一审法院依照相关规定，判决：被告人李某犯破坏监管秩序罪，判处有期徒刑一年；与前罪判处的死刑缓期二年执行，剥夺政治权利终身并罚，决定执行死刑，缓期二年执行，剥夺政治权利终身。一审判决后，被告人李某未提出上诉，检察机关未抗诉。一审法院在判决生效后，将该案层报最高人民法院备案。打乒乓球起争执死缓犯狱中伤人2012年11月29日贵阳新闻网报道，一死缓犯人将同一个监狱的另一名服刑人员打伤，结果他的缓刑被取消，昨日被处以死刑。据介绍，该男子因故意杀人于2009年被判死刑，缓期二年执行。然而，在入狱后不久，他在与同监狱服刑人员打乒乓球时发生争执，该男子将对方打伤。经最高法院复核后，贵阳市中级人民法院于昨日公开宣判：该男子在死缓执行期间又犯故意伤害罪，应当执行死刑。法律解读：死缓变更执行死刑条件的界定看法新闻注意到，对于在死缓考验期犯罪的处罚，我国法律已有明确规定。2015年8月29日，第十二届全国人大常委会十六次会议表决通过刑法修正案（九），同年11月1日起开始施行。其中将《刑法》第五十条第一款修改为:“判处死刑缓期执行的，在死刑缓期执行期间，如果没有故意犯罪，二年期满以后，减为无期徒刑；如果确有重大立功表现，二年期满以后，减为二十五年有期徒刑；如果故意犯罪，情节恶劣的，报请最高人民法院核准后执行死刑；对于故意犯罪未执行死刑的，死刑缓期执行的期间重新计算，并报最高人民法院备案。”人民法院报报道，这一修订改变了之前刑法规定死缓考验期间只要再犯故意犯罪即应报请最高人民法院核准变更执行死刑的刚性规定，是立法在“控制死刑、慎用死刑”方面又迈出的坚实一步。据人民法院报解读，“故意犯罪”和“情节恶劣”是并列关系，因此死缓考验期间“故意犯罪”仅是死缓变更执行死刑的必要条件而非充分条件。而情节恶劣应以人身危险性、改造可能性为核心进行综合评价，具体来说，应结合被告人在服刑期间的一贯表现；被告人在实施犯罪时的心理状态、目的、动机；犯罪时的手段、对象、时间、地点以及中止、未遂等情况；犯罪后的结果、态度等情况综合判断。以下情形应认定为情节恶劣：第一，对于对抗改造型案件，如触犯刑法第三百一十五条破坏监管秩序罪、第三百一十六条第一款脱逃罪、第三百一十七条组织越狱罪、暴动越狱罪等案件，以及实施其他危害国家安全、危害公共安全等案件；第二，对于手段恶劣型案件，如故意伤害不特定对象的，或使用恶劣手段伤害、杀害他人的，或使用恶劣手段虐待、欺辱其他服刑人员的；第三，对屡教不改型案件，如毒品犯罪死缓罪犯在狱内继续实施毒品犯罪，或故意犯罪两次以上等。本文来源：法制晚报-看法新闻责任编辑：何雨芳_NN5632",
    "PublishTime": "12/27/201712:40:38",
    "URL": "http://news.163.com/17/1227/12/D6LONSV000018AOR.html",
    "Title": "杀妻富二代或改判死刑 历数\"作大死\"的死缓犯_网易新闻",
    "KeyWords": "死刑,犯罪,服刑,罪犯",
    "Source": "Netease"
}