{
    "Article": "苍井空婚后狂晒美照出浴自拍俏皮卖萌1月1日，苍井空在微博自曝自己已经结婚，并秀出钻戒。婚后，她连连在微博晒美照，有躺在床上的照片，还有刚洗完澡顶湿漉漉的头发的自拍，不断卖萌，十分俏皮。",
    "URL": "http://ent.163.com/photoview/00AJ0003/647174.html",
    "KeyWords": "苍井空,",
    "PublishTime": "01/04/201808:23:30",
    "Title": "苍井空婚后狂晒美照 出浴自拍俏皮卖萌_网易娱乐",
    "Comment": {
        "Content": "还是老师你好，不像国内某些女星，还1400万，你穿上衣服是干净，她们穿上衣服是肮脏,是人顶 明天你就会后悔 我也会娶老师的 听说苍老师不孕，婚后生活真性福，可以任意射门 长得真是漂亮， 昨天几把硬了一晚上，准备出去偷腥，太晚了，只好摁住苍井空撸两把 祝福！当初下的片全都删了 这次终于仓也不空，井也不空了。 🐧 感觉这个女的好熟悉，就是感觉看过她演的动作片，和片子里面着装不太一样 留下企鹅，马上还你一个新世界 真女神 看来是刚撸完。 明天你就会后悔 真女神 还是老师你好，不像国内某些女星，还1400万，你穿上衣服是干净，她们穿上衣服是肮脏,是人顶 感觉这个女的好熟悉，就是感觉看过她演的动作片，和片子里面着装不太一样 祝福！当初下的片全都删了 祝福㊗️仓老师👩‍🏫 动物多少 留下企鹅，马上还你一个新世界 都看过哈 哪用等明天 看来是刚撸完。 昨天几把硬了一晚上，准备出去偷腥，太晚了，只好摁住苍井空撸两把 我也会娶老师的 听说苍老师不孕，婚后生活真性福，可以任意射门 长得真是漂亮， 婚后也全套吗？ 这次终于仓也不空，井也不空了。 苍老师的眼睛很漂亮！ 全是有码的，就一部正常的，删就删吧 求她老公晚上心里阴影面积？ 🐧 私聊我，可以给你整个日本的经典珍藏 ",
        "Link": "http://comment.ent.163.com/ent2_bbs/PHOTJO06000300AJ.html",
        "Total": 285,
        "Reply": 22
    },
    "Source": "Netease"
}