{
    "Source": "Netease",
    "PublishTime": "12/26/201716:47:32",
    "KeyWords": "邓紫棋,约会,绯闻,爱情",
    "Title": "邓紫棋疑与绯闻男友约会过节 眼尖网友发现玄机_网易娱乐",
    "Comment": {
        "Link": "http://comment.ent.163.com/ent2_bbs/D6JKF5HA00038FO9.html",
        "Total": 6,
        "Content": "现在情侣都不互拍了，你拍吃的、我也拍吃的抛到朋友圈就是不拍你。 吃饭玩手机，我特么就掀桌子，要玩滚回去玩 现在情侣都不互拍了，你拍吃的、我也拍吃的抛到朋友圈就是不拍你。 吃饭玩手机，我特么就掀桌子，要玩滚回去玩 ",
        "Reply": 2
    },
    "Article": "邓紫棋邓紫棋男友晒美食网易娱乐12月26日报道昨晚，邓紫棋更新Ins晒出自己在某家日料店的照片，并配文称“ChristmasDinner”，今天中午其绯闻男友Mark也晒出一道海胆墨鱼籽，有网友发现就是昨晚邓紫棋餐厅同款菜品，猜测他们是一起过圣诞。据悉，邓紫棋早前曝出新恋情，被拍到富二代兼造型师MarkNgai到东京秘密约会。本文来源：网易娱乐责任编辑：胡梦瑶_NK5655",
    "URL": "http://ent.163.com/17/1226/16/D6JKF5HA00038FO9.html"
}