{
    "Comment": {
        "Link": "http://comment.news.163.com/news2_bbs/D6LK0V0E0001899N.html",
        "Reply": 35,
        "Content": "退休老师借看手相强奸11岁女孩判处有期徒刑五年六个月<br>老汉性侵13岁少女获刑11年法院首判赔心理康复费<br>男教练猥亵女童无有效物证干警恢复被删隐私照片有期徒刑一年零五个月<br>29岁男子带12岁女孩开房，见其来例假仍没放过判处有期徒刑四年六个月<br>83岁钢琴教师先后6次对2名9岁女童实施猥亵、强奸判处有期徒刑5年3个月<br>44岁的个体户王继军强奸幼女获刑3年<br>13岁女孩被48岁邻居强奸产子被威胁敢说杀全家<br>“怪叔叔”猥亵同村一对未成年女童获刑四年<br>中国法律。没毛病。真的 法官也渣 无意看到这个新闻，下面突然硬的要爆，怎么办？现在在办公室，都不敢站起来。 池州的煞笔，回家日尼玛去吧 对这类狗东西就得用83年的好办法坚决铲除！ 搅屎棍的法律，鼓励犯罪 对这类狗东西就得用83年的好办法坚决铲除！ 所以化学阉割没什么不好的，对恋童癖者，他的个人信息应该向社会公布，农村的，在全乡公布。城市的，要在社区备案，公布。 这样才四年，这不是鼓励犯罪？ 对这类狗东西就得用83年的好办法坚决铲除！ 尼玛四年有没有搞错 垃圾法律，垃圾法官，<br>我已经无力吐槽了，等着招报应吧！ 回家找你女儿 判十年以上，极品人渣！ 不服！才判这么点[暴怒] 才判4年？犯罪成本太低了 肯定是假新闻，中国农民一向是勤劳朴实的，穷人一定是善良正直的，怎么可能作恶？ 无意看到这个新闻，下面突然硬的要爆，怎么办？现在在办公室，都不敢站起来。 这真的是个社会问题 对这类狗东西就得用83年的好办法坚决铲除！ 死了 对这类狗东西就得用83年的好办法坚决铲除！ 回家找你女儿 禽兽不如 四年？？ 畜牧产品。建议阉割 四年…[暴怒] 做个调查物，价油价房价上涨感觉生存压力越来越大的点支持 看到这些新闻，心莫名的痛，现在的人都怎么了，。 所以化学阉割没什么不好的，对恋童癖者，他的个人信息应该向社会公布，农村的，在全乡公布。城市的，要在社区备案，公布。 男人本色。<br>好色而不淫才是英雄。<br>对未满18岁的女孩，利用孩子小的懵懂无知做不道德的事，万人唾骂。<br>最鄙视的就是这种人。<br>我也曾经遇到过这样的事，那时候不懂为了一点小恩小惠就听她们的，做了难为情的事，一直在心里抹之不去，一辈子的阴影。<br>也去报案过，👮叔叔居然叫我介绍给他们，我是那样的人吗？会让叔叔赴我后尘？？？<br>不说了，她又打电话来了，说女儿不在我家里，她要来吃爆炒红肠。。。。 退休老师借看手相强奸11岁女孩判处有期徒刑五年六个月<br>老汉性侵13岁少女获刑11年法院首判赔心理康复费<br>男教练猥亵女童无有效物证干警恢复被删隐私照片有期徒刑一年零五个月<br>29岁男子带12岁女孩开房，见其来例假仍没放过判处有期徒刑四年六个月<br>83岁钢琴教师先后6次对2名9岁女童实施猥亵、强奸判处有期徒刑5年3个月<br>44岁的个体户王继军强奸幼女获刑3年<br>13岁女孩被48岁邻居强奸产子被威胁敢说杀全家<br>“怪叔叔”猥亵同村一对未成年女童获刑四年<br>中国法律。没毛病。真的 直接在当地广场直播阉割 才4年，人渣 算了，判四年还不如直接放了！ 草泥马狗屁，才判四年 判四年？难怪南京叫徽京，一家子。 败类 法官也渣 搅屎棍的法律，鼓励犯罪 判刑太少，必须严惩😡 为了女儿好好活着 一楼，罪犯也是安徽的！难道安徽盛产你这种人渣？ 判十年以上，极品人渣！ 对这类狗东西就得用83年的好办法坚决铲除！ 尼玛四年有没有搞错 垃圾法律，垃圾法官，<br>我已经无力吐槽了，等着招报应吧！ 池州的煞笔，回家日尼玛去吧 犯罪成本太低，悲哀！ 这样才四年，这不是鼓励犯罪？ ",
        "Total": 357
    },
    "Article": "（原标题：“怪叔叔”猥亵同村一对未成年女童获刑四年）中安在线讯据阜阳新闻网报道，在颍东区某村，9岁的妹妹和13岁的姐姐，一直有个“难以启齿”的秘密。这个秘密，就是同村的一个“怪叔叔”向她们伸出魔爪……近日，这个“怪叔叔”在颍东法院接受一审，因犯猥亵罪，被判有期徒刑4年。家住颍东区的姐妹俩玲玲(化名)和倩倩(化名)有个不幸的家庭：父亲去世多年，母亲改嫁他乡，姐妹俩常年和年迈的爷爷相依为命。由于爷爷身体不好，时常去医院看病，常常只剩下两姐妹在家，姐姐照顾妹妹。这一情况，被邻居赵山察觉。一日，姐姐陪爷爷看病回家后，妹妹告诉他们，邻居赵山来“欺负”自己，让她身体很不舒服。爷爷听到后非常恼怒，带着姐妹俩去到赵山家理论，随即报了案。经公安机关侦查，早在2016年时，赵山也曾对姐姐玲玲进行过猥亵。令人感到悲痛的是，玲玲却从未向家人提起，而是选择了沉默。近日，颍东区人民法院未成年人刑事审判庭对该起猥亵儿童案进行了一审。经审理，法院判决被告人赵山犯猥亵罪，判处他有期徒刑4年。“由于家庭缺少关爱，很多留守女童压根不知道如何保护自己。”该案的主审法官表示，他们深入农村接触这群孩子时，孩子害羞的神情、茫然的眼神让人心疼。据介绍，留守女童中，有9成以上由年迈的老人照顾，隔代教育往往使她们遇到一些问题时“难以启齿”，也不知道问谁。“正值青春期的玲玲，当邻居向她伸出‘魔爪’时，她选择了沉默。”法官说。虽然被告人将接受法律的制裁，但姐妹俩的处境让人担忧。为此，颍东法院宣判后立即与颍东区相关负责人联系，对两姐妹开展帮扶，解决她们的实际困难。本文来源：中安在线责任编辑：王征_NN7526",
    "PublishTime": "12/27/201711:18:16",
    "URL": "http://news.163.com/17/1227/11/D6LK0V0E0001899N.html",
    "Title": "男子猥亵同村未成年姐妹 姐俩父亲去世母亲改嫁_网易新闻",
    "KeyWords": "猥亵,姐妹,获刑",
    "Source": "Netease"
}