{
    "Source": "Netease",
    "KeyWords": "比特币,交易所,期货,美元",
    "Title": "比特币快速上涨后经历\"过山车\" 7天掉价7000美元_网易新闻",
    "PublishTime": "12/25/201702:03:02",
    "URL": "http://news.163.com/17/1225/02/D6FFFABI000187VI.html",
    "Article": "（原标题：比特币7天掉价7000美元）新京报讯进入12月快速上涨的比特币近日出现拐点，在12月17日站上2万美元关口后，行情急转直下，12月22日单日降幅超过20%，以最近7个交易日计算，比特币价格已经下跌30%。行情急跌导致海外知名交易所Coinbase一度宣布暂停交易。截至昨日记者发稿，比特币价格维持弱势，bitfinex平台报价为12612万美元，较前一个交易日下跌10%。24小时蒸发1000亿美元海外平台数据显示，上周五，比特币价格24小时内从16000美元跌至11000美元，部分平台一度跌至10400美元，相较12月17日两万美元的高点计算，比特币价格几乎腰斩，24小时比特币市值蒸发1000亿美元。这一数字超过了高盛、摩根士丹利的市值。比特币放量暴跌，交易量之大致使一些比特币交易平台服务器宕机。美国最大的比特币交易平台之一Coinbase表示，由于比特币的价格暴跌，大量卖盘涌现，交易暂时瘫痪。急跌过后，比特币市场出现分歧。23日比特币价格反弹至15000美元，较上日低点反弹约4000美元，24日，比特币价格重新下跌至13000美元附近，截至发稿，bitfinex平台报价为12612万美元，较上一交易日下跌10%。“过山车”式的行情吃掉了近7000美元的涨幅。今年9月中旬至12月中旬，比特币价格上涨迅速。11月初比特币维持在5000美元附近，11月最后一周，比特币价格上涨超40%，币价不仅突破了1万美元关口，继续上冲至1万5千美元，进入12月，币价冲至2万美元。最近7个交易日，比特币价格锐减7000美元，几乎吃掉了12月上半月的涨幅。多因素利空“袭击”比特币比特币价格暴跌的原因，目前各家说法不一。其中，部分业内人士认为，美国期货交易所上线比特币期货，为投机者增加了做空的渠道。12月11日，美国芝加哥期权交易所上线比特币期货品种；12月18日，全球最大的期货交易所，美国芝加哥商业交易所旗下的比特币期货产品也上市交易。上述两家平台为投资者增加了做空比特币的渠道。在币圈投资群中，有部分比特币炒家认为，近期币价上涨过快，是这次下跌的主要原因。从K线图来看，比特币价格出现加速上涨的趋势，市场投机情绪浓重，击鼓传花难以延续。除了外部利空因素，比特币内部也出现了“技术分歧”。在比特币社区，近期最热的话题当属比特币分叉潮。分叉可以简单理解为“路线竞争”，由于比特币社区内部对比特币未来产生不同观点，持不同意见的一方在原有基础上运行新版本的协议，“硬分叉”即产生。目前，比特币社区已经出现多个分叉版本，诸如BCH（比特现金）、BTG（比特黄金）、SBTC（超级比特币）、GOD（比特币上帝）等。业内人士认为，上述分叉对比特币的价值造成了损害。此前一直支持比特币的莱比特矿池创始人江卓尔，已经转而支持另一款分叉的“比特币”。海外机构提示比特币风险12月中旬，美国证券交易委员会(SEC)主席JayClayton强调了比特币风险，并让投资者小心ICO（首次代币发行）。他在网站上的声明中称，投资者应当理解ICO到目前为止没有在美国证券交易委员会进行注册，且委员会也没有批准任何持有数字货币的上市交易基金。Clayton明确指出了比特币狂热隐藏的风险，包括投资在当事人不知情的情况下转移至海外。“股神”巴菲特的黄金搭档——伯克夏·哈撒韦公司的副主席查理芒格(CharlieMunger)认为，比特币的炒作是彻头彻尾的“疯狂之举”，人们应当像躲瘟疫那样避开比特币。“我认为，即便停下来想一想比特币都是十分愚蠢的行为”，芒格日前表示，“比特币是疯狂的泡沫，糟糕的点子，他们用无需太多的洞察力或工作就可以轻松致富的概念来吸引别人。”芒格认为，比特币无法替代黄金，投资者要像躲瘟疫一样远离。日本央行行长黑田东彦12月21日表示，比特币的运作方式不像一个正常的支付手段，正被用于投机。黑客攻击等不确定性事件也是玩家面临的潜在风险。12月19日，一家名为Youbit的韩国比特币交易所因为遭遇黑客攻击而申请破产保护，黑客总共盗取了这家交易所17%的资产，这是这家比特币交易所不到8个月内经历的第二次黑客攻击。据央视报道，近日，河南省中原油田公安局成功破获了全国首例比特币盗窃案。嫌犯戴某精通软件编程，把下载的正版钱包软件破解后，加入传输用户名和密码的程序盗取比特币，一旦别人把比特币存入电子钱包，他就会知道对方的账户名和密码，并转移电子钱包内的比特币。通过这种方式，戴某已经作案三起，涉案2000多万元。目前，警方已经查清戴某的账户并冻结，追回赃款200多万元。本文来源：新京报作者：王全浩责任编辑：李天奕_NN7528",
    "Comment": {
        "Content": "每次调整都喊崩盘，你累不累？波动再正常不过了，比特币再垃圾也比癌股好得多 涨的时候没报，但跌的时候放头版.. 多亏了你屯盐，终于躲过去臭脚盐了 游戏而已 多亏了你屯盐，终于躲过去臭脚盐了 一个东西要成为货币，首先就要稳定，暴涨暴跌的东西怎么可能成为货币来用？再者，货币用来干嘛的？等价交换物--用来等价交换商品的，而比特币现在都是来换美元的，所以现在的比特币就是一个投资标的物，和期货市场的“石油”、“黄金”、“白银”没有本质区别 不用砍树，只要纸币回炉，100面值变100万面值就行 巡视组好长时间没动静了 因为全球能源有限。。没那么多电来计算。。纸币也一样。。不可能把所有的树砍了都造纸币。。 有些人自己瞎以为别人和他一样瞎 恐怖组织、邪教集团、贪腐、诈骗、黑色资金洗钱场所。 1000美金离场的人也是你所说的“赚到的” 比特币怎么能是有限的？怎么才叫不疯涨？最早几个十几个兑换，现在1个都拆成几十几百，去年才几千RMB，今年十几万RMB，大量耗电，为社会做出什么贡献了？ 呵呵，我就笑笑！ 不承认只是不给你们p民用，怕你们转移怕你们不用金圆券，但老爷们还是要的嘛 今年暴涨到十几万，下跌到好几万就大声嚷嚷，怎么不说说去年的五六千？ 骗子和有钱人玩的游戏，一般人不要参与，让二班人玩去吧！ 买入好时机，以后必破20万美元一个 自己没看到就认为没报，有些人的智商就是这样被自己羞辱的 这玩意儿除了洗钱，我想不出别的用途。 跟贴被火星网友带走啦~ 不要把这当成货币，连货币最基本的要素，大范围流通都做不到，也敢叫货币？ 投机市场，有赚的就有赔的。那些已经离场的才是赚到的，就看谁是最后的接盘侠。 你果然是资本大鹅，懂的真多 而且还是有限资源！ 挖一个比特币成本7000~10000块人民币左右，平台交易价13000美刀上下。投资比特币还不如投资挖矿更赚风险也更小，反正前面吃螃蟹的人已经发了，2016年到2020年，还能挖出12.5%的比特币，最后一趟列车，老板们赶紧上车。 天天报道疯长你看不到？ 比特币，只要大家认可就行。原理限制了随便发行、无机构可操纵发行。疯长就危险，风险高了，没人用了。 你个败家的娘们！我爷爷当年“深挖洞，广积粮”，备战、备荒、为人民时储备的米糠还舍不得吃呢... 镰刀已经磨快了割韭菜咯割韭菜咯 虚拟货币不靠谱 比特币为什么这么疯狂？行家解释一下 涨时羡慕嫉妒恨，懊恼诅咒悔；“峰”回则载歌载舞，幸其“灾”乐其“祸”，激动得手脚无措！ ：我要宣布一件事情，大家还记得2011年的抢盐的事情吗？我家里的盐在今天，就是今天，终于吃完了，吃完了呀！我的个亲娘啊！终于给吃完了。​​​ 放心吧只要有贪官都会拿比特币洗钱的 大家一起来，坐等矿难。 比特币，击鼓传花的游戏。 都是套路 ：我要宣布一件事情，大家还记得2011年的抢盐的事情吗？我家里的盐在今天，就是今天，终于吃完了，吃完了呀！我的个亲娘啊！终于给吃完了。​​​ 但是这个方程的解是有数量的。。 表面上禁止比特交易，看现在新闻三天两头报道这么热情，就知道暗地里，都在搞，就是典型的表+牌 真服你们了，非典买84，口罩，日本海啸还食盐，我家可赚了一笔，我那一个人一下买了20箱盐，我说别买这么多，买个一包就行，世界上不缺盐，不听非要买，不差钱就卖给他了，过两天风吹过去，又想退，哪能退给他，自己都拉回老家分了 可以上车不 通涨，票子存银行贬值，这个虚拟的却能增值力，因为印不出来！ 扣扣号被盗，人家公安机关也追查的，只要牵涉到买卖成人民币，没看这里面有脏款200多万嘛 它们自己在向外输出，实际上，内部已经空的像升空的气球，随时都可能爆了。 03年非典期间买的醋谁要，十五年的老醋 1060涨价是不是这货拉动的？倒卖矿机的都发了，可怜的是那些倒霉的矿工，又要割肉卖显卡！哈哈哈哈~~~ 对，比自己的买入价高的卖出价卖出就赚到了。只是赚少了！ 靠谱 我给你解释下；因为有些东西触及了政体底线，比如去中心化，隐私加密，防攻击区块链技术等等等等…… 今天开始盐当饭吃就好了 目前，比特币社区已经出现多个分叉版本，诸如BCH（比特现金）、BTG（比特黄金）、SBTC（超级比特币）、GOD（比特币上帝）等。业内人士认为，上述分叉对比特币的价值造成了损害。此前一直支持比特币的莱比特矿池创始人江卓尔，已经转而支持另一款分叉的“比特币”。<br>明白人来解释下，这是这么回事！ 熟悉的套路 哦哦 这么多天涨没有放头版 没有呀[窃笑] 老板们早就在挖了，煤电成本贵，有个老板不是去在水力发电厂附近搞了个机房 即使国家不承认，但事实上它是可以交易换成真金白银的，就应该以案发时国际市场上的价格进行合理评估，选取一个比较保守的数值作为定罪依据。 日本核泄漏时抢买的盐吧 看见这种好生意，中国决定把区块链技术发扬光大 新京报援引查理芒格的话，最好脚注出处。比特币一跌，就开始报道消极，持什么态度，往什么方面引导，是媒体自己的事儿。读者有查证事实的乐趣，也有辨别媒体立场的能力。<br>另，最后一则比特币盗窃案倒是挺搞笑的，与题不符，也有刻意抹黑之嫌。 那么快？我03年买的，还有个两三箱没吃完 心惊肉跳 不用砍树，只要纸币回炉，100面值变100万面值就行 涨的时候没报，但跌的时候放头版.. 谢谢,但怎么获得比特币呢? 盐会发霉吗？ 平常吃饭齁吗,^_^ 我这里有共享矿场，每位用户押金1万，2年内不能退押金。挖出的比特币共享。 当初抢那么多干啥呀。 套路，都是套路 你03年买那么多盐干什么用 涨时羡慕嫉妒恨，懊恼诅咒悔；“峰”回则载歌载舞，幸其“灾”乐其“祸”，激动得手脚无措！ ：我要宣布一件事情，大家还记得2011年的抢盐的事情吗？我家里的盐在今天，就是今天，终于吃完了，吃完了呀！我的个亲娘啊！终于给吃完了。​​​ 关你国屁事 印钞也有成本啊，比如原料，管理，人工，物流等等，钞票本身就是一张纸 我特地去百度下，网友说盐不会发霉 冒充货币的旁氏骗局 今年暴涨到十几万，下跌到好几万就大声嚷嚷，怎么不说说去年的五六千？ 选择性失明而已 赊消时的白洋布准的，30年前的品质，杠杠滴 货币的价值不单单是稀缺性问题，更重要的是背后的正负，正负把握着整个社会的资源，这些资源用货币来结算会比较方便。而比特币这种属于本末倒置的产物，根本不存在价值，不能因为挖矿有成本就说他值多少钱，那农民种香蕉也有成本，有时候还不是一毛钱一斤都没人收，只不过跟传销一样罢了，最后的接盘侠会死的很惨 挖一个比特币成本7000~10000块人民币左右，平台交易价13000美刀上下。投资比特币还不如投资挖矿更赚风险也更小，反正前面吃螃蟹的人已经发了，2016年到2020年，还能挖出12.5%的比特币，最后一趟列车，老板们赶紧上车。 天天报道疯长你看不到？ 其实什么都没有损失，就是损失一堆数据， 跟贴被火星网友带走啦~ 你个败家的娘们！我爷爷当年“深挖洞，广积粮”，备战、备荒、为人民时储备的米糠还舍不得吃呢... 是否疯涨，没有太多道理，有的话，也是不可靠的社会学。用家不认可了，自然就蹦了。毕竟优势、劣势都在于无政府主义。<br>还有个风险是，再出来个bitchcoin,plus,pro之类的，扰乱市场。 那个要承包垃圾填埋场找硬盘的兄弟还找不找了？ 中国的确不适合搞比特币，中国的那些官员们太有钱了，洗钱太容易了 难道可以在超市买东西？你不要告诉我说可以卖给别人换成人民币，因为不是谁都会买你那个东西的。 发霉了吧还吃，注意身体 确实，比特币其实就是物物交换中的虚拟货物。设计之初，限制发行量，出发点是为了抑制通货膨胀。其实玩了那么多年，你们还觉得这种限制发行量的方法，真能抑制通胀？最后拆分到0.00几一个基本单位，跟广印钞票有什么差别？无非也就是让早期投资的人赚得更多而已。 想多了，如今比特币已经不可复制，因为新出现的虚拟货币只要有人能够控制百分之五十一的运算量，你的虚拟货币就被操纵了。比特币由于矿机过多，独立的团体不可能控制51。 ：我要宣布一件事情，大家还记得2011年的抢盐的事情吗？我家里的盐在今天，就是今天，终于吃完了，吃完了呀！我的个亲娘啊！终于给吃完了。​​​ 今年暴涨到十几万，下跌到好几万就大声嚷嚷，怎么不说说去年的五六千？ 1988年抢购的熊猫电视机谁要，画面清晰，9.9成新 费点好像是08年吧 新京报援引查理芒格的话，最好脚注出处。比特币一跌，就开始报道消极，持什么态度，往什么方面引导，是媒体自己的事儿。读者有查证事实的乐趣，也有辨别媒体立场的能力。<br>另，最后一则比特币盗窃案倒是挺搞笑的，与题不符，也有刻意抹黑之嫌。 你家是吃得有多咸？ 黄金尚且有大涨和大跌，比特币也不能例外。目前这个货币相对还是小众，这就给了那手握筹码的庄家操作的机会，散户跟风自然容易被坑。但是这中间肯定有赚到钱的，跟炒股类似，没啥大惊小怪的。 日本福岛啊，抢的人都智商不高又自认为智商很高 真服你们了，非典买84，口罩，日本海啸还食盐，我家可赚了一笔，我那一个人一下买了20箱盐，我说别买这么多，买个一包就行，世界上不缺盐，不听非要买，不差钱就卖给他了，过两天风吹过去，又想退，哪能退给他，自己都拉回老家分了 不是国内停了么 ：我要宣布一件事情，大家还记得2011年的抢盐的事情吗？我家里的盐在今天，就是今天，终于吃完了，吃完了呀！我的个亲娘啊！终于给吃完了。​​​ 虚拟货币不靠谱 2017年5月12日，全球突发比特币病毒疯狂袭击公共和商业系统事件！全球有接近74个国家受到严重攻击！<br><br>2017年8月1日起全球比特币交易平台将暂停充值、提现服务。比特币中国数字资产交易平台9月14日起停止新用户注册，9月30日数字资产交易平台将停止所有交易业务。 各种跟风盲目无脑抢购，证明了中国人的没有安全感。 03年非典期间买的醋谁要，十五年的老醋 比特币，只要大家认可就行。原理限制了随便发行、无机构可操纵发行。疯长就危险，风险高了，没人用了。 通涨，票子存银行贬值，这个虚拟的却能增值力，因为印不出来！ 比特币由于没有信用担保,目前未来都看不到能够成为流通货币的希望.因此并没有价值.与美元没什么关系.也不可能代替美元. 你太小瞧贪官了，以为他们没这SB的玩意就洗了钱了吗 比癌股差远了 涨的时候没报，但跌的时候放头版.. 兄die，没人拦着你啊，快买 二楼说的是庄家，一楼说的是散户 痛快，来十斤牛肉八碗老酒! 你家煮饭挺咸的。 我看看热闹就好~~因为我没钱玩不起~~ 到时候我们再去炒莱特币A币B币C币，全都是区域链交易，不可复制，交易安全。。。我们的成本是10块一个，你就祈祷没大傻高位大量接盘，庄家没法彻底出货，这样就会一直涨。 有些人自己瞎以为别人和他一样瞎 恐怖组织、邪教集团、贪腐、诈骗、黑色资金洗钱场所。 比特币是什么 作案三起就2000万了。。。。<br>而且还能冻结账号？ ：我要宣布一件事情，大家还记得2011年的抢盐的事情吗？我家里的盐在今天，就是今天，终于吃完了，吃完了呀！我的个亲娘啊！终于给吃完了。​​​ 程序也是可以改的，规则都是大玩家定的 不承认只是不给你们p民用，怕你们转移怕你们不用金圆券，但老爷们还是要的嘛 骗人把戏，还能搞多久？！ 贪的是他们的钱，洗的也是他们的钱，跟我们没有一分钱关系。 今年暴涨到十几万，下跌到好几万就大声嚷嚷，怎么不说说去年的五六千？ 骗子和有钱人玩的游戏，一般人不要参与，让二班人玩去吧！ 你傻啊！当时直接拿这证据告超市，不仅全退，而且超市还要罚款50万！！！ 一个账号密码就可以卷掉你全部身家，你和我说安全。 证明你买的还不够多 这种傻逼言论老子都听了20年 买入好时机，以后必破20万美元一个 金融，大鳄的游戏，屁民有钱还是买房子吧 这玩意儿除了洗钱，我想不出别的用途。 跟贴被火星网友带走啦~ 可以抄底了。 而且还是有限资源！ 挖一个比特币成本7000~10000块人民币左右，平台交易价13000美刀上下。投资比特币还不如投资挖矿更赚风险也更小，反正前面吃螃蟹的人已经发了，2016年到2020年，还能挖出12.5%的比特币，最后一趟列车，老板们赶紧上车。 A股术语叫技术性反抽回调 天天报道疯长你看不到？ 镰刀已经磨快了割韭菜咯割韭菜咯 虚拟货币不靠谱 必须的，只有这样才能骗钱。 比特币为什么这么疯狂？行家解释一下 你果然是资本大鹅，懂的真多 放心吧只要有贪官都会拿比特币洗钱的 比特币这是在网易开了钻石VIP？天天都有新闻。玛德，网页版连个屏蔽都没有 抗通胀。。。10万美元一个还是很靠谱的，它只怕比它更有信用的支付系统出现。 ：我要宣布一件事情，大家还记得2011年的抢盐的事情吗？我家里的盐在今天，就是今天，终于吃完了，吃完了呀！我的个亲娘啊！终于给吃完了。​​​ 也要所有玩家认可。。你自己重新发布一个币看有没有人要。。 呵呵 不管它有多能，只要不被ZF认可它就是游戏币而已。货币的总量是要与商品的总量对应的，过多会导致通胀，过少会导致通缩，对老百姓来讲都是灾难。另外作为大的经济主体，没人会愿意放弃铸币税，你用一个虚拟来替代？幼稚了。 惨个屁，就是那些手上大量囤币的先买空，然后集中抛售导致下跌，跌了之后在全部买回来，期货就是这么玩的。 你赚大了，以前多便宜啊 表面上禁止比特交易，看现在新闻三天两头报道这么热情，就知道暗地里，都在搞，就是典型的表+牌 你这个成本是对于有大量矿机的矿场来说的首先你建这个大矿场就要投入几百万! 兄弟我这儿还有五箱板蓝根 放着吧，没看让吃中药了 久不久又出了新的幺蛾子来骗人吧？ 盐是有保质期的。 扣扣号被盗，人家公安机关也追查的，只要牵涉到买卖成人民币，没看这里面有脏款200多万嘛 那些挖矿的就惨了！ 哈哈哈 比特币可以无限小数点后0 资金外逃利器！下跌也是外逃的买单 通涨，票子存银行贬值，这个虚拟的却能增值力，因为印不出来！ 我给你解释下；因为有些东西触及了政体底线，比如去中心化，隐私加密，防攻击区块链技术等等等等…… 1000美金离场的人也是你所说的“赚到的” 镰刀已经磨快了割韭菜咯割韭菜咯 云联惠？ 巡视组好长时间没动静了 最终将会不如草纸 比特币为什么这么疯狂？行家解释一下 前几天不是吹上天了吗？？？！！！！ 每次调整都喊崩盘，你累不累？波动再正常不过了，比特币再垃圾也比癌股好得多 大家一起来，坐等矿难。 多亏了你屯盐，终于躲过去臭脚盐了 那么快就吃完了，说明你买了还不多。 这玩意就是炒做的工具，真以为能洗钱啊，任何国家包括美国在内对于洗钱和逃税是坚决打击的，而且美国的打击力度远比我们高，如果真的能用来大规模方便的洗钱，美国早把那些人抓起来了。 可以上车不 投机市场，有赚的就有赔的。那些已经离场的才是赚到的，就看谁是最后的接盘侠。 还会跌 都是套路 还好我03年非典时候屯了不少 ：我要宣布一件事情，大家还记得2011年的抢盐的事情吗？我家里的盐在今天，就是今天，终于吃完了，吃完了呀！我的个亲娘啊！终于给吃完了。​​​ 吗的比，我03年非典的时候的盐才吃完不久 又想骗我买电脑？ 我给你解释下；因为有些东西触及了政体底线，比如去中心化，隐私加密，防攻击区块链技术等等等等…… “截至昨日记者发稿，比特币价格维持弱势，bitfinex平台报价为12612万美元”新京报校验的人是临时工吗 别理、别睬、别看、别配合、别参与……再貌似强大的东西也会垮台，我不仅仅指比特币 感觉细胞分裂的速度加快了，人每天面对的就是：老化 戴某表示自己盗的只是虚拟币，国家不承认的，强烈要求还虚拟币，不还人民币。个人要求延期审理，这样他就可以等待比特币大跌时候再开庭，以便他购入比特币还债。 呵呵，我就笑笑！ 挖一个比特币成本7000~10000块人民币左右，平台交易价13000美刀上下。投资比特币还不如投资挖矿更赚风险也更小，反正前面吃螃蟹的人已经发了，2016年到2020年，还能挖出12.5%的比特币，最后一趟列车，老板们赶紧上车。 盐又坏不了。。多买又如何。。 搞笑，你知道为什么有的垃圾股票，照样连续涨停吗 对，比自己的买入价高的卖出价卖出就赚到了。只是赚少了！ 疯狂的泡沫，涨的越快，越快破灭，这泡破了，又会有新的泡出现。 游戏而已 比特币，击鼓传花的游戏。 多亏了你屯盐，终于躲过去臭脚盐了 ：我要宣布一件事情，大家还记得2011年的抢盐的事情吗？我家里的盐在今天，就是今天，终于吃完了，吃完了呀！我的个亲娘啊！终于给吃完了。​​​ 这玩意儿除了洗钱，我想不出别的用途。 这玩意是不是能洗钱？我看勒索软件也要的比特币。 你这个就有点扯淡了，这个不算割韭菜。 大股东跑了 1060涨价是不是这货拉动的？倒卖矿机的都发了，可怜的是那些倒霉的矿工，又要割肉卖显卡！哈哈哈哈~~~ 全世界的比特币有他吗百分之七八十在中国，光看这个，还敢去投资？ [微笑] 比特币不亚于毒品 ",
        "Reply": 162,
        "Link": "http://comment.news.163.com/news2_bbs/D6FFFABI000187VI.html",
        "Total": 2075
    }
}