{
    "Source": "Netease",
    "KeyWords": "刘强东,电商,京东,闲鱼",
    "Title": "京东复活腾讯电商品牌拍拍 刘强东抢食二手电商_网易科技",
    "PublishTime": "12/25/201707:06:43",
    "URL": "http://tech.163.com/17/1225/07/D6G0QU1U00097U7R.html",
    "Article": "（原标题：复活拍拍刘强东抢食二手电商）赵陈婷对于由腾讯转手过来的电商品牌拍拍，刘强东多少还是有执念的。京东日前正式发布了“拍拍二手”品牌，复活了已经销声匿迹许久的拍拍。要知道，这个曾经与淘宝抗衡却最终遭遇边缘化的品牌，一度承载着京东和腾讯再度征战电商C2C市场的野心。只是，互联网市场上有些机遇错过就真是错过了。2014年10月重装上线的拍拍网，虽然拥有京东的电商基因和腾讯的微信和手机QQ等流量资源，但还是没能在淘宝已经独霸的C2C市场上扑腾出多大水花。结果，多少为了“膈应”下竞争对手，刘强东在2015年的双11关键档口宣布因为C2C模式无法杜绝假货现象而叫停了拍拍网的卖家服务。但同一时间，京东又上线了拍拍二手交易平台。只是，半年后的2016年4月，京东在宣布彻底关闭拍拍网时也关闭了拍拍二手。按照京东的说法，全新的拍拍二手将以平台化的运营思路，整合回收、检测、再加工、销售等逆向供应链资源，将京东的联盟生态拓展到了二手商品交易领域。京东自认为新拍拍二手的特性有三个：一是对二手商品的鉴定，二是对商品的翻新，三是用京东自己的配送物流。也就是说，一件二手商品在平台发布时，内置有自动估值体系，帮助用户了解商品价格。之后会京东物流上门取件，北上广等125个城市15：00前下单当天取件，其他城市次日取件，再给商品鉴定。这样来看，尽管京东方面不直接对标，但如今的二手拍拍的确是在抢食闲鱼和转转的蛋糕。原因也很简单，随着交易流程和检测评估体系的日益成熟，个人二手闲置的市场已经被做大。QuestMobile发布的《二手交易行业观察》报告显示，截至2017年底，中国二手闲置交易行业用户规模接近4000万，其中，转转和闲鱼占据了90%以上的市场份额。具体来看，闲鱼月活跃用户1960.1万，位居第一，转转月活跃用户1747.7万，紧随其后。闲鱼是阿里巴巴推出的闲置交易平台，转转由58同城推出，今年4月获得了腾讯2亿美元投资。但京东之前在二手业务上连试水都很低调。今年1月，京东曾上线的二手交易平台“京东优品”，具体域名就叫2.jd.com。虽然当时处于不声不响的试水阶段，但那个时间点京东商城的页面上已经能看到二手优品的相关显示。如果在京东页面搜索iPhone，商品列表的右下角就会显示“二手有货”的字样，点击进去，就可以购买成色和价格不一的二手iPhone。而这一次，“京东优品”也被整合到新拍拍二手的业务中。为什么此前不敢放开手脚去做二手？京东其实最大的顾虑是来自其自营电商的身份。自营起家的京东在3C领域占据着电商市场的绝对优势，但是这个优势背后，由于7天无理由退换货问题，京东每天都有不少的退换货订单。很多消费者都好奇，自己退换货的产品最终去哪了，为此还有质疑京东是“二手东”的声音。而3C产品，尤其是手机，正是如今各家二手平台上最热门的存在。转转方面提供的数据是，今年8月，转转的平台交易额达到了24.8亿，其中手机业务占据平台总交易量的31%，是最大的业务板块，交易量同比增长316%。仅今年二季度，其平台手机交易量达到了210万部。也就是说，尽管京东的二手业务和京东商城的业务是两条完全不同的业务线，但是在“二手东”的质疑声之下，京东在很长一段时间也不太敢大肆做二手业务。但二手交易市场如今已经足够诱人，随着老对手阿里巴巴旗下的闲鱼以及转转业务越做越大，京东当下已经没有理由放弃这个市场。在正式推出新的拍拍二手之后，留给京东的问题是，在不影响京东商城声誉的情况下，做好二手和原商城的业务衔接。本文来源：第一财经责任编辑：白鑫_NT4464",
    "Comment": {
        "Content": "京东的流程基本是这样的，京东自营：等于厂家批发商供货给晶东贸易公司，晶东贸易公司然后把产品放进京东仓储，京东网上商城出售，京东快递员派送，京东产品怎么样主要取决于晶东贸易公司的良心，晶东贸易公司是刘强东和其他人合伙的一个公司，京东集团有股份，所以出现假货以后，京东商城是不会承认售假的，因为不是京东的产品，是晶东的产品，所以出现了那句比较有名的名言，京东自营不等于京东自营，这叫做责任分离，也就是“京东自营”不是“京东”自营，😂玩宣传，玩欺诈狗东最在行。变着法欺诈消费者。狗东海军还能洗白。 现在电脑配件JD学聪明了，不搞无理由7天了。以前贴吧买来装B然后退货的一大堆人。 马猴蹦跶不了几天了。只有靠水军和控股媒体了 现在真没有好的二手货交易平台，同城连电话号码都不给发布，真的没办法交易！ 转转的软文，贼你妈 说得好，天天见到京东新闻就骂的，死喷子早点儿逼脸吧！我也收过一次二手货，罗技G403，拆包装就发现是动过的，拿出来的时候鼠标上面留的指纹还没擦掉，可这鼠标是好好的，一定是哪个傻逼脑残退的货，但我没退，也没联系客服说这个事儿。就是不想跟你们这些傻逼为伍！ 一楼这个京东701部队的王牌军在到处发贴黑阿里！ 阿里有吃鸡么？阿里有农药么？阿里有聊天么？ 回收和卖一样？？？你搞个苹果手机回收和卖看看？智商拙计啊 没能力就不要做啊。自己吹的牛逼却让消费者买单。二手东的水军连这个都要洗。。。 我用的一年多的TF卡也直接换新的了。 东哥发力啊 当年经营不善关闭的时候倒打淘宝一耙，说无法控制假货。不过墙洞也说过，打击假货一个程序员就够了。现如今恢复品牌，二手名正言顺 那如何解决，客户恶意无理由退货？毕竟谁都不想买到二手的 专门开个卖二手的自营店比闲鱼二手乱七八糟的好吧 回帖里的睿智们，摸着你们的良心说，二手东里那么多二手东西怎么来的你们心理就没点逼数？难道他进货直接进二手的？ 马云的水军这他妈多！ 是的，马花疼必败。 这个旧货平台很好，尽量避免了居心不良的散客讹人钱财！ 腾讯SB 我的佳能5d3京东回收7000，我自己咸鱼卖了9500。你们说京东坑不坑？而且文中公然提到:对物品进行翻新再销售。京东得东西卖的又贵，而且经常买到二手物品，你们这些脑残怎么还在京东买东西？一群智障 以后只要是杀人放火强奸拐卖儿童的，一律抓到后用世界上最粗暴的野猪强奸1000次，直到全身爆炸而死 中国人太聪明了，恶意差评师，淘宝买假货退京东的真货，手机用几天退货，各种渣滓 最烂怎么都是装逼的接客马第一， 实体店售后比天猫京东垃圾多了，不满意你去退货试试？ 就凭7天内无条件退货，还有黑点？二手的退换到你满意为止不就行了 闲鱼已经成了骗子的聚集地 炒作很好 你说一个京东新用户第一次上京东买买东西，买回来发现是用过的，该不该怼？该不该退换？ 超过一千的物品最好不要在京东天猫等电商平台购买最好去实体店 一千？一楼你告诉我现在一千能买啥？ 当年我买过一个头戴耳机到货看到头梁上耳罩上都有油了这特么恶心的啊你特么用了多久了还退啊网友还说省的我煲机了[骷髅] 利害 我算是阿里的水军（自费的），经常黑京东，不过京东的售后确实好，我买了一个199元的鼠标，质保三年，用了两年（实际上因为鼠标太大，没怎么用过），按键坏了，京东给退货了，按退了140块钱。感觉京东的售后简直太良心了。 我15年底1200买的显卡，最近连续休了两次没有修好，京东直接给我退款，退了我900，这卡现在咸鱼顶多值450快，不喜滋滋的950退回京东1050出来[喷水]你去实体店鸟都不鸟你好伐 大实话，有些人就喜欢钻空子，还在网上发布退货攻略，人口基数那么大，垃圾人还是很多的，导致现在京东七天无理由也有商品限制了 好。支持支持。 谁有用户谁说了算，谁便宜我用谁！购物网参考慢慢买这类比价app，只买有券有促销的。 實體店的售後太垃圾，我在京东买了根苹果的充电线用了三个月坏了，申请售后直接退货，再发一根，保质一年，你去实体店看看给不给你退。 一边骂2手东，一边把自己试用7天的东西无理由退货。 阿里有什么，腾讯就投资什么 京东自营的服务真是好，不管别人怎么黑，京东的付出都不会白费，这几年的网民不像前几年那么容易被专业黑误导了 京东手法经营拍拍 一群傻逼，用耳机用几天就退，一年不带重样的。搞得京东改变退货策略，最终正常用户的权益受到损失。这群渣子就是文明社会的阻碍。 强哥威武 最烦一些人说二手东二手东的，你真的买到二手的了吗？我在京东也网购五六年了，从来没买过二手的，实话实说，是水军司马 这个是狗东的强项。二手东非浪得虚名 行不行啊 说反了吧是超过一千的东西，最好只在京东天猫的旗舰店购买更保真 京东的流程基本是这样的，京东自营：等于厂家批发商供货给晶东贸易公司，晶东贸易公司然后把产品放进京东仓储，京东网上商城出售，京东快递员派送，京东产品怎么样主要取决于晶东贸易公司的良心，晶东贸易公司是刘强东和其他人合伙的一个公司，京东集团有股份，所以出现假货以后，京东商城是不会承认售假的，因为不是京东的产品，是晶东的产品，所以出现了那句比较有名的名言，京东自营不等于京东自营，这叫做责任分离，也就是“京东自营”不是“京东”自营，😂玩宣传，玩欺诈狗东最在行。变着法欺诈消费者。狗东海军还能洗白。 惠惠购物助手不怎么好用了 不看好 谁洗地谁出门横死，谁是黑子谁暴死。 你买回去看看不喜欢就退了，京东就要销毁了是吗，智障 所以你也会经常吃亏，有券的很多都是套路满满，比如15块钱的东西卖19，然后送你满20减5块的券，还有比这套路还深的，便宜的东西很多都是没好货，一分价格一分货有时候不是白说的，买个贵一点质量好的东西很多时候比买俩便宜货还省钱 是是是，实体店好，实体店就靠你们养活，你们要撑住啊。 也可能是心怀梦想的屌丝 回收在加工二手是京东拿手好戏啊去自营的差评看全尼玛是骂二手的二手当一手价格卖也是醉了 这不是聪明，这是社会毒瘤，垃圾人！ 你说的是废话 2.京东.刘强东 实体店家电退货麻烦，还是网购方便。特别是京东，上门自提。 你是阿里水军？701的吧？ 我做法和二楼一样，除了一次质量问题换货，至今没找过京东麻烦。几年前就是钻石的。 记得当年狗东泡奶茶的事不，直造谣说是马云要黑他， 专门开个卖二手的自营店比闲鱼二手乱七八糟的好吧 回帖里的睿智们，摸着你们的良心说，二手东里那么多二手东西怎么来的你们心理就没点逼数？难道他进货直接进二手的？ 马云的水军这他妈多！ 网购的东西，为什么实体店没有的卖，想过没有 实体店退货？只怪你当时眼瞎了 那你还卖新货价格？你妈 你个煞笔，难道只是看看？舔的真带劲 确实，还说的条条是道。你实体店都不会买东西，还指望网上买到好货？实体店退货哪里有问题直接拿过去，还精力。你在网上退货才要精力吧？又得寄快递，又得讲道理 终于正大光明的开卖二手了。。这样原来的京东还有生意？ 701是什么梗 实体店售后比天猫京东垃圾多了，不满意你去退货试试？ 风光66 大佬们真厉害 中国人太聪明了，恶意差评师，淘宝买假货退京东的真货，手机用几天退货，各种渣滓 我也是.没买过二手的.可能买过我没发现。前段时间送朋友的施华洛世奇项链.快一年了都.掉钻.退回去保修.没两天客服打电话过来说没法修.直接换新。真心nb 看看 哇，自己买全新的收到个用过的，还给洗的这么白…我也是醉了，既然你有这个7天无理由退货，就别说人家多渣，既然别人用了就是用过的，还当全新卖，这就是你的问题…不用洗地了 话说，大家说奶茶是不是二手跟的老刘啊？ 超过一千的物品最好不要在京东天猫等电商平台购买最好去实体店 自营二手？看看京东卖的二手苹果就知道了 兄弟你们狗东水军还招人不 那怎么不说说广州超市很多东西,价钱比天猫京东便宜一大截?专挑比电商贵的来说. 说得好，天天见到京东新闻就骂的，死喷子早点儿逼脸吧！我也收过一次二手货，罗技G403，拆包装就发现是动过的，拿出来的时候鼠标上面留的指纹还没擦掉，可这鼠标是好好的，一定是哪个傻逼脑残退的货，但我没退，也没联系客服说这个事儿。就是不想跟你们这些傻逼为伍！ 我他妈，买特价机，以为便宜，结果是二手返修的，怎么算！ 狗东701水军，阿里巴巴已经报案还提供证据。你狗东的水军不断诬赖网友，到时让你东爹，提供证据报案啊。不敢报案。全凭臆想。说话跟放屁有啥区别？连他么二手东的责任都推给消费者，不经处理，直接二次销售，是消费者的责任啊？ 这4楼的逻辑我也是醉了，你还不如那些不喜欢退了的，你既然有7天无理由就要执行，还有，有些傻逼说手机用用不喜欢就退，手机拆封激活了就不能7天无理由了，你们车在这不专业的洗地了… 二手东！！！！ 快乐 看你回帖就知道你也不怎么样，满嘴傻逼脑残，人家用的不满意难道就不能退吗 现在网上东西也不便宜了 卧槽，还可以这样？？？？ 前天刚去批发市场买了1箱橙子40斤，下面铺了7-8个长绿毛的，实体店真是日了狗了，几十年来不长进。 谁有用户谁说了算，谁便宜我用谁！购物网参考慢慢买这类比价app，只买有券有促销的。 这个是狗东的强项。二手东非浪得虚名 我也想说，很多人撸着京东骂狗东，超恶心。如果真有质量问题该退退，还换换，该赔赔。可很多人不是，就是钻空子，然后下一次自己被坑了就开始骂娘了，太恶心。 天猫可以京东垃圾 我买了个3000呢银壶套装，不知真假。改天去实体店买个手镯问问商家，不过我估计没问题。我特意看了商家下面有一排小字，品质认证。 重新擦干净塑封了，你肯定不知道 最烦一些人说二手东二手东的，你真的买到二手的了吗？我在京东也网购五六年了，从来没买过二手的，实话实说，是水军司马 实体店真心退货难。而且很坑。电商不贪小骗子，在正规店买，基本不会有啥问题。即便有问题，也能退。实体店就不一样了 我算是阿里的水军（自费的），经常黑京东，不过京东的售后确实好，我买了一个199元的鼠标，质保三年，用了两年（实际上因为鼠标太大，没怎么用过），按键坏了，京东给退货了，按退了140块钱。感觉京东的售后简直太良心了。 干得漂亮！有些贱人想买机械键盘，又不知道买什么轴好，就一下把红、茶、青的全买了，然后都试试再留一把手感好的。于是两个二手键盘就诞生了 梦做醒没有，京东拿什么超天猫？ 你以为实体店的产品就是特殊生产的？ 也就是“京东自营”不是“京东”自营，😂玩宣传，玩欺诈狗东最在行。 这种人应该追求，判他几年。或者抓到直接鞭刑，打个他半月下不了床 私聊 马猴蹦跶不了几天了。只有靠水军和控股媒体了 现在真没有好的二手货交易平台，同城连电话号码都不给发布，真的没办法交易！ 701海军😂 当年拍拍还有500押金没退我艹 说你傻，你就得认，知道咸鱼为什么发现很快吗？第一，最开始各种涉黄的衣服什么的，第二，咸鱼上的美女很多，很多人就是看美女去的，拉动了点击率流量，自己弄个专门的，第一，没有那么多杂七杂八的二手货，第二，没有那么多美女的自拍，第三，都是公司性质的二手，所谓二手，必须是平头老百姓的那种交易平台 咸鱼买东西得火眼晶晶。很多东西其实并不便宜。 东哥发力啊 狗东701水军，阿里巴巴已经报案还提供证据。你狗东的水军不断诬赖网友，到时让你东爹，提供证据报案啊。不敢报案。全凭臆想。说话跟放屁有啥区别？连他么二手东的责任都推给消费者，不经处理，直接二次销售，是消费者的责任啊？ 等你想你 专门开个卖二手的自营店比闲鱼二手乱七八糟的好吧 回帖里的睿智们，摸着你们的良心说，二手东里那么多二手东西怎么来的你们心理就没点逼数？难道他进货直接进二手的？ 很多人买了玩了退了，更有甚者买了就要退钱东西留下了，更有甚者买了，再弄个高仿的退了。别说二手东了，所有地方都是，实体店也有人这么干，实体店店员如果不留神就得自己掏腰包，当然他们大多是转手卖给不懂的人了。 老大淘宝和闲鱼大战老二京东和拍拍，58同城的老三转转自知无路可逃，饮弹自尽。 京东701计划，水军们冲啊。 二手东做回本行 东哥依旧霸气。。。赶超电商天猫！刘强东未来快递就两家，京东和顺丰！ 中国人太聪明了，恶意差评师，淘宝买假货退京东的真货，手机用几天退货，各种渣滓 去实体店被宰？？看老板脸色？ 实体店售后比天猫京东垃圾多了，不满意你去退货试试？ 你狗🕳️水军吧！ 我贵重东西一般京东买衣服鞋子的淘宝买 我家里电器全是京东的，没有低于一千的，四年了。 超过一千的物品最好不要在京东天猫等电商平台购买最好去实体店 是啊，实体店1000买了件耐克羽绒服，回家穿上发展沾灰，还跑羽绒，去实体店不给退货，然后到耐克天猫旗舰店搜了下，价格也是一样，关键是可以七天无理由退换货。 反正有钱，随便折腾 你说对了，直接进返厂二手的，为的就是搞秒杀，搞特价 拍拍再见👋！拍拍bye-bye！ JD的服务假货也超多还他妈的恬不知耻的说别人一直喜欢模仿阿里碰瓷JD怎么就没一点自己的创新和吸引人的文化呢也就只能靠奶茶妹妹遛狗吸眼球了 京东的流程基本是这样的，京东自营：等于厂家批发商供货给晶东贸易公司，晶东贸易公司然后把产品放进京东仓储，京东网上商城出售，京东快递员派送，京东产品怎么样主要取决于晶东贸易公司的良心，晶东贸易公司是刘强东和其他人合伙的一个公司，京东集团有股份，所以出现假货以后，京东商城是不会承认售假的，因为不是京东的产品，是晶东的产品，所以出现了那句比较有名的名言，京东自营不等于京东自营，这叫做责任分离， 说得好，天天见到京东新闻就骂的，死喷子早点儿逼脸吧！我也收过一次二手货，罗技G403，拆包装就发现是动过的，拿出来的时候鼠标上面留的指纹还没擦掉，可这鼠标是好好的，一定是哪个傻逼脑残退的货，但我没退，也没联系客服说这个事儿。就是不想跟你们这些傻逼为伍！ 咸鱼很大一部分时骗子 你摸着良心说七天无理由退换货，养了多少装逼的！用了六天准退！这些东西难道不能卖了？ 不管谁的水军，我就问下工资多少，怎么加入你们[微笑] 我问你，啥东西当二手卖过？ 专业爱好者，占比多少？很多专业的人士买的东西，京东能提供的有限的多。你没遇到过就代表别人没遇到过。你身边有几个人啊。还没遇到过售后扯皮吧 二手或者翻新返修路由器，显卡，主板，等等产品，工程样板机，假机油等等，我算是怕了京东了。以后不敢在那买贵的东西。 马云的水军这他妈多！ 这个是狗东的强项。二手东非浪得虚名 我看是刘强东快玩完了 改名叫拍拍拍，应该还有可能 有点逼数二手东怎么来的。 对的我1万多的沙发照样天猫旗舰店买，线下门店外观材料尺寸一样的，型号不同而已，贵多了， 我和你谁是水军谁就全家从小往上死，年底前死光 强哥威武 这个我信。平台上买，说退就退。用京东，直接退货，一般当天就自己来收走了。去实体店，退货叫一麻烦，墨迹。 只要退货政策不改变,不管京东还是阿里，恐怕没法完全避免所谓二手吧，除非将退货的产品直接销毁。 是的，马花疼必败。 腾讯钱多，使劲折腾 京东腾讯一起对抗阿里？可见阿里有多强。同时也劝一句东哥，山寨王不是白叫的，抄不过阿里，难道还抄不过京东？ 你在天猫淘宝退的东西，都被他们销毁了。好厉害，良心企业 拿钱发帖断子绝孙 脑子是个好东西，可惜你没有 买贵耳机的没煲出自己要的音质直接退货买1080显卡去挖矿的挖一个星期退货找哪里说理去 如果假货能当真货退，那说明狗东的退货组太垃圾了吧 主要看得见摸得着 天猫里面的那些旗舰店都是几十个人运作,什么次品假货啥都有 拍拍提现手续费怎么收取😄 说得好，天天见到京东新闻就骂的，死喷子早点儿逼脸吧！我也收过一次二手货，罗技G403，拆包装就发现是动过的，拿出来的时候鼠标上面留的指纹还没擦掉，可这鼠标是好好的，一定是哪个傻逼脑残退的货，但我没退，也没联系客服说这个事儿。就是不想跟你们这些傻逼为伍！ 京东挺快的，就是不少东西价格比实体店还贵了。 这大多数是竞争对手所为，普通消费者有几个那么闲的？反正我身边没见过。所谓二手，其实比例也是很低的，二手东这个词，实际是阿里那帮人硬塞给京东的，成天都有阿里的大量员工在跟帖里发，企图给京东贴上二手的标签，实际比例很少，我在京东买过十几万，就没有能看出是二手的东西来，反而在淘宝天猫上买到过确凿证据的二手。你到一些专业的论坛上就能经常看见反映阿里网店买到二手的反映，这些论坛都是专业爱好者发的帖子，比较真实 二手东就是因为你们这种人[挨揍] 本就是卖二手的，再开和卖二手的，主要卖外观有损伤的 京东701大部队杀到 我用的一年多的TF卡也直接换新的了。 平胸而论，京东的二手卖的真贵。快赶上新的价格了。谁买？ 我在京东买了一个太阳系，用了五千年。发现太阳系某个星球上的生物太装逼了。我打电话找京东客服，他们马上寄了个新的太阳系过来。旧的那个他们也不要了，说让我随意丢弃在银河系 电子市场里都是一些偷不行，抢没胆，没本事，没能力的屌丝窝囊废卖东西，只能憋着坏水坑顾客。 专门开个卖二手的自营店比闲鱼二手乱七八糟的好吧 回帖里的睿智们，摸着你们的良心说，二手东里那么多二手东西怎么来的你们心理就没点逼数？难道他进货直接进二手的？ 京东网易701[微笑] 是的，马花疼必败。 实体店卖假货比网购厉害多了！你以为你会辨别，其实你在那些奸商眼里就是水鱼 都凉了拉上来也没用 这下“二手东”名正言顺了😂 肺活量得好心脏要强大 以后只要是杀人放火强奸拐卖儿童的，一律抓到后用世界上最粗暴的野猪强奸1000次，直到全身爆炸而死 深圳那个地址无脑黑起码几千条黑京东的了！这个深圳163水军用户，代表了阿里狗的典型特征，那就是弱智加无耻加不要自尊加不要脸面加人格低贱。喊他N次发誓是不是水军吓的半死。那个正常人早上8点工作时间抱到电脑黑的的？心里没鬼怎么照死不敢承认？马猴儿子们如何解释？ 中国人太聪明了，恶意差评师，淘宝买假货退京东的真货，手机用几天退货，各种渣滓 我在苏宁实体店买了个华硕电脑鼠标老是幌来幌去，使我在网上下围棋明明下这一格，一点鼠标却跑到了另一格，就这样下围棋我老输，后来去换了一个还是一个吊样，最后在天猫华硕旗舰店买了一个才和原配的一样好用 实体店售后比天猫京东垃圾多了，不满意你去退货试试？ 早期政策最好，有质量问题7退15换，无质量问题不影响二次销售才可以退，京东就太好说话了听说刮毛器带毛都给人退 同感…所以不能说电商干掉了实体店，是时代在变化，一些跟不上脚步的东西就会慢慢淘汰。等实体店服务，售后，态度都跟上，我还是愿意去实体店看看的… 估计你看不到了 狗东二手价格还是很贵 祝狗东和流氓腾讯早死大吉大利 正是实体店没有诚信，才导致电商发展。 终于可以光明正大的卖二手东了 你还真不知道，京东为获取高利润，与厂家签订包销合同，于是厂家的一些返修不良品就进去了京东平台。京东本身定位就是为厂家处理库存和返修不良品的平台啊！ 放屁，拆封了还能退？我买的一台手机，刚付完钱，手机都还没拿到，我妈又不要了。不给退[微笑]实体店 天猫的退货证明处理的？放闲鱼？扔了？各个平台还不都一样。只是京东的退换货做到更好 笑死人了，拍拍和淘宝抗衡 超过一千的物品最好不要在京东天猫等电商平台购买最好去实体店 的确是客户退货的产品，应该叫二次销售，买的人如果接受不了，比如有指纹印等，可以直接退换货，刘强东会上门来收 咸鱼用了好几年了刘强东又来抢市场然后又该说马云不正当竞争了 可以想象1楼生活的环境得有多落后！可是看他在大成都，大成都如今还这么落后？ 外地窜回来的货从京东过一遍就洗白了，你以为呢？ 狗东最后也变成了腾讯的走狗了，可惜 用过的套套都能退 實體店的售後太垃圾，我在京东买了根苹果的充电线用了三个月坏了，申请售后直接退货，再发一根，保质一年，你去实体店看看给不给你退。 人家2楼说的没错。3楼估计智商有问题，2楼说的问题现在很普遍，尤其是一帮渣滓学生都在这么搞！ 这个是狗东的强项。二手东非浪得虚名 超过一千的东西从来不敢在实体店买 京东就是二手假货商城。 马猴蹦跶不了几天了。只有靠水军和控股媒体了 不错，2手东名副其实 京东二手都怪淘宝了，你是有多恶毒？ 是的，京易计划、京腾计划正是你家主子搞的 说实体店能退的估计是你家开的，不服你可以去买个东西试试 我合作过一个客户，做杂牌酒的大二批，直接给京东自营供货，所以，这个二手也包括进二手货，质量，品牌和厂家直供差距太大 为什么要用满族人? 我在京东买了个ao史密斯热水器，用了半个世纪，京东还给我换了个新的，强东一定加油干死阿里[微笑] 闲鱼？ 这下二手货源更充足了，翻新好的还可以当一手卖了 苏宁退货也还好，比狗东的二手货强 我叔叔脑残在华强北买个苹果电脑，香港买6000RMB左右，京东5980好像，在实体店6300，被坑了。。大件还是京东购买划算一下，有时能领到券更划算。。。 ಠ_ಠ 火星狗恬不知耻，好意思说别人是水军？ 不就咸鱼 麻花马云谁开发出拐卖儿童寻找app，我就无条件支持谁 转转的软文，贼你妈 说得好，天天见到京东新闻就骂的，死喷子早点儿逼脸吧！我也收过一次二手货，罗技G403，拆包装就发现是动过的，拿出来的时候鼠标上面留的指纹还没擦掉，可这鼠标是好好的，一定是哪个傻逼脑残退的货，但我没退，也没联系客服说这个事儿。就是不想跟你们这些傻逼为伍！ 二手东不用开拍拍吧[窃笑] 说一件事，11月中旬京东买了个加湿器，99块钱。前几天第一次擦底座时发现底座有裂缝是坏的，用了一个月我能保证没动过底座，所以肯定是买来就是个残次品，然后申请售后换货，第二天京东快递员来取货，第三天京东收到货处理，第四天我收到新的加湿器。买东西，只认京东。 会被打断腿 本来就是二手的还非得弄个平台出来这不是脱裤子放屁-多此一举啊 回收和卖一样？？？你搞个苹果手机回收和卖看看？智商拙计啊 哈哈这算个屁的聪明，智商也就8，90，聪明人还需要靠这个骗钱？ 没能力就不要做啊。自己吹的牛逼却让消费者买单。二手东的水军连这个都要洗。。。 一群傻逼，用耳机用几天就退，一年不带重样的。搞得京东改变退货策略，最终正常用户的权益受到损失。这群渣子就是文明社会的阻碍。 售后等于退货？嘿这个有意思 专门开个卖二手的自营店比闲鱼二手乱七八糟的好吧 好。支持支持。 马云的水军这他妈多！ 这里说没有假货，然后那头就自己搞个二手货。一个很没有品的CEO 楼上的恶意两个字完全体现在你的这段话里 你信息太落后了，现在是实体店坑你没商量，现在应该是超过一千的物品，最好不要在实体店购买，尤其是电脑手机这种电子产品，当然品牌直营的实体店除外，例如AppleStore 我的佳能5d3京东回收7000，我自己咸鱼卖了9500。你们说京东坑不坑？而且文中公然提到:对物品进行翻新再销售。京东得东西卖的又贵，而且经常买到二手物品，你们这些脑残怎么还在京东买东西？一群智障 以后只要是杀人放火强奸拐卖儿童的，一律抓到后用世界上最粗暴的野猪强奸1000次，直到全身爆炸而死 中国人太聪明了，恶意差评师，淘宝买假货退京东的真货，手机用几天退货，各种渣滓 最烂怎么都是装逼的接客马第一， 不敢不满意 大实话，有些人就喜欢钻空子，还在网上发布退货攻略，人口基数那么大，垃圾人还是很多的，导致现在京东七天无理由也有商品限制了 说得对 可能不是二手但也不正品 有夺命岛 什么是实体店？ 闲鱼已经成了骗子的聚集地 除了奶茶看电影聚会吃饭，我已经很少去实体店了 我的水果7京东二手拍拍估价2290，然后我查了下它的卖家在3699左右。。。没有同城交易板块。 二手有检测有售后其实是很好的，只是现在中国的二手市场水太深了，都是坑人的 超过一千的物品最好不要在京东天猫等电商平台购买最好去实体店 一千？一楼你告诉我现在一千能买啥？ 我15年底1200买的显卡，最近连续休了两次没有修好，京东直接给我退款，退了我900，这卡现在咸鱼顶多值450快，不喜滋滋的950退回京东1050出来[喷水]你去实体店鸟都不鸟你好伐 实体店售后比天猫京东垃圾多了，不满意你去退货试试？ 回帖里的睿智们，摸着你们的良心说，二手东里那么多二手东西怎么来的你们心理就没点逼数？难道他进货直接进二手的？ 小孩子凭喜好选择，大人看格局站队。人没有了气度，差的就不是钱了 京东的东西不都是二手的么 为什么叫二手东心里没点逼数吗？ 这个是狗东的强项。二手东非浪得虚名 一楼是山里人，农村人，乡下人 马猴蹦跶不了几天了。只有靠水军和控股媒体了 你是狗吗，闻出臭味了？ 和拍拍为伍，真成二手东了。 京东自营的服务真是好，不管别人怎么黑，京东的付出都不会白费，这几年的网民不像前几年那么容易被专业黑误导了 随便退，无理由 哦哦哦 实体店坑死你我入行过都是以次充好看人下货到时候退货难 什么时候来个c2c一手的搞搞 说得好，天天见到京东新闻就骂的，死喷子早点儿逼脸吧！我也收过一次二手货，罗技G403，拆包装就发现是动过的，拿出来的时候鼠标上面留的指纹还没擦掉，可这鼠标是好好的，一定是哪个傻逼脑残退的货，但我没退，也没联系客服说这个事儿。就是不想跟你们这些傻逼为伍！ 腾讯SB 毕竟狗东是你的信仰？华为就是不一样！ 天猫京东售后不需要我个人跟进，有客服就解决了，实体店就呵呵了，一楼活在什么年代？ 因为你喜欢二手有什么办法，买的时候要新的，寄给你是用过的，你还说是别人无脑退的，那你不是更加无脑，因为你喜欢别人用过的 哦哦哦 当年经营不善关闭的时候倒打淘宝一耙，说无法控制假货。不过墙洞也说过，打击假货一个程序员就够了。现如今恢复品牌，二手名正言顺 就凭7天内无条件退货，还有黑点？二手的退换到你满意为止不就行了 看看吧 回帖里的睿智们，摸着你们的良心说，二手东里那么多二手东西怎么来的你们心理就没点逼数？难道他进货直接进二手的？ 回帖里的睿智们，摸着你们的良心说，二手东里那么多二手东西怎么来的你们心理就没点逼数？难道他进货直接进二手的？ 看看 这个，确实，天猫可以买汽车，而是是BMW的新能源汽车，而且还是送货上门的。不过那个车就3050元。再贵的就要交定金去门店提货了。 苏宁不退货？可能我买的三星电视是假的 搞的好像天猫退货就销毁一样。全部退回厂家。厂家再包装下，到京东天猫就看天意了。 他进货不是进二手的，但是无理由退货造成了很多客户使用之后退货。难道这些货会被销毁吗？还不是直接销售出去。 然后被实体店坑20%到30%？几万的钢琴，哥也选择京东！比实体店随便省几千上万！也不看看实体钢琴店一个月能卖几台琴，然而房租、人工一个月几万，还要赚钱，不就靠那几台琴？ 那如何解决，客户恶意无理由退货？毕竟谁都不想买到二手的 关键看什么。能在淘宝买就在淘宝买。不能就在京东买，京东和腾讯绝非善类 中国人太聪明了，恶意差评师，淘宝买假货退京东的真货，手机用几天退货，各种渣滓 京东自营非自营，二手拍拍非二手？？？ 实体店售后比天猫京东垃圾多了，不满意你去退货试试？ 客户恶意无理由退货，那京东就不该退货，不然你方便了他，却坑了真真好的客户，毕竟恶意无理由退货的人是少数 比假药停幸运的遛墙洞！ 很难吧 跟屁东 傻逼，我买过好多了，水军 一楼好像电商没有正品似的，要学会适应 阿里有吃鸡么？阿里有农药么？阿里有聊天么？ 一楼。你又拉低了四川人民的智商。贫穷限制了你的想象力。天猫可以买汽车。。嗯，几十万一台的那种。 超过一千的物品最好不要在京东天猫等电商平台购买最好去实体店 跟我有什么关系，凭什么我就活该买到二手的？谁有良心？ 看不惯二手东靠吹牛和打嘴炮，在公司一副土皇帝的样子，一天到晚把自己当上帝！ geqr 京东怎么就真货了？你是不是买了个表？ 说得太踏马好了中国人自己坑自己来的，因果报应，你自己非质量问题，退出去，也会相应买回来的。 我也买到过，可能是经退货的货。所以说一个巴掌拍不响，二手东名号不是白给的。 坐看云起时 转转新用户优惠的红包好几个啊。。。 这两个最近怎么像秀恩爱的感觉啊…… 阿里有什么，腾讯就投资什么 这个是狗东的强项。二手东非浪得虚名 二手东👋…… 本来就是自己做吗？拍拍当淘宝弄京东当天猫弄这样覆盖面就完整喷淘宝的时候不想想自己也是电商反正都不是啥好东西 最烦一些人说二手东二手东的，你真的买到二手的了吗？我在京东也网购五六年了，从来没买过二手的，实话实说，是水军司马 京东的水军还要脸不？京东淘宝我都用，不过京东的水军有点太恶心了… 这水军…… 这个旧货平台很好，尽量避免了居心不良的散客讹人钱财！ 看看美亚怎么处理退换的商品 ",
        "Reply": 315,
        "Link": "http://comment.tech.163.com/tech_bbs/D6G0QU1U00097U7R.html",
        "Total": 4553
    }
}