{
    "Source": "Netease",
    "Title": "俩“土匪”相认！沈梦辰与周一围合影变迷妹_网易娱乐",
    "Comment": {
        "Link": "http://comment.ent.163.com/ent2_bbs/D6KI1FKD00038FO9.html",
        "Content": "她老婆是朱丹吗 周一围不错 这两货,谁阿 铁林演的不错 谁红蹭谁 蹭热度 周一围变成这个德行了？ 这两货,谁阿 土匪？ 这哥们这个头发这么了？脱发用张光101啊 周卫星的崽吗 为什么我打不出来土X两个字而小编却可以？ 呵呵 周一围变成这个德行了？ 她老婆是朱丹吗 周一围不错 谁红蹭谁 蹭热度 铁林演的不错 神烦沈梦辰没有理由 海涛在占那腿的便宜吗？ 冰箱和雪糕是情侣，<br>有天，<br>冰箱和雪糕吵架了，<br>雪糕生气的离家出走了………..<br>可是，<br>离开了冰箱的雪糕才走了几步就浑身湿滑，<br>雪糕害怕自己要化了，<br>就向冰箱认错，<br>冰箱打开门，<br>冷冷的说：知道错了？？上来吧，自己冻~ ",
        "Reply": 15,
        "Total": 100
    },
    "URL": "http://ent.163.com/17/1227/01/D6KI1FKD00038FO9.html",
    "PublishTime": "12/27/201701:24:21",
    "Article": "沈梦辰、周一围沈梦辰与周一围网易娱乐12月27日报道12月26日晚，沈梦辰在微博晒出2张与周一围的合影，并配文：“俩‘土匪’相认了，原来那么帅、那么优秀、戏那么好、腿那么长的一围哥是我们湘西娃儿，哈哈哈哈，我们湘西真是一块风水宝地呀，欢迎大家去沾沾灵气哟”。照片中，沈梦辰与周一围对着镜头比V卖萌，二人还站在一起比身高，逆天长腿十分吸睛。稍后，周一围转发该条微博并回复：“聊了很久，很愉快，然后，忽然很想念当年的家了”。网友们纷纷表示：“周老师好棒啊！”“这俩‘土匪’颜值都很高啊！”“两颜值高，身材好，给梦辰大长腿疯狂打call”。本文来源：网易娱乐责任编辑：陈少杰_b6952",
    "KeyWords": "周一围,沈梦辰,土匪"
}