{
    "Article": "（原标题：俄罗斯发射卫星又\"失联\"这次丢了安哥拉首颗卫星）海外网12月27日电据俄罗斯卫星通讯社报道，当地时间12月26日，俄罗斯“天顶号”运载火箭搭载安哥拉首颗卫星“AngoSat-1”从位于哈萨克斯坦的拜科努尔航天发射场发射。消息人士称，该卫星目前已经“失联”。据报道，该名消息人士对俄罗斯卫星社表示，“弗雷加特（Fregat）上面级火箭通常应与安哥拉卫星进行接触，一切系统都在恰当运转，但随后我们与卫星失去联系，遥测也已停止。”据央视消息，此前俄罗斯联邦航天局代表称：带有“Fregat”助推器的“天顶-3F”运载火箭搭载安哥拉首枚国家卫星“AngoSat-1”于莫斯科时间12月26日22时00分（北京时间27日03时00分）从拜科努尔航天发射场发射升空。此前19颗卫星发射失败这是俄罗斯发射卫星近期第二次“失联”。此前，11月28日，俄罗斯航天集团从位于俄远东地区的东方发射场发射了一枚携有19颗卫星的“联盟-2.1B”运载火箭，但火箭未能将这些卫星送入预定轨道。三个小时后，俄罗斯联邦航天局承认发射“异常”，发表声明称卫星在抵达预定轨道之前与地面失去了联系。随后，俄媒报道称，19颗卫星已坠落大西洋。这些卫星来自俄罗斯、加拿大、挪威、日本、德国、美国等国，其中约半数没有航天发射保险。俄总理梅德韦杰夫已责成负责航天事务的副总理德米特里·罗戈津调查事故原因、处理善后事宜，相关调查委员会已经成立。梅德韦杰夫当地时间12月4日在内阁会议上表示，此次发射失败给俄航天业带来的损失“不只是钱的事”，更影响到俄在该行业的声誉。上次事故原因尚未查明英国《独立报》报道称，目前事故原因尚不清楚。俄媒早期分析认为，可能是在绘制坐标时出现人为失误，导致“弗雷加特”（Fregat）助推器被送往错误轨道。另有理论认为，该火箭是从一座新发射场进行发射的，因此可能存在误差。该理论首先由俄罗斯官媒援引自航空业内“不具名消息人士”，随后由西方媒体引述。不过多位专家对这一说法提出质疑。俄罗斯航天杂志《VestnikGlonass》编辑克雷登科表示，所谓“导航误差”是一种“幼稚的想象”，称“这仅仅是肤浅理解该事件的人所提出的观点。”彼尔姆州立大学航空国防专家卢辛表示，此前的坠毁都是由于制造零件出现瑕疵。火箭航天系统设计制造专家谢列尼亚科夫认为，事故表明俄航空制造业中目前存在的问题。“自从2010年质子火箭（Proton）发生事故以来，我们一直在探讨零部件质量差的问题。相关部门根本没有恰当的质量管控。”据报道，俄政府已成立相关调查委员会，要求其两周内提交调查结果。本文来源：海外网责任编辑：徐萌_NN7485",
    "Source": "Netease",
    "KeyWords": "俄罗斯,安哥拉,卫星,火箭",
    "Title": "俄罗斯发射卫星又\"失联\" 这次丢了安哥拉首颗卫星_网易新闻",
    "Comment": {
        "Total": 1037,
        "Content": "江郎才尽 安哥拉政府也是姓红的，苏俄一手扶植起来的，找欧美帮忙那是大不敬 这种事还是交给马斯克吧 被实验了 小弟发往火星快递也被它搞丟了。 就俄罗斯的粗糙技术和可靠性，真打核战争半数导弹发射后回落在自己的国土～ 祝贺安哥拉骗保成功 可能是故意的 黄晓明捉急不？ [疲惫][疲惫]哪怕难免会死一两个美国宇航员 我们被坑了一次………… SpaceXfalconheavy, 还得努力 不会是有人偷走了吧👸 苏额比那萃更坏更邪恶的垃圾，发明的主意对人类的危害至今还在 [微笑]美国自己的业务都排满了 失利，失联，你们告诉我是不是失败，坐等 这不是骗保吗 安哥拉也是傻，干嘛不去找马斯克呢？ 萤火一号😂 musk都是直播的啊…… 还好每次载人飞船都安全返航了 我没看内容，我们是不是又赢了？😳 下次联盟号希望也爆炸 可能是故意的 我记得俄国的卫星好像叫流星m 贵啊！ 江郎才尽 安哥拉政府也是姓红的，苏俄一手扶植起来的，找欧美帮忙那是大不敬 这种事还是交给马斯克吧 哈哈哈哈哈哈哈 黄晓明捉急不？ 小弟发往火星快递也被它搞丟了。 就俄罗斯的粗糙技术和可靠性，真打核战争半数导弹发射后回落在自己的国土～ 祝贺安哥拉骗保成功 spaceX,falconheavy,USA 可能是故意的 被实验了 [疲惫][疲惫]哪怕难免会死一两个美国宇航员 我们被坑了一次………… SpaceXfalconheavy, 还得努力 不会是有人偷走了吧👸 苏额比那萃更坏更邪恶的垃圾，发明的主意对人类的危害至今还在 [微笑]美国自己的业务都排满了 失利，失联，你们告诉我是不是失败，坐等 这不是骗保吗 安哥拉也是傻，干嘛不去找马斯克呢？ [疑问] 萤火一号😂 musk都是直播的啊…… 还好每次载人飞船都安全返航了 我没看内容，我们是不是又赢了？😳 哈哈哈哈哈哈哈 下次联盟号希望也爆炸 可能是故意的 又不是米帝炸了 我记得俄国的卫星好像叫流星m ",
        "Reply": 32,
        "Link": "http://comment.news.163.com/news2_bbs/D6ME1O5J00018AOR.html"
    },
    "PublishTime": "12/27/201718:34:42",
    "URL": "http://news.163.com/17/1227/18/D6ME1O5J00018AOR.html"
}