{
    "Comment": {
        "Link": "http://comment.news.163.com/news_shehui7_bbs/D6KOFED80001875P.html",
        "Reply": 43,
        "Content": "新闻常有，一般都是银行担全责，见怪不怪了还诡异呢！ 按离开柜台概不负责的理由，丢钱的时候你人不在柜台，所以和银行无关 这是啥情况,也没说是怎么回事,[疑问][疑问][疑问] 银行不负责吗？ 反正银行就是没有责任就是了！！！ 一如既往的责任推卸给了用户。 上次新闻银行内部操作把钱弄丢,居然好意思弄到上法庭,法院判银行赔钱还有脸上诉,民众客户在他们眼里到底成什么了,什么世道 钱在你银行丢的，不找银行要找谁？ 先不喷，最大的可能还是在大妈身上! 反正不承担保管责任 移民，别无选择 这是银行安全问题吧 银行不可信了，感觉好恐慌[石化] 只要密码不泄露,都是没关系的. 银行是弱势群体 吓得我，紧握着搬砖得来的72块钱！ 说别的没用！亲身经历～银行动你不需要密码 当银行出错，多给了你钱的时候，你离开柜台十万八千里一样把你找回来赔了！ 老子也没几个钱都放到支付宝里了 无论怎么样反正银行没责任就是了记住这一点就可以 试问偷钱💰那家强，请到大街找……此处省略一万字 可能么？他们不知道？为什么被降级，不就是因为这个。 那夜我带领5亿精兵，强攻你的城堡，经过连番冲刺，最终低下了我那高傲的头大败而归。不曾想，过了半月，你飞鸽传书:月余前我的一个勇猛士兵在千军万马中杀入你的宫殿，并被你活捉，锁在宫中，现判处有期徒刑十个月。如今我很矛盾，不知是该等去劫狱，还是他刑满释放？ 要是开放金融业国内所有银行分分钟倒闭 应该是内鬼，觉得人家老年人来存钱，然后想黑了！ 早就开放了，最近又批了个百信银行，百度和中信合作的。。。。。。。。。。。。。。。 这那是银行整个一强盗开的黑店 银行耍赖皮！ 银行一脸无辜：我们是弱势群体哦！ 我是外地的，刚来苏州，不小心被蜈蚣虫咬了口，不久伤口开始肿胀。吃药打针都没得用，看到没办法了，正好遇到个道士。道士说：我遇到的乃是百年蜈蚣精，要治好的话还得要去寻找它的天敌。所以问大家，苏州木渎附近哪里有鸡？ 毕竟弱势群体大家要理解 新闻常有，一般都是银行担全责，见怪不怪了还诡异呢！ 欺负弱势群体， 这是啥情况,也没说是怎么回事,[疑问][疑问][疑问] 银行不负责吗？ 反正银行就是没有责任就是了！！！ 一如既往的责任推卸给了用户。 注意！！！！！ 那这个钱到底是怎么丢的 钱在你银行丢的，不找银行要找谁？ 先不喷，最大的可能还是在大妈身上! 老子也没几个钱都放到支付宝里了 银行是弱势群体 这是银行安全问题吧 银行不可信了，感觉好恐慌[石化] 只要密码不泄露,都是没关系的. 反正不承担保管责任 应该是内鬼，觉得人家老年人来存钱，然后想黑了！ 搬砖现在工资高阿。。。。。。。。。我们这小地方都是几百块一天 说别的没用！亲身经历～银行动你不需要密码 按离开柜台概不负责的理由，丢钱的时候你人不在柜台，所以和银行无关 上次新闻银行内部操作把钱弄丢,居然好意思弄到上法庭,法院判银行赔钱还有脸上诉,民众客户在他们眼里到底成什么了,什么世道 撞库吧。。？ 移民，别无选择 钱都不敢取了 无论怎么样反正银行没责任就是了记住这一点就可以 试问偷钱💰那家强，请到大街找……此处省略一万字 可能么？他们不知道？为什么被降级，不就是因为这个。 那夜我带领5亿精兵，强攻你的城堡，经过连番冲刺，最终低下了我那高傲的头大败而归。不曾想，过了半月，你飞鸽传书:月余前我的一个勇猛士兵在千军万马中杀入你的宫殿，并被你活捉，锁在宫中，现判处有期徒刑十个月。如今我很矛盾，不知是该等去劫狱，还是他刑满释放？ 吓得我，紧握着搬砖得来的72块钱！ 要是开放金融业国内所有银行分分钟倒闭 艹，我卡里还有3.5元，全部提出来吧 与银行无关！ 可以像邮政一样收保护费噢 ..... 当银行出错，多给了你钱的时候，你离开柜台十万八千里一样把你找回来赔了！ 早就开放了，最近又批了个百信银行，百度和中信合作的。。。。。。。。。。。。。。。 这那是银行整个一强盗开的黑店 银行耍赖皮！ 银行一脸无辜：我们是弱势群体哦！ 我是外地的，刚来苏州，不小心被蜈蚣虫咬了口，不久伤口开始肿胀。吃药打针都没得用，看到没办法了，正好遇到个道士。道士说：我遇到的乃是百年蜈蚣精，要治好的话还得要去寻找它的天敌。所以问大家，苏州木渎附近哪里有鸡？ 密码未泄露是她自以为未泄露，现在安卓手机上很多钓鱼网站专门骗你输入密码 又是诈骗啊 ",
        "Total": 659
    },
    "Article": "（原标题：南宁一女士很郁闷!银行卡未离身1.2万元不翼而飞）广西新闻网-南国早报南宁讯最近，市民杨女士很郁闷，她的银行卡未离身，但卡里的1.2万元却不翼而飞。杨女士今年63岁，与丈夫王先生在南宁市江南区五一东路经营一家酒庄。12月22日，杨女士告诉记者，12月4日上午11时9分，她的手机收到了几条银行发来的提示短信，但她没注意查看。当天下午，杨女士前往银行网点存入了1.2万多元。当天下午6时许，王先生无意中看了她的手机，发现中午那几条短信是取款信息提示。短信显示她的卡共被取了3笔钱，其中两笔5000元，另一笔2000元，共1.2万元。随后，杨女士急忙到银行ATM机查询余额，卡内原有2.4万元，如今只剩下午存入的1.2万多元，还有1.2万元竟不知被谁取走了。12月4日晚11时许，杨女士打电话向110报警，接警员建议她次日早上到银行营业点拿到银行流水账后，再到江南派出所去报案。第二天上午，警方立案后，杨女士拿着警方开具的受案回执到银行营业点，一名男性负责人接待了她。对方表示，只能等警方破案。杨女士表示，这张银行卡是一张借记卡，于2016年12月23日办理，她存取款都是在银行营业点操作的，银行卡密码并没有泄露给他人。该银行营业部负责人表示，该行一向注重ATM机的安全问题，会定期进行巡检。经排查，该行ATM机上没有被犯罪份子安装微型摄像头和复制器。杨女士被盗刷的银行卡，卡号与密码是怎样泄露的，应由公安机关调查处理。小贴士如何防范银行卡被盗刷为了保障银行卡账户安全，银行方面提醒大家，不要轻信任何通过电话、短信或电子邮件索要账户密码的行为，不在第三方程序上输入银行卡号、账户密码、手机号码等个人账户信息，更不要把手机收到的验证信息发送给任何陌生人，同时要保持安全用卡的良好习惯，妥善保管银行卡信息，避免通过公用Wi-Fi进行支付，以免泄露账号及密码等信息，建议大家每隔一段固定时间修改银行卡密码。当接收到可疑诈骗信息无法判断真假时，应提高警惕，并及时通过银行客服电话或直接到银行网点向工作人员咨询核对。如果遭受了欺诈，请尽快联系银行，同时及时到公安机关报案。本文来源：广西新闻网-南国早报作者：唐辉吉责任编辑：李天奕_NN7528",
    "PublishTime": "12/27/201703:16:50",
    "URL": "http://news.163.com/17/1227/03/D6KOFED80001875P.html",
    "Title": "诡异!女子银行卡未离身密码未泄露 1.2万不翼而飞_网易新闻",
    "KeyWords": "银行卡,泄露,营业点",
    "Source": "Netease"
}