{
    "URL": "http://ent.163.com/photoview/00AJ0003/646994.html",
    "Article": "杨幂披肩散发随性自然肆意洒脱能量爆棚近日，当红花旦杨幂受邀拍摄的一组时尚大刊开年封面新鲜出炉。大片中，杨幂服饰搭配时髦简约，披肩散发随性自然，在她肆意洒脱的诠释下，自信的力量感、迷人的感染力呼之欲出。",
    "KeyWords": "杨幂,",
    "Source": "Netease",
    "Comment": {
        "Reply": 69,
        "Content": "到底她胸前有没有痣？ 真的是她，那是我撸的最多的视频 等一下我老公呢现在是叫床第一句 丑出天际了，五官看着特别不舒服 等一下那个绝对是她！视频出来以后就离婚了！不过命好，拿钱把这事盖住了 第11张什么鬼 自从胸痣视频出来以后就再也没有见过她穿低胸装了 明明是你妈妈，你眼睛瞎了吗？狗东西 最美女神杨幂 你说，你很难受。你在下头，他在上头。<br>我说，我更难受。你在里头，我在外头。<br>谁扯碎你的衣袖？谁嘬着你的肉？谁在你身上趴着？姿势像狗。<br>你说为了艺术，不管美丑。你说干这一行，不分夜昼。<br>你的哪儿像球！你的哪儿在流！你的什么没放好，说是要丢。<br>凸起的喉，微微的抖。在最后的最后------是什么进了你的口。<br>你说味道有些馊，你说感觉像喝粥，<br>你问这个比喻会不会荒谬？<br>我不置可否。<br>你是神是仙是个诅咒，你像风像雨像杯白酒。<br>谁解过你的衣扣？谁和你玩过六九？<br>谁在你身上当过公狗？谁请你喝过稀粥？<br>多少次你解着衣扣！多少次你扯他裤头！多少个男生曾坚信：“一射解千愁”。<br>五粒花衣扣，两条灰裤头，<br>一渠春江水没命东流！<br>该肥的地方肥，该瘦的地方瘦，<br>该用口的地方绝不用手！<br>你欲叫未还休，便可轻易写春秋。<br>谁说女子要腐朽？且看你名扬神州，迎着狂风嘶吼，不枉做鸡头！<br>女子莫愁，君子何忧。。。。。。<br>六九之后，一醉方休。。。。。。 等下,我老公呢? 自从胸痣视频出来以后就再也没有见过她穿低胸装了 好丑啊！脸都变形了 是的，最美。<br>但她的尊严为0。<br>她不敢为她的尊严去愤怒... 幂，我昨晚决定移情别恋迪什么巴了。 对，丑死了 的那股.. 在洗枪 都已经有皱纹了？ 我大幂幂拉的屎都是香的，不知道多少屌丝抢着吃 真是好看的衣服 骗子改行经营美女吧！合法又有市场，还可以打压过高的先价. 真的不是她，还在拿这个说事！ 她不漂亮，喜欢她那种喜欢被虐的感觉，你们真不懂 一副寡妇脸、、、、 有颗大郅 她的奶天下无敌 覺得淫蕩無比。 要是1楼的妈他怎可能这么说？看你气急败坏的样子应该是你妈才对，你妈是杨幂？ 我真不觉得杨幂漂亮在哪？。。。 喜欢大幂幂！ 据说杨幂咪咪很大，看不出来呀！ 喜欢杨幂 怎么搜？关键词是什么？ 最讨厌她的鼻孔 脚臭得很 自从胸痣视频出来以后就再也没有见过她穿低胸装了 都是褶子 我多跟幂幂最般配 同感！难看极了 洗脚了没 这个鼻孔真的。。。。 我大幂幂拉的屎都是香的，不知道多少屌丝抢着吃 等一下那个绝对是她！视频出来以后就离婚了！不过命好，拿钱把这事盖住了 我才是和幂幂天生一对 整天的美美美的<br>还露露露的<br>那不是勾引型的么<br>也可称为刘无能王无奈吧 不是她公鸡会下蛋！ 杨晨散发自然美<br>孺子只看大白腿<br>意淫轻抚腿根处<br>海底捞月抅玉臀 我有视频一直保存着，偶尔拿出来撸一把。 大幂幂封咪了...什么时候不红了，估计又有眼福! 据说杨幂咪咪很大，看不出来呀！ 不用交广告费吧 腿无敌 真的不是她，还在拿这个说事！ 真的是她，那是我撸的最多的视频 一副寡妇脸、、、、 明明是你妈妈，你眼睛瞎了吗？狗东西 好丑啊！脸都变形了 美美哒 丑出天际了，五官看着特别不舒服 自从胸痣视频出来以后就再也没有见过她穿低胸装了 怎么搜？关键词是什么？ 最讨厌她的鼻孔 脚臭得很 自从胸痣视频出来以后就再也没有见过她穿低胸装了 充满激情、充满野性。 洗脚了没 这个鼻孔真的。。。。 丑八怪 都已经有皱纹了？ 第11张什么鬼 我是杨幂的足控 只是我进网易新闻最多的图片103张图片！在下佩服 你说，你很难受。你在下头，他在上头。<br>我说，我更难受。你在里头，我在外头。<br>谁扯碎你的衣袖？谁嘬着你的肉？谁在你身上趴着？姿势像狗。<br>你说为了艺术，不管美丑。你说干这一行，不分夜昼。<br>你的哪儿像球！你的哪儿在流！你的什么没放好，说是要丢。<br>凸起的喉，微微的抖。在最后的最后------是什么进了你的口。<br>你说味道有些馊，你说感觉像喝粥，<br>你问这个比喻会不会荒谬？<br>我不置可否。<br>你是神是仙是个诅咒，你像风像雨像杯白酒。<br>谁解过你的衣扣？谁和你玩过六九？<br>谁在你身上当过公狗？谁请你喝过稀粥？<br>多少次你解着衣扣！多少次你扯他裤头！多少个男生曾坚信：“一射解千愁”。<br>五粒花衣扣，两条灰裤头，<br>一渠春江水没命东流！<br>该肥的地方肥，该瘦的地方瘦，<br>该用口的地方绝不用手！<br>你欲叫未还休，便可轻易写春秋。<br>谁说女子要腐朽？且看你名扬神州，迎着狂风嘶吼，不枉做鸡头！<br>女子莫愁，君子何忧。。。。。。<br>六九之后，一醉方休。。。。。。 等下,我老公呢? 无情多有绝情苦<br>绝情也有无情由<br>多情也是有情缘<br>有情或许乃多情<br>缘分难定恩随缘<br>吧<br>朋友 在洗枪 多白的腿啊！看不见吗？那些说她黑的呢？哪儿黑了？有本事指出来啊！ 腿骨太突，不好看，影响了身条，脸还是有几分姿色的 不至于吧 好看 她不漂亮，喜欢她那种喜欢被虐的感觉，你们真不懂 同感！难看极了 她的奶天下无敌 要是1楼的妈他怎可能这么说？看你气急败坏的样子应该是你妈才对，你妈是杨幂？ 这是刚啪啪完啊很满足的表情~~~ 不嫁王教授可惜了！！！ CNM改名都改不了 第一张图在自慰 我真不觉得杨幂漂亮在哪？。。。 自从胸痣视频出来以后就再也没有见过她穿低胸装了 都是褶子 我多跟幂幂最般配 骗子改行经营美女吧！合法又有市场，还可以打压过高的先价. 对，丑死了 到底她胸前有没有痣？ 快离婚我愿解盘 等一下我老公呢现在是叫床第一句 图一看了，血槽已空 一个字：骚，两个字：风骚。 这腿真好 自从胸痣视频出来以后就再也没有见过她穿低胸装了 喜欢大幂幂！ 最美女神杨幂 有颗大郅 熟妇舒服 喜欢杨幂 是的，最美。<br>但她的尊严为0。<br>她不敢为她的尊严去愤怒... 幂，我昨晚决定移情别恋迪什么巴了。 覺得淫蕩無比。 真是好看的衣服 的那股.. ",
        "Total": 896,
        "Link": "http://comment.ent.163.com/ent2_bbs/PHOTJNQI000300AJ.html"
    },
    "PublishTime": "12/31/201708:38:26",
    "Title": "杨幂披肩散发随性自然 肆意洒脱能量爆棚_网易娱乐"
}