{
    "Comment": {
        "Content": "小卖部老板：发生了神马？ 这样的人考什么驾照啊，不老老实实地在家生孩子 学员免责，免赔， 是真的难，但会撞车的就太差了 考什么C1啊，考C2的话，除了斜坡起步基本上不用油门啊 啥也不说，牛！ 拿到驾照也是一个马路杀手！ 现在驾校应该给女性学院增加一门心理辅导课。 这样的货怎么能发驾照给她？ 油门线没拔？ 小卖部老板：发生了神马？ 我不懂，想问一下这个学员要赔钱么？ 哈哈哈哈[不屑] 现在驾校应该给女性学院增加一门心理辅导课。 啥也不说，牛！ 当然不用，没驾照怎么赔？交通法规定了，学车期间一切事故由教练和驾校负责。 女学员：老板一瓶红牛带走 这样的货怎么能发驾照给她？ 油门线没拔？ 考什么C1啊，考C2的话，除了斜坡起步基本上不用油门啊 学员免责，免赔， 是真的难，但会撞车的就太差了 这样的人考什么驾照啊，不老老实实地在家生孩子 拿到驾照也是一个马路杀手！ C1考科目二是完完全全不需要油门就需要用到离合和刹车 ",
        "Link": "http://comment.news.163.com/news2_bbs/D78ACMVD0001899N.html",
        "Reply": 15,
        "Total": 129
    },
    "KeyWords": "考试,驾考,科目二,小卖部",
    "PublishTime": "01/03/201817:35:29",
    "Title": "驾考太紧张 女学员开车撞穿围墙冲进路边小卖部_网易新闻",
    "Source": "Netease",
    "Article": "（原标题：撞水马、撞围墙、撞小卖部！驾考太紧张了，学员开车冲出考场）1月2日上午9时50分中山科目二长江考场一辆正在驾考的考试车突然加速撞上水马、围墙之后冲出考试场直到撞到路边的小卖部才停下……事故原因是怎么样的呢？1月2日是新年的第一个工作日。市公安交警支队长江考场照常开考。上午9时50分许，一女子在科目二考场驾驶考试车到达定点位置停车时，突然加速接连撞上了场内的水马、围墙，之后冲出考试场，撞到了路边的小卖部才停下，所幸事故没有造成人员伤亡。考试中队民警当即前往现场处置。经查，当事女子姓沈，四川人，现年30岁。在接受民警的询问过程中，沈某称去年4月在某驾校申报C1驾照，并于6月2日通过科目一考试，今年1月2日是她科目二第一次考试。事发当时，她驾驶考试车到达定点位置停车时，却怎么也停不了，且速度越来越快，人也越来越慌，一时不知道该怎么办，于是发生了接连撞车的事。在调取监控录像查找事故原因时，民警发现沈某上考试车时就显得神情紧张，口中念念有词，但不知道说些什么。事发当时，因错把油门当刹车，才导致了事故的发生。据了解，此前长江考场也发生过类似事故。在此，交警部门提醒广大学员，在申领驾驶证时，最重要的是多练习驾驶技术，考试时务必克服紧张情绪，以良好心态从容应对考试。对于不少人来说科目二简直就是挥之不去的噩梦早前网上有一段视频流传一学员因挂了五次科目二忍不住在车内嚎啕大哭…还有学员在考试时系安全带系了近半分钟看得又捉急又心疼……还有一位成都的妹纸好不容易过了科目二结果因为过于兴奋竟现场在车内尬舞妹纸在直角转弯结束后十分兴奋地开始了表演嘴里还哼着噜啦啦噜啦啦噜啦噜啦嘞~噜啦噜啦噜啦嘞可以说是十分轻松自信了大方地向镜头打了一个招呼然后再送上一个飞吻当然，最后这位妹纸因为双手多次离开方向盘造成非常严重的安全隐患这一情况最后被认定“按照考试不合格处理”（悲伤来得太突然……）本文来源：杭州交通918责任编辑：李杭_BJS4645",
    "URL": "http://news.163.com/18/0103/17/D78ACMVD0001899N.html"
}