{
    "Article": "【中央军委首次举行开训动员大会，习近平向全军发布训令】3日上午，中央军委举行2018年开训动员大会，中共中央总书记、国家主席、中央军委主席习近平向全军发布训令。本文来源：军报记者责任编辑：荀建国_NN7379",
    "URL": "http://news.163.com/18/0103/15/D781TIC10001899O.html",
    "KeyWords": "中央军委,习近平,中共中央",
    "PublishTime": "01/03/201815:07:24",
    "Title": "中央军委首次举行开训动员大会 习近平发布训令_网易新闻",
    "Comment": {
        "Content": "强国必强军！ 鼓掌👏 赞！扬我军威！ 气势磅礴！ 敬礼！ 支持！强军护国！ 强我中华 敬礼 祝祖国繁荣昌盛 坚决支持习主席走强军之路！ 祖国伟大 威武之师，文明之师! 时刻保持警惕！ 支持拥护！ 英勇善战 加油加油，辛苦了！ 赞！ 点赞！ 祖国国防很重要 首长辛苦了！ 强国必强军！ 鼓掌👏 赞！扬我军威！ 气势磅礴！ 敬礼！ 支持！强军护国！ 强我中华 敬礼 祝祖国繁荣昌盛 坚决支持习主席走强军之路！ 祖国伟大 威武之师，文明之师! 时刻保持警惕！ 支持拥护！ 英勇善战 加油加油，辛苦了！ 赞！ 点赞！ 祖国国防很重要 首长辛苦了！ ",
        "Link": "http://comment.news.163.com/news2_bbs/D781TIC10001899O.html",
        "Total": 15843,
        "Reply": 20
    },
    "Source": "Netease"
}