{
    "Article": "网易体育1月3日报道：曼联主帅穆里尼奥最近的日子不好过，他的球队战绩不佳，自己也多次陷入言论的是非。今日，穆里尼奥在谈到英超赛程的时候暗讽有些球队“上面有人”。另外，《每日邮报》透露曼联高层依然力挺穆帅，满意他给球队带来的进步，红魔将会继续烧钱引援支持穆帅。密集的圣诞赛程让曼联和穆里尼奥苦不堪言。穆帅曾多次对此提出抱怨，曼联官网甚至也曾就此表达了反感。圣诞赛程中，曼联10天内有4天是在踢比赛，强度是英超BIG6中最大的。今日，穆帅再次发泄不满，他认为自己不受赛事主办方的欢迎。有记者问他是否会向英足总反应赛程的问题？穆帅连忙说道：“不会，不会的，我一直都是这么说的。他们（电视转播方）来决定赛程，我们必须接受。有一些俱乐部或者教练在某些位置上有好朋友，但是我没有。”近日，穆帅曾称曼联的开销不够大，他认为这是红魔目前落后曼城的主要原因，他希望球队高层继续砸钱买人。有媒体担心穆帅的这番言论有可能引起高层的反感，因为穆帅在过去2年里已经花了2.6亿镑的巨资，但《每日邮报》指出穆帅依旧深受高层的信任。曼联高层内部有人相信穆帅这是在逼着他们花钱，他们甚至认为穆帅是故意让身边的人放出消息的，但他们也不想说太多。最近，穆帅争议很多，他公开批评球员、谈论裁判、讽刺赛程，但曼联并不会解雇他，因为曼联当初在选择他的时候就有了这样的心理准备。据悉，曼联高层满意球队的进步，他们也认为穆帅此前的引援并不差。球队CEO伍德沃德将会在这个冬窗或者下一个夏窗对穆帅给与支持，《邮报》称曼联今夏很可能会有2笔重量级的引援。红魔高层同意穆帅的观点，他们已经落后曼城太多，必须狠狠砸钱。本文来源：网易体育作者：风过乡责任编辑：马鑫_NS4811",
    "URL": "http://sports.163.com/18/0103/13/D77RNBR500058781.html",
    "KeyWords": "穆帅,曼联,红魔,穆里尼奥",
    "PublishTime": "01/03/201813:19:09",
    "Title": "穆帅炮轰魔鬼赛程:曼联不像某些俱乐部上头有人_网易体育",
    "Comment": {
        "Content": "巴萨球迷表示巴萨的球不好看已经好几年了，有啥说啥。<br>巴萨球迷可不像木鸟一样是怨妇。 求求你们了别再这样：鸟粪会被你们气进精神病院。。。当然木鸟不会，因为他本来就是狂躁型精神分裂症 巴沟都是强贱饭杂总 作为铁杆曼联球迷我都想说鸟你他妈能别找理由了不 没错，曼城一年有500天。 鸟这破嘴，鸟粪最喜欢了[大笑] 鸟粪眼里只有鸟，没有俱乐部的。 主要赛季初没遇到什么强队，就是和阿森纳热刺踢勉强还可以，和利物浦曼城切尔西，简直被打的和英冠球队一样 穆鸟这情商世界第三啊，完全就是在败人品。 是啊，当初在波尔图、切尔西、皇马、国米以及现在的曼联，你都是被迫害的对象 甩锅抓内鬼，鸟粪们的嘢爹怎么会有错？输球就是运气球员砸钱不够的问题，对了还有英足总的问题哈哈 莫耶斯什么战绩 曼联球迷一定要支持主教练，曼联球迷出资拉横幅飞过嘲讽莫耶斯的时候，你这个鸟粪在哪里？ 人与群分 鸟粪什么时候有脸过？ 足球教练应该只是一份工作吧？为什么上班上得像被迫害一样，老板付钱然后让你每天都感觉自己被迫害，你还不辞职你丫有病吧！ 下次比赛后是不是要提天气的问题了？ 那不要踢任何杯赛了呗就踢联赛你敢保证这赛季踢得过曼城？曼城赛程也没有比曼联好哪里去过去十几年我也没看到弗格森比他bb的多 鸟叔拿出🏆来吓死那些狗 在英超……居然还有比曼联更有关系的球队？ 真是怨妇 都他么快被踢死了，京多安，斯特林，丁丁，哪一个废人动作都是红牌罚下！足总有丁点表示没？就不说沃克那种莫名其妙的被罚下，以及各种误判，不过我们不会跟你们一样叫唤，误判也没办法，有得有失。但你说曼城有人，能解释那几个废人动作为什么一个都没处罚？还能要点b脸吗？？？ 这逼和博阿斯真是师徒！你直接说曼城在欧足联有办公室就行了 瓜前几天说赛程的时候，八狗说这赛程的确不合理，现在鸟说赛程的时候，进来看看八狗这群废物怎么说的 鸟这种人品居然有粉？不，是粪！ 木鸟在皇马烧钱在场上也踢不过巴萨，然后就撺掇皇马球员场上玩散打，场下玩骂街，把好好的皇马百年俱乐部玩成了马戏团，圣卡西要脸，不跟他同流合污，就被他喷为内鬼。C罗有次被记者问到怎么看待木鸟说的皇马更衣室有六只老鼠？C罗抨击木鸟这种行为是在往自己吃饭的碗里吐痰，现在木鸟不光往自己碗里吐，也开始往别人碗里吐了，这货真是恶心 莫耶斯花了几个钱再说莫耶斯一年多钱穆鸟一年多钱 怨妇鸟，今年联赛给你安排的开局全是弱队，让你打出了一波气势，结果自己沙壁，对利物浦摆大巴，一下就萎了，球员心态崩掉，现在有脸说赛程不好，真特么不要脸！ 别人都是38轮联赛，曼联有40轮 万一真烧钱和曼城一样，还踢的这个屎样，最后可不就暴露了吗？ 天天就制造话题转移大家对你能力的质疑，有这功夫还不如提升一下自己 不是上面有人，你那唯一一个西假冠军不知道是咋得的？ 差什么了？你是个曼联球迷你说说这赛季曼联踢的怎么样？比比之前？远的不说曼城德比虽然输了但是曼城有几个机会？妈的自己主教练都不支持，滚一边去 鸟这破嘴是真烦人跟一部分巴萨球迷真像踢的好了怎么都行笑话这个笑话那个踢的不好了各种找理由 你看曼城赛程，看哪个轻松？抱怨赛程不对么？哪个英超教练没抱怨过？弗格森没抱怨过么？曼联开局一波连胜后你看过伤病阵容么？费莱尼，博格巴，卡里克，中场一度无人，后防罗霍，巴依，最紧大瓦伦又伤了，前锋等了半年的伊布，来了又伤，球队处于艰难状态，铁杆球迷会在骂主教练？这过去十几年你没见过弗格森抱怨么 作为铁杆球迷，你莫非对三天赛两场的赛程很满意么 下一场应该是主场对斯托克城，可以先提一下主场球迷不够热情、对球队支持不足的问题，天气方面在下下场才用吧。 赛季初赛程轻松一个强队都没碰上的时候，虐菜猛如虎，咋不说点啥？ 鸟粪选择性失明 鸟粪都已经疯了[大笑][大笑] 鸟就是这个比较不好，老是喜欢推卸责任怪外界，以前第一次来切尔西说曼联永远不会被判罚点球，现在来曼联了，又说其他队有后台，能拿出表现来说话吧 不能说现在，最近的踢的难看，赛季初还是挺不错的。 穆养犬急得又来洗地，骂巴萨球迷来转移话题了，哈哈 曼联每天只有12个小时 木鸟嘴炮横扫欧洲五大联赛无人能敌 不得不说现在曼联的球真的踢得很难看，特别是遇到前几名的时候，几乎都是被摁在半场摩擦 鸟大湿：上面的人听着，我的锅已经飞上去了😂 波尔图的假球废物墓表都不好意思提，只有球盲傻逼鸟粪天天挂嘴边哈哈 穆鸟说赛程不合理没问题，但说别的球队上边有人就恶心了，你这理解能力，适合当穆鸟的粉[微笑] 别的队不知道这赛季看了那么多比赛曼城确实得利不少 曼联的高层真是脑袋被驴踢了，会找这么一个跟自己气质球队打法不匹配的教练，还支持支持。为嘛总是闹内鬼？因为这种摆大巴打法战绩不会特别差，又上不去，老板照顾面子不好直接开除，最后只能是球员来了，不知道有没有这个原因啊？ 抱怨的太多了，难度大家一致，只有靠自己 鸟粪威武！ 有比赛有盘不好么 作为铁杆曼联球迷我都想说鸟你他妈能别找理由了不 没错，曼城一年有500天。 不是上面有人，你那唯一一个西假冠军不知道是咋得的？ 都是一样的比赛场次，不知那么多人喜欢怨妇 现在的曼联需要这样可以制造话题的教练，三德子收入更多了 是啊，当初在波尔图、切尔西、皇马、国米以及现在的曼联，你都是被迫害的对象 天上飞 毁完皇马毁曼联 祥林鸟 这怨妇整天逼逼阴谋论你在哪里哪里就有人针对你？真把自己当什么了 百度曼联就有曼联的赛程了! 下次比赛后是不是要提天气的问题了？ 到哪里都受迫害，他为什么不退出足坛呢，留下来让我们笑料吗 实话实说而已和天朝一个样没后台的4S还叫4S吗？这年头赛果一切掌握在庄手里就看利益怎么分配 在英超……居然还有比曼联更有关系的球队？ 4楼振振有词……请问英超四强哪个球队不是这么踢过来的？抱怨赛程一点问题没有，抱怨十几年了，可你他妈说上面有人是怎么个情况？论影响力论关系，英超球队哪个敢站出来说比曼联强？ 自己和自己踢两场哈哈 瓜真是人见人爱啊，你穆鸟怎么就不受待见，找找自身原因吧 鸟最大的成就就是阻止了利物浦得到英超联赛冠军最好的那次机会，杰拉德应该死也不会忘记那次滑倒 小编随便胡扯个题目你们就高潮了 开门一张图。。。嘴是欠了点 鸟粪 鸟这种人品居然有粉？不，是粪！ 除了会抱怨跟摆大巴能不能干点别的。 别怨妇了啊 反对特朗普是美奸，反对美国是爱美者。鸟粪逻辑。 就缺一个右边锋，穆尼尼奥眼睛真毒啊。曼联高层为了800万欧元不买国米飞翼，损失一个冠军 穆鸟就一怨妇，勒瑟一枚。来中国捞金，竟然以草地原因不踢了。 别人都是38轮联赛，曼联有40轮 穆帅看样子是不想干了，抱怨赛程没问题，BIG6教练都抱怨过，因为他们的欧冠欧联加起来赛事确实多。除了穆帅之外，没有哪个教练敢说别的队上面有人，那就是公开攻击别的队可以操纵比赛了，英足总怎么办？如果没有队能操纵比赛，被穆帅这样抹黑英足总能忍？如果真有被穆帅揭发，那也是鱼死网破呀！城门失火殃及池鱼，曼联可就惨了。 说的就是花钱买冠的黄苟 天天就制造话题转移大家对你能力的质疑，有这功夫还不如提升一下自己 是的，我88年的，99年看曼联，从约克科尔坎通纳谢林汉姆索尔斯克亚斯塔姆舒梅切尔看到鲁尼德赫亚…今年不看了，不是我喜欢的那支队了，也可能自己的确不是什么铁杆吧… 作为铁杆球迷，你莫非对三天赛两场的赛程很满意么 下一场应该是主场对斯托克城，可以先提一下主场球迷不够热情、对球队支持不足的问题，天气方面在下下场才用吧。 进入圣诞前你也不是第一，而且你赛程密集别人就不是了？ 怨妇一般的教练 曼城完全按瓜的要求买了14人，包括主力和替补都给瓜一一抓来。曼联连鸟想要的主力都不能满足，更别说买替。鸟买的7人，不计伤病，使用率比瓜的多得多，也就是说曼联花的钱几乎用到实处。还得感叹！有钱真好 穆里尼奥滚蛋！ 老子又不在北京老子要滚到哪傻逼样子温格带不出成绩阿森纳球迷都喷曼联明显有问题你他妈是个瞎子？ ２００７年４月２７日的《每日电讯报》留下了一篇珍贵的报道，时任切尔西主教练的穆里尼奥对Ｃ罗在赛场上的假摔忍无可忍：“Ｃ罗就是一个彻头彻尾的骗子！他是迷惑裁判、欺骗观众的职业高手，我认为Ｃ罗如果想成为世界上最优秀的球员，必须要学会诚实和正直。”<br>仅过数日，Ｃ罗回击了穆里尼奥的指责，《每日电讯报》对此也作出了报道：“全世界都知道穆里尼奥是个什么样的人，他从来只知道指责别人，却从不低头看看他自己的缺点，他就是喜欢制造话题，以此吸引人们关注他。我希望他有空的时候，多操心一下他自己的球员。”<br>Ｃ罗的反击让穆里尼奥愤怒，２００７年４月３０日英国媒体报道了穆里尼奥对Ｃ罗的教训：“这个孩子缺乏最起码的逻辑推理能力，更缺乏对长辈的尊重，或许这是因为他成长于家境困难的环境所致，他从小没有接受到良好的教育。”<br>２００８年１２月，Ｃ罗当选欧洲足球先生和世界足球先生，登上了他个人职业生涯的巅峰。然而偏偏在Ｃ罗最开心的时刻，穆里尼奥的恶评如夜枭般准时袭来。“对于Ｃ罗的奖项，我不介意表达我的些许祝贺，但我要明确告诉大家，在我心目中，伊布拉希莫维奇比Ｃ罗更适合这些奖项。Ｃ罗确实是一个出色的球员，但他绝对不是最好的，他取得金球奖，完全是靠他的球队把他抬上去的。”<br>２００９年２月７日，Ｃ罗忍无可忍：“我尊重所有人的个人观点，但我也需要指出一点，去年的所有奖杯都摆在我家房子里，伊布家一件也没有！”半个月后，欧冠淘汰赛开战，穆里尼奥执教的国米也被Ｃ罗领衔的曼联斩落马下。在这一轮的“穆罗大战”里，穆里尼奥输给了Ｃ罗。<br>２０１０年夏，穆里尼奥离开了国际米兰，投靠了马德里建筑商弗洛伦蒂诺，并成为了皇家马德里的新任主教练，与Ｃ罗的关系从口舌敌手变成了上下级。<br>在９月２日接受《马卡报》采访时，穆里尼奥真诚地表示：“Ｃ罗是一个诚实、正直的人，他和弗格森一样正直，Ｃ罗在球场上绝对不会假摔，他是足球运动员的道德楷模 叔顶你，和红魔球迷做了二十年对手，心理还真的不恨你们，只是你们“新球迷”太操蛋了，有时候我特么都为红魔心痛。 鸟大湿：上面的人听着，我的锅已经飞上去了😂 差什么了？你是个曼联球迷你说说这赛季曼联踢的怎么样？比比之前？远的不说曼城德比虽然输了但是曼城有几个机会？妈的自己主教练都不支持，滚一边去 这个容易给自己惹事 拉低曼联形象 天天发挑拨贴，一帮傻逼就跟着天天黑，有意思？ 穆鸟说赛程不合理没问题，但说别的球队上边有人就恶心了，你这理解能力，适合当穆鸟的粉[微笑] 瓜前几天说赛程的时候，八狗说这赛程的确不合理，现在鸟说赛程的时候，进来看看八狗这群废物怎么说的 曼联的高层真是脑袋被驴踢了，会找这么一个跟自己气质球队打法不匹配的教练，还支持支持。为嘛总是闹内鬼？因为这种摆大巴打法战绩不会特别差，又上不去，老板照顾面子不好直接开除，最后只能是球员来了，不知道有没有这个原因啊？ 怨妇 穆鸟有被迫害妄想症吧 天天BB，低调点不行吗 新旧曼联球迷的交锋？ 我说你你随便节选吧，毕竟我知道只有我说的才能让小编骗点击率啊 网易小编每天发两颗春药，巴狗肯定会屁颠屁颠跑来发情。 快去领盒饭 说的很对 求求你们了别再这样：鸟粪会被你们气进精神病院。。。当然木鸟不会，因为他本来就是狂躁型精神分裂症 感觉对车子踢的是最窝囊的 利物浦三天打两场比赛，渣叔也没有抱怨 作为铁杆曼联球迷我都想说鸟你他妈能别找理由了不 没错，曼城一年有500天。 鸟这破嘴，鸟粪最喜欢了[大笑] 曼联现在球员不行 像个千年怨妇一样！ 等着罚单吧 确实啊，一大群狗指望着穆帅养活呢 穆鸟这情商世界第三啊，完全就是在败人品。 鸟粪其他不行，到时强词夺理胡搅蛮缠肯定得到了真传。 这家伙口不择言反正解雇了也有解约金 人与群分 穆养犬急得又来洗地，骂巴萨球迷来转移话题了，哈哈 贱人就是矫情 赶紧滚别再祸害曼联了 不否认他是个有能力的教练，但是太没有担当。成绩不好就是队员，裁判，球队管理层，足协，媒体的问题。从来不在自身找问题。动不动就抓内鬼，这样能掌控更衣室就特么怪了！ lulu🐶，你爹爹没得到尊重，去裁判更衣室抗议，被禁赛啦，还不去护主？？？😂😂 各位以前见过弗格森这样帅锅过吗？ 这逼和博阿斯真是师徒！你直接说曼城在欧足联有办公室就行了 我还以为你要说国安和泰达呢。 不砸钱不行的，没法成就伟大的教练。 穆里尼奥真不要脸 果然是风过乡 巴萨球迷表示巴萨的球不好看已经好几年了，有啥说啥。<br>巴萨球迷可不像木鸟一样是怨妇。 别铁杆了，让人笑的 傻逼球盲鸟粪废物们和它们的废物嘢爹墓表怨妇一样，任人按在地上摩擦虐曹，没有能力只靠喷粪和旁门左道的阴笔小人，输球就是别人的问题，赢球就是自己的功劳，从意甲喷到西甲喷到英超，输球不反省自己的问题，甩锅喷对手，诋毁别人，现实里的阴笔废物鸟粪就是这样子，所以跪添废物墓表，物以类聚。坐等废物墓表打造6亿龟公脏笔大巴足球，任人按在地上摩擦，然后鸟粪们一片欢呼爽。 撸lulu，好好去你的阿森纳那，不是蛮好?既然不喜欢就别来自寻烦恼哈 这张嘴是改不了了…… 别人都是38轮联赛，曼联有40轮 比别人都多6分拿了。还叫。哈哈 出来混，总有一天要还的。 很多时候一模一样的话，穆里尼奥说的才是新闻。然后好死不死的成名这些年跟某个俱乐部恩怨过深，招惹来好些评论和小编带节奏，再加上自己嘴巴大爱惹事。造就了一个人养活了网易体育的奇迹。 看来真魔迷开始受不了了，但是你不能表现不满，要不然你就摊上大事了，新（临时）曼联球迷随时喷的你找不到北，连斯科尔斯他们都怒怼，何况魔迷。瓜帅执教小破仁三年，那时候的新（临时）车迷可是没少在德甲版块搞事情。 作为铁杆球迷，你莫非对三天赛两场的赛程很满意么 穆的执教水平没有进步，原地踏步 赛季初赛程轻松一个强队都没碰上的时候，虐菜猛如虎，咋不说点啥？ 鸟大师的意思联赛最好一周一赛，而且对手永远不要安排曼城、切尔西、利物浦。。。 说的很对以前确实觉得他战术挺牛逼在国米和切尔西一期现在都吃透他了不知道进步就会怪这怪那 我也是，对葡萄牙这国家的人也挺讨厌！如穆鸟佩佩c罗纳尼 还有窝罗，这仨个没出现之前去过澳门，葡式美食葡式建筑让人对这个国家蛮有好感的，现在... 豪门怨妇。 看了标题，特意进来看你。这俩人连话术都有师承关系 鸟这破嘴是真烦人跟一部分巴萨球迷真像踢的好了怎么都行笑话这个笑话那个踢的不好了各种找理由 葡萄牙人全都是令人作呕 这逼有完没了，怎么这么多事。 鸟大湿：上面的人听着，我的锅已经飞上去了😂 作为曼联球迷，实在很讨厌鸟到处找借口！ 傻逼穆鸟 利物浦48小时两场也没见抱怨啊 邢捕头：上面究竟是什么人啊？我真费解啊…… 真羡慕曼联有鸭子！米尼和卡里乌斯一起上都比不过鸭子一条腿 不占便宜就是吃亏。 谁说的，三比零不好看？[微笑] 穆里尼奥的临场调整毫无疑问是大师，但首发怎么总是那么烂呢，老要靠替补续命，到现在曼联阵中表现最好的成了搅屎棍林加德，梅西他娘反倒被当做废物了 你頭上有鬼咩？🤔 卢卡库又黑又硬被活活整成了防守型抢点中卫。 没错，曼城一年有500天。 鸟这破嘴，鸟粪最喜欢了[大笑] 关键他在切尔西先后玩过二次没听他说过，成绩好的时候不作声，成绩稍不好就总说人家迫害他。 穆里尼奥=祥林嫂。 呵呵呵 鸟粪们，快出来洗地啦！！ nabujiuxiang 关键不是买人，是用人！你不会用的人都硬气得很，比如丁丁。本来硬气的人被你用成什么鸟样，比如卢卡库…… 甩锅抓内鬼，鸟粪们的嘢爹怎么会有错？输球就是运气球员砸钱不够的问题，对了还有英足总的问题哈哈 傻逼球盲鸟粪废物们和它们的废物嘢爹墓表一样，没有能力只靠喷粪和旁门左道的阴笔小人，输球就是别人的问题，赢球就是自己的功劳，从意甲喷到西甲喷到英超，输球不反省自己的问题，甩锅喷对手，诋毁别人，现实里的阴笔废物鸟粪就是这样子，所以跪添废物墓表，物以类聚。 足球教练应该只是一份工作吧？为什么上班上得像被迫害一样，老板付钱然后让你每天都感觉自己被迫害，你还不辞职你丫有病吧！ 下次比赛后是不是要提天气的问题了？ 鸟粪说嘴贱叫真性情😂😂😂 鸟叔拿出🏆来吓死那些狗 波尔图的假球废物墓表都不好意思提，只有球盲傻逼鸟粪天天挂嘴边哈哈 傻逼球盲鸟粪废物们和它们的废物嘢爹墓表怨妇一样，任人按在地上摩擦虐曹，没有能力只靠喷粪和旁门左道的阴笔小人，输球就是别人的问题，赢球就是自己的功劳，从意甲喷到西甲喷到英超，输球不反省自己的问题，甩锅喷对手，诋毁别人，现实里的阴笔废物鸟粪就是这样子，所以跪添废物墓表，物以类聚。 抱怨赛程、裁判是为了给球队争取利益，并不是代表着诬陷谩骂。穆里尼奥虽然抱怨的很多，但没必要谩骂。 都他么快被踢死了，京多安，斯特林，丁丁，哪一个废人动作都是红牌罚下！足总有丁点表示没？就不说沃克那种莫名其妙的被罚下，以及各种误判，不过我们不会跟你们一样叫唤，误判也没办法，有得有失。但你说曼城有人，能解释那几个废人动作为什么一个都没处罚？还能要点b脸吗？？？ 越来越烦这货 木鸟在皇马烧钱在场上也踢不过巴萨，然后就撺掇皇马球员场上玩散打，场下玩骂街，把好好的皇马百年俱乐部玩成了马戏团，圣卡西要脸，不跟他同流合污，就被他喷为内鬼。C罗有次被记者问到怎么看待木鸟说的皇马更衣室有六只老鼠？C罗抨击木鸟这种行为是在往自己吃饭的碗里吐痰，现在木鸟不光往自己碗里吐，也开始往别人碗里吐了，这货真是恶心 那就占便宜了，能有多拿六分的机会，应该是36才对 怨妇鸟，今年联赛给你安排的开局全是弱队，让你打出了一波气势，结果自己沙壁，对利物浦摆大巴，一下就萎了，球员心态崩掉，现在有脸说赛程不好，真特么不要脸！ 别人都是38轮联赛，曼联有40轮 傻逼球盲鸟粪废物们和它们的废物嘢爹墓表怨妇一样，任人按在地上摩擦虐曹，没有能力只靠喷粪和旁门左道的阴笔小人，输球就是别人的问题，赢球就是自己的功劳，从意甲喷到西甲喷到英超，输球不反省自己的问题，甩锅喷对手，诋毁别人，现实里的阴笔废物鸟粪就是这样子，所以跪添废物墓表，物以类聚。坐等废物墓表打造6亿龟公脏笔大巴足球，任人按在地上摩擦，然后鸟粪们一片欢呼爽。 恶心 万一真烧钱和曼城一样，还踢的这个屎样，最后可不就暴露了吗？ 做为一个二十多年的曼联球迷，我自己都觉得脸红，你就别给曼联丢人现眼了。 穆鸟才像个真正的喷子。 怨妇升级为泼妇！ 曼联永远回不到弗格森年代的王者霸气，现在就是一辆大巴车 曼联上头没有人就没有那只球队敢说有了，穆鸟执教英超史上最成功的俱乐部还不停甩锅也算奇葩了。 鸟不这么说，太阳就从西边出来了 丁丁都快被踢死了，老穆你就少说两句吧 整天怨天尤人穆鸟有迫害症！ 大脑又短路了。 鸟粪选择性失明 昨晚刚跟你通过电话，让你收敛点，就是不听。 丁丁挨的那几脚可以生涯报销的，追加停牌都没有 事真多，圣诞新年的比赛，大家日子都不好过 怨妇 我感觉他说的是切尔西，不是曼城 你在切尔西的时候也是这么说的。 哎，我魔什么时候变成这样了[被黑] 鸟大湿：上面的人听着，我的锅已经飞上去了😂 傻逼球盲鸟粪废物们和它们的废物嘢爹墓表怨妇一样，任人按在地上摩擦虐曹，没有能力只靠喷粪和旁门左道的阴笔小人，输球就是别人的问题，赢球就是自己的功劳，从意甲喷到西甲喷到英超，输球不反省自己的问题，甩锅喷对手，诋毁别人，现实里的阴笔废物鸟粪就是这样子，所以跪添废物墓表，物以类聚。坐等废物墓表打造6亿龟公脏笔大巴足球，任人按在地上摩擦，然后鸟粪们一片欢呼爽。 哔哔鸟[鄙视] 巴狗一只 别的队不知道这赛季看了那么多比赛曼城确实得利不少 作为曼联球迷，我都觉得你太喜欢找借口了。 祥林鸟 这货是占不到便宜就算吃亏，吃一点小亏就满世界各种BB。 傻逼球盲鸟粪废物们和它们的废物嘢爹墓表怨妇一样，任人按在地上摩擦虐曹，没有能力只靠喷粪和旁门左道的阴笔小人，输球就是别人的问题，赢球就是自己的功劳，从意甲喷到西甲喷到英超，输球不反省自己的问题，甩锅喷对手，诋毁别人，现实里的阴笔废物鸟粪就是这样子，所以跪添废物墓表，物以类聚。坐等废物墓表打造6亿龟公脏笔大巴足球，任人按在地上摩擦，然后鸟粪们一片欢呼爽。 傻逼球盲鸟粪废物们和它们的废物嘢爹墓表怨妇一样，任人按在地上摩擦虐曹，没有能力只靠喷粪和旁门左道的阴笔小人，输球就是别人的问题，赢球就是自己的功劳，从意甲喷到西甲喷到英超，输球不反省自己的问题，甩锅喷对手，诋毁别人，现实里的阴笔废物鸟粪就是这样子，所以跪添废物墓表，物以类聚。 是啊，当初在波尔图、切尔西、皇马、国米以及现在的曼联，你都是被迫害的对象 上面有人指的是骑乘位吗[疑问][不屑] 这个帖子鸟粪不多，不知道怎么洗，这段时间鸟粪b脸给打的自己妈都不认识了作为15年曼联球迷坚决打击鸟粪，希望穆鸟赶紧滚蛋！红魔建队这么久，所有的丑陋都是这个鸟带来的 曼联每天只有12个小时 中心思想：必须狠狠砸钱 真是怨妇 没错，曼城一年有500天。 木鸟嘴炮横扫欧洲五大联赛无人能敌 天天抱怨，很烦了 这个帖子鸟粪不多，不知道怎么洗，这段时间鸟粪b脸给打的自己妈都不认识了作为15年曼联球迷坚决打击鸟粪，希望穆鸟赶紧滚蛋！红魔建队这么久，所有的丑陋都是这个鸟带来的 是啊，当初在波尔图、切尔西、皇马、国米以及现在的曼联，你都是被迫害的对象 怨鸟🐦 上头没人得了那么多冠军？弗格森时间怎么来的心里没逼数？ 每次炮轰都没点创意，什么时候才能提到三叶草 草，好烦 ",
        "Link": "http://comment.sports.163.com/sports2_bbs/D77RNBR500058781.html",
        "Total": 4426,
        "Reply": 194
    },
    "Source": "Netease"
}