{
    "Source": "Netease",
    "PublishTime": "12/26/201707:50:00",
    "KeyWords": "日本,战机,防卫省,护卫舰",
    "Title": "日本准航母破禁升级 违背专守防卫引发多方质疑_网易新闻",
    "Comment": {
        "Link": "http://comment.news.163.com/news2_bbs/D6IM25C400018AOQ.html",
        "Total": 195,
        "Content": "谁敢做现代希特勒？谁又会傻到为了一份合同工而背上万世恶名？<br>只有愚人整天异想天开。<br>对方最多是开着豪车来羞辱羞辱开拖拉机的，勿忧勿忧[狗] 美元秒杀一切！！！ 明年打的更凶现在只是开局 东亚战云密布，川普目光短浅不可寄予厚望 你错了，川普大打经济牌，🐔🐻腹中难受，去年前年还强人，一下子就变纸人了！ 呵呵，还打日本？你扔日本几颗，日本扔你一颗到那个什么海去，鸡就投降灭了 嘴炮无敌 核弹掠过头顶，这禁不破也难。鸡熊各打小算盘，川普纵有千里眼，也难掌控。 日本，亚洲民主的楷模！ 川普总统，一个伟大的政治家！ 很明显，日本已经撕毁二战停战协议，联合国任何国家都可以对其实施打击，不排除核灭杀！！！ 美国订的规矩，人家破了美国还没说什么，你着什么急？ 为什么只能我有不能你有 日本自卫队依法不可升级武器，只能用作自卫用途，否则军国野心又起，会是世界的祸害 美元秒杀一切！！！ 嘴炮无敌 川普总统，一个伟大的政治家！ 明年打的更凶现在只是开局 谁敢做现代希特勒？谁又会傻到为了一份合同工而背上万世恶名？<br>只有愚人整天异想天开。<br>对方最多是开着豪车来羞辱羞辱开拖拉机的，勿忧勿忧[狗] 东亚战云密布，川普目光短浅不可寄予厚望 你错了，川普大打经济牌，🐔🐻腹中难受，去年前年还强人，一下子就变纸人了！ 出云级设计的时候就已经留有后手，是可以技术升级的，250米长的直通跑道，谁会去造一艘近3万吨只能起降直升机的军舰，加贺不是已经进入维修船坞了。 呵呵，还打日本？你扔日本几颗，日本扔你一颗到那个什么海去，鸡就投降灭了 英国还在与日本进行军事合作呢 再给小日本一个小胖子！ 终于要表明自己想打仗的心了，一直遮遮掩掩，现在终于不再掩饰了。我们必须要做好防范。 以限制他人手脚来保自己的安全的行为和想法猪都不如，美国怕它？俄泥？再说你能限制多久？有意思吗？ 核弹掠过头顶，这禁不破也难。鸡熊各打小算盘，川普纵有千里眼，也难掌控。 日本，亚洲民主的楷模！ 难道还需要亚洲各国支持？ 习惯就好，日本本身就是一个不可信的民族！历史就是很好的证明！ 很明显，日本已经撕毁二战停战协议，联合国任何国家都可以对其实施打击，不排除核灭杀！！！ 所以他想要修宪？ ",
        "Reply": 23
    },
    "Article": "（原标题：日本准航母破禁升级违背专守防卫引发多方质疑）中新网12月26日电据香港《文汇报》报道，日本防卫省考虑引进F-35B战机，并计划把直升机护卫舰改造成能搭载这款战机的舰艇。报道指出，日本政府战后主张专守防卫方针，即防卫能力不能超过自卫所需的必要最小限度，故不被允许拥有攻击性航母，由于搭载战机的舰艇即使是护卫舰，在军事上也被定性为航母，日本此举明显偏离方针，并预计会遭到亚洲各国强烈反对。资料图：此前，日本海上自卫队在相模湾正式举行“观舰式”。图为日本海上自卫队舰艇编队航行。据了解，F-35B战机可短距离起飞，并像“鱼鹰”直升机一样能垂直升降，不但方便搭载于甲板较航母狭窄、用于登陆作战的两栖攻击舰上，还具备不易被雷达侦测的先进隐形功能。日本早前已订购42架同一系列的F-35A战机，该国防卫省考虑把部分订单改为F-35B又或额外购买，并计划把相关内容写入明年下半年将修改的《防卫计划大纲》。报道指出，日本现役的F-15等战机，需3,000米长的跑道升降，在西南诸岛中，仅冲绳县宫古市下地岛机场设有此长度的跑道，但根据日本政府1971年与地方政府签署的备忘录，该机场不允许非民航机使用。日本防卫省希望通过引进F-35B，令战机可使用在西南诸岛中跑道较短的机场，除了在冲绳县的宫古、石垣和与那国岛部署外，还能使用南大东岛和北大东岛的机场执行警戒监视任务，扩大活动范围。此外，日本防卫省还有意把“准航母”直升机护卫舰“出云”号及“加贺”号的舰首，改造成涂上耐热涂料的甲板，并增设或改善航空燃料贮存缸和弹药库，方便搭载F-35B，使护卫舰俨如“轻型航母”。日本共同社分析指出，虽然日本可能辩称这是用于“离岛防卫”或“舰队防卫”，属于防卫性而非攻击性，但它们终究是“轻型航母”，可对敌方基地发动攻击，偏离专守防卫方针，将引起亚洲各国高度警惕。共同社同时指出，日本政府已通过安保法案，解禁集体自卫权和扩大自卫队活动范围，也在几乎未经讨论下引进最新型装备，若以“外部威胁”为由，无限制地增强自卫队装备和逐渐瓦解专守防卫，这做法不能被允许。本文来源：中国新闻网责任编辑：姬雪莹_NN6784",
    "URL": "http://news.163.com/17/1226/07/D6IM25C400018AOQ.html"
}