{
    "Source": "Netease",
    "KeyWords": "吸毒,毒品,冰毒,",
    "URL": "http://news.163.com/17/1225/00/D6FA210G0001875P.html",
    "PublishTime": "12/25/201700:28:38",
    "Comment": {
        "Content": "我只关心这样吸食吸毒母亲乳汁的孩子会被救治吗？ 肯定有 吸几口奶突然感觉上头，抱住奶可就不放手的吸，一发不可收拾 应该像菲律宾总统学习，还是贩毒吸毒的一律击毙，喂鲨鱼，一个都不留。 口味够重的 三鹿呀 一次去嫩江做按摩！按摩小妹一边按摩一边说小哥你来点冰不。我说不要。不碰这玩意。她竟然说在嫩江这地界有点钱的很多人都吸。很正常。卧槽 我是女的，我吸烟，自从知道怀孕了以后，烟都不敢吸一口，恐怕对孩子不好，你他妈的还吸毒，你根本不配做母亲 这种情况 婴儿会不会有毒瘾 毕竟打飞机不是毒……哪能相提并论。小撸强身健体，强撸灰飞烟灭 我也想吃，放开那个小孩，喂我[微笑] 清末小说《黑籍冤魂》有一女的吸大烟，生下的小孩几天不吃乳，一直哭，有一奶妈说你给小孩喷两口烟试试，一喷孩子也不哭了，也吃乳了，奶妈说，看来这个孩子是鸦片烟做的，说的大家都笑了。 好可怕啊 毒妈！ 就是几个溜冰的小垃圾，顺便倒一点，还贩毒团伙，少邀功多抓大鱼成不？ 香港没有吸毒的孕妇女人和喂奶的母亲！这样的女人不应该配当母亲！唾弃她可以！这和哪个地区的人有什么关系！带有地域歧视的你真给有素质的香港人丢脸！呸！ MD,又是东北人！ 小孩摊上这样的妈纯属投胎失误 别忘了全国贩毒的源头——甘肃省临夏蛔族自治州 碰上这么个妈，孩子倒了八辈子血霉！ 像这种人还生孩子干什么 生理好戒，心理难戒 怎么会没有毒性 这种人自己爽死就行，要什么孩子，真TMD没人性 表示深切的无语 有这样的妈简直无语 已无力吐槽…… 这女的能说出这话，可真够二逼的，害死孩子 孩子真可怜 。。。四川。。。 珍爱生命，远离毒品。 这是要从孩子培养起吗？ 这是一个什么样的母亲啊 冬北人，三观真吓人 妈的，这么小的孩子算是毁了，肚子里带出来的毒瘾基本上就没法戒了 盲流子没事别乱开地图炮 吸毒的已经废了，废了就要当废物处理 我也想试试毒奶有多利害 不管有没有地域，事实上，东北这些奇葩确实多 去年大收戒严抓吸毒抓到两个女的都这样。吸着毒还给孩子喂奶🍼 难戒？根本就戒不掉，打飞机都戒不掉 胎毒，胎毒，泥马！原来是这么搞岀来的！ 虎毒不食子 这个是吸毒前脑子就残了，煞笔女人渣渣 就像当年……从此站起来……的老百姓，跟吸毒了一样 毒瘾是戒不掉的，奉劝大家不要吸毒！ 同问，可怜的孩子！ 果然 脑残 毒奶 好滴，先吃点干的💩！ 不配为人母！垃圾人渣 口味够重的 悲哀！ 难戒？根本就戒不掉，打飞机都戒不掉 老铁双击666 傻逼 我也想吃，放开那个小孩，喂我[微笑] 一楼吃起来更来劲，哈哈 可怜的娃～ 这是人渣绝对不配做母亲！让她做上母亲简直就是玷污了神圣的“母亲”二字[暴怒] 这孩子没出生就碰到这个妈妈也是醉了，这孩子比张学良还牛逼呀 一次吸毒。终身戒毒 这种人自己不要逼脸还害孩子，简直无知无耻的，不得好死 毒奶…… 所以投胎是个技术活 毒瘾犯了爹妈都不认，还谈什么人性？ 正宗毒奶 强烈谴责！ 这种人自己爽死就行，要什么孩子，真TMD没人性 这种女人估计到监狱里也能过得很滋润。 [被黑] 这属于典型的连动物都不如的，还能称之为人么？ 人到底怎么了…… 你是情报科？ 不知道这样的孩子该怎么长大。 东北的吧？ 《门徒》 婴儿会不会有毒瘾 找妞只不过是换成了两个人相互打飞机 这种事还需要情报？ 迷途知返还不为晚 感谢一楼的牺牲 杀了这毒妇 呵呵 吸毒吸的脑子都坏了 小孩摊上这样的妈纯属投胎失误 这样的女人不配做人 戒撸都戒不掉的，我还是不吸了 有滴。没吸毒就会哭。 说了，投胎是技术活，这孩子可能选错了模式，选了最简单模式 我是外地的，刚来杭州，不小心被蜈蚣虫咬了口，不久伤口开始肿胀。吃药打针都没得用，看到没办法了，正好遇到个道士。道士说：我遇到的乃是百年蜈蚣精，要治好的话还得要去寻找它的天敌。所以问大家，杭州文辉大桥附近哪里有鸡？ 不配为人母啊 碰上这么个妈，孩子倒了八辈子血霉！ 不配为人 去年大收戒严抓吸毒抓到两个女的都这样。吸着毒还给孩子喂奶🍼 这孩子没投好胎遇到了这样的妈妈 一边是欲望，一边是亲情。这是每个人的真实写照，我们何尝不是白天对社会满嘴抱怨却又无可奈何，晚上对妻儿温馨满满却又热泪盈眶。 有资格当妈妈吗？ 投胎需谨慎 口味够重的 为什么觉得他们吸毒就跟抽烟一样稀松平常[被黑] 这孩子还只喝她吸毒后的奶，明显上瘾了，不知道喝完奶后什么表情 社会社会 666 这女的！！！！ 这能一样？你的欲望是好好工作打拼，争取更好的生活。她的欲望是吸毒醉生梦死。你的亲情是关爱孩子赡养老人，她呢？从小培养吸毒 毕竟打飞机不是毒……哪能相提并论。小撸强身健体，强撸灰飞烟灭 人一吸毒，基本上… 我也想吃，放开那个小孩，喂我[微笑] 碰上这么个妈，孩子倒了八辈子血霉！ 奇葩母亲 可怕 环境逼的！弱势群体当家作主！ 这人能说出这话可以想象出一定是个没底线的人，千万别和这种人有任何关系，文明人该有的态度 代代相传 那婴儿还能不能戒掉？ 打飞机都戒不掉的，还是别去碰毒品了 我要宣布一件事情:<br>大家还记得2011年的抢盐的事情吗？我家里的盐在今天，就是今天，终于吃完了，吃完了呀！我的个亲娘啊！终于给吃完了。​​​ 怎么有这么残忍的母亲！！！要吸毒，就别生娃！！！造孽啊！心疼宝宝 这孩子真不该来这世上 看美国电影金牌特工，贩毒的和认为吸毒该死的都进了绞肉机，吸毒的也是受害者环境的影响是如此的大我们应该从改变环境入手出淤泥而不染的只有莲花不是你我 希望孩子能被好心人收养 还能下面给他吃 没人性 操他嘛嘛嘛害人的畜牲她老公也是傻逼啊 前辈子做了什么孽啊，托生这家 婴儿会不会有毒瘾 那为什么很多人也不吸就偏他们吸？自己垃圾怪社会？ 孝敬父母这种所谓美德很扯的 吸毒的已经废了，废了就要当废物处理 害人 真正的毒奶。。。。 去年大收戒严抓吸毒抓到两个女的都这样。吸着毒还给孩子喂奶🍼 好可怕啊…… 此女已无人性 牛逼 这种女人不配为人母 本来已经地狱模式投胎了，结果又选择了变态版。 这样的妈赶紧去死吧，小孩真可怜。 说想试试能不能戒的先把打飞机戒了再说 该说点啥呢 看快手多了，脑残 。。。 这当妈的是人啊，害了孩子 牛13博士。 毒害自己不够还在喂下一代，毒妇 我日 既然是举报就应该保密 看到此新闻，我真是无语 电竞毒奶 何必要生？！！吸毒吸的心都黑了！ 孩子妈这是让孩子吸毒的节奏 我在想，把这办案的劲头用到村长身上，上下线的得查到哪[窃笑][窃笑] 口味够重的 做所谓的思想工作无非就是用减刑这一点作为诱饵而已吗！ 小撸怡情大撸伤身强撸灰飞烟灭 一楼別出外好了，我为街上3岁的小妺妹到80岁的老婆婆担心。 让我吃一口看看毒品的危害有多大？看看能不能戒了！ ，，， 我也想吃，放开那个小孩，喂我[微笑] 晕，怎么有这种人 毕竟打飞机不是毒……哪能相提并论。小撸强身健体，强撸灰飞烟灭 毒贩得儿子也是毒贩. 昨天吸了个少妇用力还能吸出乳汁不会得病吧 [暴怒] 小孩的毒瘾能戒了吗 这孩子估计上辈子得罪了阎罗王 😄青出于蓝而胜于蓝！ 心痛，这种女人就不配有孩子，下地狱 可怜的孩子 大宝剑有话说 我去，这是典型的体液啊，哥们胆子真是大。 求湖南新化民警枪杀二人真相！ 牛人 香烟都戒不掉 婴儿会不会有毒瘾 张际勇，还有人记得不 应该不是亲的 这样的人怎么还让他有孩子，老天怎么想的 发现制毒贩毒，就是死刑，也不用审，看谁还敢！ 我竟无言反驳。。。 吸毒的都有欺诈性人格！说的任何话都不可信！宁可相信猫狗的话，也不要相信他们说的鬼话 这种母亲… 难道还能无罪释放？ 其中之一就是体液传播 这奶有毒啊 666 生在这样的家庭真的是作孽。 这才是真正的的毒奶! 怀孕的才刺激。。妹子。。。怀孕期性欲强，而且。。安全。。 真毒奶粉 多年以前读书时珍字书上说资本注意毒品泛滥，这才十几年，也一样了 去年大收戒严抓吸毒抓到两个女的都这样。吸着毒还给孩子喂奶🍼 太坏了！毁了孩子的一生 太不应该 这孩子投错胎了 但蟥易上的热贴没一个提到，是这群搐生没意识到？我不相信。<br>是它们故意避开了，它们害怕提到自己的同类。 你真的皮 祥哥自己制毒吗？没有上级吗？ 吸毒草泥马 真是废物，害人害己 听说，吸毒的女人特别骚？ 我也想吃，放开那个小孩，喂我[微笑] 怀孕吸也算了，你要吸毒还喂人奶，为什么不喂奶粉，不要孩子应该直接打了，为什么生下来自己犯贱又祸害小孩子 这借口找的来！！！ [狗] 可怜了孩子 可以，这很东北 ～～ 一楼小心啊毒奶一口，别被奶死了 人人都应远离毒品，别影响下一代。 我也想吸吸看这么嗨的奶 真他妈日了狗了 我想吃 父亲有责任，各打五十大板 smokeeveryday 这奶…有毒[可怜] 唉，可怜的孩子！ 这种傻逼就枪毙了吧，别祸害社会了 丧心病狂，不配当妈 丫的贩毒。看一楼的不吸死你丫的。 真想说脏话，唉令人无语! 有时候觉得真不能完全生育自由 洞背野兽甲天下，名不虚传！ 人渣 心疼这小宝贝 好牛逼 但蟥易上的热贴没一个提到，是这群搐生没意识到？我不相信，是它们故意避开了，它们害怕提到自己的同类。 那些垃圾为什么不枪毙了？好像黄金圈那样人渣留在世上多余。 吸毒的已经废了，废了就要当废物处理 为什么每次都只提孩子的母亲，没有人提孩子的父亲？因为父亲不用生孩子，不用拖这个包袱？ 皇家特工之黄金圈⭕ 投胎是个技术活 都无语了……你这样干什么生孩子！自己吸到那天死了算了，坑害小孩呀 怎么办，小孩子也得戒毒意思是？可怜 会得艾滋的，兄弟 碰上这么个妈，孩子倒了八辈子血霉！ 这尼玛害人害己 这种人也配做母亲！小天使们，你们投胎时看清楚点！ 命苦，投错了胎 艹！ 下班v这是 锡纸爱上冰，越烧越年轻 溜点冰才刺激，又能减肥，又能持久，还放得开，想怎么玩怎么玩。。。 今年我抓了2个这样的女孩，还想色相勾引哥，哥可不吃这一套，哥是国家公务员 可怜的孩子 投胎的时候没有给阎王爷红包 这个有点过分了 啥叫来劲…… 啥家庭阿还吸毒抽抽烟过把瘾吧 人之初性本善，可怜的孩子 [石化]毒害下一代，这么小就要戒毒了或者还能戒毒吗？[暴怒] ？？？ 这种不要脸的女人，应该直接枪毙，玷污了母亲伟大的称号，人渣一个啊！ 可怜了孩子 我的天哪孩子怎么办 赌博算是你情我愿的娱乐项目吧？别多想，叔叔不是赌仔🤐 吸毒会把脑子吸坏，从另一面来讲，脑子正常也不会去吸毒 祥哥的上线呢？ 大人喝了会不会和吸毒一样？如果俩人吸毒买一份岂不是就够了？ 互换大和帝国武士来拯救这个不平衡的国家 这奶有毒我嚓 可怜的孩子 其实人比老虎更毒 这样的人不要生孩子 为什么每次都只提孩子的母亲，没有人提孩子的父亲？因为父亲不用生孩子，不用拖这个包袱？ 东北煞笔 毙了吧，别留着了 婴儿会不会有毒瘾 吸毒、贪污、赌博是一样明知道不行还得继续，其实嫖娼（黄）倒不是，身体不行了自然就会停下来不嫖了！♋ 吸毒还算好的，搞不好还有艾滋病 为什么每次都只提孩子的母亲，没有人提孩子的父亲？因为父亲不用生孩子，不用拖这个包袱？<br>蟥易人怎么不提这个问题，难道自己在现实中就是这种搐生？ 虎毒不食子 😭😭😭😭 小孩摊上这样的妈纯属投胎失误 祸害下一代 会的，那个小孩肯定传染了 傻逼贱女人还生啥孩子，这样不是害了孩子嘛 这母亲用来制作酷飞吧！ 吸毒的人已经没有什么人伦道德了，可惜不能判立决 沒良心 这女人真他妈畜生，害自己不说，还害孩子 哎，母爱呢？ [石化] 不配为女人不配为母亲玷污母亲二字 牛逼的妈妈 去年大收戒严抓吸毒抓到两个女的都这样。吸着毒还给孩子喂奶🍼 枪毙 毒奶 ",
        "Total": 28211,
        "Link": "http://comment.news.163.com/news_shehui7_bbs/D6FA210G0001875P.html",
        "Reply": 1354
    },
    "Article": "（原标题：“我吸毒后的乳汁，孩子吃着才来劲！”黑龙江这个女子，让民警彻底怒了：孩子是捡来的啊？）通过一名吸毒人员警方深挖毒品来源7月初，齐齐哈尔富裕县的孙某，因为再次吸毒，被强制戒毒。因为他常年吸毒，民警觉得，在他那里应该能找到一些吸毒人员的线索，便对孙某做思想工作。他举报了曾经跟他一起吸过毒的，富裕县的吕某。警方通过调查，得知这条线索属实，主动出击，抓获了吕某。吕某本人通过尿检，当时尿检呈阳性。该人交代自己近期吸毒行为，同时举报伙同富裕县的张某和田某，在一起吸过毒。人物关系图通过审讯，吕某交代了自己的上线，是黑河市嫩江县一名姓李的男子。侦查员兵分两路，一组人抓捕吕某在富裕县的两名毒友张某和田某；另一组前往嫩江，开始对李某展开工作。李某拒不交代在证据面前承认了吸毒事实富裕县公安局刑警二大队副大队长丁福秋说：“我们侦查人员到嫩江工作了两天，初步查明李某的活动情况，在7月中旬的一天早上，我们开始行动。”同时落网的，还有李某的朋友，这个屋子的房主王某，可是两个人都否认吸食过冰毒。民警依法搜查，在电脑桌上发现了冰毒，却没有发现吸毒工具。李某拒不交代冰毒的藏匿地点，侦查员对王某加大审讯力度，证据面前，李某承认了吸毒事实，但他狡辩称没有过贩毒行为。警方在厨房的一个塑料袋里，搜出了大量吸毒工具。侦查员判断，房主王某不只是容留李某吸毒，本身应该也是这个贩毒团伙的成员之一。李某和王某的尿检结果都呈阳性，当被问到毒品来源。李某交代说，在同一个小区的另外一个楼里边，有一个刘某，刘某有一个同居的男友，叫祥哥，自己是祥哥的下线，李某从祥哥那里购买毒品，留出来一部分，和毒友共同吸食，其余的加价卖给下线吕某，以贩养吸。人物关系图富裕县公安局刑警二大队副大队长丁福秋说：“姓刘这个女子，有一个刚两三个月左右的一个女孩。而且李某说，刘某她往外贩卖毒品，没有任何防备，而且只要你去敲门去，她就敢开门。就是在当地，贩卖毒品非常猖狂。”警方梳理清成员脉络决定对他们一网打尽警方梳理清楚了这个贩毒团伙的成员脉络，决定对他们一网打尽。可是按照李某的供述，刘姓女子的防范心理虽然不高，但如果祥哥在家的话，侦查员能否顺利进到室内展开抓捕？如果家里只有刘某，那么刘某落网后，祥哥一旦得知女友落网，会不会逃离？出于稳妥起见，警方对刘某实施抓捕前，先是详细地讯问了李某。李某供述，这个贩毒团伙以祥哥为首，但祥哥有家，刘某离异单身，所以两个人并不经常住在一起。2015年，两人同居，去年秋天刘某怀孕，待产期间，祥哥去外地购买毒品不在家时，刘某代替祥哥向他的下线贩卖冰毒。富裕县公安局刑警二大队副大队长丁福秋说：“对李某审讯完之后，马上展开抓捕行动。分出一组侦查员直接到刘某家，一名侦查人员假扮买毒品的人，侦查员抱着试试看的态度，敲了敲刘某家的房门。没成想，过了没一会儿，屋里的人都没有问叫门的是谁，就直接把门打开了。”家中只有刘某和一名出生四十多天的婴儿，面对突如其来的民警，刘某表现得很镇定，甚至让人觉得这名40岁的女子和贩毒团伙没有任何关系。不过当侦查员询问到孩子的父亲时，刘某拒绝正面回答。任凭刘某如何狡辩事实不会撒谎侦查员在来之前，和刘某电话里谈过购买毒品的情况，刘某表示有货，所以警方在对刘某住处依法搜查时，坚信刘某一定藏匿了冰毒。民警：把东西拿出来，因为当着孩子面吧，我们得尊重一下你，对吧！希望你也值得让我们尊重把东西拿出来。刘某：你说东西啊？我没有。民警：咱不谈那没用的。刘某：你们随便搜，你知道吧，我说没有就没有。民警：对孩子是一种尊重，这么大的小孩，你当母亲你得有母亲样。刘某：真没有。任凭刘某如何狡辩，事实不会撒谎，最终侦查员在刘某的包里搜出了吸毒工具。在刘某住处搜出了吸毒用的冰壶和少量冰毒，事实面前，刘某承认自己吸食毒品。待产期、哺乳期仍在吸毒“伟大的母爱”被玷污民警：最后一次抽啥时间？刘某：最后一次好像没有十天。民警：你要不抽孩子就得哭，喂奶吗？刘某：喂奶。民警：母乳吧？刘某：嗯，喂奶有时候也喂奶粉。民警：是母乳吗？刘某：嗯。民警：你这母乳，你这这么整，这孩子是捡来的啊？富裕县公安局刑警二大队副大队长丁福秋说：“在审讯刘某的过程中孩子哭，我们怀疑孩子是饿了，给她冲了奶粉，帮着刘某冲奶粉孩子不吃。刘某说了一句，这个孩子只吸她的乳汁，而且是她吸毒之后的乳汁，孩子吃着才来劲。”不只是在哺乳期，刘某在怀孕期间也吸食毒品，了解到这一情况的办案民警，感到惋惜，可刘某自己却不以为然。随后，侦查员在刘某的家里找到了她贩卖毒品的账本，刘某被带回公安机关。警方继续蹲守将吸贩毒团伙十名成员一举歼灭富裕县公安局刑警二大队副大队长丁福秋说：“因为祥哥他和刘某的关系，他不可能是一天不打电话，而且他经常应该是，也到刘某居住的这个楼房来看孩子或者是有什么事情。我们把人带走之后，如果是祥哥回来发现人也没了，孩子也没了，打电话再不接，他应该有警觉性。”考虑到这一点，侦查员把刘某押解到齐齐哈尔富裕县后，又返回到黑河市嫩江县刘某居住的小区蹲守。这时，警方已经掌握了祥哥的体貌特征和驾驶车辆的信息。当天下午，祥哥果然在小区出现。富裕县公安局刑警二大队副大队长丁福秋说：“祥哥走到单元门口的时候，我们侦查员已经发现他了，看他进入我们包围圈之后就马上实施抓捕。”民警在祥哥的身上搜缴了9包冰毒，通过讯问，祥哥交代，还有他的一伙下线也在同一小区居住，警方趁热打铁，当天晚上抓获了杜某等三人，至此，这个以祥哥为首的吸贩毒团伙十名成员被一举歼灭。毒品让人丧失理智，哪怕是世上最伟大的母爱，一旦被毒品侵蚀，也变了味道。毒品毁灭的不只是一个人，更是一个家庭，甚至是下一代。面对毒品，没有模棱两可，没有侥幸！本文来源：新闻夜航责任编辑：姬雪莹_NN6784",
    "Title": "女子哺乳期仍吸毒:吸毒后的乳汁 孩子吃着才来劲_网易新闻"
}