{
    "Source": "Netease",
    "KeyWords": "出租车,气改,武汉,天然气",
    "URL": "http://news.163.com/17/1225/10/D6GBS49M000187VE.html",
    "PublishTime": "12/25/201709:54:00",
    "Comment": {
        "Content": "朝令夕改 烧纸有污染，还是人推吧，绿色无污染[窃笑][窃笑][窃笑] lnc运输船 拍脑袋决定，拍胸脯保证，拍屁股走人 决策者镇他妈猪脑想怎么干就怎么干真把老百姓当猪么做错了还不用被问责当老爷就是爽。。。 煤改气，气改油 美国的气怎么运过来？太平洋下面埋个管子成本高[微笑] 某人在气象大会上装逼，下面的人急功近利的拍马屁，才造成了今日的朝令夕改 就算是船运过来也远比毛子的气便宜很多…… 吹牛你也信[微笑] 现在天然气进口需要占用外汇了，所以XX 脱了裤子您随便折腾 以后不是两桶油牛逼了，是一口气牛逼。 中国的狗屁政策 卧槽 玩死你不犯法 大手一展，改气！大手一翻，改油。<br>上面动动嘴，下面跑断腿。 这特么折腾的也是没脾气了，烧油时，你们提倡改气，烧气时你们再来改油，而且到底用什么好？ 折腾吧！早晚把自己折腾没了 上坟，烧报纸。。。 哈哈哈 搞得民生鸡飞狗跳的,好能耐 呵呵😄 领到的三拍，一拍脑袋，二拍胸脯，三拍屁股。[喷水][喷水][喷水] 你敢造成环境污染抓起来！然后大家烧香吧！祈求风调雨顺 最好是烧报纸至于是哪家报纸大家心里有数 烧刀。 建三峡还说几分钱一度电呢 屁股决定脑袋的政策的后遗症显现了 没有发达国家的命，却得了发达国家的病 烧油改烧气，烧气改烧油，还是烧纸吧！ 出租车不用改的。本身就是油气双燃料。只是汽油要贵一半还多。我前几年在重庆老家开出租车烧气2毛多3毛不到一公里。烧油6毛妥妥的。长安铃木天语SX4。 哈哈哈，中国的事情不都是这样么？还记得去年股市的熔断机制么？一天熔断好几次，他们玩的好刺激[鄙视] 一个笑话。 油改气，气改油，劳民伤财领导牛。<br>煤改气，没有气，害民坑民何时头。 应该在为毛子的气争取时间……我就不明白了，美国的气远比毛子的气质量好，而且便宜，为什么不进口美国的气？？？ 大清气数已尽哈哈😄 你们不懂了吧<br>油改气那是上任的事<br>气改油是本任的事<br>这就是政绩<br>下任还得继续改阿 想一出是一出，天马行空。 烧...报纸最节能 卧槽，我没看错吧，以前大力支持油改气，现在才几天，我失忆了 可燃冰呢？一月产三十万吨，加满油箱可以跑十万公里的呢？ 骄傲，治国有方，百姓幸甚 哈哈哈看看所谓的医改，和教育改…… 都是脑残专家干的好事，真是中国奇葩现象 这套路玩的，服 天然气利益集团完败 。。。。 为什么卖给你？ 神经病郭嘉，油改气，气改油，朝令夕改。 哈哈哈哈哈哈，船运过来也比毛子的便宜啊！ 现在天然气进口需要占用外汇了，所以XX 网约车能有补贴吗？ 烧油改烧气，烧气改烧油，还是烧纸吧！ 汽改油，又一次打脸了。就好像当初实施计划生育时响应的号召：只生一胎好，国家来养老。N年后发现没那能力，又要开放二胎一样。没脑子。。。 卧槽，我没看错吧，以前大力支持油改气，现在才几天，我失忆了 学习思想强大自己 到底是谁弄出来用天然气取暖的？谁批准的？批准之前做过调查没有？拍脑门决定之后有人负责没有？ 我也是醉了 当时那说一升水可以让车跑100公里的砖家呢？出来吧！是时候发挥你的才能了！ 油改气，气改油 用电？电是烧煤来的... 比我们有脑子多了。出不去，能出去早出去了 现在水落后，直接进空气<br>做动力！ 气改油空气又污染了咋办 咦，这钱哪里来的？老百姓的税钱，补贴给司机，然后老板姓坐还是出这么多钱。 抽大烟吧 你可以去东北看看穿厚点能不能活下来啊 吹牛你也信[微笑] 要日人民的那种报纸，一张顶人家一吨 你们不懂了吧<br>油改气那是上任的事<br>气改油是本任的事<br>这就是政绩<br>下任还得继续改阿 燃油附加费干嘛了？为什么还补？ 烧...报纸最节能 有意思 你太牛逼了 2楼就是一个智障 看完再喷吧，本来出租就大部分是油气都行，缓解供气压力的临时措施，有补贴已经很不错了。 油改气？气改油？我的天！ 扯犊子天下第一 除了傲慢还有什么 护卫首都用气 6楼，太平洋岛国都不用气？ 还不是环保在北方煤改气闹的 出租车和公交车哪个赚钱？为什么要给他补贴？ 哪样有补贴改哪样，噢耶 傻逼 脸呢？ 美国的气怎么运过来？太平洋下面埋个管子成本高[微笑] 烧人民日报最好，因为不缺 决策者镇他妈猪脑想怎么干就怎么干真把老百姓当猪么做错了还不用被问责当老爷就是爽。。。 代班司机咋办 城市雾霾严重了谁负责是不是补贴一下私家车 人民日报不能说假话吧?每升可燃冰跑5万公里,规定🚕出厂预配四五升可燃冰直接跑到报废,这么好的事儿为啥不去做,有关部门的A4呢? 骗补贴 今年也是醉醉的，天然气压力不够，壁挂炉打不着火[挨揍]，要冻死在这个冬天么？[不屑]坐标延安 想一出是一出，天马行空。 为啥不穿厚点非要取暖？我们成都从来没有供暖设备怎么活下来的？ 日常用气都-成问题。热水器放出来的水都和尿差不多热 烧人民日报么？ 先让你改了，再取消补贴 煤改气，气改油 改成烧税得了 low人不准进城 某人在气象大会上装逼，下面的人急功近利的拍马屁，才造成了今日的朝令夕改 置民生于何处？ 烧水吧 烧油改烧气，烧气改烧油，还是烧纸吧！ 烧报纸你试试？敢生火取暖，胆子不小！ 中国真好 为什么不让这些专家在车屁股后面吹，那样就能跑了，这些专家可是吹的火车都能跑，火箭都能飞。 上联：以前油改气，下联：现今汽改油，横批：朝令夕改！ 这特么折腾的也是没脾气了，烧油时，你们提倡改气，烧气时你们再来改油，而且到底用什么好？ 气的资产在上任，油到这任了 改来改去，份子钱可以少交一点吗？？？ 油改气的政策结了吗 恶意提问，一月枪毙🔫 他走不了 有病 钱从哪里来？ 油改气，气改油，劳民伤财领导牛。<br>煤改气，没有气，害民坑民何时头。 哈哈哈哈哈 上坟，烧报纸。。。 改水吧 烧...报纸最节能 卧槽，我没看错吧，以前大力支持油改气，现在才几天，我失忆了 我还以为看错了呢[喷水][喷水][喷水] 老子以为自己看错标题了，气改油？ 那赶马车怎么样？ 拍脑袋决定，拍胸脯保证，拍屁股走人 现在都是女人在上面干 这样做又有什么用，不如把煤改气换成煤改you 中国不适合用天然气取暖 中国的狗屁政策 大手一展，改气！大手一翻，改油。<br>上面动动嘴，下面跑断腿。 改来改去，物价就这么上去了 短缺都是人为的放开市场看看 搞得民生鸡飞狗跳的,好能耐 你敢造成环境污染抓起来！然后大家烧香吧！祈求风调雨顺 最好是烧报纸至于是哪家报纸大家心里有数 烧刀。 没霾的时候先油改气了，结果还要跟着一起吸霾；然后煤改气坑的直接没气用，现在又逼着气改油。 哈哈哈，中国的事情不都是这样么？还记得去年股市的熔断机制么？一天熔断好几次，他们玩的好刺激[鄙视] 还是屁民推车吧 大清气数已尽哈哈😄 我们是政策国家，北方仓促推出的“煤改气”供暖政策，引起连锁负面反应！ 改电动算了。 建三峡还说几分钱一度电呢 拍脑袋决定，拍胸脯保证，拍屁股走人 像在等着抽大烟的烟馆也是火的不要不要的 朝令夕改 哈哈哈哈哈哈哈哈 明年怎么改？ 烧纸有污染，还是人推吧，绿色无污染[窃笑][窃笑][窃笑] 我的天，政策变化也太快了吧 接着折腾[狗] 今年为什么会有这样严重的气荒啊？我在的兰州，新疆过来的气应该很足啊，都限制了，除了公交车，其他车不让加了， 烧油改烧气，烧气改烧油，还是烧纸吧！ 其实应该改成烧水 朝秦暮楚 到底是谁弄出来用天然气取暖的？谁批准的？批准之前做过调查没有？拍脑门决定之后有人负责没有？ 现在怎么这么乱 我没看错吧？我怎么一直觉得在油改气呢，武汉这么牛，逆潮流而动？ 朝灭匪绝 看来生在新中国长在红旗下的这群人确实具有瞎折腾的基因。 煤改气，气改油 应该花个几十亿气改电，最后因为成本过高取消 这次真的赢了 只听说油改气，油改电的，还头一次听说气改油[狗] 瞎几把折腾 你们不懂了吧<br>油改气那是上任的事<br>气改油是本任的事<br>这就是政绩<br>下任还得继续改阿 直接改烧煤问题就都解决了 朝不保夕 烧...报纸最节能 卧槽，我没看错吧，以前大力支持油改气，现在才几天，我失忆了 出租车不用改的。本身就是油气双燃料。只是汽油要贵一半还多。我前几年在重庆老家开出租车烧气2毛多3毛不到一公里。烧油6毛妥妥的。长安铃木天语SX4。 朝阳群众 朝花夕拾 朝三暮四 这是弄的啥，劳民伤财。折腾来折腾去。刘少奇三份天灾，七份人祸被斗死了。现在是十分人祸。人啥事没有。 哈哈，迟早的事 就没人出来背个锅这折腾劲 脱了裤子您随便折腾 以后不是两桶油牛逼了，是一口气牛逼。 朝九晚五 污染环境 几天，可以拍多少次脑袋了 厉害了我的国，愣是搞出能源危机 退朝！ 🐷脑简单 666 你真把自己当主人了，都是一群绵羊[喷水][喷水] 你家没水表？ 领到的三拍，一拍脑袋，二拍胸脯，三拍屁股。[喷水][喷水][喷水] 屁股决定脑袋 其实应该改成烧水 煤气分离，又岂在朝朝暮暮 这钱经过纳税人同意了吗？！ 东墙西墙轮流拆，玩的666 兰州的气来自青海涩北 成都的这个死逼，绝对没有到过北方 纳税人？算了吧！ 屁股决定脑袋的政策的后遗症显现了 为啥不穿厚点非要取暖？我们成都从来没有供暖设备怎么活下来的？ 制定油改气的正策的领导，他是赵高转世吗？ 玩死你不犯法 哈哈哈 荒唐 呵呵😄 折腾吧！早晚把自己折腾没了 改来改去谁出钱 诶…………我聋了还是瞎了 改完就没气了 为什么烧气的车还收燃油附加费？ 不折腾哪有gdp？ 没有发达国家的命，却得了发达国家的病 一个笑话。 卧槽 嘿嘿嘿 人家注重的不是还改后的效果，而是改来改去的过程。不该那有捞油水的名头？ 这特么折腾的也是没脾气了，烧油时，你们提倡改气，烧气时你们再来改油，而且到底用什么好？ 卧槽，我没看错吧，以前大力支持油改气，现在才几天，我失忆了 ",
        "Total": 3830,
        "Link": "http://comment.news.163.com/news2_bbs/D6GBS49M000187VE.html",
        "Reply": 176
    },
    "Article": "（原标题：武汉出台出租车“气改油”补贴：每车每天补百元，暂行15天）继暂停部分机关、企业用气后，12月24日，武汉市客管处透露，该市已出台出租车“气改油”补贴。自12月以来，受上游资源供应和全国供气形势影响，武汉天然气供应出现紧张局面。该市多措并举，纾缓天然气供应不足。“气改油”补贴缓解打车难12月23日，武汉市下发通知，因管道压力不足，武汉市车用压缩天然气生产困难，启动出租车“气改油”，政府对出租车给予补贴。实施时间暂定15天。补贴标准为每车每日补贴100元。据了解，实施“气改油”补贴后，市民打车难问题有望得到缓解。此前半个多月，武汉各加气站经常排起数公里长队。受加气难波及，市民乘坐出租车受到一定影响。华昌公司张师傅向湖北日报全媒记者介绍，自12月以来，每天要花三四个小时排队加气，一天净收入不到100元，收入较之前减少超过一半。不少的士司机不愿跑远路。除电动车外，武汉出租车基本上都是油气两用，之所以不愿意烧油主要是为了省钱，出租车烧气每公里仅需0.35元，而烧油需要0.6元以上，有补贴后损失得到一定弥补，加油不用排长队节省了时间。保居民集中供暖运行天然气供应紧张，对供暖影响最大。12月7日，武汉市天然气公司停止全市娱乐场所、工商业采暖、机关事业单位采暖及工业、公共服务设施(学校、医院等除外)等近300家用户的天然气供应，确保民生基本用气。作为武汉最大的集中供暖项目，12月24日，湖北日报全媒记者来到武昌集中供暖运营方湖北华电武昌热电有限公司，该公司运维科负责人孙海波介绍，电厂每日气源从去年同期的90万立方下降至70万立方。由于气源不足，导致供热面积下降。为保证居民供暖，上周起，该公司已陆续停止对中冶南方、中石化等3个对公项目供暖。为防止未来供气进一步紧张，现在公司已经联系青山热电厂作为备用热源。据了解，今年集中供暖价格未变。孙海波表示，由于上游天然气价格已经上涨一倍，目前集中供暖已处于亏损状态。尽管如此，也一定会保证居民的供暖。解决气荒需开源节流中南财经政法大学教授叶青建议，解决缺气问题需开源节流。开源方面，一方面推进天然气进口量上升，开放更多企业参与到天然气产业中，实现多元化运营；另一方面，提升国内天然气产量，加大非常规天然气如页岩气等的开发力度。节流方面，倡议全民节约用气，大单位、大企业带头节约用气，居民用户多启用电能采暖。同时，天然气政策也要更明确，对改善国内空气污染没有太大帮助的行业，限制天然气用量，对于有明显效果的消费环节，如集中供暖，加大推广力度。本文来源：澎湃新闻责任编辑：邵小波_NN2479",
    "Title": "武汉出租车气改油补贴:每车每天补百元 暂行15天_网易新闻"
}