{
    "URL": "http://ent.163.com/17/1227/15/D6M2SN8B00038FO9.html",
    "Comment": {
        "Total": 65,
        "Reply": 20,
        "Link": "http://comment.ent.163.com/ent2_bbs/D6M2SN8B00038FO9.html",
        "Content": "大师级人物啊，带给世界太多惊喜 我还会模仿 兔八哥和啄木鸟伍迪 小时候最喜欢的兔八哥 出什么事了伙计？这句话最经典 一代人的记忆 最喜欢啄木鸟的笑声了，小时候超级喜欢模仿 sha 哭唧唧 很喜欢看兔八哥。 小心心 哦啊 大师级人物啊，带给世界太多惊喜 兔八哥 小时候最喜欢的兔八哥 兔八哥是华纳的吧,不是迪士尼的. 美美美 最喜欢啄木鸟的笑声了，小时候超级喜欢模仿 兔八哥我爱你 我还会模仿 兔八哥和啄木鸟伍迪 出什么事了伙计？这句话最经典 兔兔 一代人的记忆啊，兔八哥和猫和老鼠太经典了 一路走好小时候的回忆 一代人的记忆 哈哈哈 "
    },
    "Article": "网易娱乐12月27日报道曾创造了“兔八哥”（BugsBunny）等经典卡通形象的美国动画师鲍勃·吉文斯（BobGivens）因急性呼吸衰竭于12月14日在加州伯班克的普罗维登斯圣约瑟夫医疗中心去世，享年99岁。美国动画工会日前决定，将在明年的2月10日举行追悼会，以纪念这位动画界的泰斗人物。鲍勃·吉文斯除了兔八哥之外，还修改过《猫和老鼠》（Tom&Jerry）、《大力水手》等动画形象。本文来源：网易娱乐责任编辑：陈恺_NK4686",
    "KeyWords": "兔八哥,吉文斯,动画师,鲍勃",
    "Source": "Netease",
    "Title": "动画师鲍勃·吉文斯去世 “兔八哥”失去再造之父_网易娱乐",
    "PublishTime": "12/27/201715:38:05"
}