{
    "Source": "Netease",
    "KeyWords": "安切洛蒂,卡佩罗,拜仁",
    "Title": "卡佩罗:拜仁球员做掉了安切洛蒂 他们希望海帅执教_网易体育",
    "PublishTime": "12/25/201711:00:30",
    "URL": "http://sports.163.com/17/1225/11/D6GE70HO00058781.html",
    "Article": "网易体育12月25日报道：据德国天空体育报道，意大利名帅、现任中超江苏苏宁主帅卡佩罗，对海因克斯重返拜仁执教发表了看法，并表示是拜仁球员“做掉”了自己的同胞安切洛蒂。卡佩罗接受采访时表示：“大家都很好奇，为什么海因克斯这么快就能重新执教拜仁，我觉得这是球员的意思（意指罗本和里贝里），教练是有很大的权力，但是球员不配合，安切洛蒂也没辙。”卡佩罗还对拜仁球员和安切洛蒂之间的关系发表了看法：“他们想挤走安切洛蒂，认为海因克斯才是最适合他们的主帅，他们成功了。”本文来源：网易体育作者：木枝责任编辑：冯昊天_NSJS2656",
    "Comment": {
        "Content": "安胖从一开始就没把拜仁放在心上，还没上任就来个插兜冠，上任之后整天都是皇马c罗的叫来叫去，他的下台完全是自找的。 安胖做教练三个欧冠现役第一人，算历史也只有一人可以比肩。 场面难看，成绩稀烂，客场惨败，年轻球员看不到希望，体能教练滥竽充数，一个一个球员在场上都夕阳红踢法，不下课才怪，卡佩罗给自己同行说话可以，这样颠倒是非说什么球员做主教练是不是太无耻了，你战绩烂成那个样子老板能容得下你？安切洛蒂离任以后几乎所有人都打出来或恢复正常水平了，J罗科曼乌尔赖希托利索穆勒博阿滕都是这样，难不成所有球员都厌恶主教练想消极怠工？J罗也想做教练？托利索也想做教练？老好人马丁内斯也想做主教练？还替别的队YY拜仁球员，卡佩罗得多无耻才能说出这么一番话来。忘了自己在皇马怎么下课的了？ 海公公回归，保底三冠王！ 适应不了 看来卡佩罗在这方面经验丰富：他多次下课，都是被球员做掉，和战绩无关 克罗斯,拉姆,小猪这个三角形是瓜秃在拜仁控球巅峰,代表作打曼城,曼城拿不到球... 客场打巴黎，把狐媚和博阿滕这两个世界前五的中卫放在替补席，呵呵呵 罗贝里是球霸是不争的事实，以为走狗屎运拿了欧冠还以为年年都这么厉害，等着这次欧冠被虐 罗贝里是球霸是不争的事实，以为走狗屎运拿了欧冠还以为年年都这么厉害，等着这次欧冠被虐 你不想想不上场的人的原因？受伤吗？还是和教练对着干？安帅老好人一辈子怎么可能栽在拜仁手里 卡佩罗这就是在挑事，搅屎棍一个。那他给列列安胖给拜仁带来了什么？ 我也是这么认为的 都意大利人，给自己同胞说句话很正常，不要激动 其实拜仁应该清洗罗贝里了这么大年纪，在队中其实就是毒瘤 谁让海因克斯在拜仁威望极高，安胖是来打酱油的。。。。。。。 球员有权利选择自己喜欢的教练，怎么了 卡佩罗你错了，安帅没有权威和技术执教拜仁和其他任何甲级球队 关键是海帅回来后也确实走向了正规，总不能把所有问题都往球员身上推吧。 做掉？踢大巴黎时半场换人换的什么狗p，当时镜头里可是清清楚楚的看到罗贝里在热身，结果呢？倒是到了七十几分钟0:3时才换上罗本，逗呢？说拜仁球员做掉安切洛蒂的，自己先想想自己看过几场拜仁的比赛吧，恐怕你们连一件拜仁的正版球衣都没买过，更别说什么拜仁会员了，你们有什么资格骂球员骂高层 罗贝里是球霸是不争的事实，以为走狗屎运拿了欧冠还以为年年都这么厉害，等着这次欧冠被虐 插兜冠那个太搞笑了，看他插到哪了。。。哈哈，一世英名毁于一旦啊。。 马上退役了，霸不了几年了 德甲整年二人转，你说安帅没权威？安帅拿的冠军，海因克斯都比不了。 哎安帅不该去拜仁最后弄的一地鸡毛太操蛋了怪不得瓜迪奥拉跑了还TMD想续约?再续一年瓜迪奥拉也得跪在地上 那是扯蛋，不了解拜仁就别瞎哔哔 呵呵，安被炒的时候，谁知道海帅接手，当时都在想凸鹤或霍村少帅接手，还为了海帅做掉安， 说实话，拜仁里面的罗贝里就是球霸 正好啊，顶替齐达内！学普京和梅德韦杰夫，二人转 真是放屁。打巴黎首发又不是球员自己安排的。你自己作死还说别人要做掉你。 南大王今年挖光霍村，做掉主教练，挺好挺好😊。 看看鸟不让队医上场就被球员做了，那个瓜对着本队队医下贱的鼓掌，没被做了，应该知足了。。。 安胖还是很强的，不喜欢年轻人，而且还是一套阵容打天下。 同意，难怪瓜帅不续约 被踢了好几次了还在吹呢？ 干不好就得滚蛋！ 海公公回归，保底三冠王！ 2000年后海帅声望仅次于希帅 会看球的，懂球的人都能看出来，的确是被做掉的， 性质不一样，鸟是怪队医耽误时间，不想让队医上场治疗球员！瓜是怪队医老让球员伤病。 罗贝里是球霸是不争的事实，以为走狗屎运拿了欧冠还以为年年都这么厉害，等着这次欧冠被虐 说对了！球员只要听瓜瓜的！战术方面将非常牛！ 罗贝里是球霸是不争的事实，以为走狗屎运拿了欧冠还以为年年都这么厉害，等着这次欧冠被虐 罗贝里是球霸是不争的事实，以为走狗屎运拿了欧冠还以为年年都这么厉害，等着这次欧冠被虐 卡佩罗这就是在挑事，搅屎棍一个。那他给列列安胖给拜仁带来了什么？ 还没踢，先投降了 克罗斯,拉姆,小猪这个三角形是瓜秃在拜仁控球巅峰,代表作打曼城,曼城拿不到球... 嘴太臭，好不尊重同行，插兜冠？报应来了吧。。。 他的执教能力还不如我 卡佩罗你错了，安帅没有权威和技术执教拜仁和其他任何甲级球队 是啊，打巴黎那场阵容是什么意思 雖然功不可沒，但這倆得退役了，拜仁必須盡快進入全面年輕化改革 做掉？踢大巴黎时半场换人换的什么狗p，当时镜头里可是清清楚楚的看到罗贝里在热身，结果呢？倒是到了七十几分钟0:3时才换上罗本，逗呢？说拜仁球员做掉安切洛蒂的，自己先想想自己看过几场拜仁的比赛吧，恐怕你们连一件拜仁的正版球衣都没买过，更别说什么拜仁会员了，你们有什么资格骂球员骂高层 罗贝里是球霸是不争的事实，以为走狗屎运拿了欧冠还以为年年都这么厉害，等着这次欧冠被虐 哈哈 罗贝里是球霸是不争的事实，以为走狗屎运拿了欧冠还以为年年都这么厉害 德甲整年二人转，你说安帅没权威？安帅拿的冠军，海因克斯都比不了。 哎安帅不该去拜仁最后弄的一地鸡毛太操蛋了怪不得瓜迪奥拉跑了还TMD想续约?再续一年瓜迪奥拉也得跪在地上 他什么时候拿了西甲冠军的？ 南大王今年挖光霍村，做掉主教练，挺好挺好😊。 那为什么少帅没来？而且高层一定要请回海帅。 客场打巴黎，把狐媚和博阿滕这两个世界前五的中卫放在替补席，呵呵呵 罗贝里是球霸是不争的事实，以为走狗屎运拿了欧冠还以为年年都这么厉害 都学切尔西了，话说：法国荷兰有内讧传统，罗贝里这么做不奇怪 问题是有球霸的能力，海公公确实是最是个拜仁的主帅 国家队里的毒瘤！😄 再怎样，还能连续2年的0得分机会被虐？？想喷安胖输皇马都找不到机会，惨啊。。。 安帅成功的拿到了德甲联赛冠军，集五大联赛冠军第一人 安胖做教练三个欧冠现役第一人，算历史也只有一人可以比肩。 他在国家队也是啊[大笑] sorry原谅我没说明白。当年弗格森对我说过当今世上就一位教练，那就是你。其他都是教员。 苏宁灭了胡尔克队 估计不用多久2年足矣，到时候就怕被欧冠吊打了 看来卡佩罗在这方面经验丰富：他多次下课，都是被球员做掉，和战绩无关 不管是不是做掉，从结果看，对了 罗贝里是球霸是不争的事实，以为走狗屎运拿了欧冠还以为年年都这么厉害，等着这次欧冠被虐 拜仁这种队需要一个压场子的，新大哥老大哥各种刺头都在一个队里面，不好弄啊，像安切洛蒂和浆糊的他们肯定不服 小心仁迷挠你 这么说的还挺有道理的 被踢了好几次了还在吹呢？ 安胖从一开始就没把拜仁放在心上，还没上任就来个插兜冠，上任之后整天都是皇马c罗的叫来叫去，他的下台完全是自找的。 同理要是带队成绩好也不会闹矛盾了 都意大利人，给自己同胞说句话很正常，不要激动 谁让海因克斯在拜仁威望极高，安胖是来打酱油的。。。。。。。 球员有权利选择自己喜欢的教练，怎么了 所以难道这全世界球霸行情都一样 插兜冠那个太搞笑了，看他插到哪了。。。哈哈，一世英名毁于一旦啊。。 关键是海帅回来后也确实走向了正规，总不能把所有问题都往球员身上推吧。 记得之前阿隆索还是谁，爆料当年欧冠惨败给皇马那场，球员们根本没按瓜的意思去踢。 你不想想不上场的人的原因？受伤吗？还是和教练对着干？安帅老好人一辈子怎么可能栽在拜仁手里 呵呵，安被炒的时候，谁知道海帅接手，当时都在想凸鹤或霍村少帅接手，还为了海帅做掉安， 说实话，拜仁里面的罗贝里就是球霸 正好啊，顶替齐达内！学普京和梅德韦杰夫，二人转 真是放屁。打巴黎首发又不是球员自己安排的。你自己作死还说别人要做掉你。 场面难看，成绩稀烂，客场惨败，年轻球员看不到希望，体能教练滥竽充数，一个一个球员在场上都夕阳红踢法，不下课才怪，卡佩罗给自己同行说话可以，这样颠倒是非说什么球员做主教练是不是太无耻了，你战绩烂成那个样子老板能容得下你？安切洛蒂离任以后几乎所有人都打出来或恢复正常水平了，J罗科曼乌尔赖希托利索穆勒博阿滕都是这样，难不成所有球员都厌恶主教练想消极怠工？J罗也想做教练？托利索也想做教练？老好人马丁内斯也想做主教练？还替别的队YY拜仁球员，卡佩罗得多无耻才能说出这么一番话来。忘了自己在皇马怎么下课的了？ 马上退役了，霸不了几年了 人家5个欧冠，不知道嘴强王者你几个啊。 看看鸟不让队医上场就被球员做了，那个瓜对着本队队医下贱的鼓掌，没被做了，应该知足了。。。 同意，难怪瓜帅不续约 安胖还是很强的，不喜欢年轻人，而且还是一套阵容打天下。 其实拜仁应该清洗罗贝里了这么大年纪，在队中其实就是毒瘤 适应不了 我也是这么认为的 不意外，老油条不听话，难管 [喷水]501政策下的德甲“巨无霸”？ 海公公是最适合拜仁的，恐怕不仅仅罗贝里这么认为吧 那是扯蛋，不了解拜仁就别瞎哔哔 安帅早就可以滚了，拜仁球员做的好，哈哈 ",
        "Reply": 75,
        "Link": "http://comment.sports.163.com/sports2_bbs/D6GE70HO00058781.html",
        "Total": 943
    }
}