{
    "Article": "网易娱乐1月2日报道近日，林宥嘉与郭富城在上海同台跨年，1月1日，林宥嘉通过微博晒和郭富城后台合影，并称已被郭富城圈粉，还赞其“简直不能更暖、不能更强。”照片中，两人搞怪卖萌，十分的逗趣。1月1日晚，林宥嘉通过微博晒和郭富城合影，并写道：“我已被郭富城圈粉。私下的互动就不多说；看他一人独舞对你爱不完，上台不用讲话，每一个角度、动作，亲眼看过就会知道厉害；而且昨天的舞台地板其实很溼，我们共舞的时候，他竟然可以在舞步裡不留痕迹的提醒我：很滑，慢慢，要小心。简直不能更暖、不能更强。一个霸气外漏的舞台皇者，下台还陪你拍搞笑照片，一起分享快乐给大家。就用这张照片，祝我所有的歌迷：新年快乐！也祝城城哥，新年快乐，我为你应援！”还特意艾特郭富城。照片中，一向怕冷的林宥嘉身穿厚厚的彩色毛绒大衣，戴着手套，表情呆滞，翻着白眼，郭富城双腿弯曲，配合林宥嘉的身高，相对于林宥嘉，郭富城活泼了很多，面带笑容比着剪刀手，一静一动非常的和谐。本文来源：网易娱乐责任编辑：宋玉鑫_NK6612",
    "Title": "林宥嘉称已被郭富城圈粉：新年快乐 我为你应援_网易娱乐",
    "PublishTime": "01/02/201806:15:21",
    "Source": "Netease",
    "Comment": {
        "Content": "郭富城这几年演技磨练出来了 郭富城，舞台王者，华人之光。。。 身高差不多 想当年郭富城花巨资跟迈克杰克逊的编舞学习舞蹈，，多年后看到《就是这样》的纪录片，才知道迈克杰克逊对演唱会的要求严格程度，推荐去看看，， 曾经的四大天王，除了黎明其他都因为身高不高被人诟病。。。。。不想现在小鲜肉身高也有这么矮的 郭富城的身材比例很好 这部记录片看了不少于5遍，迈克尔完美上升到了接近艺术之神的史上之最的流行音乐之王的层次，并且没有之一！！！ 郭富城傻逼 看过，艺术 郭这么大岁数还真唱真跳，确实不容易 呵呵 郭矮子就是个老流氓，华人之耻…… JJ太小就不要得瑟！ 说真的，跟陈奕迅那合作的专辑就今日营业好听点。其他都不咋样，没有了前面的那种特别。 郭富城，舞台王者，华人之光。。。 以前一直以为他是瞎的 抱大腿 想当年郭富城花巨资跟迈克杰克逊的编舞学习舞蹈，，多年后看到《就是这样》的纪录片，才知道迈克杰克逊对演唱会的要求严格程度，推荐去看看，， 苍老师虽然结婚了，但她精湛的演技永远定格在我们年少的记忆中，lIyBCH93PW复制这段话到支付宝，免费领取苍老师100部怀旧影片大礼包！ 身高差不多 郭富城的身材比例很好 这部记录片看了不少于5遍，迈克尔完美上升到了接近艺术之神的史上之最的流行音乐之王的层次，并且没有之一！！！ 身高和郭天王五五开，看来没有170 郭富城傻逼 苍老师虽然结婚了，但她精湛的演技永远定格在我们年少的记忆中，5RvnqU47bi复制这段话到支付宝，免费领取苍老师100部怀旧影片大礼包！ 看过，艺术 郭富城这几年演技磨练出来了 郭这么大岁数还真唱真跳，确实不容易 曾经的四大天王，除了黎明其他都因为身高不高被人诟病。。。。。不想现在小鲜肉身高也有这么矮的 呵呵 我为你硬媛 郭矮子就是个老流氓，华人之耻…… ",
        "Reply": 20,
        "Link": "http://comment.ent.163.com/ent2_bbs/D74H2KDC00038FO9.html",
        "Total": 211
    },
    "KeyWords": "郭富城,林宥嘉",
    "URL": "http://ent.163.com/18/0102/06/D74H2KDC00038FO9.html"
}