{
    "PublishTime": "12/31/201713:48:32",
    "Comment": {
        "Total": 1497,
        "Reply": 101,
        "Link": "http://comment.news.163.com/news_shehui7_bbs/D706709Q0001875P.html",
        "Content": "哈哈哈哈哈 能恢复才见鬼了，脑残女太多，监管部门无人监管 这话说得没毛病，闲的蛋疼去整容 整容不如關心屋企人，有這麼多錢不如出國見聞識字。愚蠢愚蠢！ 我是生活在一个动物园里吗？ 免费赠送八个酒窝 多漂亮的酒窝呀，而且是买一送三 其实我们的审美标准，从脸转移胸部再到臀部了，只有嫩雏才看脸 半年啊，怎么不说10年 漂亮！几个酒窝，挺好的！ 无知无畏啊 这和“欲练神功必先自宫”有异曲同工之妙啊！ 呵呵→_→骗你没商量 想要美先变鬼。这还一套套的，整的还挺押韵 只有两个字：“活该”。吃饱了撑着。 我只能说活该 线雕，身边好多朋友做，我觉得是花钱找罪受。又不难看，又不当明星，花那钱干嘛 美容这东西只要你一开始就停不先来了，全是坑，我老婆十一点了斑说是那块点的好，结果点完不但没少比以前还严重了，工作人员放你这次是深层击碎所以会向外扩散，在点两次就好了，我媳妇都后悔死了，在点完要还下不去就算完了，听她姐说还要花几万元恢复真尼玛坑爹 线雕，很多做完的两边脸都不一样，而且持续时间也不长，花钱买罪受 我就喜欢美容这行业很随机。 李逵变李鬼 做酒窝送梨窝 想要美先变鬼？聊斋美容学校毕业的？ 无知的女人太多 整容就是侮辱父母，连自己爹妈给的东西都不好意思出门见人还装清高 美容整形场所都是给无知的白痴傻婆们开设的，活该，怨谁呀。 就怕变鬼之后还不美！ 吓死人 好多酒窝:) 线埋浅啦大姐 浪你妈的，我也没说你长的不好看，这下和你离定了，滚吧！ 把埋的线取出来就好啦 跟贴被火星网友带走啦~ 鬼比人美呗[狗] 没把你整的连你妈都认不出来你就不错了…… 那得先整死才能变鬼 变鬼还需要美？变鬼是要杀人的 美容院的意思是叫你重新投胎 线拉的太紧了… 喝酒不会醉。碗多 人不要脸，果然什么话都说得出来 变鬼了 女人还是需要保养 哈哈哈，真的有道理 卧槽想吐 线雕，身边好多朋友做，我觉得是花钱找罪受。又不难看，又不当明星，花那钱干嘛 整啥啊，现在男女比例差那么多，只要是女的大把人追，除非女的要求高 我本来就五官长得好看啊不需要整啊可是我不会穿衣打扮 一直想植发又不敢 不敢恭维，这线拉的 请你去的？ 跟那个眼皮下垂说地心引力的真是一对绝代双娇 没有毁容差评 好多酒窝:) 活该活该活该活该活该活该活该活该活该活该活该活该活该活该活该活该活该活该活该活该活该活该活该活该活该活该活该活该活该活该活该活该活该活该活该活该活该活该活该活该活该 多漂亮的酒窝呀，而且是买一送三 鬼比人美呗[狗] 普通人整容整死了也活该！ 吓人啊 自然就是美 变鬼也不放过你[疲惫] 哈哈哈哈哈 整容不如關心屋企人，有這麼多錢不如出國見聞識字。愚蠢愚蠢！ 那得先整死才能变鬼 吓死了🤯 其实我们的审美标准，从脸转移胸部再到臀部了，只有嫩雏才看脸 半年啊，怎么不说10年 线埋浅啦大姐 这和“欲练神功必先自宫”有异曲同工之妙啊！ 押韵吗？ 我只能说活该 线雕，很多做完的两边脸都不一样，而且持续时间也不长，花钱买罪受 酒窝好啊 应该叫酒坑或酒窖。 美容院的意思是叫你重新投胎 坑坑更好看 变鬼还需要美？变鬼是要杀人的 美容整形场所都是给无知的白痴傻婆们开设的，活该，怨谁呀。 厉害厉害 吓死人 變成鬼怎樣漂亮？ 把埋的线取出来就好啦 聂小倩 那这个变得什么鬼啊？大坑鬼？ 想要美先变鬼。这还一套套的，整的还挺押韵 整容就是侮辱父母，连自己爹妈给的东西都不好意思出门见人还装清高 变了鬼再投胎？、 切克闹 很好 即日图 想要美先变鬼，没死变不了鬼。 美容这东西只要你一开始就停不先来了，全是坑，我老婆十一点了斑说是那块点的好，结果点完不但没少比以前还严重了，工作人员放你这次是深层击碎所以会向外扩散，在点两次就好了，我媳妇都后悔死了，在点完要还下不去就算完了，听她姐说还要花几万元恢复真尼玛坑爹 漂亮！几个酒窝，挺好的！ 无知无畏啊 浪你妈的，我也没说你长的不好看，这下和你离定了，滚吧！ 呵呵→_→骗你没商量 只有两个字：“活该”。吃饱了撑着。 想要美先变鬼？聊斋美容学校毕业的？ 没把你整的连你妈都认不出来你就不错了…… 我就喜欢美容这行业很随机。 整形医院坑你没商量 无知的女人太多 骗人，埋线根本不会这样 孩子同学妈妈说要做线雕，说用线把脸部提升起来，还说美容师在家里就能给做，想想这胆子也是够大了。[微笑] 想要美先变鬼？聊斋美容学校毕业的？ 那得先整死才能变鬼 一下整出几个酒窝？ 看人家 我现在看到紧就会想起动物世界 别想歪了！ 技术问题，线收的太紧了 喝酒不会醉。碗多 能恢复才见鬼了，脑残女太多，监管部门无人监管 这都几年的贴了，那家据说已经倒闭了哈哈 闲的，老了就知道假体整容带来后遗症了 免费赠送八个酒窝 哈哈哈哈 想要美先变鬼。这还一套套的，整的还挺押韵 哈哈哈哈 多出八个屌就更难看！ 线拉的太紧了… .... 药药药！ 做酒窝送梨窝 几个肉 就怕变鬼之后还不美！ 这话说得没毛病，闲的蛋疼去整容 活该！ 想要美先变鬼？聊斋美容学校毕业的？ 喜闻乐见 做酒窝送菜窖 勇敢的表现出自己整容之后的美丽,喜欢.赞 呵呵 富士康北门的艺剪坊（清湖形象店）<br>坑爹五步曲————————————坑爹的理发店<br>第一步，装热情——刚一走到门口，几个人围着你上来，那叫一个热情啊。只要你说了一句“洗剪吹”，全部人都散了……（钱少啊）<br>第二步，套关系——那个理发师（我们暂且叫他SB）会主动问你是哪里的人，但不管你说自己是哪里的人，SB都会说“哦，老乡啊”，然后会编出一个跟你同省的城市（最有可能的就是省府），让你放松警惕，开始下手宰你……<br>第三步，故意下套，让你钻——洗完头发，他会问你：“你头发有点弯，要不要梳直？”刚洗完头发，这么乱，当然要梳直啦。你中了，不是中奖，而是中了他的套套。里面的人马上又“热情”起来，两三个人会迫不及待的拿药水给你涂上，这就是钱啊……<br>第四步，“教导”你——等你发现后，店长（暂且就叫GRD吧）说这是你无知，不懂理发店的潜规则（靠，听起来怎么像圈圈里面的事），然后还教师口气的对你说，这次他“好心”告诉你，下次你就不会上当了（来他那里就是买教训的？），FUCK，强盗还讲起理来了！！！<br>第五，威逼胁迫——几个人“围着”你，然后绞尽脑汁给你“想办法、出主意”，押厂牌啊，押手机啊，“陪”你去取钱啊，真感觉自己处在Hongkong电影里<br>同仁们，希望大家记住富士康北门这个店——艺剪坊（清湖形象店）。现在我们被无数的无良商家残害，毒害、欺诈，我们这些“上帝”再也伤不起了，我们不能严惩他们，但至少可以抵制他们。 我是生活在一个动物园里吗？ 美容的好处:能整出个猪头脸 太容易让 活该 开了个大发雷霆 李逵变李鬼 看着身边的女友，我陷入了沉思…… 让客人开房 "
    },
    "Title": "女子脸部整容整出八个坑 工作人员:想要美先变鬼_网易新闻",
    "Source": "Netease",
    "KeyWords": "整形,变美,手术,医生",
    "URL": "http://news.163.com/17/1231/13/D706709Q0001875P.html",
    "Article": "（原标题：长沙女子脸部整容整出八个坑！！！）前不久，雷女士在长沙“和羲医疗美容”机构进行了深筋膜层悬吊提升术，原本是为了除去脸上皱纹，但是让她没有想到的是，术后脸部皮肤出现了八处凹陷，直到现在都没有恢复，已经严重影响到了她的日常生活。根据雷女士的说法，当时做整形手术时，医生不知道拿的针还是线在面颊部位直接扎进去，从这头扎进去，从这头出来，总共埋了8根线，也就是脸部有8个洞，做完之后肿胀的像猪头一样。雷女士称，当初同意接受这项整形项目，就是听信了工作人员宣称“无恢复期、7天针孔消失不见”的承诺。然而，术后至今已有2个月，面部凹陷情况虽有好转，但是脸颊处仍有明显的针孔，并且能摸到里面很硬的线。原本是为了除皱，现在面部却出现多处凹陷，脸颊处还留下了明显的针孔，雷女士的身心遭到了巨大的打击，希望医院能够给予她合理的赔偿且退还手术费。宣称无恢复期的埋线提升术，为什么面部会出现多处凹陷呢？“和羲科技美肤”机构的工作人员这样说道“整形界的行话，想要美先变鬼，刚刚整形完，脸会浮肿，缝的针印，这是正常现象，我们医生也说了这个恢复期是1到3个月。”整形医院的工作人员让雷女士去找当初给她做手术的医生，雷女士介绍，当初的主刀医生姓樊，记者到达现场后，这家整形机构提供了该名医生的相关资料及资质证明。整形机构的负责人称，雷女士接受的“悬吊提升术”，的确会出现面部凹陷等现象，但会逐渐恢复正常，根据个人肤质的不同，恢复期短则1到3个月，最长的可达半年以上。而雷女士则认为如果有3到6个月的恢复期应该提前告知，如果知道需要这么久就不会去做。整形机构工作人员随后拿出医生写的“4个月”恢复期的书面证明，这份由主刀医生樊某写下的书面承诺书显示，在2018年3月2日之前，雷女士脸颊的凹陷会平复。整形机构负责人承诺，如果雷女士在恢复期后，面部情况仍然没有得到改善，他们将做进一步协商处理。本文来源：湖南都市频道责任编辑：李天奕_NN7528"
}