{
    "PublishTime": "01/02/201808:00:04",
    "Comment": {
        "Total": 1633,
        "Link": "http://comment.tech.163.com/tech_bbs/D74N2C2Q00097U7R.html",
        "Reply": 263,
        "Content": "UC最出名的不是震惊部吗[微笑] 自从腾讯入主以后再也不用UC了，Chrome还是很好用的，最大优点是干净！ 以前一直用UC，现在好久没用了。 广告太多，我也改用chrome了！ PC端用Chrome，移动端用UCbrowser UC这么流氓软件在印度有可能哦！ 兄弟，有空去医院看看眼 现在私自在网页下加广告。 天天都看到震惊了举世了之类的新闻<br><br>不让说话算了，但是天天如此马屁，还让不让人活了 都说谷歌浏览器好用，我电脑版的手机版的都用过，只能说中国浏览器更了解中国用户的需求。目前电脑使用猎豹浏览器，手机使用UC。 UC国际版超级无敌好用。国内版广告稍微多点也不错 楼上搞错了，UC是阿里的。现在Uc真不如qq浏览器，Uc功能太多了，自己玩死自己 没有垃圾门户，非常好用 第一，这玩意分国外版和国内版，第二，只是在印度这个发展中国家 我uc的账号是@uc.cn不知道有和我一样的吗 你以为你用的国产浏览器都是自己的浏览器内核？你以为你用的手机系统都是独立于安卓系统？都是在人家的内核系统上加层皮肤而已 Uc现在就跟个智障一样,PS一条龙，就某某地发现一条龙的视频，这不是智障是什么 曾经的UC聊天工具也是和QQ相互媲美的，可惜一手好牌打烂了 以前JAVA的时代，2G网络用UC加载特别快。 的确，同道你好 UC以前可以看片免费😂😂😂 Uc聊天的是新浪出的吧，有点年头了。老网民啊 感觉数据不准确，身边的人，大部分都用百度和UC浏览器，有部分人用360的 因为你喜欢看啊。或者你很不喜欢看只要你点进来自媒体的目的就达到了内容真假跟它没有一毛钱关系 猎豹个流氓软件。懂中国用户也只是你觉得。 uc看片确实非常方便，咳咳 不信 看小视频方便 吓尿震惊。。。。。。。 自从uc被阿里收购以后再也没有用过了！ 谷歌浏览器看优酷爱奇艺等视频网站无广告，有专门插件的。 UC聊天的那个跟UC浏览器不是一家的 Uc垃圾的要死，越来越臃肿，还越来越慢 夸一下夸克浏览器目前最好的安卓浏览器没有之一 谁统计的数据？谷歌手机浏览器竟然占了中国一半市场，这软件难用的要死，不过电脑版倒是很好用 从塞班开始用的UCWEB，那时候图标还不是松鼠，那时候还没有QQ浏览器，一晃十多年了 国际版的UC手机浏览器确实挺好用的，版面简洁而且速度快操作简单，比Chrome好用，跟国内版一比较你会感觉他两不是一个公司出的 我现在越来越喜欢safari了，简洁快速。以前一直用uc，感觉现在越来越复杂了，还留着，但是一直没用 98年的时候，印尼人均是中国五倍，啧啧，如今成了中国五分之一 UC太臃肿不堪。 为何有人会喜欢用UC 监控隐私 谷歌的电脑版还可以手机版很一般 国内版的uc太流氓了，要不然用国外版的，要不然用uc的兄弟“夸克浏览器” 目测三楼idgay片正是他想要的 现在私自在网页下加广告。 天天都看到震惊了举世了之类的新闻<br><br>不让说话算了，但是天天如此马屁，还让不让人活了 那是新浪的 比你少一年，08年开始 🙄🙄 自从uc被阿里收购以后再也没有用过了！ 曾经的UC聊天工具也是和QQ相互媲美的，可惜一手好牌打烂了 凡是被阿里巴巴收购后就没有灵魂了，比如魅族[微笑][微笑] 兄弟，借一部说话 122ww 就用这恶心标题吸引人，你只有点进去，他就有流量广告费用。 真人荷官在线发牌。 可以点标题右下角x打开确认屏蔽这些自媒体 夸克就是以前的UC团队做的[狗] 性感诸葛在线发牌 老司机都用UC 从塞班开始用的UCWEB，那时候图标还不是松鼠，那时候还没有QQ浏览器，一晃十多年了 uc有些功能默认是开的，导致很多推送，不过你关了之后好用很多，起码比安卓系统与苹果系统自带的更合适我用，安卓与苹果自带的不好用所以我基本上都必装uc，毕竟从2005年的7610就开始使用了 夸克是uc前研发另立门户开搞的，因为uc被阿里收购 当年诺基亚用uc的时候兼职吊炸天 UC从Java就开始用了，来到智能时代刚开始还是用，但一段时间后就感觉UC像是上个时代的东西，然后就好久没有用了，不知道现在什么样的。 确实好用 第一个约炮工具就是UC 他是gay送你了 以前一直用UC，现在好久没用了。 uc聊天那个叫新浪uc吧 “西方媒体”真可怜，每周被震惊三次 我也是，pc版还好，手机不会用chrome的 UC还活着？ 07年开始用uc，陪伴我十年多了！ 原来uc是新浪的 新浪uc 中国更胜一筹 以前用UC，现在换成了Via游览器，干净到没朋友！ 谁统计的数据？谷歌手机浏览器竟然占了中国一半市场，这软件难用的要死，不过电脑版倒是很好用 Uc现在就跟个智障一样,PS一条龙，就某某地发现一条龙的视频，这不是智障是什么 夸克的文字排版没有X浏览器好用，广告拦截也弱 那个uc是新浪uc吗？ 因为你喜欢看啊。或者你很不喜欢看只要你点进来自媒体的目的就达到了内容真假跟它没有一毛钱关系 老司机，带带路 同夸克，这才是我想要的 夸克浏览器貌似是UC推出的年轻态版本😂，意不意外 病毒推广 看小视频方便 苹果里面也是最好用的，个人感觉 Fakenews 塞班时代用uc UC聊天的那个跟UC浏览器不是一家的 夸一下夸克浏览器目前最好的安卓浏览器没有之一 还是uc稳定，夸克做成电脑版还好，不太适合手机端，比如uc自动连页功能，压缩网页加速，屏蔽广告，漫画模式等等都完爆夸克。 国际版没有，不过没简体的，只有繁体 一打开软件就是几秒广告 UC打不开的，用谷歌，都打开了……这个牛逼，以前就是用UC看方便，现在也不方便了 chrome浏览器要翻墙才好用，要不连不到网 新浪的 八点 每经小编（微信号：xxxxxxx）注意到!这句出现的频率真高！ UC在非智能机时代印度占有率就很高 现在私自在网页下加广告。 uc震惊部又一次震惊了西方 夸一下夸克浏览器目前最好的安卓浏览器没有之一 第一，这玩意分国外版和国内版，第二，只是在印度这个发展中国家 澳门皇家赌场！一波可输几个亿！ 以前JAVA的时代，2G网络用UC加载特别快。 印尼也没见过世面，被震惊部吓尿 什么UCQQ360搜狗浏览器都是垃圾，反应慢界面丑陋，要用就用chrome要么就IE 也不行了 分享一下 老手机用300K的悦动就可以，用别的浪费流量，而且首页干净 uc震精部 你还是太年轻，最初叫朗玛UC，，开始QQ号要收费，UC一出，打的腾讯满地找牙，最开始的移动硬盘就是UC出的，虽然只有30MB 啊？难道不都是新浪的吗？ 又震精了，对，是震精了 标题党 UC我在用，比用，内容还全，屏蔽少。 同意，怀念我的5200 谁统计的数据？谷歌手机浏览器竟然占了中国一半市场，这软件难用的要死，不过电脑版倒是很好用 PC端用Chrome，移动端用UCbrowser 这就是劫持。 Chrome什么都好，就是迅雷链接加载不行 Uc聊天的是新浪出的吧，有点年头了。老网民啊 UC太臃肿不堪。 UC聊天的那个跟UC浏览器不是一家的 说的好像新浪不是阿里的一样。 以前一直用UC，现在好久没用了。 我手机电脑都用chrome，弄个科学上网，超好用 动不动就震惊 当初非智能机，只能跑java程序的时代，UC是最好用的浏览器，没有之一 说实话，uc下载后用了一段时间被我卸载了，这新闻真的没法看，看了直骂小编他娘。 同爱好 GYR-003，S4DNft80Qz，BT-023，ARD-007，UM-117，HET-496，PMS-074复制进支付宝，你懂的 为何有人会喜欢用UC 曾经的UC聊天工具也是和QQ相互媲美的，可惜一手好牌打烂了 这么屌？我来百度百度…… uc老用户飘过，在ios上只用safari了，其他的都被苹果干死了 用过UC7.9，之后就没用过了，一直用着欧朋和Bing 不信 没错新浪出的，当时还拼命申请了好多号，现在早已烟消云散了 我一直是电脑360手机qq 看小视频方便 夸克也是uc那个公司的 用的QQ浏览器，看小说用 UC聊天是新浪的。 有两年不用uc了 很久很久以前，UC打电话给过我10块钱充值卡，因为我是注册会员，抽中了。 新浪UC 因为很多国产浏览器内核都是谷歌的，统计的时候就统计成了谷歌 赞同 你开心就好 现在私自在网页下加广告。 看屁眼 太极图 uc聊天的是新浪的吧 聊天那个是新浪的吧，我记得叫新浪UC来着 确实还蛮好用的，chrome用习惯了。 广告Browser 这么牛啊…… 一直偏爱遨游 有莎普爱思还需要去医院？ 国产浏览器套的别人的内核，自然占比就高了 UC聊天的那个跟UC浏览器不是一家的 关键没广告 媽的我用自带的一样能看 不吹牛逼会死。我一直在用Firefox，无论PC还是手机。虽然PC偶尔也用chrome，IE或因Firefox升级不兼容而用waterfox。但从来绝对不要那些流氓的垃圾百度，360,猎豹，傲游腾讯之属 QQ浏览器国外不行？呵呵。也就在国内横。妈的，不知不觉安装了几次QQ浏览器了。 谁统计的数据？谷歌手机浏览器竟然占了中国一半市场，这软件难用的要死，不过电脑版倒是很好用 国际版的UC手机浏览器确实挺好用的，版面简洁而且速度快操作简单，比Chrome好用，跟国内版一比较你会感觉他两不是一个公司出的 UC很强大的好不，我都是用它来看视频，呵呵，你懂的 这又是震惊部的功劳吧，不过夸克挺好用的。 98年的时候，印尼人均是中国五倍，啧啧，如今成了中国五分之一 国家没有人管吗？ 为什么没有傲游 夸克不错 感觉数据不准确，身边的人，大部分都用百度和UC浏览器，有部分人用360的 以前一直用UC，现在好久没用了。 高中就爱在新浪uc聊天室钓妹子，那时候08年左右 震惊！ zxxxxxcc 兄弟，有空去医院看看眼 UC精简版，我手机也有 他说的是新浪UC吧 你以为你用的国产浏览器都是自己的浏览器内核？你以为你用的手机系统都是独立于安卓系统？都是在人家的内核系统上加层皮肤而已 曾经的UC聊天工具也是和QQ相互媲美的，可惜一手好牌打烂了 从塞班到安卓到ios一直用uc，也只用的习惯uc，pc端用的也是uc 自从有手机，有优势出来之后，一直都在用。 🐎 老司机专用浏览器 的确会震惊，垃圾战胜了优质 我用qq。。习惯了 uc以前的在线缓存弹幕网盘功能多好用现在唉！ 一楼怎么难用了？一打开没有那么多烦人的推荐一下，挺好的 看小视频方便 我觉得最好用的是台湾的老司机浏览器：你懂的，哈哈哈▄█▀█●过了就是神器浏览器很好用！ 夸克一样能看，也是他家的，只不过没有乱七八糟的捆绑 夸一下夸克浏览器目前最好的安卓浏览器没有之一 没见过 已经瞎了没必要看了 那个是新浪的 不吹能死，国内的浏览器哪个不弹广告，谁用啊 UC浏览器是雷布斯投资创建的，雷布斯在创投界确实是一把好手，赚的钱不必小米少 UC聊天是渣浪搞的，当初把马化腾吓死了，互联网巨头来袭，结果，渣浪成功打烂了一把又一把的好牌，就剩个微博还算成功了 破玩意，少打点广告还是能用 安卓版的UC最垃圾，没有之一 一半 可以啊！ UC这么流氓软件在印度有可能哦！ 是的吗 via：喵喵喵 不知道uc在印度有没有震惊部门。。 都说谷歌浏览器好用，我电脑版的手机版的都用过，只能说中国浏览器更了解中国用户的需求。目前电脑使用猎豹浏览器，手机使用UC。 UC国际版超级无敌好用。国内版广告稍微多点也不错 要是按照内核统计，呵呵 uc全特么是广告换了新手机果断不用了直接用小米自带的凑活反正也不经常开网页 关键是我们有多少像浏览器这样可以脱离后台服务的软件吗？ UC以前可以看片免费😂😂😂 UC最出名的不是震惊部吗[微笑] 是啊，一直好奇这些市场占有率怎么来的，也不知道是不是上街随便拉100个人表格就列出来了，有懂行的易友吗 UC加载太慢。 猎豹个流氓软件。懂中国用户也只是你觉得。 Safari+AdBlock很好用，没必要装第三方浏览器了 大家不要慌！新年第一震而已！震惊是常态！ 怎么难用？ 真的假的 五倍？印尼有60亿？ 这里居然没有百度？ 谷歌的浏览器真是难用 谁统计的数据？谷歌手机浏览器竟然占了中国一半市场，这软件难用的要死，不过电脑版倒是很好用 我现在越来越喜欢safari了，简洁快速。以前一直用uc，感觉现在越来越复杂了，还留着，但是一直没用 UC震惊部 98年的时候，印尼人均是中国五倍，啧啧，如今成了中国五分之一 uc震惊了？！ 以前叫UC浏览器，现在叫UC广告器。 谷歌手机浏览器竟然占了中国一半市场？真的假的，身边怎么没人用呀 yy强国 就和谈对象一样，八字没一撇，就想着以后学区房买哪了 看看 兄弟，有空去医院看看眼 UC好久不用了 现在夸克浏览器挺好用😊 澳门皇家赌场上线啦！ 小编微信号牛逼的新闻 老哥。什么小视频？有没有网址？ 谁下载uc，不是为了，给的再多不去懂你，举手！ Uc震惊部岂是浪得虚名的？ 流亡UC uc看片确实非常方便，咳咳 夸一下夸克浏览器目前最好的安卓浏览器没有之一 看小视频方便 夸克也在用，基本是当新闻端在用，主要还是用uc，看小说下载东西的便捷和快速不是夸克能比的 手机真没用过谷歌的 中国任何互联网软件都很难在印度有像样的市场地位，无论软件是否好用 下小视频用uc Safari在iPhone上还是很好用的 这个标题很uc mlgb，老子英语又不好，叫我怎么说出来，你自己不会查啊？反正我的苏菲电脑上装了这个插件。只是去广告而已，VIP内容还是得VIP才能看，并不侵犯乙方权益。 浏览器一有植入广告马上列入黑名单 现在私自在网页下加广告。 被阿里收购的哪个活的时间长啊 夸克好用，比谷歌易用比UC简洁 VIS浏览器，谁用谁知道😊 看看 谁统计的数据？谷歌手机浏览器竟然占了中国一半市场，这软件难用的要死，不过电脑版倒是很好用 内置不能拦截广告吧 曾经的UC聊天工具也是和QQ相互媲美的，可惜一手好牌打烂了 UC自适应模式现在为什么无效了？ UC已经是圈外香 手机版谷歌后退还要刷新国内浏览器不刷新普通用户还是ucQQ好用uc看图片自动排版 有没有用bing的 uc中国版和国际版，一个有广告一个没有 安卓版的chrome不要太好用，又快又没有任何广告，uc广告太多不能忍，而且有些网页重排效果很差 明明是阿里入主了[喷水] 我现在越来越喜欢safari了，简洁快速。以前一直用uc，感觉现在越来越复杂了，还留着，但是一直没用 当年还在用java的时候就开始用uc，现在广告多首页垃圾新闻多，但是用习惯了懒得换，别的也好不到哪去，而且可以保存离线视频 自从腾讯入主以后再也不用UC了，Chrome还是很好用的，最大优点是干净！ 手机版的不太会用，电脑版的还可以 UC以前可以直接下片，加上uc云加速，贼方便，后来就被苹果和。。。和谐了 以前一直用UC，现在好久没用了。 小编你快去UC震惊部报道吧！ 手机都用夸克浏览器好用 只用夸克 uc早起在中国的市占率比其他浏览器高得多，为什么？省流量啊。现在流量不值钱了，用户体验更好、无插件、无弹出广告的chrome和safari自然占据上风！除非uc的浏览器在技术上能和两巨头媲美，否则结果一样 内核是UC的 挂VPN才好用，不挂没服务器加速。 楼上搞错了，UC是阿里的。现在Uc真不如qq浏览器，Uc功能太多了，自己玩死自己 没有垃圾门户，非常好用 什么插件？adblock?还是免费看VIP的马赛克画质的插件？如果都不是的话，愿闻其详。 uc省流量 从用智能手机开始就一直用UC，因为1024一直能上呀 浏览器在印尼加个清真标志印度搞个素食标志嘎嘎的受欢迎 诺基亚n系列塞班以前uc绝对好用现在已经许久没有用了 UC，N年前用过，一个流氓软件而已，早就忘了还有这么个东东。 作为国人，我立刻下了一个UC，用不用再说。 手机用uc，pc用谷歌 国内浏览器都是谷歌内核换壳… 自从被收，就不用uc了 看小视频方便 10多年前的UC还是很好用的，几乎是智能机必备的软件。刚出来只有塞班平台下的java版，我全拿来刷天涯论坛。一个月只有5M流量，也够用 有哪位大神能透露下，哪个看小网站方便？现在还有什么绿色环保的小网站？ 你这么说的话我就得去下载一个了 UC聊天的那个跟UC浏览器不是一家的 夸一下夸克浏览器目前最好的安卓浏览器没有之一 手机版的不太会用，电脑版的还可以 Safari你开着的标签页永不关闭你关机还是怎么样重新进入Safari标签页都在的uc我只是几个小时没用居然把标签页清空了 java软件时就用uc，确实很方便，到后来塞班s60时也用uc，当时签到积分一直吉林省第四名……后来9.2左右的版本，总是闪退重启…慢慢换成QQ浏览器一直用到现在… 手机版的不太会用，电脑版的还可以 广告太多，我也改用chrome了！ "
    },
    "Article": "（原标题：UC震惊了全世界，连谷歌都成手下败将！）每日经济新闻▲科普一下“UC震惊部”的梗不过每经小编（微信号：nbdnews）认为，这一次UC倒是真的非常适合这样的标题，因为UC浏览器在亚洲的巨大成功，让西方主流媒体都发出了“震惊”的感叹。根据统计网站StatCounter的最新数据，截至2017年12月，谷歌的Chrome浏览器俘获了全球一半以上的手机和电脑用户，市场份额高达55.08%；而中国的UC浏览器排在苹果Safari之后位列第三，占全球市场份额的8.67%。虽然看上去Chrome浏览器的江山非常稳固，领先后面的追赶者很大一截，但却有专家认为，在全世界未来将进入互联网的10亿新网民中，恐怕选择UC浏览器的将占到大多数了。▲谷歌Chrome（绿线代表）在全球市场占有率高居第一（图片来源：statcounter）每经小编（微信号：nbdnews）注意到，谷歌的危机感主要来自UC浏览器在亚洲市场的全面压制。在印度和印尼这两个亚洲人口大国和新兴互联网市场，UC浏览器的市场占有率完胜谷歌Chrome。而从人口结构和经济发展潜力来看，这两个国家被称为全球互联网最后一个未被开发的庞大市场。正因如此，在1月1日元旦这一天，华尔街日报向西方读者“警告”称：一种你都没听说过的浏览器，正在把谷歌拉下王座！不过每经小编（微信号：nbdnews）注意到，UC浏览器在美国的市场份额目前还不到1%，而且在阿里的“后院”中国市场上，谷歌Chrome的市占率也遥遥领先。▲美国网站调查“2018最佳浏览器”，UC浏览器仅获一票谷歌牢牢占据着中美两个巨大的存量市场，而阿里的UC则在未来的增量市场上“先下手为强”。做电商起家的阿里和做搜索的谷歌未来是否会在浏览器市场决一死战，还得拭目以待。UC浏览器“启蒙”新一代网民其实单从做浏览器的历史说起，谷歌要比UC年轻许多。UC浏览器是一款基于手机等移动设备而研发的支持WWW和WAP协议的移动浏览器，由优视科技开发。最早的版本UCWeb在2004年就发布了。2014年，阿里全资收购UC优视，并组建UC移动事业群。原来的淘宝浏览器的各项功能也由UC浏览器承接。相比之下，谷歌直到2008年才发布PC端浏览器，2012年才将Chrome引入移动端安卓设备中。不过依靠安卓生态的强大，Chrome用户数量已突破十亿大关。但根据StatCounter统计，在印度市场，UC浏览器的市场占有率达到51%，谷歌Chrome只有30%；在印尼，UC也以41%对32%在市场份额上胜过谷歌。那么为什么这两个国家的数据如此重要？因为在接下来即将进入互联网世界的10亿新网民，将有很大一部分来自这两个国家。目前印度有13亿人口，只有30%的人接入了互联网；印尼的2.6亿人口中更只有25%已经通网。这两个国家的互联网基础设施都还十分不完善，互联网市场存在着大片未开垦的广阔空间。目前印度人均GDP约为1700美元，约为中国的五分之一；印尼人均GDP则为3570美元，也未到中国的一半。但东南亚和南亚是世界上经济增速最快的区域之一，加上目前较低的起点，这两个人口大国预计未来很长一段时间都可以保持高速增长。据研究机构eMarketer估计，在浏览器最看重的移动端广告支出这一项，东南亚地区的市场规模将在2021年前增长几倍，从目前每年8.6亿美元的广告支出增加到22亿美元。印度的移动广告市场同期也将从4.6亿美元增加到17.3亿美元。▲谷歌“下一个10亿”团队广告Youtube视频截图每经小编（微信号：nbdnews）注意到，谷歌在2017年组建了“下一个10亿”研究团队（NextBillionusers），专门针对印度等新兴市场的特点研究产品策略。天下武功，唯快不破那么，为什么印度和印尼等亚洲国家的用户如此青睐UC呢？雅加达的20岁青年Prasetya对华尔街日报表示，“UC比谷歌浏览器更快、占用内存更小、界面更好看。”每经小编（微信号：nbdnews）注意到，这也是大多数UC浏览器的海外用户的评价。由于UC的公司服务器会帮助用户加速，使得UC浏览器的页面打开和下载速度在慢速网络环境中优于谷歌Chrome。UC浏览器还支持断点下载，即使下载意外中断，下载链接也不会丢失。UC浏览器设有预先加载（preload）功能，在用户点击链接之前就预先加载好一些常用页面，使得打开速度倍增；UC浏览器内置的广告拦截功能也为用户节省了时间和流量，而谷歌自身就需要投放很多广告。一位Quora（美国版知乎）网友评价道，如果网络环境较慢，当然就是要选择UC，而谷歌Chrome在某些高速WiFi环境下表现更出色。▲憨豆电影截图（图文无关）每经小编（微信号：nbdnews）注意到，印度等国令人震惊的欠发达网络环境，使得UC浏览器对当地用户的重要性得到增强。News4c网站表示，由于在南亚和东南亚地区，大多数刚刚接触互联网的新网民都在使用速度较慢的低端智能机，而且通信基站信号不强、公共WiFi更加不可靠，使UC浏览器显得非常实用。针对当地特色，UC浏览器也“入乡随俗”，比如增加了板球比分播报等功能。据研究机构Counterpoint统计，在这些亚洲新兴市场，很多人用的手机只有12G的存储容量，远远低于美国32G的最低标准。UC浏览器app平均只占用31m空间，而谷歌Chrome要用掉125m存储，这个差别对于廉价手机的使用者来说，可能至关重要。总之，对于手机存储空间有限，网络信号不稳定，数据流量昂贵的印度和印尼等新兴市场国用户来说，UC浏览器比起谷歌更“接地气”，实用性胜出一筹。中国市场“后院”失手不过令人略感意外的是，在阿里的“主场”中国，UC浏览器的市场份额还没有到谷歌Chrome的一半。▲各浏览器在中国市场份额，黄线代表UC，绿线代表谷歌（图片来源：StatCounter）StatCounter数据显示，截至2017年12月，谷歌在中国市场的占有率为45.59%，UC浏览器虽然发力超过Safari和QQ浏览器，但目前市占率只有20.15%。不过在UC的主战场手机移动端，UC浏览器市场份额达到31.49%，仅比谷歌落后5个百分点。据市场研究公司NetApplications的报告，2017年微软的“老古董”IE和Edge两款浏览器在中国市场下滑厉害，Mozilla公司的火狐浏览器也有下跌，而这几家失去的份额几乎都被谷歌Chrome吃掉。华尔街日报表示，浏览器之争未来可能会在亚洲全面展开。谷歌Chrome除了手握中国市场，目前还在越南、泰国等人口较少的亚洲小国拥有优势，而UC占优势的东南亚和南亚区域，也是阿里的电商发展战略的下一个重点。对于阿里来说，目前已经通过控股当地公司进入了印度、新加坡、马来西亚等大市场，这些地盘也是未来UC浏览器可以大展拳脚的地方。而研究发现谷歌Chrome的用户更倾向于语使用谷歌邮箱、Youtube视频、Googledrive存储等产品，因此Chrome浏览器对谷歌来说成了全公司产品线推广的关键，其意义不仅在于移动广告的收入本身。阿里负责UC在印度和印尼业务的高管DamonXi表示，UC希望成为未来很多新网民打开互联网世界的“第一扇窗口”。要达到这样的愿望，势必要和谷歌的“下一个10亿”团队间有一场苦战。本文来源：每日经济新闻责任编辑：王凤枝_NT2541",
    "Source": "Netease",
    "Title": "UC震惊了西方媒体：在印度印尼份额大胜Chrome_网易科技",
    "KeyWords": "chrome,谷歌,手机,浏览器",
    "URL": "http://tech.163.com/18/0102/08/D74N2C2Q00097U7R.html"
}