{
    "PublishTime": "12/27/201721:02:49",
    "Source": "Netease",
    "Comment": {
        "Link": "http://comment.sports.163.com/sports2_bbs/D6MLFA7200058781.html",
        "Total": 77,
        "Reply": 12,
        "Content": "米库 k17 人家拿肾换苹果，你拿苹果去换肾 和克洛泽领衔不莱梅的锋线 双Ｋ 呵呵哒 双Ｋ 传奇！ 和克洛泽领衔不莱梅的锋线 加油 期待啊!! 米库 伊兹梅尔史密斯 有钱真好 埃尔顿米库克拉十尼奇 k17 人家拿肾换苹果，你拿苹果去换肾 "
    },
    "Article": "网易体育12月27日报道:在世界足坛有许多球员遭遇严重疾病，他们在恢复后重新回到球场。其中抗癌斗士阿比达尔就是最杰出的代表。与他境遇相同的，还有在十年内三度接受肾脏移植的克拉什尼奇。这位曾经效力于不莱梅的前锋在今年10月接受了第三次肾脏移植手术，这位克罗地亚人在手术过后感觉身体状态正在逐步变好，并且有可能重返赛场。“许多东西都轻松了，我可以喝自己想喝的东西，多少都行，也可以吃自己想吃的东西了。”克拉什尼奇在接受采访时说，“我接到了一份球员合同的报价，我又多了一个选择。我还有时间在夏天来恢复状态。”克拉什尼奇还没有正式宣告过自己职业生涯终结，复出仍旧是他的一个选择：“我还没有踢过告别赛，我跟不莱梅主管鲍曼也聊过这件事了，我想在威悉体育场里踢这场比赛。球队这赛季成绩不是很让人满意，但最近这几场明显比开局阶段好多了。”克拉什尼奇曾在不莱梅效力7个赛季，并多次入选克罗地亚国家队。他还曾效力过英国球队博尔顿和法甲的南特队。本文来源：网易体育责任编辑：郑鑫桐_BJS5086",
    "Title": "克拉什尼奇收到报价或复出 十年三换肾脏真斗士!_网易体育",
    "URL": "http://sports.163.com/17/1227/21/D6MLFA7200058781.html",
    "KeyWords": "克拉什尼奇,肾脏,斗士,克罗地亚"
}