{
    "Comment": {
        "Link": "http://comment.news.163.com/news2_bbs/D6L9DDON000187VE.html",
        "Reply": 31,
        "Content": "暖心：暖心那就点赞。 好人一生平安 向人民警察致敬 赞一个 云南保山市城区一名年过七旬的老奶奶肩挑一担菜回家。 为什么不关心他们的安危，都在关心是不是协警。。。 还好你是警察要是平头百姓那就另当别论！ 赞一个 很多基层民警还是没忘初心的， 看着像是协警[窃笑] 点赞 只有协警才能干这种活！ 协警吧？ 暖心：暖心那就点赞。 给你点赞！ 一个 为什么不关心他们的安危，都在关心是不是协警。。。 还好你是警察要是平头百姓那就另当别论！ 老人一生平安 讹了没有？ 很多基层民警还是没忘初心的， 绝大部分人还是善良的，不论什么职业 这是改革后的辅警吧，看警衔就知道了 看着像是协警[窃笑] 点赞 打出租车，和一对情侣拼车，情侣貌似吵架，女的说，你以后不要硬着头皮来找我了，我要和你分手。那男的说：“那我硬着什么来找你？”我噗嗤哈哈笑出来了，司机看看我一愣，也笑了 以后这种的新闻，小便你要说明白是协警 只有协警才能干这种活！ 协警吧？ 好人一生平安 向人民警察致敬 很多基层民警还是没忘初心的 赞一个 云南保山市城区一名年过七旬的老奶奶肩挑一担菜回家。 好人一生平安 赞一个 暖心之举 👍 救人!我们义不容辞! 服装绝对是协勤警察基本上不大可能毕竟大把的协勤协警可以支配 七旬奶奶勇救八旬老奶奶,为奶奶点赞 正能量 暖心，点赞 点赞 ",
        "Total": 644
    },
    "Article": "（原标题：暖闻｜云南保山七旬老太陷深沟，民警跳入冷水中30分钟救出）#endText.video-infoa{text-decoration:none;color:#000;}#endText.video-infoa:hover{color:#d34747;}#endText.video-listli{overflow:hidden;float:left;list-style:none;width:132px;height:118px;position:relative;margin:8px3px0px0px;}#entText.video-lista,#endText.video-lista:visited{text-decoration:none;color:#fff;}#endText.video-list.overlay{text-align:left;padding:0px6px;background-color:#313131;font-size:12px;width:120px;position:absolute;bottom:0px;left:0px;height:26px;line-height:26px;overflow:hidden;color:#fff;}#endText.video-list.on{border-bottom:8pxsolid#c4282b;}#endText.video-list.play{width:20px;height:20px;background:url(http://img1.cache.netease.com/video/img14/zhuzhan/play.png);position:absolute;right:12px;top:62px;opacity:0.7;color:#fff;filter:alpha(opacity=70);_background:none;_filter:progid:DXImageTransform.Microsoft.AlphaImageLoader(src=\"http://img1.cache.netease.com/video/img14/zhuzhan/play.png\");}#endText.video-lista:hover.play{opacity:1;filter:alpha(opacity=100);_filter:progid:DXImageTransform.Microsoft.AlphaImageLoader(src=\"http://img1.cache.netease.com/video/img14/zhuzhan/play.png\");}if(/(iPhone|iPad|iPod|Android|NETEASEBOBO|blackberry|bb\\d+)/ig.test(navigator.userAgent)||/safari|chrome|firefox/i.test(navigator.userAgent)&&navigator.plugins&&!navigator.plugins[\"ShockwaveFlash\"]){varstr1='<videocontrols=\"controls\"preload=\"auto\"width=\"100%\"poster=\"http://vimg3.ws.126.net/image/snapshot/2017/12/E/O/VD5NHEHEO.jpg\"style=\"max-height:100%\">';varstr2='<sourcetype=\"video/mp4\"src=\"http://flv.bn.netease.com/videolib3/1712/27/HAzyg5352/SD/HAzyg5352-mobile.mp4\">您的浏览器暂时无法播放此视频.</video>';document.getElementById(\"FPlayer1404863609673\").parentNode.innerHTML=str1+str2;}暖闻｜云南保山七旬老太陷深沟，民警跳入冷水中30分钟救出（来源：~）window.NTES&&function(d){varf=function(c){varb=c.getAttribute(\"flashvars\"),a=c.getAttribute(\"repovideourl\").replace(\".flv\",\"-mobile.mp4\");h=d(c.parentNode.parentNode.parentNode),g='<embedsrc=\"http://v.163.com/swf/video/NetEaseFlvPlayerV3.swf\"flashvars=\"'+b+'\"allowfullscreen=\"true\"allowscriptaccess=\"always\"quality=\"high\"wmode=\"opaque\"width=\"100%\"height=\"100%\"type=\"application/x-shockwave-flash\"/>';if(/(iPhone|iPad|iPod|Android|NETEASEBOBO|blackberry|bb\\d+)/ig.test(navigator.userAgent)){g='<videocontrols=\"controls\"preload=\"auto\"width=\"100%\"height=\"100%\"><sourcetype=\"video/mp4\"src=\"'+a+'\">您的浏览器暂时无法播放此视频.</video>';}h.$(\".video\")[0].innerHTML=g;},e=function(b){vara=d(b.parentNode.parentNode.parentNode);a.$(\"li\").removeCss(\"on\"),b.addCss(\"on\"),a.$(\".video-title\")[0].innerHTML=\"string\"==typeofb.textContent?b.textContent:b.innerText,a.$(\".video-title\")[0].setAttribute(\"href\",b.getAttribute(\"url\")),a.$(\".video-from\")[0].innerHTML=\"（来源：\"+b.getAttribute(\"source\")+\"）\",f(b);};window.continuePlay=function(){vara,b=d(d(\".video-list.on\")[0].nextSibling);3==b.nodeType&&(b=d(b.nextSibling));if(b&&d(\".video-innerinput\")[0].checked){e(b);}},function(){vara={init:function(){if(d(\".video-listli\")[0]){d(d(\".video-listli\")[0]).addCss(\"on\"),this.eventBind();}},eventBind:function(){d(\".video-listli\").addEvent(\"click\",function(b){e(d(this)),b.preventDefault();});}};a.init();}();}(NTES);12月24日，云南保山市城区一名年过七旬的老奶奶肩挑一担菜回家，途中不慎掉入路旁的深水沟中，身陷泥潭无法动惮。闻讯赶来的民警跳入河中托住老人，并安抚其情绪。澎湃新闻12月26日从保山市公安局隆阳分局永昌派出所了解到，在随后赶来的消防民警的共同努力下，落水老人30分钟内被成功救出，目前已脱离危险。民警余何康。保山市公安局隆阳分局永昌派出所供图民警跳下冷水托住老人12月24日，家住保山市隆阳区和平小区的冯奶奶外出走亲戚。晚饭后老人从亲戚家拿了一担蔬菜，在回家途中不慎掉进了路边的河沟并陷进了泥潭，路过的市民发现后及时报警求救。当晚8时许，保山市公安局隆阳分局永昌派出所巡逻中队接到报警后，迅速安排警力赶赴现场实施救援，余何康是第一批赶到现场的民警。“我们来到现场后，天色已黑，借助手电筒的光亮，我们看到一个老人正匍匐在急速流淌的河水中，全身大部分都陷在淤泥里。河沟距离路面有近3米多高，老人被陷泥潭后不能动惮。看到我们到来，只是抬起头来用微弱的声音呼喊救命。”余何康告诉澎湃新闻，当时看到情况危急且老人害怕无助，同事们顾不上严冬寒冷天气，找了一把梯子就要下水进行施救，一个同事打手电筒照明，一个扶住梯子，“我来不及脱下衣物就下了水”。由于受困老人年岁已高，加之在水中和泥潭中受困了一段时间，救助起来十分困难。时间一分一秒过去，冬天夜晚的河水冰冷刺骨。“我下水的时候发现老人已经麻木了，当时，我叫她拉着我的手，她拉不动，我就直接用手抱着她，让她尽量脱离水面，能离开水面一点是一点。”余何康说，“下水前没多想什么，下水后光顾着尽快救起老人也没意识到冷。”在等待救援中，余何康和另一名民警将老人紧紧托住。民警余何康在水中托住老人等待救援。保山市公安局隆阳分局永昌派出所供图接力30分钟成功救援民警一边紧紧抱住老人，不让老人呼吸受困，一边安抚老人情绪，并通知消防和120前来协助救援。在等待了数分钟后，消防民警赶到现场。余何康说“老人离开水面时自己搂不到消防员的脖子，只能一人背着她，我在下面托着她，岸上左右有人搀着她，才从梯子上到地面。”在众人的协助下，经过10多分钟的努力，受困的老人终于获救上岸。看到老人身体虚弱，冷得发抖，消防战士们脱下消防服把老人严严实实地包裹起来，让老人保存好体力，并迅速把老人抬上救护车送往保山市人民医院急诊科救治。全程30分钟，落水老人救援成功。就在余何康和同事们护送老奶奶到医院治疗期间，另一队民警也马不停蹄忙着为冯奶奶寻找家人。当晚9时许，民警找到了老奶奶的儿子。当晚11时，经过救治，冯奶奶生命体征基本平稳，余何康和他的同事们才拖着满身的湿衣服和疲惫离开医院。本文来源：澎湃新闻责任编辑：何雨芳_NN5632",
    "PublishTime": "12/27/201708:06:00",
    "URL": "http://news.163.com/17/1227/08/D6L9DDON000187VE.html",
    "Title": "暖心！7旬老太陷深沟 警察跳入冷水中30分钟救出_网易新闻",
    "KeyWords": "消防,老人,冷水,受困",
    "Source": "Netease"
}