{
    "Source": "Netease",
    "PublishTime": "12/26/201719:29:51",
    "KeyWords": "保安,围殴,停车,平安夜",
    "Title": "男子平安夜插队停车 被多名保安围上来拳打脚踢_网易新闻",
    "Comment": {
        "Link": "http://comment.news.163.com/news2_bbs/D6JTOC1H0001899N.html",
        "Total": 2822,
        "Content": "该打，不守规矩的人 打的好 换一开大奔试试 我之前开宾利经常插队也没见人打我啊😶😶😶 打得好 插队最讨厌 五菱面包车上下来15条大汉…… 我只想说打的好 活该，支持暴打！ 保安大哥威武，教插队狗做人。 我在想如果开的宝马插队，故事会怎么发展 打的好 打的好 今天的评论区真和谐👏👏 插队叽歪被揍活该 打的好！ 打！得！好！ 换什么也不能插队啊，这个人插队被欧很正常。呵呵，没教养的东西被保安教育了 没有规矩，不成方圆。 越开烂车越喜欢不讲规矩 你的请得起这多保安才有资格说话，这保安的老板没见过奔驰？ 以后少插队了只是打人不对如果打我过段时间一个个收拾好你 插队就该打 插队，车里还放刀，😄😄果然是傻逼以后大家都小心点插队的奥！ 同意！ 知道他被群殴了我也就放心了 你打第2个的时候，我就知道你家在哪儿了，而且我钱还比你多...别那么冲动，年轻人 没毛病 以后就会老实做人了 这个瓜娃子该遭打，谁叫你不守规矩。 哈哈，神车，蠢人 打的好！ 阿弥陀佛！善哉善哉！各位施主，平心静气方能长命百岁，打他的时候请不要过于激动，默默的打就好。 打得好。 打的好 保安小哥照打不误。 下次不敢强行插队了哇，张张记性，开车的强插队大概习惯了，这次张记性了吧！ 所以说车里面还是放把刀，，不服就干 插队的就该挨打。打死活该 现在的社会宝马算个球啊兄弟，烂大街了都 所以，换奔驰吧 五菱面包，神一样的存在 东风吹，战鼓擂，我开五菱我怕谁～～ 换一开大奔试试 你这傻B，物业老板谁不是上百亿的资产，你在他物业闹事，打完再报警，给你留案底信不？你保安爷爷我们专治装B佬！ 为了一辆玩具车不至于打你 俺们老百姓插个队又咋了？！咋了！咋了！ 该！ 打的好 我之前开劳斯莱斯经常插队也没见人打我啊😶😶😶 俺们老百姓插个队又咋了？！咋了！咋了！ 俺们老百姓插个队又咋了？！咋了！咋了！ 不是我瞧不起你，你开不起劳斯莱斯，劳斯莱斯是我这样的人开的 并不清楚实际情况，不评论 打得好 打得好<br>保安就该这样，插队的被打活该 打的好 打的好！希望保安下次遇到豪车插队也能阻止！不然不守规矩的风气只能越来越厉害！权贵阶层是社会风气的源泉！ 瞎説，上次我開我的拖拉機插隊就被打了 俺们老百姓插个队又咋了？！咋了！咋了！ 插队最讨厌 这个瓜娃子该遭打，谁叫你不守规矩。 没有规矩，不成方圆。 这是今年看到的最正能量的新闻了！ 打死这种不受规距的王八蛋开你尼马一个破五菱 我就是小区保安，还是一门卫，我们这宝马，奔驰，奥迪都是标配，路虎，保时捷，玛莎拉蒂，凯迪拉克也很多，说实话这些人从来不闹事，也很配合，因为人家丢不起那个人，逢年过节给我们保安送月饼，发红包，人家也不图我们什么，人家该交费就交费该登记就登记，倒是那些开着便宜车的车主一副趾高气昂的样子，经常拖欠物业费，小区乱占别人车位，带客人来做客不准登记的业主很多，像这种业主我们必定会修理他，做人不懂得相互尊重，那我们顶多和他来个相互伤害！ 主要是嘴贱、跟开五菱面包车无关 插队，车里还放刀，😄😄果然是傻逼以后大家都小心点插队的奥！ 该打 我之前开宾利经常插队也没见人打我啊😶😶😶 以后就会老实做人了 俺们老百姓插个队又咋了？！咋了！咋了！ 五菱车上怎么没下来几十人 打人虽然不对，但也可以理解 所以说车里面还是放把刀，，不服就干 打的好 你的请得起这多保安才有资格说话，这保安的老板没见过奔驰？ 活该，就你一人着急 人有问题车更有问题所以被打 这是文明的标志啊！文明重要特点之一不就是对规则的维护吗？ 大同90年代号称匪城，现在这样已经算很文明了 要都这么教训插队的，明天会更好！ 该打 平安夜不平安的[微笑][微笑][微笑]记得多年前上高中我就平安夜那天被开回家 小时教育的不好，现在多人教育，多不好。 打的好 干的漂亮 插队确实不对，假如你开的是一辆超跑宾利这些豪车，估计这些保安孙子就不敢嚣张了，毕竟有钱人背景都硬，你们小渣渣惹不起 gai 保安小哥照打不误。 打轻都不中 我在想如果开的宝马插队，故事会怎么发展 打的好 插队叽歪被揍活该 爽啊！ 东风吹，战鼓擂，我开五菱我怕谁～～ 换什么也不能插队啊，这个人插队被欧很正常。呵呵，没教养的东西被保安教育了 应该给保安发奖金 这种爱插队没素质的人，也不应该打人啊，直接拿车压 这次支持打人的！你乱插队难道不该打吗？教你学做人！ 五菱是B5拳，奔驰是逼两拳 打得好 该打 越开烂车越喜欢不讲规矩 你打第2个的时候，我就知道你家在哪儿了，而且我钱还比你多...别那么冲动，年轻人 没毛病 现在的社会宝马算个球啊兄弟，烂大街了都 阿弥陀佛！善哉善哉！各位施主，平心静气方能长命百岁，打他的时候请不要过于激动，默默的打就好。 没毛病 插队的就该挨打。打死活该 呵呵也算是该打 开保时捷的话就不会打你了 打<br><br><br>得<br><br><br>好 五菱面包，神一样的存在 打的好 打得好 五菱面包车上下来15条大汉…… 虽然不那么绝对，但是随着车辆价值增长素质确实会有所提高！当然会有例外 小哥向你敬礼 什么五菱宏光？放尊重点，那叫克尔维特GT！ 活该，支持暴打！ 你错了 打的好 深有同感 那被打的肯定是保安！ 打得好 真以为自己是秋名山车神？ 以后少插队了只是打人不对如果打我过段时间一个个收拾好你 所以，换奔驰吧 知道他被群殴了我也就放心了 奔驰插队一样打 打得好。另外开货车的也基本上都是辣鸡 活该被打 打得好，打死插队狗 要是开奔驰宝马的他们敢打，我就服。 这样的打死都不为过 打得好！ 打的好！ 活该 保安怒锤面包人 打的挺好呀 打死你个比养的 打他就对了，别以为没人敢治你，因为你犯众怒了，今天不挨打下回也得被打！不遵守规则的下场就应该是这样的！ 卧槽，评论区满满的正能量啊！ 保安竟然都穿警服，而且还多数是特警，这叫什么？ 打得好，支持全国推广 开奔驰的他们就不敢打，持强凌弱应该依法追究刑事责任 不对啊，五菱面包车不应该下来三十多号人吗 山西就不奇怪了，人脾气大的很 打得好 打得好，支持 打的好 打！得！好！ 打得好 越开烂车越喜欢不讲规矩 往死里打 打的好，这样的就该打。 我想说，打的好 死里打 随便打个残废就好了别太过了 能说打得好么？ 因此就被揍了一顿 打人就不对了，要文明不要流氓，应该把这个插队司机扒光衣服冻他的丁丁[大笑][大笑][大笑][大笑][大笑] 为什么不打死 打的好！ 该打 好这种傻逼该打 今天的评论区真和谐👏👏 [大笑]敢跟物业斗，打死你 下次不敢强行插队了哇，张张记性，开车的强插队大概习惯了，这次张记性了吧！ 打的好 打得好 打的好该打 看到评论我就放心了 保安正能量 这种人该揍 打得好 五菱面包，神一样的存在 一边倒的喊好 打的好，打死龟孙儿 该打，不守规矩的人 保安大哥威武，教插队狗做人。 活该被打 哈哈，神车，蠢人 我只想说打的好 打得好。 开个跑车看看，保安敢不敢上 同意！ 打的好 打死你个比养的 该打 带着美女装逼没装好 活该了吧 插队就该打 ",
        "Reply": 149
    },
    "Article": "（原标题：男子停车场里插队，被多名保安围殴）#endText.video-infoa{text-decoration:none;color:#000;}#endText.video-infoa:hover{color:#d34747;}#endText.video-listli{overflow:hidden;float:left;list-style:none;width:132px;height:118px;position:relative;margin:8px3px0px0px;}#entText.video-lista,#endText.video-lista:visited{text-decoration:none;color:#fff;}#endText.video-list.overlay{text-align:left;padding:0px6px;background-color:#313131;font-size:12px;width:120px;position:absolute;bottom:0px;left:0px;height:26px;line-height:26px;overflow:hidden;color:#fff;}#endText.video-list.on{border-bottom:8pxsolid#c4282b;}#endText.video-list.play{width:20px;height:20px;background:url(http://img1.cache.netease.com/video/img14/zhuzhan/play.png);position:absolute;right:12px;top:62px;opacity:0.7;color:#fff;filter:alpha(opacity=70);_background:none;_filter:progid:DXImageTransform.Microsoft.AlphaImageLoader(src=\"http://img1.cache.netease.com/video/img14/zhuzhan/play.png\");}#endText.video-lista:hover.play{opacity:1;filter:alpha(opacity=100);_filter:progid:DXImageTransform.Microsoft.AlphaImageLoader(src=\"http://img1.cache.netease.com/video/img14/zhuzhan/play.png\");}if(/(iPhone|iPad|iPod|Android|NETEASEBOBO|blackberry|bb\\d+)/ig.test(navigator.userAgent)||/safari|chrome|firefox/i.test(navigator.userAgent)&&navigator.plugins&&!navigator.plugins[\"ShockwaveFlash\"]){varstr1='<videocontrols=\"controls\"preload=\"auto\"width=\"100%\"poster=\"http://vimg3.ws.126.net/image/snapshot/2017/12/A/M/VU5M5G4AM.jpg\"style=\"max-height:100%\">';varstr2='<sourcetype=\"video/mp4\"src=\"http://flv.bn.netease.com/videolib3/1712/26/YfgNC9240/SD/YfgNC9240-mobile.mp4\">您的浏览器暂时无法播放此视频.</video>';document.getElementById(\"FPlayer1404863609673\").parentNode.innerHTML=str1+str2;}男子平安夜插队停车，遭多保安围殴（来源：original）window.NTES&&function(d){varf=function(c){varb=c.getAttribute(\"flashvars\"),a=c.getAttribute(\"repovideourl\").replace(\".flv\",\"-mobile.mp4\");h=d(c.parentNode.parentNode.parentNode),g='<embedsrc=\"http://v.163.com/swf/video/NetEaseFlvPlayerV3.swf\"flashvars=\"'+b+'\"allowfullscreen=\"true\"allowscriptaccess=\"always\"quality=\"high\"wmode=\"opaque\"width=\"100%\"height=\"100%\"type=\"application/x-shockwave-flash\"/>';if(/(iPhone|iPad|iPod|Android|NETEASEBOBO|blackberry|bb\\d+)/ig.test(navigator.userAgent)){g='<videocontrols=\"controls\"preload=\"auto\"width=\"100%\"height=\"100%\"><sourcetype=\"video/mp4\"src=\"'+a+'\">您的浏览器暂时无法播放此视频.</video>';}h.$(\".video\")[0].innerHTML=g;},e=function(b){vara=d(b.parentNode.parentNode.parentNode);a.$(\"li\").removeCss(\"on\"),b.addCss(\"on\"),a.$(\".video-title\")[0].innerHTML=\"string\"==typeofb.textContent?b.textContent:b.innerText,a.$(\".video-title\")[0].setAttribute(\"href\",b.getAttribute(\"url\")),a.$(\".video-from\")[0].innerHTML=\"（来源：\"+b.getAttribute(\"source\")+\"）\",f(b);};window.continuePlay=function(){vara,b=d(d(\".video-list.on\")[0].nextSibling);3==b.nodeType&&(b=d(b.nextSibling));if(b&&d(\".video-innerinput\")[0].checked){e(b);}},function(){vara={init:function(){if(d(\".video-listli\")[0]){d(d(\".video-listli\")[0]).addCss(\"on\"),this.eventBind();}},eventBind:function(){d(\".video-listli\").addEvent(\"click\",function(b){e(d(this)),b.preventDefault();});}};a.init();}();}(NTES);12月24日下午，山西大同一男子驾驶五菱面包车强行插队进停车场，被保安拦住后双方发生冲突，最后插队司机被多个保安群殴。警方已介入调查。本文来源：一手Video责任编辑：李杭_BJS4645",
    "URL": "http://news.163.com/17/1226/19/D6JTOC1H0001899N.html"
}