{
    "Article": "（原标题：纽约布朗克斯区大楼再次发生大火至少23伤）【环球网综合报道】新加坡《联合早报》1月3日报道称，美国纽约布朗克斯区一栋住宅当地时间2日清晨约5时30分发生大火，造成至少23人受伤，伤者包括九名小孩。法新社称，伤者中有四人伤势严重，情况危急。初步判断起火点位于建筑一楼的家具店，当地已出动近200消防人员，火势尚未受控。布朗克斯区12月30日才发生造成12人死亡的公寓大火。纽约市消防局表示，火灾原因是一名三岁半小孩在厨房灶炉玩火。本文来源：环球时报-环球网。更多精彩，请登录环球网http://www.huanqiu.com责任编辑：邵小波_NN2479",
    "PublishTime": "01/03/201807:28:00",
    "URL": "http://news.163.com/18/0103/07/D77807BQ000187V9.html",
    "Source": "Netease",
    "Comment": {
        "Content": "小李啊，这个消息24小时不间断滚动播出 這種新聞該全天二十四小時不間斷滾動播出！ 嗯寰球食饱 上次去纽约朋友就告诉我千万别去bronx区全是黑人贫民 不是恐怖袭击。 這種新聞該全天二十四小時不間斷滾動播出！ 上次去纽约朋友就告诉我千万别去bronx区全是黑人贫民 嗯寰球食饱 打死小屁孩 希望人没事 小李啊，这个消息24小时不间断滚动播出 希望里面的人都能平安. 红红火火 ",
        "Reply": 9,
        "Total": 71,
        "Link": "http://comment.news.163.com/news2_bbs/D77807BQ000187V9.html"
    },
    "Title": "纽约布朗克斯区大楼再次发生大火 至少23伤含小孩_网易新闻",
    "KeyWords": "布朗克斯,火灾,纽约,纽约市"
}