{
    "Comment": {
        "Link": "http://comment.ent.163.com/ent2_bbs/D6K39VE500038FO9.html",
        "Reply": 37,
        "Content": "有种窦骁要掉坑里的感觉 看你说话可推断你本人不是尖酸刻薄女，就是屌丝loser男。。。躲在键盘下的臭虫 都分了那么长了，不知又上了谁的床了，有啥影响的，晚上一样嗨 10月份分手，这都12月了，影响什么 窦骁好帅的！ 都分两个月了--话说分手就得天天苦着个脸吗 别给白莲爽洗地了，恶心。娜扎分的好，好好的被白莲粉给黑的 真羡慕娱乐圈的人，打炮好方便的[微笑][微笑][微笑] 又是一部我不会看的片子，可惜了窦骁[微笑] 坐等记者曝光下一任到底需要多长时间 帅几把，演技秘制尴尬 扎扎可能拿张当垫脚的 一个是初恋，另一之前已经找了无数个男人，没得比。 归根究底一句话，是无论发生什么都不会影响她“挣钱” 约炮搞得跟约饭一样。 受什么影响。都是戏子 初恋个鬼，郑爽在大学里有男朋友，演了流星雨就踹了人家 一楼真的简直了难道人家还要把伤心痛苦说给全世界的人听？不都是人前笑嘻嘻嘛！ 一夜才是情，长情都是戏 看来又要勾引窦骁了 郑爽跟张翰分手那么失落还爆瘦，她倒好，真的不是真爱呀，蹭爽翰的热度 网易上的猥琐男可真多！！ 本来就是蹭热度，当个垫脚石罢了 一夜才是情，长情都是戏 追星族!追上去! 都分了2个多月了，还能有啥影响。。 有种窦骁要掉坑里的感觉 都分了那么长了，不知又上了谁的床了，有啥影响的，晚上一样嗨 窦骁就是帅，窦骁就是演技好 熟悉的灯光 不是初恋，爆瘦是因为胡彦斌。 窦骁好帅的！ 爽子的粉丝都是神淋病，把爽子也带疯了 别给白莲爽洗地了，恶心。娜扎分的好，好好的被白莲粉给黑的 本来就是蹭热度，当个垫脚石罢了 又是一部我不会看的片子，可惜了窦骁[微笑] 坐等记者曝光下一任到底需要多长时间 苏州费尔蒙酒店 帅几把，演技秘制尴尬 呵呵 一个是初恋，另一之前已经找了无数个男人，没得比。 归根究底一句话，是无论发生什么都不会影响她“挣钱” 塘主别恨我<br>可能娜扎真的离不开我的35CM 都分两个月了--话说分手就得天天苦着个脸吗 约炮搞得跟约饭一样。 扎扎可能拿张当垫脚的 网易上的猥琐男可真多！！ 确实！一夜是情，纯粹的情，真诚，发自内心。长了，就不纯了。往好了说，掺杂了承诺/责任；往坏了说，掺杂了利益，或者无奈/凑合。 真羡慕娱乐圈的人，打炮好方便的[微笑][微笑][微笑] 受什么影响。都是戏子 初恋个鬼，郑爽在大学里有男朋友，演了流星雨就踹了人家 娜扎确实天然美 一楼真的简直了难道人家还要把伤心痛苦说给全世界的人听？不都是人前笑嘻嘻嘛！ 看你说话可推断你本人不是尖酸刻薄女，就是屌丝loser男。。。躲在键盘下的臭虫 10月份分手，这都12月了，影响什么 看来又要勾引窦骁了 郑爽跟张翰分手那么失落还爆瘦，她倒好，真的不是真爱呀，蹭爽翰的热度 一夜才是情，长情都是戏 自燃 呵呵 ",
        "Total": 517
    },
    "Article": "古力娜扎娜扎与窦骁热聊网易娱乐12月26日报道昨天，张翰娜扎宣布3年情断，让不少人深感惋惜。今天，有网友发称偶遇古力娜扎与窦骁正在拍摄新戏，并晒出了照片。只见娜扎拍摄新戏现场与窦骁互动良好，期间还一度大笑，看来心情未受与张翰分手事情影响。本文来源：网易娱乐责任编辑：胡梦瑶_NK5655",
    "PublishTime": "12/26/201721:06:51",
    "URL": "http://ent.163.com/17/1226/21/D6K39VE500038FO9.html",
    "Title": "网友偶遇娜扎与窦骁开心拍戏 似不受分手影响_网易娱乐",
    "KeyWords": "娜扎,窦骁,张翰",
    "Source": "Netease"
}