{
    "PublishTime": "12/30/201707:45:38",
    "Source": "Netease",
    "Comment": {
        "Content": "这在美国算新闻？ 在美国最正常不过的事情不要老说 二楼，还顾得上啰嗦，赶快洗地。 特大新闻:美国枪案频发，截止现在已经造成3人死亡 新华社果然敬业🙂对美利坚人类的地狱行了吧 你这个傻逼先出来了 “民主”沉渣显清秀，污泥浆心谁澄清？ 这地洗的……我是美国人的话，一巴掌就给你盖过去。<br>80％……每年走火打死几万人，没打死人的走火得多少？你是在嘲讽我们武器质量太差吗！！？ 又没破纪录，没劲！ 希望跟恐怖分子无关，愿死者安息🕯️ 亲爱的老婆，早上好，我爱你，我想你了，爱的世界只有你，你是我的唯一，老婆你辛苦了，1314520 又得有傻逼想说滚动播出。<br>这种美国日常天天发生的事需要滚动吗？？ 你和被顶最高的那个都是24小时滚动高潮的喷猪。 要是把某国的持刀杀人案全部报道出来，24小时不重复滚动播放都播不完 美国枪击事件，那不算新闻，太正常了！ 继续，美国加油！ 尽木是正道。 别傻了，你统计过?多少根本没公开的，连死刑人数都是机密。美国每年死于枪击的80%走火或者用枪自杀的。5%以上是被小朋友玩枪打死的，剩下的才是用枪蓄意谋杀的 小李啊，快，给我24小时滚动播出。 到底是在长滩还是休斯顿啊？ 在美国最正常不过的事情不要老说 二楼，还顾得上啰嗦，赶快洗地。 坐等详细报道 新华社果然敬业🙂对美利坚人类的地狱行了吧 你这个傻逼先出来了 这地洗的……我是美国人的话，一巴掌就给你盖过去。<br>80％……每年走火打死几万人，没打死人的走火得多少？你是在嘲讽我们武器质量太差吗！！？ 于欢是无罪的！更是当今社会的正义之人！ 枪支泛滥成灾缘故 希望跟恐怖分子无关，愿死者安息🕯️ 还想去美国吗？ 又得有傻逼想说滚动播出。<br>这种美国日常天天发生的事需要滚动吗？？ 你和被顶最高的那个都是24小时滚动高潮的喷猪。 利润率有这么高？ 厉害 小李啊，快，给我24小时滚动播出。 美国枪击事件，那不算新闻，太正常了！ 这在美国算新闻？ 哈哈哈！ 特大新闻:美国枪案频发，截止现在已经造成3人死亡 又没破纪录，没劲！ 美狗一只。 继续，美国加油！ 你自己百度一下，美国看看见你真一脚给你飞过去 不要剑走偏锋。如果说吴XX为完成任务尽职尽责全力以赴以致献出了生命，有什么错吗敬业精神有什么错吗你认可吗 “民主”沉渣显清秀，污泥浆心谁澄清？ 今早你激素分泌过多，不正常，赶快去医院 要是把某国的持刀杀人案全部报道出来，24小时不重复滚动播放都播不完 亲爱的老婆，早上好，我爱你，我想你了，爱的世界只有你，你是我的唯一，老婆你辛苦了，1314520 尽木是正道。 ",
        "Link": "http://comment.news.163.com/news2_bbs/D6SV1P5F0001899N.html",
        "Total": 295,
        "Reply": 32
    },
    "Article": "（原标题：美国休斯敦一家修车行发生枪击事件4人死亡）【美国休斯敦枪击事件致3人丧生】美国第四大城市休斯敦一家汽车修理店29日下午发生枪击事件，造成包括枪手本人在内的3人死亡。休斯敦警察局官员特洛伊·芬纳在记者会上说，当地时间下午4时许，一名枪手走进位于休斯敦西南的汽车修理店，向两名店员开枪，而后走到店门外饮弹自尽。这位警官证实，枪手此前曾在这家汽车修理店工作。本文来源：新华社责任编辑：王征_NN7526",
    "URL": "http://news.163.com/17/1230/07/D6SV1P5F0001899N.html",
    "Title": "美休斯敦一修车行发生枪击案 包括凶手在内3人死亡_网易新闻",
    "KeyWords": "枪击事件,休斯敦,美国,修车铺"
}