{
    "Article": "（原标题：广西男子因婚姻纠纷刺死退休法官二审维持死刑判决）新京报快讯曾引发关注的广西陆川县退休法官被刺死一案，二审结果今日(12月29日)公布。广西壮族自治区高级人民法院二审裁定，行凶者因个人婚姻纠纷迁怒于法官，其后20年间多次寻求报复，“犯罪动机卑劣，犯罪意图坚决，犯罪手段残忍”，因此维持一审死刑判决。新京报此前报道，今年1月26日13时，广西玉林市陆川县法院退休法官傅明生，在其住所一楼遭人持刀杀害。行凶者龙建才被公安民警当场抓获。法院通报称，凶手因1994年一起离婚案，对傅明生怀恨在心。刺杀法官前，曾多次踩点，寻找作案时机。当天，龙建才发现傅明生一人坐在住所一楼，迅速入室持刀将其杀害。2017年8月25日，广西壮族自治区玉林市中级人民法院作出一审判决，龙建才以故意杀人罪被判处死刑，剥夺政治权利终身。一审宣判后，龙建才提出上诉。今日，广西壮族自治区高级人民法院对龙建才故意杀人上诉一案二审公开宣判，裁定驳回上诉，维持原判。广西高院审理认为，龙建才“对于陆川县人民法院依法判决自己和妻子离婚一事，不反思自身原因，迁怒于依法履职的傅明生法官，为泄私愤，在长达20余年的时间里多次寻找傅明生欲行报复，终将傅明生杀害”，其犯罪动机卑劣，犯罪意图坚决，犯罪手段残忍，社会影响极坏，犯罪后果和罪行均极其严重，应依法惩处。法院认定，龙建才故意非法剥夺他人生命，其行为已构成故意杀人罪。一审法院根据本案犯罪事实、性质、情节和对于社会的危害程度，依法所作的判决事实清楚，证据确实、充分，定罪及适用法律正确，量刑适当，审判程序合法，遂驳回上诉，维持原判。二审裁定后，将依法报请最高人民法院核准。本文来源：新京报作者：王煜责任编辑：韩佳鹏_NN9841",
    "URL": "http://news.163.com/17/1229/19/D6RMIRND0001875P.html",
    "Source": "Netease",
    "KeyWords": "法官,二审,死刑,犯罪",
    "Comment": {
        "Reply": 45,
        "Link": "http://comment.news.163.com/news_shehui7_bbs/D6RMIRND0001875P.html",
        "Total": 870,
        "Content": "确实有些法官依法履行植物，但，真的也有一匹法官贪赃枉法盼案！ 够执着的。 爱存不存#银行否认有竿部在曰本吃女体盛来源:京报网 现在也一个样，没几个好官，都是一群狗 22年前的不公甚至是枉法判决，对一个人一辈子、各方面的种种伤害能有多大？可以说是比天大！对某些披着人皮和法官外衣、肆意践踏法律、猖獗侵犯公民权利的无良法官，只能是以牙还牙、坚决剷除、让他们早日堕入阿鼻地狱！这名广西男子苦苦隐忍22年，恩怨分明，终于快意恩仇、手刃奸人，是条血性真汉子！佩服他，为他点赞！ 干得漂亮我敬你是条汉子！现在的法官审判就像做生意，谁钱多后台硬谁赢。 什么逻辑？？？杀人有理？？ 建议劳动人民持🔫🔫🔫💣💣💣 前两年杀北京女法官后又自杀的两条汉子，也是缘由离婚案件认为判决严重不公！不知有那位大神能科普一下事实的真相？ 支持！同感！这条汉子绝对不应该被判死刑！一些法官知法犯法、滥用职权、循私舞弊、枉法裁判，可真的不是一般的坏，确实很该死！ 支持！同感！一些法官知法犯法、滥用职权、循私舞弊、枉法裁判，可真的不是一般的坏，确实很该死！ 22年前的不公甚至是枉法判决，对一个人一辈子、各方面的种种伤害能有多大？可以说是比天大！对某些披着人皮和法官外衣、肆意践踏法律、猖獗侵犯公民权利的无良法官，只能是以牙还牙、坚决剷除、让他们早日堕入阿鼻地狱！这名广西男子苦苦隐忍22年，恩怨分明，终于快意恩仇、手刃奸人，是条血性真汉子！佩服他，为他点赞！ 不是有冤，二十一直想报仇谁相 这是个血性真汉子！为他点赞！绝对不应该判他死刑，因为许多所谓法官确实太坏了！！ 前两年杀北京女法官后又自杀的两条汉子，也是缘由离婚案件认为判决严重不公！不知有那位大神能科普一下事实的真相？ 20多年还寻求报复，可见当年怎么判的！ 这是个血性真汉子！为他点赞！绝对不应该判他死刑，因为许多所谓法官确实太坏了！！ 杀全家啊 放什么屁？ 因果报应 法官，给我的印象就是不做为啊！能够一个星期审完的案件，他非给你拖个一年不行！你还不能吵吵。 真验了那句老话“君子报仇十年不晚”，悲哀呀 广西高院审理认为，龙建才“对于陆川县人民法院依法判决自己和妻子离婚一事，不反思自身原因，迁怒于依法履职的傅明生法官 杀普通人会死刑吗？是条汉子 一个人20年一直想杀这法官，可见这法官有多坏！ 君子报仇，22年不晚 要是杀的普通人会判死刑吗？ 恨一个人22年啊，这恨有多大 这是个血性真汉子！为他点赞！绝对不应该判他死刑，因为许多所谓法官确实太坏了！！ 先装几年精神病再动手嘛 这小子生不逢时，过去杀了人可以去找队伍，苦大仇深，没准还能混个将军 22年前的不公甚至是枉法判决，对一个人一辈子、各方面的种种伤害能有多大？可以说是比天大！对某些披着人皮和法官外衣、肆意践踏法律、猖獗侵犯公民权利的无良法官，只能是以牙还牙、坚决剷除、让他们早日堕入阿鼻地狱！这名广西男子苦苦隐忍22年，恩怨分明，终于快意恩仇、手刃奸人，是条血性真汉子！佩服他，为他点赞！ 22年前的案件经过呢？发出来看看！！！ 机八 不作为算什么，<br><br>倒颠黑白才是拿手 前两年杀北京女法官后又自杀的两条汉子，也是缘由离婚案件认为判决严重不公！不知有那位大神能科普一下事实的真相？ 确实有些法官依法履行植物，但，真的也有一匹法官贪赃枉法盼案！ 够执着的。 广西高院审理认为，龙建才“对于陆川县人民法院依法判决自己和妻子离婚一事，不反思自身原因，迁怒于依法履职的傅明生法官<br><br>判决离婚而已，估计是找不到前妻这么眼瞎的了，恼羞成怒 干得漂亮我敬你是条汉子！现在的法官审判就像做生意，谁钱多后台硬谁赢。 22年前的不公甚至是枉法判决，对一个人一辈子、各方面的种种伤害能有多大？可以说是比天大！对某些披着人皮和法官外衣、肆意践踏法律、猖獗侵犯公民权利的无良法官，只能是以牙还牙、坚决剷除、让他们早日堕入阿鼻地狱！这名广西男子苦苦隐忍22年，恩怨分明，终于快意恩仇、手刃奸人，是条血性真汉子！佩服他，为他点赞！ 什么逻辑？？？杀人有理？？ 杀全家啊 支持！同感！这条汉子绝对不应该被判死刑！一些法官知法犯法、滥用职权、循私舞弊、枉法裁判，可真的不是一般的坏，确实很该死！ 支持！同感！一些法官知法犯法、滥用职权、循私舞弊、枉法裁判，可真的不是一般的坏，确实很该死！ 这是个血性真汉子！为他点赞！绝对不应该判他死刑，因为许多所谓法官确实太坏了！！ 22年前的不公甚至是枉法判决，对一个人一辈子、各方面的种种伤害能有多大？可以说是比天大！对某些披着人皮和法官外衣、肆意践踏法律、猖獗侵犯公民权利的无良法官，只能是以牙还牙、坚决剷除、让他们早日堕入阿鼻地狱！这名广西男子苦苦隐忍22年，恩怨分明，终于快意恩仇、手刃奸人，是条血性真汉子！佩服他，为他点赞！ 20多年还寻求报复，可见当年怎么判的！ 这是个血性真汉子！为他点赞！绝对不应该判他死刑，因为许多所谓法官确实太坏了！！ 因果报应 现在也一个样，没几个好官，都是一群狗 杀普通人会死刑吗？是条汉子 前两年杀北京女法官后又自杀的两条汉子，也是缘由离婚案件认为判决严重不公！不知有那位大神能科普一下事实的真相？ 恨一个人22年啊，这恨有多大 先装几年精神病再动手嘛 这小子生不逢时，过去杀了人可以去找队伍，苦大仇深，没准还能混个将军 22年前的案件经过呢？发出来看看！！！ 广西高院审理认为，龙建才“对于陆川县人民法院依法判决自己和妻子离婚一事，不反思自身原因，迁怒于依法履职的傅明生法官<br><br>估计是离婚后没有性生活，又没有眼瞎的女人嫁给他[微笑]天天打光棍夜夜撸自己，哈哈哈 机八 22年前的不公甚至是枉法判决，对一个人一辈子、各方面的种种伤害能有多大？可以说是比天大！对某些披着人皮和法官外衣、肆意践踏法律、猖獗侵犯公民权利的无良法官，只能是以牙还牙、坚决剷除、让他们早日堕入阿鼻地狱！这名广西男子苦苦隐忍22年，恩怨分明，终于快意恩仇、手刃奸人，是条血性真汉子！佩服他，为他点赞！ 爱存不存#银行否认有竿部在曰本吃女体盛来源:京报网 前两年杀北京女法官后又自杀的两条汉子，也是缘由离婚案件认为判决严重不公！不知有那位大神能科普一下事实的真相？ 你有多坏，帮腔杀人犯。叫他带你一起上路吧 22年前的不公甚至是枉法判决，对一个人一辈子、各方面的种种伤害能有多大？可以说是比天大！对某些披着人皮和法官外衣、肆意践踏法律、猖獗侵犯公民权利的无良法官，只能是以牙还牙、坚决剷除、让他们早日堕入阿鼻地狱！这名广西男子苦苦隐忍22年，恩怨分明，终于快意恩仇、手刃奸人，是条血性真汉子！佩服他，为他点赞！ 不是有冤，二十一直想报仇谁相 法官，给我的印象就是不做为啊！能够一个星期审完的案件，他非给你拖个一年不行！你还不能吵吵。 有信念的人 22年前的不公甚至是枉法判决，对一个人一辈子、各方面的种种伤害能有多大？可以说是比天大！对某些披着人皮和法官外衣、肆意践踏法律、猖獗侵犯公民权利的无良法官，只能是以牙还牙、坚决剷除、让他们早日堕入阿鼻地狱！这名广西男子苦苦隐忍22年，恩怨分明，终于快意恩仇、手刃奸人，是条血性真汉子！佩服他，为他点赞！ 前两年杀北京女法官后又自杀的两条汉子，也是缘由离婚案件认为判决严重不公！不知有那位大神能科普一下事实的真相？ 君子报仇，22年不晚 放什么屁？ 所以以后还是不要让子女进入司法系统了，高危职业 真验了那句老话“君子报仇十年不晚”，悲哀呀 广西高院审理认为，龙建才“对于陆川县人民法院依法判决自己和妻子离婚一事，不反思自身原因，迁怒于依法履职的傅明生法官 一个人20年一直想杀这法官，可见这法官有多坏！ 要是杀的普通人会判死刑吗？ 不作为算什么，<br><br>倒颠黑白才是拿手 建议劳动人民持🔫🔫🔫💣💣💣 对于下一个只杀了法官是死下面…… 这是个血性真汉子！为他点赞！绝对不应该判他死刑，因为许多所谓法官确实太坏了！！ 前两年杀北京女法官后又自杀的两条汉子，也是缘由离婚案件认为判决严重不公！不知有那位大神能科普一下事实的真相？ "
    },
    "Title": "男子不满22年前判决刺死退休法官 二审维持死刑_网易新闻",
    "PublishTime": "12/29/201719:58:26"
}