{
    "Article": "（原标题：菲律宾拟修宪国会议长:不排除延长杜特尔特任期）杜特尔特资料图海外网1月3日电菲律宾参议院议长阿基利诺（AquilinoPimentelIII）1月3日向媒体表示，菲律宾国会今年可能启动修宪，改革政府体制的工程，若有必要，将延长总统的任期。据“中央社”报道，阿基利诺说，是否延长总统任期将视何时批准新版宪法，以及新版宪法通过后3年间的过渡时期条款而定。阿基利诺在发送给媒体的简讯中写下，“在如下条件下，我们可以延长总统任期。第一，如果真的有必要；第二，如果总统没有异议；第三，既然任期延长是新版宪法的一部分，就代表它已获得人民批准”。众议院议长、执政党秘书长阿尔瓦雷兹（PantaleonAlvarez）1月3日受访时表示，众议院本月将会召集讨论国体改制的提案，并称如果改制于今年推动，则不排除取消明年的期中选举。日前，菲律宾总统杜特尔特表示，只要国会拟订出具包容性且能改善一切的好宪法，他愿意辞去总统职位。虽然72岁的杜特尔特多次强调做总统压力大，并无心留恋此职位，不过反对派人士仍担心作风强硬的他会藉此寻求长期执政，成为菲国新任的“独裁者”。执政党党主席杜特尔特于2016年6月当选总统，任期将于2022年结束。他在竞选时就主张将现行的政府体制修宪改为联邦制，以解决南部分离主义、叛乱问题，进而提振经济。菲律宾现行的1987“自由宪法”，是第一次人民力量推翻马科斯之后，接任的阿基诺政府所订，杜特尔特认为这本宪法的部分条文已不合时宜。1987年宪法规定3种修宪模式：成立制宪议会、召开宪政会议以及人民倡议。制宪议会直接由参议院及众议院议员组成，3/4表决通过即能修改宪法。宪政会议模式之下，由修宪代表负责修宪，但现行宪法未明确规定代表产生方式。人民倡议则由人民直接发动修宪。杜特尔特曾表示，不要搞宪政会议，做就对了。不知道要怎么办公投，但只要新宪法可改善一切，就批准吧。本文来源：海外网作者：朱惠悦责任编辑：李杭_BJS4645",
    "URL": "http://news.163.com/18/0103/19/D78IEHO30001899N.html",
    "KeyWords": "杜特尔特,菲律宾,修宪,任期",
    "PublishTime": "01/03/201819:56:18",
    "Title": "菲律宾拟修宪 国会议长:不排除延长杜特尔特任期_网易新闻",
    "Comment": {
        "Content": "大同小异 都是些老朋友，想多服务人民多几年，修个宪怎么了，少见多怪! 杜总统伟大，曾经把🐔头骗的团团转，哦，不对，是🐔头自作多情、自以为是。 都在倒退啊 知道了 大同小异 都是些老朋友，想多服务人民多几年，修个宪怎么了，少见多怪! 杜总统伟大，曾经把🐔头骗的团团转，哦，不对，是🐔头自作多情、自以为是。 都在倒退啊 知道了 ",
        "Link": "http://comment.news.163.com/news2_bbs/D78IEHO30001899N.html",
        "Total": 35,
        "Reply": 5
    },
    "Source": "Netease"
}