{
    "Title": "俄官员:美向乌卖导弹\"越过红线\" 俄不会无动于衷_网易新闻",
    "URL": "http://news.163.com/17/1225/18/D6H6RHKO0001899N.html",
    "Source": "Netease",
    "Comment": {
        "Total": 2287,
        "Reply": 58,
        "Content": "5年了你还没出来！当年你只是去摸了几下六十岁外婆就弄得判这么重它们太狠[大笑][大笑][大笑][大笑][大笑][大笑][大笑][大笑] 我还知道2016年全年韩国GDP是1.38万亿美元，哈哈 支持美利坚打击恐怖分子 三楼玷污了我大美黔东南 还不承认你是监饭，五年来狗剩你天天上网吹威支希抓汉奸特务，狗剩你上网抓到特务汉奸没有，跟你单一声肥皂不够用通知我邮几块进去送你😄😄😁 可怜的孩子也就只有你们自己通过金钱买朋友，通过金钱买认可，通过金钱打压台湾，如今十三亿人被你们不断的压榨，等社会进入老龄化你们还如何通过压榨年轻人获得金钱？没有金钱支撑，你们是否还能合法呢？统一自由的台湾就是在向世界文明挑战，你知道谁代表着文明吗？以美国为首的西方国家！我倒很希望你们赶紧统一，我就可以在有生之年生活在自由的阳光下了！ 美向台军售之日，也是中统台之日！ 把移民过去的关二带观三戴全部拿下 别埋汰加州[微笑]加州2016年GDP25890亿美元；俄罗斯13300亿美元。何止是差一点，加州都快是俄罗斯两倍了。 还不承认你是监饭，五年来狗剩你天天上网吹威支希抓汉奸特务，狗剩你上网抓到特务汉奸没有，跟你单一声肥皂不够用通知我邮几块进去送你😄😄😁 干死饿毛 哈哈哈！尼玛在俺隐茅上吹毛求疵。笑死老子了。 美帝一起把干儿子干死 鹅太过恃强凌弱了，咋们中国的台是自己的国家年年买导弹咋们都不说什么，人家乌克兰是自主国家买导弹还需要受你管吗，难怪周边没一个国家愿意跟你 俄罗斯!美帝娼狂你就住死里打！ 朝鲜的经济总量和贵州遵义相当不一样牛逼哄哄 干儿子有钱啊。装给干儿子看 鹅就是有核武库吓人，其他都不值一提 敢动武？藏在瑞士银行的钱立马给你冻结 我倒要看看你会如何 强盗不准居民买刀具自卫。 你以为现在的军队还有战斗力吗，嘴巴吹多了就没用了 川普终结了奥巴马的绥靖政策，不能任由鹅毛为所欲为 冻结这事有点不好。开个家长会就好了。何必那么认真。 航母都剩一个了 美国制裁俄罗斯，多年以后像伊朗，朝鲜一样 鹅骡丝的经济不行了 1L口号都喊错了，怎么减刑啊？难怪连华为给你配的都是低档的。那叫：美军舰停靠高雄之日，就是解放台湾之时。记住啊，只有停在高雄才符合解放条件，停在其他的地方不算。 俄罗斯爸爸。请让我们武装保卫苏联。 呵呵呵 俄狗又要咬人了 美向台军售之日，也是中统台之日<br>反击；可怜的义和团子孙，美国对台湾年年卖武器。给你十个胆子也不敢动武 黑人永远是黑人 鹅毛有点装逼，航母都剩一个了，养不起。一个加州的GDP比整个俄国都多，还装出一副大国嘴脸，除了干儿子把你当人，谁还吊你啊 对啊，赶快把军队撤出去。不能无动于衷了，不然输的太难看。 有鸟用？傻儿子在国际上连句硬话都不敢说。 哈哈哈！尼玛在俺隐茅上吹毛求疵。笑死老子了。 炸死俄国狗 怎没用?胖儿子可以高价买石油和天然气 流氓俄罗斯全国还没人家一个州有钱，你拿什么跟人家斗？真不明白，什么都比不过人家还天天在人家面前装逼这是什么种心态… 民智已开 标枪导弹，厉害了 朝鲜的经济总量和贵州遵义相当不一样牛逼哄哄 我倒要看看你会如何 当心鹅郭人治死你。人家剩几个都能收拾第二大经济体，关键是看想不想、敢不敢、需要不需要。 美狗急了！日杂痛苦了！打狗匠胜利了！哈哈哈！ 别埋汰加州[微笑]加州2016年GDP25890亿美元；俄罗斯13300亿美元。何止是差一点，加州都快是俄罗斯两倍了。 23日，联合国安理会通过制裁朝鲜的最新决议。<br>朝鲜外务省称这是“战争行为”，并称此次制裁决议造成的一切后果完全由赞成决议通过的国家承担。<br>联合国安理会通过制裁朝鲜的最新决议，就是战争行为。谁怂恿了这个决议，未来在核战争结束后，绝对受到人类苏醒的惩罚。这个预言结论，就是“没理尖、每离间、每利奸、媚力贱、美..”即牢握核大棒，又恐惧真的爆发核对抗的原因。<br>朝鲜从被欺压的重山底下逃脱葬送生命的希望，寄托在制造世界顶级杀伤武器上作对了。<br>美畜的野祖爹装逼到连朝鲜都打不了，该醒醒啦。劝美畜好好嗅觉一回，哪有冒油花的腚眼舔呗！<br>回敬“梅毒”向“乌可烂”出售武器的最好的办法：1、直接推动朝鲜核武器发展。2、用朝鲜，策划找到向美国发动战争理由，坚决打美国逼破脸肿。 美向台军售之日，也是中统台之日<br>反击；可怜的义和团子孙，美国对台湾年年卖武器。给你十个胆子也不敢动武 鹅太过恃强凌弱了，咋们中国的台是自己的国家年年买导弹咋们都不说什么，人家乌克兰是自主国家买导弹还需要受你管吗，难怪周边没一个国家愿意跟你 那美国推动越南，日本，韩国核武器发展了怎么破？怎么破？ 干儿子有钱啊。装给干儿子看 鹅就是有核武库吓人，其他都不值一提 动荡不安 打狗匠就是的大傻逼，早晚有一天清算 王大爷两眼一瞪，那话还不够狠？对比一下美国务卿和日外相，俄外长也自愧不如啊 美帝一起把干儿子干死 美国制裁俄罗斯，多年以后像伊朗，朝鲜一样 鹅骡丝的经济不行了 呵呵呵 俄狗又要咬人了 炸死俄国狗 怎没用?胖儿子可以高价买石油和天然气 航母都剩一个了 鹅太过霸道，就只会恃强凌弱欺负弱小的乌，人家自主国家买导弹难道还要得到你鹅毛允许吗 克里米亚半岛离乌克兰越来越远，原来半岛也学会飘移了。 还不承认你是监饭，五年来狗剩你天天上网吹威支希抓汉奸特务，狗剩你上网抓到特务汉奸没有，跟你单一声肥皂不够用通知我邮几块进去送你😄😄😁 那能咋的 你野祖爹装逼到连朝鲜都打不了，该醒醒啦。劝美畜好好嗅觉一回，哪有冒油花的腚眼舔呗！<br>回敬老美最好的办法：1、直接推动朝鲜核武器发展。2、用朝鲜策划找到向美国发动战争理由，坚决打美国逼破脸肿。 5年了你还没出来！当年你只是去摸了几下六十岁外婆就弄得判这么重它们太狠[大笑][大笑][大笑][大笑][大笑][大笑][大笑][大笑] 打吧打吧 可怜的孩子也就只有你们自己通过金钱买朋友，通过金钱买认可，通过金钱打压台湾，如今十三亿人被你们不断的压榨，等社会进入老龄化你们还如何通过压榨年轻人获得金钱？没有金钱支撑，你们是否还能合法呢？统一自由的台湾就是在向世界文明挑战，你知道谁代表着文明吗？以美国为首的西方国家！我倒很希望你们赶紧统一，我就可以在有生之年生活在自由的阳光下了！ 美狗急了！日杂痛苦了！打狗匠胜利了！哈哈哈！ 其实俄罗斯的威胁远大于美国，至少美国不可能来占你的土地，隔着太平洋呢。俄罗斯脚伸一下，海参崴就没了，俄罗斯胳膊伸一下，黑龙江就危险了。而且俄罗斯背后是北极，自己的北方不用根本布防，对中国而言如下山猛虎，成俯冲态势。危险远远大于美国。 干死饿毛 美向台军售之日，也是中统台之日！ 俄罗斯!美帝娼狂你就住死里打！ 俄罗斯又要煸动顿巴斯暴乱了.武力干涉乌克兰内政 支持美利坚打击恐怖分子 如果中国也像乌克兰那么弱小也会被威胁 强盗不准居民买刀具自卫。 你以为现在的军队还有战斗力吗，嘴巴吹多了就没用了 川普终结了奥巴马的绥靖政策，不能任由鹅毛为所欲为 我还知道2016年全年韩国GDP是1.38万亿美元，哈哈 鹅毛有点装逼，航母都剩一个了，养不起。一个加州的GDP比整个俄国都多，还装出一副大国嘴脸，除了干儿子把你当人，谁还吊你啊 1L口号都喊错了，怎么减刑啊？难怪连华为给你配的都是低档的。那叫：美军舰停靠高雄之日，就是解放台湾之时。记住啊，只有停在高雄才符合解放条件，停在其他的地方不算。 俄罗斯爸爸。请让我们武装保卫苏联。 三楼玷污了我大美黔东南 黑人永远是黑人 对啊，赶快把军队撤出去。不能无动于衷了，不然输的太难看。 有鸟用？傻儿子在国际上连句硬话都不敢说。 说的好像加州是你们一二楼这些人的家的。鹅的军力，直到今天都可以毁灭整个美国，至少打爆整个欧洲没问题。<br>傻逼垃圾！我们才不听你们的嘞！我们宁可得罪美国这个远在天边的超级大国，也不得罪北边的强邻——俄罗斯！<br>哼哼💪💪💪💪，你们傻，我可不傻！ 把移民过去的关二带观三戴全部拿下 流氓俄罗斯全国还没人家一个州有钱，你拿什么跟人家斗？真不明白，什么都比不过人家还天天在人家面前装逼这是什么种心态… 民智已开 标枪导弹，厉害了 ",
        "Link": "http://comment.news.163.com/news2_bbs/D6H6RHKO0001899N.html"
    },
    "Article": "（原标题：俄指责美向乌卖导弹“越过红线”：或引发大规模流血冲突）“美国向乌克兰提供致命性武器已‘越过红线’，俄方对此不会无动于衷。”俄罗斯副外长里亚布科夫对特朗普政府决定向乌克兰提供致命性武器表明了俄方的立场。专家们认为，美国此举可能会在乌克兰顿巴斯地区引发新的大规模流血冲突，并让已处于低谷的俄美关系雪上加霜。俄罗斯《消息报》24日报道称，美国总统特朗普批准了向乌克兰提供“致命性武器”的计划，其中包括“标枪”反坦克导弹，价值达4700万美元。美国国务院发言人海瑟·诺尔特22日表示，华盛顿决定向乌克兰提供防御性武器，以保障其主权和领土完整，并击退外来侵略。美国一直致力于执行明斯克协议，以解决乌克兰东部问题。乌克兰对美国的这一决定表示欢迎。乌克兰总统波罗申科在脸书上表示：“根据联合国宪章第51条规定，乌克兰需要美国的武器有效进行自卫。而加强对俄罗斯制裁的决定是对莫斯科继续占领乌克兰领土和未履行自己义务的合理回应。”乌克兰驻美大使恰雷称，这一决定不仅有助于发展乌美战略伙伴关系，而且有助于保障欧洲的安全。俄罗斯对美国的这一决定十分不满。俄新社24日报道称，俄副外长里亚布科夫表示，美国在几年前的乌克兰政变中就扮演了重要角色，现在再次企图将这个国家推向新一轮流血冲突。美国在乌克兰问题上扮演的角色不是调停者，而是煽动战争的帮凶。美国的反俄情绪已经蒙蔽了他们的双眼。俄联邦委员会(议会上院)议长马特维延科称，美国这一决定是完全错误的，让自己卷入了乌克兰内战中。这对和平解决乌克兰东部问题造成损害。自行宣布独立的乌克兰“卢甘斯克人民共和国”也对美国这一决定表示不满。他们表示，乌克兰的西方伙伴应当清楚，美国向乌克兰提供的武器将被乌军用于对付平民。他们用重型武器打击居民区、学校、医院和幼儿园已成为惯例。美国此举会造成这一地区的流血冲突进一步升级。俄罗斯《观点报》24日报道称，美国政治分析家维克多·奥列维奇认为，美国现在宣布向乌克兰提供致命性武器表明，一个重要的政治时刻到来。目前，俄罗斯开始启动新的总统大选，这对西方和乌克兰来说，是对顿巴斯地区进行挑衅的最理想时刻。华盛顿期待乌克兰采取这样的行动。因此，未来几个月顿巴斯地区局势将会严重恶化。俄罗斯人道主义和政治调查研究所专家布鲁捷尔认为，这是美国企图遏制俄罗斯的一个方法。美国在全世界实施遏制俄罗斯政策。美国希望以此表明，俄罗斯无力与其进行对抗。如果俄罗斯对美国的这一挑衅行为做出强硬反应，那么西方国家就会继续向俄罗斯施压。如果俄对此视若无睹，美国还会对俄罗斯采取进一步的挑衅行动。美国有线电视新闻网24日称，美国向乌克兰出售武器是根据美国的国内法律，此次军售没有违法。但是，即便在2014年因俄罗斯吞并克里米亚，美俄关系急剧恶化的时候，奥巴马政府在对乌克兰军售问题上也都很谨慎，对军售数量和质量都严格控制。目前，国际社会仍在继续努力防止乌克兰顿巴斯地区流血冲突升级。俄新网24日报道称，23日，德国总理默克尔和法国总统马克龙发表联合声明，呼吁俄罗斯军官重返顿巴斯停火监控与协调联合中心。声明中指出，该中心对支持欧安组织观察员工作和停火协定发挥着非常重要的作用。另外，各方必须全面履行明斯克协议。22日，俄总统普京与德国总理默克尔通了电话，重点讨论有关必须完全恢复该中心工作问题。19日，由于乌克兰政府的阻挠，俄罗斯军人停止了在这一中心框架内的活动，回到了俄罗斯。为此，国际社会担心，此举会造成顿巴斯地区局势进一步恶化。除了美国，加拿大也表示会对乌克兰进行军售。不仅如此，北约方面还对俄罗斯的海上力量表示了担忧。北约秘书长斯托尔滕贝格在接受德国《法兰克福汇报》采访时表示：“俄罗斯投入巨资组建舰队，特别是潜艇。俄潜艇当前的活动已达到冷战结束以来的最高水平。他还说：“冷战结束后，北约削减了海上作战能力，尤其是应对潜艇的能力。我们减少了训练，并丧失了作战能力。”本文来源：新华网作者：张朋辉柳玉鹏责任编辑：徐萌_NN7485",
    "PublishTime": "12/25/201718:11:09",
    "KeyWords": "乌克兰,美国,俄罗斯,北约"
}