{
    "Article": "（原标题：习主席发布全军训令前，军委公布了一份名单）3日上午，中央军委首次举行2018年开训动员大会，中共中央总书记、国家主席、中央军委主席习近平向全军发布训令。动员大会主会场部队受领训令后展开训练。图片来源：微信公众号“解放军报记者部”一切过往，皆为序幕，大会之后，解放军开始2018年的战备训练。昨日，中央军委还公布一份名单，通报表彰9个全军军事训练先进单位和20名先进个人。长安街知事发现，中央军委此次表彰的个人涵括了多个军种。东部战区联合参谋部秦明，去年7月刚刚参加完东部战区组织指导战区三军进行系列联合演习，演习中他担任战区联合参谋部联合训练局参谋。《解放军报》曾经披露过演习的震撼场面，在三军参演部队的一个个大小“中军帐”内，秦明和其他参谋们协助指挥员处理分析情报、筹划火力打击、联合指挥控制、综合后装保障，使得三军最大限度达到协同，联合指挥多“脑”合一，三军“诸葛”群策群力，让“中军帐”成为了“最强大脑”。中部战区联合参谋部丁福蛟，曾为新华社撰文披露过中部战区联合作战指挥中心的训练计划表——2017年度本级训练计划表：上午聆听战略战役问题专题辅导，下午研练作战课题，晚上完成要图标绘和想定作业……而且，这种高强度的训练只是一系列联合指挥演习的热身。长安街知事注意到，今年受到表彰的单位还有91827部队黄石舰和原沈阳军区疾病预防控制中心。2017年8月，黄石舰在国际军事比赛——2017“海洋之杯”舰艇比赛上取得了2项第一名，是我国海军首次在国际军事比赛舰艇项目上折桂。“黄石舰”的命名可以追溯到1986年，由邓小平亲自签署命令同意命名。据军事专家介绍，这个命名意在纪念刘华清上将和马龙少将。两位将军是湖北人，十分关心海军及航母事业，所以将中国当时最牛的导弹护卫舰以湖北的城市命名。黄石号护卫舰受到表彰的原沈阳军区疾病预防控制中心更在诸如汶川抗震救灾、北京奥运会沈阳赛区安保、中俄联合军演、全军“三防”医学救援演习和赴刚果(金)、马里维和等重大行动等见到他们的身影。该中心担负着国家应急防疫救援、战区核化生医学救援及公共卫生事件应急保障任务。近些年，中心更是重塑训练架构，围绕基础训练、适应性训练、战术训练、技术保障训练4个方面科学筹划训练计划，融合训练内容、课目，探索出“专业分队与作战部队一体化训练”“军队应急分队与地方保障力量一体化联动”“军事训练、基础科研、服务保障一体化实施”的组训新路子。长安街知事注意到，通报表彰军事训练先进单位和个人可以追溯到军改之前。1997年起，原解放军四总部每年进行军事训练一级师旅级单位评定，运用军事训练等级评定机制，科学评估部队训练水平和战斗力。2006年起，对个人的军事训练评选“爱军精武标兵”旨在表彰在军队建设和军事训练中涌现的爱岗敬业、矢志精武的先进典型。2014年7月，《军队奖励和表彰管理规定》印发全军和武警部队。《规定》颁布后，军队中出现了罕见的“破例”：某部队师装甲侦察连连长夏飞，任连长4年来，带领连队参加上级比武多次夺冠，连队年年被表彰为“军事训练先进单位”，夏飞被破格提升为营长。2018年1月1日，新版《军事训练大纲》正式实施，这是我军紧盯世界一流的目标第8次对军事训练内容体系的整体重塑，实现了军事训练组织形态的现代化。紧盯世界一流的目标，新大纲的特点可以概括为：更快、更高、更严、更难！一流的军队，从来不是喊出来的，而是踏踏实实建出来的，是扎扎实实练出来的，甚至是血雨腥风里打出来的。无论是“建”，还是“打”，“练”始终是基础。党的十九大明确指出，军队是要准备打仗的，一切工作都必须坚持战斗力标准，向能打仗、打胜仗聚焦。十九大后，全军认真学习贯彻习近平强军思想，锲而不舍推进实战化军事训练，有力推动了部队战斗力提高。开训前的全军通报表彰，既是对他们过往的肯定，也是对全体官兵未来的希冀。通报还要求，全军坚持备战打仗鲜明导向，以受表彰的单位和个人为榜样，着力加强练兵备战，全面提高基于网络信息体系的联合作战能力、全域作战能力，有效履行我军新时代使命任务。本文来源：长安街知事作者：子豪责任编辑：李杭_BJS4645",
    "URL": "http://news.163.com/18/0103/19/D78FH9UE0001899N.html",
    "KeyWords": "军事,训练,部队,军委,名单",
    "PublishTime": "01/03/201819:05:22",
    "Title": "习主席发布全军训令前 军委公布了一份名单_网易新闻",
    "Comment": {
        "Content": "厉害 国家有你们才能更好的发展。 训练有素！ 厉害 国家有你们才能更好的发展。 训练有素！ ",
        "Link": "http://comment.news.163.com/news2_bbs/D78FH9UE0001899N.html",
        "Total": 376,
        "Reply": 3
    },
    "Source": "Netease"
}