{
    "Comment": {
        "Reply": 64,
        "Total": 724,
        "Link": "http://comment.news.163.com/news_shehui7_bbs/D6U96FIU0001875P.html",
        "Content": "不送钱哪来的补贴 看网易评论即涨姿势易友说话又逗比那些好玩多了[大笑] 所以多人拍咯 可能还在啪啪啪 她会来吗？ 神劇的話估計不用 我们这哪个地方没有台下幕后潜规则，那就不是我们这个地方了 也成就了一段情 我们都在等一个人，20：26还没来 哀莫大于心死，她死了不回来了 等他死吗 我们这哪个地方没有台下幕后潜规则，那就不是我们这个地方了 有没有懂法律地位科普一下来源不明为什么是一年半 我以为这两个人有要一起演新剧了 腐败依然严重！ 江苏卫视要大地震 先查一个台，原因么喂饱 那没有这种事 🐧 你是不是和我一样打开QQ，微信，发现自己没人聊天，然后默默的打开网易，刷着评论，以此掩盖内心的孤独，陌生人，你们好！[可怜] 你以为现代社会还允许斯大林这种恶魔存在吗 你是不是和我一样打开QQ，微信，发现自己没人聊天，然后默默的打开网易，刷着评论，以此掩盖内心的孤独，陌生人，你们好！[可怜] 只能说连电视剧的播出都需要行贿，还有什么是干净的 现在应该不用送了吧？反正也没几个人看📺 电视剧采购、明猩上节目，这些背后都有卫视腐败的土壤，尤其是有些应该封杀的垃圾明猩很快复出（比如狗射娃什么JB之谦），要严肃查处卫视的众多腐败问题，必须搞专项打击治理！ 姚小笛大美妞你在哪里[窃笑] 据说早在十年前，中国年产电视剧上万集（不含未过审），而且能上电视台播出的只不过十分之一 想想也正常人类社会不就是这样才能一直演进下去吗<br>万事规矩刻板那跟机器有什么区别<br>地球早就成了风沙一片了<br>加油继续吧 又有多少人说不清来源的？ 她上次和大家告别过了 我在等那个人 贪腐和乱扔垃圾随地大小便大声喧哗一样，是中国人光荣传统，绵延三千年，虽改朝换代家破人亡而矢志不移 你们这些网络叼毛们<br>现在只是没有收拾你们<br>想收拾你们妥妥的<br>天天让你们只能看电视<br>不许发帖 电视剧采购、明猩上节目，这些背后都有卫视腐败的土壤，尤其是有些应该封杀的垃圾明猩很快复出（比如狗射娃什么JB之谦），要严肃查处卫视的众多腐败问题，必须搞专项打击治理！ 这种位置，你不死，下面的人怎么上来，谁都看着流口水的肥缺! 长知识了！ 辞职了 不给钱就无法播出，就白拍了，是这个意思吧？ 估计都得送，卖抗日神剧送的应该更多！ 拍抗日电视剧应该不用送钱吧！ 等等吧！应该会来 不送钱哪来的补贴 好久没有见到她了，好想她 年末支f宝给大家送个红包，开支f宝复制pArf1326J4，就可领取 我们这哪个地方没有台下幕后潜规则，那就不是我们这个地方了 她不来了 我们都在等一个人，20：26还没来 你们这些网络叼毛们<br>现在只是没有收拾你们<br>想收拾你们妥妥的<br>天天让你们只能看电视<br>不许发帖 不是很正常事吗？有什么可喷的！ 拍什么电视剧，不如当主播 钱多。 一百万对演员不算什么？ 电视剧采购、明猩上节目，这些背后都有卫视腐败的土壤，尤其是有些应该封杀的垃圾明猩很快复出（比如狗射娃什么JB之谦），要严肃查处卫视的众多腐败问题，必须搞专项打击治理！ 她会来吗？ 没办法网易是有名的养猪场 你是不是和我一样打开QQ，微信，发现自己没人聊天，然后默默的打开网易，刷着评论，以此掩盖内心的孤独，陌生人，你们好！[可怜] 姚小笛大美妞你在哪里[窃笑] 姚迪就是不会看男人!傻呀 想想也正常人类社会不就是这样才能一直演进下去吗<br>万事规矩刻板那跟机器有什么区别<br>地球早就成了风沙一片了<br>加油继续吧 我们这哪个地方没有台下幕后潜规则，那就不是我们这个地方了 科科 不给钱就无法播出，就白拍了，是这个意思吧？ 你是不是和我一样打开QQ，微信，发现自己没人聊天，然后默默的打开网易，刷着评论，以此掩盖内心的孤独，陌生人，你们好！[可怜] 看网易评论即涨姿势易友说话又逗比那些好玩多了[大笑] 后来没上映呀 神劇的話估計不用 上次都说了再见了应该是不会来了，哀莫大于心死 也成就了一段情 对于受贿人严惩不贷。 法院应该秉公执法。 我们这哪个地方没有台下幕后潜规则，那就不是我们这个地方了 贪腐和乱扔垃圾随地大小便大声喧哗一样，是中国人光荣传统，绵延三千年，虽改朝换代家破人亡而矢志不移 我以为这两个人有要一起演新剧了 腐败依然严重！ 江苏卫视要大地震 先查一个台，原因么喂饱 那没有这种事 你以为现代社会还允许斯大林这种恶魔存在吗 电视剧采购、明猩上节目，这些背后都有卫视腐败的土壤，尤其是有些应该封杀的垃圾明猩很快复出（比如狗射娃什么JB之谦），要严肃查处卫视的众多腐败问题，必须搞专项打击治理！ 据说早在十年前，中国年产电视剧上万集（不含未过审），而且能上电视台播出的只不过十分之一 小编干脆给这些明星作起居注去吧 这部电视剧其实不错啊 这种位置，你不死，下面的人怎么上来，谁都看着流口水的肥缺! 拍抗日电视剧应该不用送钱吧！ 长知识了！ 估计都得送，卖抗日神剧送的应该更多！ 拍抗日电视剧应该不用送钱吧！ 等等吧！应该会来 等他死吗 我在等那个人 所以多人拍咯 辞职了 只能说连电视剧的播出都需要行贿，还有什么是干净的 背后的秘密 现在应该不用送了吧？反正也没几个人看📺 有没有懂法律地位科普一下来源不明为什么是一年半 又有多少人说不清来源的？ 拍抗日电视剧应该不用送钱吧！ "
    },
    "Title": "文章姚笛演的这部剧上映背后:曾行贿超百万_网易新闻",
    "Article": "（原标题：文章姚笛演的这部剧上映背后：曾行贿超百万）法制晚报·看法新闻（记者岳三猛）日前，江苏卫视节目采购部原主任张彦，因受贿206万、240多万来源不明，二审获刑8年。看法新闻记者注意到，他为7人在电视剧采购及款项支付等方面谋取利益。其中，文章、姚笛等明星主演的热剧《裸婚时代》，正是涉案电视剧之一。其出品公司老总徐某特地赶往南京，逗留3小时，就为了给张彦送80万。他和下属均利用电视剧受贿中国裁判文书网日前公布了江苏高院的判决，显示张彦出生于1977年，原系江苏省广播电视总台（集团）卫视频道副总监兼节目采购部主任。因涉嫌犯受贿罪于2015年1月30日被指定居所监视居住，3月3日被逮捕。南京中院一审认定，张彦于2010年至2013年间，利用职务便利，接受7人的请托，为他们在电视剧采购及款项支付等方面谋取利益，收受206万元。此外，他还有247万余元的财产不能说明来源。故而该院于2016年10月12日作出一审判决，以受贿罪判处其有期徒刑7年半，以巨额财产来源不明罪判处其1年半，决定执行有期徒刑8年。看法新闻记者注意到，张彦不服，提出上诉，江苏高院受理后认为事实清楚，决定不开庭审理。今年10月11日，该院作出终审判决，罪名和刑期不变，只是巨额财产来源不明的涉案金额调整为240万余元。从判决书来看，给张彦送钱的7人，共涉及8部电视剧——《一代枭雄》（26万，送钱数额，下同）、《像火花像蝴蝶》（10万）、《刘海戏金蟾》（10万）、《家产》（20万）、《裸婚时代》（80万）、《妈妈的罗曼史》（30万）、《欢喜婆婆俏媳妇》（20万）、《唐宫美人天下》（10万）。至于他们送钱的套路，几乎是如出一辙，均为江苏卫视买其电视剧后，为表感谢或者请及时付款，就拿着大把现金相送。比如《欢喜婆婆》、《唐宫美人》的出品方——东阳紫骏长河影视，其总裁曹某供述称，签了合同后，江苏卫视节目采购部副主任江某打电话，称购片款已付，叫其注意查收，其就明白她的意思了。于是曹某先分别给江某、张彦20万和10万，购剧尾款也到后，他又分别给二人20万、10万。《唐宫美人》的10万贿款是由曹某送到张彦所住酒店。此外，电视剧《刘海戏金蟾》的出品方——拉风传媒法定代表人陈某称，其所送10万，是张彦暗示、索要的。原来，2012年8月，其公司和江苏广电总台签订了购剧合同，却一直没有履行。第二年，陈某和张彦都去香港参加电视节，后者打电话给他，希望有空出去转转。陈某一听，就明白张彦的意思了。于是，他准备了10万元现金，用红色纸包装，装在一个袋子里，送到了张彦所住的酒店。《裸婚时代》出品方特意飞到南京送钱看法新闻记者注意到，曾在2011年上映并引发广泛热议、被视为现象剧的《裸婚时代》也涉案其中，并且是张彦受贿款中最大的一笔。该剧出品方——北京光彩世纪的法定代表人徐某供称，其为了给张彦送80万，特地从北京飞往南京，待了仅3个小时就踏上归程。具体来说，2011年5月，江苏卫视购买《裸婚时代》，并且很快就付款了。2011年8月，徐某打电话给张彦，问报酬如何支付，后者提出，不能转公，也不能打到银行卡上，让其直接拿现金到南京。徐某便让司机买了两个拉杆箱，每个装了80万，接着便飞到了南京。他先到一个商场附近，把一个箱子送给了江苏卫视节目采购部副主任江某，后到了张彦家附近把另一个箱子送给了张彦。自己之所以送钱，一是因为这部电视剧中张彦、江某要做制片人、监制，说明他们俩看中这部电视剧，要买这部电视剧，而且他们俩是江苏卫视采购部的负责人，对买不买这部剧有绝对的发言权；二是江苏卫视是个好的平台，其希望张彦、江某以后能更多地采购其公司的电视剧。航班记录显示，2011年8月20日13：40，张彦乘坐的航班到达南京禄口机场，15：00徐某乘坐的航班到达南京禄口机场，18：05徐某乘坐的航班从南京禄口机场起飞。至于上文所数次提到的江某，公开报道显示，其全名为江红，系张彦的下属，节目采购部副主任。今年2月，南京中院一审刑事判决书显示，江红利用职务之便在电视剧采购等方面为他人谋取利益，受贿846万余元，并有数百万元财产不能说明合法来源。最终，法院判决江红有期徒刑十年。值得注意的是，除了张彦、江红外，江苏省广电总台前任台长周莉、江苏卫视综艺频道原总监石卫平、江苏省广电总台地面频道广告部原主任缪林、江苏卫视广告部原主任龚立波等人也均被调查。本文来源：法制晚报-看法新闻责任编辑：乔敬_NN6607",
    "URL": "http://news.163.com/17/1230/20/D6U96FIU0001875P.html",
    "Source": "Netease",
    "KeyWords": "姚笛,江苏卫视,受贿,张彦",
    "PublishTime": "12/30/201720:02:12"
}