{
    "URL": "http://tech.163.com/17/1227/14/D6LU1DAV00097U7R.html",
    "Comment": {
        "Total": 1161,
        "Reply": 67,
        "Link": "http://comment.tech.163.com/tech_bbs/D6LU1DAV00097U7R.html",
        "Content": "做企业的，只要是在实实在在回馈社会的，那就是好企业！！ 这马屁拍的很虚伪 没毛病 给农村建点乡镇企业吧，把本地的特产做精做强，就不用农民背井离乡了 一二楼两个傻逼能不能闭嘴，人家东哥实实在在的回馈家乡，怎么就成炒作了？你们有本事你们也去炒啊？ 喊一个没见过面的人叫东哥，都是花钱雇来的水军吧。 赞赞 又花钱来报道宣传自己好形象的事了。。。 他一样不是全部交的，员工工资扣一部分，然后公司出一部分 他天天炒作这一点不烦吗 给你举例，税前一万工资，到手7千多，公司付1万3，你说厉不厉害 狭隘强真是够了 这样的员工，领导好管理吗 缴纳五险一金真的很厉害吗 利润才10几亿，那么多员工够分吗？反正不是自己的钱，想怎么花就怎么花。 这特么是河北农村，刘强东扶贫的，不是宿迁老家，麻烦小边用点心好吗 人家是拿真金白银出来促进社会进步的，你们是靠一张嘴？ 在京东上班:叫保安帮忙搬一下快递！保安:滚犊子我是刘强东他二大爷！ 很多人捧得不要不要 只要能落到实处，就是好事，就要提倡 你也这样炒一炒 别舔了，如果你是投资人能让他这么任性？不过是拿地方政府的招商引资政策罢了。炒作！ 不错哦 只存在在电视机村长。现实村长都是想方设法的捞 现在人都这样，自己做不到，看别人行善，第一反应是虚伪。人家刘强东直接说自己企业挣钱绝对干干净净的，应该不是放空炮，虽然他并不是一个多善言辞的人 拍你妹 内地唯一一个有爱心的富豪，喜欢你，挺你 虽然有点浮夸，但只要是真心实意，还是支持下 厉害 然后所有人得到一份送快递的工作 1楼，放下你的键盘和嘴里待喷的口水，你也用实际行动炒作一下吧。 不错，值得赞一下！ 京东上的东西好不到哪去，在京东买过很多次劣质产品了，而且价钱又贵 只要给钱，让你被猪干都行。。 明明是奶茶傍到了大款，搞得跟下嫁了一样。 你去看看有几个交的，除了国企，事业单位，我现在全是自己出钱，1.2万一年，厂里出，发工资的时候全部扣掉。 大部分企业都没有按实际工资交。 还是东哥靠谱 还不错 别的快递不说，连顺丰这么赚钱的公司都不给12线员工买五险一金，只有三险 偶像，希望有生之年自己有一天也有能力为家乡多做点事情！<br>虽然这辈子不可能达到东哥这样的高度！ 这马屁拍的很虚伪 做企业的，只要是在实实在在回馈社会的，那就是好企业！！ 他天天炒作这一点不烦吗 刘总。我几把有20公分长（不含蛋），能做奶茶妹妹的助理吗？ 94 给你举例，税前一万工资，到手7千多，公司付1万3，你说厉不厉害 一二楼两个傻逼能不能闭嘴，人家东哥实实在在的回馈家乡，怎么就成炒作了？你们有本事你们也去炒啊？ 这是河北那个扶贫县瞎编胡诌 无良奸商联想电脑用返修的零配件给保修的电脑进行更换 东哥确实是实在人。底层起来的。 很多人捧得不要不要 别舔了，如果你是投资人能让他这么任性？不过是拿地方政府的招商引资政策罢了。炒作！ 只存在在电视机村长。现实村长都是想方设法的捞 没工作钱用了就没了还容易养成好逸恶劳的坏毛病给份好工作加油干才是正途 支持东哥！！！ 内地唯一一个有爱心的富豪，喜欢你，挺你 是要办成村办企业的节奏吗？ 掏粪 刘强东要不行了，想为家乡做事最好的办法就是捐钱，也只能是捐钱。 京东上的东西好不到哪去，在京东买过很多次劣质产品了，而且价钱又贵 👀👀 实在你麻痹，招两个快递员就叫回馈社会了？真够扯淡。 马云不招人？蚂蚁森林不回馈社会？钱不给你就不算？ 大部分企业都没有按实际工资交。 一个正规企业，理所当然的事情被拿来反复炒作。。。不炒奶茶炒五金了？！ 东哥，我的特长是泡奶茶，你们收不？ 还特快 五险一金交在哪里，北京？ 给农村建点乡镇企业吧，把本地的特产做精做强，就不用农民背井离乡了 只要给钱，让你被猪干都行。。 赞赞 又花钱来报道宣传自己好形象的事了。。。 这样的员工，领导好管理吗 就知道花钱请水军 狭隘强真是够了 利润才10几亿，那么多员工够分吗？反正不是自己的钱，想怎么花就怎么花。 在京东上班:叫保安帮忙搬一下快递！保安:滚犊子我是刘强东他二大爷！ 你也这样炒一炒 比马云那个喜欢演讲装逼的家伙好得多～ 刘强东也只是一个商人！而马云却是一个企业家！一个只会整天在网上吹牛逼，一个却是在为人民谋福利，二人根本就不在一个层次 英雄！这才是英雄 你可以去做经纪人 拍你妹 厉害 喊一个没见过面的人叫东哥，都是花钱雇来的水军吧。 1楼，放下你的键盘和嘴里待喷的口水，你也用实际行动炒作一下吧。 哎～五险一金就是奢望啊！国家的劳动监管部门都在干什么！ 特长，我下面特长行吗 哈哈 你去看看有几个交的，除了国企，事业单位，我现在全是自己出钱，1.2万一年，厂里出，发工资的时候全部扣掉。 缴纳五险一金真的很厉害吗 明明是奶茶傍到了大款，搞得跟下嫁了一样。 还不错 别的快递不说，连顺丰这么赚钱的公司都不给12线员工买五险一金，只有三险 如果脸盲东招聘我，那他将是下一个绿帽强，因为我特长，硕大，持久 偶像，希望有生之年自己有一天也有能力为家乡多做点事情！<br>虽然这辈子不可能达到东哥这样的高度！ 没毛病 不错，值得赞一下！ 现在人都这样，自己做不到，看别人行善，第一反应是虚伪。人家刘强东直接说自己企业挣钱绝对干干净净的，应该不是放空炮，虽然他并不是一个多善言辞的人 不错哦 然后所有人得到一份送快递的工作 虽然有点浮夸，但只要是真心实意，还是支持下 还是东哥靠谱 人家是拿真金白银出来促进社会进步的，你们是靠一张嘴？ 他天天炒作这一点不烦吗 这特么是河北农村，刘强东扶贫的，不是宿迁老家，麻烦小边用点心好吗 很多人捧得不要不要 "
    },
    "Article": "（原标题：刘强东回老家招工：全额缴纳五险一金，按特长分配工作）站长之家(Chinaz.com)注：都说喝水不忘挖井人，刘强东自创业成功后就没少回馈家乡，不但为农村老家办小学，修路，春节还给村民发红包。近日，刘强东又亲自回了一趟宿迁农村老家，而这次，他给大家带去的是更多的工作机会和更丰厚的待遇，并全额缴纳五险一金。刘强东称京东计划把村民的家庭基本情况建立一份档案，做过什么工作，有什么特长等，然后根据大家的特长和喜好来分配工作。想配送的可以做配送员、擅长烹饪的可以去食堂当大厨，仓储、客服等等也非常需要人。刘强东称希望通过这次招工带动全村走向富裕，称只要村民愿意，京东就欢迎。对此，网友纷纷点赞，称东哥真是接地气，人好心善，难怪奶茶妹妹会看上他。本文来源：站长之家责任编辑：白鑫_NT4464",
    "KeyWords": "刘强东,五险一金,工作",
    "Source": "Netease",
    "Title": "刘强东回老家招工：全额缴五险一金，按特长分工作_网易科技",
    "PublishTime": "12/27/201714:13:16"
}