{
    "Source": "Netease",
    "Title": "贵州省2018两会召开日期确定:分别在1月26日、25日_网易新闻",
    "Comment": {
        "Link": "http://comment.news.163.com/news2_bbs/D6JPGTGE0001899N.html",
        "Content": "为什么不是25.26日？ 贯彻落实执行实施好 为什么不是25.26日？ 因为两会指的人民代表大会和政治协商会议，有前后顺序。这里说的是人大26号，政协25号的意思。 好好好 贯彻落实执行实施好 好的 ",
        "Reply": 5,
        "Total": 10
    },
    "URL": "http://news.163.com/17/1226/18/D6JPGTGE0001899N.html",
    "PublishTime": "12/26/201718:15:52",
    "Article": "（原标题：贵州省2018两会召开日期确定：分别在1月26日、25日）贵州省十三届人大一次会议、省政协十二届一次会议召开日期确定：根据省十二届人大常委会第三十二次会议授权，12月26日召开的省十二届人大常委会第一百零二次主任会议决定：贵州省第十三届人民代表大会第一次会议，于2018年1月26日在贵阳召开。根据政协第十一届贵州省委员会常务委员会第二十九次会议授权，12月26日召开的政协第十一届贵州省委员会第48次主席会议决定：中国人民政治协商会议第十二届贵州省委员会第一次会议，于2018年1月25日在贵阳召开。本文来源：贵州日报责任编辑：张海桐_NN9053",
    "KeyWords": "贵州省,两会,贵州省委员会,人大常委会"
}