{
    "URL": "http://news.163.com/17/1231/17/D70IR84Q000187VE.html",
    "Article": "（原标题：关于“剑河温泉城开业3个月收入4亿元”的报道的情况说明）关于“剑河温泉城开业3个月收入4亿元”的报道的情况说明12月30日贵州新闻联播播出“贵州冬季游优惠利好剑河温泉剑河温泉城开业3个月收入4亿元”的报道，其中就剑河温泉城的收入数据与实际情况不符，为免误导广大群众，现就实际情况说明如下：剑河温泉城是剑河县按照国家5A级景区标准打造的温泉旅游度假区，自今年十月份正式对外营业以来，因其历来的品牌效应，深受湖南怀化、贵阳等周边地区游客的青睐，10月至12月累计接待游客5万多人次，门票及相关服务收入1300多万元。随着温泉旅游的升温，剑河县的其他旅游项目和服务行业得到了良好发展，综合收入增长较快，经剑河旅游部门测算，10月份到12月份全县可实现旅游综合收入4亿多元。剑河温泉城贵州新闻联播截屏电视新闻报道中所表述的“剑河温泉城3个月收入4亿元”，与实际情况严重不符。应为温泉城核心区以及剑河规划的温泉文化旅游景区在内的剑河县城清江湖旅游、乡村旅游和过境游、酒店餐饮、节假日游购宿等消费带来的预计旅游综合总收入。采访报道没有经过审核和对数据进行认真解读，仅经过采访部门相关人员得出结论，工作不严谨，违背新闻审查制度，造成报道数据上传给省台不准确。同时，新闻中关于采访对象籍贯问题正在核实当中。在此，剑河县对社会各界对此次新闻报道的监督和关注表示感谢，并对报道失误之处表示深深的歉意。在以后的工作中，我们当严格审核各类相关报道，确保新闻报道客观、准确。中共剑河县委宣传部2017年12月31日本文来源：贵州剑河县委员会宣传部责任编辑：徐萌_NN7485",
    "KeyWords": "温泉城,剑河,贵州,旅游",
    "Source": "Netease",
    "Comment": {
        "Reply": 20,
        "Content": "一天450万<br>应该没问题 门票太贵，大家不去了，然后赶紧改口[喷水] 提醒一下:造谣入刑。 怎么现在动不动就是亿做单位，我怎么几万块都没有 这假造的，自己人都不好意思了…… 这种情况以后会越来越明显 去，天天磨刀就等你去了。人均300以上的消费，实际确实对不起这个价！好好去看看人家云南的温泉度假村都住满外地人哦！ 尤其今年开始，骗子，贪官，融资，电影票房啊……平平常常几个亿，几十亿，在牛点几百亿，中国人这么有钱了么 吹牛🐮 剑河温泉的水质是真的好。出水口接水来尝还是甜的，有六七年没去了，现在不知道什么样了。 真赚钱[色色] 原来是失实报道 门票太贵，大家不去了，然后赶紧改口[喷水] 贵州这种杀鸡取卵的发展有鸡毛用 尤其今年开始，骗子，贪官，融资，电影票房啊……平平常常几个亿，几十亿，在牛点几百亿，中国人这么有钱了么 这种情况以后会越来越明显 怎么现在动不动就是亿做单位，我怎么几万块都没有 我想听追责新闻 现在记者都是瞎写 去，天天磨刀就等你去了。人均300以上的消费，实际确实对不起这个价！好好去看看人家云南的温泉度假村都住满外地人哦！ 失是报道算造谣不？ 动一下脑子吧 引来上级查账，麻烦就大了。 一天450万<br>应该没问题 哦,原来是失实报道啊! 这假造的，自己人都不好意思了…… 提醒一下:造谣入刑。 吹牛🐮 剑河温泉的水质是真的好。出水口接水来尝还是甜的，有六七年没去了，现在不知道什么样了。 贵州就这样被毁了 真赚钱[色色] ",
        "Total": 196,
        "Link": "http://comment.news.163.com/news2_bbs/D70IR84Q000187VE.html"
    },
    "PublishTime": "12/31/201717:05:00",
    "Title": "贵州剑河温泉城开业3个月收入4亿?官方:报道失实_网易新闻"
}