{
    "PublishTime": "01/01/201812:27:27",
    "Comment": {
        "Total": 5,
        "Link": "http://comment.war.163.com/news_junshi_bbs/D72JV80H000181KT.html",
        "Reply": 1,
        "Content": ""
    },
    "Article": "（原标题：美前防长称朝鲜曾接近弃核日媒：美未延续对话路线，是朝核危机源头所在）【环球网报道记者余鹏飞】曾在美国克林顿政府中担任国防部长的威廉·佩里(90岁)，近日在接受日本共同社专访时表示，2000年美朝谈判就朝鲜弃核接近签署协议，但小布什政府内有“朝鲜将因经济压力而崩溃”的乐观预测，未延续对朝对话路线。日本共同社在12月31日的报道中认为，未继承朝鲜几乎接近弃核的外交成果，美国对朝政策缺乏一贯性，是当今朝核危机的源头所在。佩里说，以1999年自己访问朝鲜时的谈判结果为基础，“(朝鲜)2000年就放弃核计划签署协议极有可能”。他表示，时任朝鲜劳动党总书记的金正日也以美朝关系正常化为前提，“有意接受”。佩里认为美国的对朝政策是“美国历史上最大的外交失败”。报道说，佩里的言论似乎也反映出，美国未继承几乎接近弃核的约20年前的外交成果，政策缺乏一贯性的状况是当今危机的源头所在。佩里还透露，1999年5月他访问平壤后，美朝2000年秋季实现了高官互访。克林顿总统对与朝鲜达成协议态度积极，但由于认为不应该对同年年底当选的候任总统小布什形成约束，最终未实现签约。佩里表示，小布什政府内有“朝鲜将因经济压力而崩溃”的乐观预测，未延续对话路线。对于之后美国在伊拉克战争中耗费膨大劳力，在对朝政策上走投无路，结果导致朝鲜拥有核武器，他断言说“这是巨大错误”。佩里回顾与时任朝鲜第一副外相姜锡柱的谈判过程，提及“实际上，就像金正日亲临谈判现场一样”。报道称，姜锡柱把结果汇报给金正日，在得到指示后进行第二天的谈判。佩里还表示“美方的提案不仅有核问题，还包括美朝关系正常化、在平壤开设美国大使馆、日韩提供经济支援等，范围很广”，曾希望把朝鲜变为“普通国家”，“去除核开发的动机”。本文来源：环球时报-环球网。更多精彩，请登录环球网http://www.huanqiu.com责任编辑：李曦_NN2587",
    "Source": "Netease",
    "Title": "美前防长:朝鲜曾接近弃核 小布什未能延续对话_网易军事",
    "KeyWords": "小布什,朝鲜,外交,美朝",
    "URL": "http://war.163.com/18/0101/12/D72JV80H000181KT.html"
}