{
    "Article": "（原标题：“濮阳重点高中寝室血案”凶手一审被判无期死者父亲未确定是否上诉）3月10日下午，卢某和李某所在班级的教室空无一人摄影/新京报记者王婧祎12月28日下午，卢振江收到了河南省濮阳市中级人民法院发来的刑事附带民事判决书。法院判决，被告人李某犯故意杀人案，判处无期徒刑，剥夺政治权利终身，驳回附带民事诉讼原告人杜某的诉讼请求。这距离他的儿子卢某被同寝室室友李某刺死，已过去了9个多月。同学杜某是同案的伤者，在法院的文书上，杜某的伤情被做了如下描述：颈部、纵膈积气评定为轻伤一级，甲状腺损伤评定为轻伤二级，发声和构音问题评定为轻伤一级。为此，他请求法院判处被告人李某及其法定代理人李增光（李某之父）、贾桂莲（李某之母）赔偿其各项经济损失共计42万元。但法院没有支持他的请求。在法院的判决书里，李某的作案动机被濮阳市人民检察院认定为：被告人李某在人际交往中，自认为同学对其轻视、排斥而心生恨意。卢振江称行凶者为“恶魔”，他说自己的儿子是个很优秀的小孩，“从不跟别人发生矛盾”。但在今年3月3日凌晨，儿子被同寝室的李某用单刃锐器致左侧颈动脉断离，法院的判决书上显示“大出血合并吸入性窒息死亡”。卢振江告诉红星新闻记者，儿子卢某生前是河南省濮阳市第一高级中学一名高二学生。如果不是这个事情发生，成绩优秀的儿子2018年就将参加高考，“‘985’稳走的”。卢振江说，目前妻子还没有从儿子死亡的阴影中走出来，“不敢在她面前提这个事儿”。42岁的他也曾想过与妻子再生一个，但因为伤心过度导致身体状况欠佳，目前还未将此想法付诸行动。“我们对判决肯定是不满的。”卢振江告诉红星新闻记者，但他也无奈地承认，因为行凶者目前未满十八岁，判死刑肯定是不可能的。本案死者和伤者的代理律师、河南豫龙律师事务所律师付建认为，本案犯罪事实清楚，证据确凿，被告人李某为了作案事先预谋，杀人动机非常明确，因此法院认定故意杀人罪，符合法律规定。“由于被告人李某作案时未满十八周岁，根据法律规定不能判处死刑（包括死刑缓期两年执行），因此判处无期徒刑符合法律规定。”付建告诉红星新闻记者，目前还未收到家属的上诉请求，“受害人的家属说需要商量，最后再确定是否上诉”。本文来源：红星新闻作者：段睿超责任编辑：韩佳鹏_NN9841",
    "URL": "http://news.163.com/17/1229/19/D6RK4J8B0001875P.html",
    "Source": "Netease",
    "KeyWords": "法院,高中,死刑,室友",
    "Comment": {
        "Reply": 11,
        "Link": "http://comment.news.163.com/news_shehui7_bbs/D6RK4J8B0001875P.html",
        "Total": 172,
        "Content": "有减刑的一般就13--15年左右<br>也就是说这高中生不到40就又可以回到社会了<br>被害者是不是算白死了？ 无期徒刑原来是个卵？ 杀人偿命！ 什么狗屁法官。中国的法律无数种解读法，谁的觜大，就按谁的来 虽然未满十八岁，但高中二年的学生是有完全的主观能力，完全可以负责自己的行为了，应判死刑。法律也应对被害者负责！再说杀人偿命，天经天义，更何况他是故意杀人！ 这才是个无期? 未满十八岁都有杀人执照 一直搞不懂“无期徒刑”到底有没有期限？是否坐一辈子牢？ 这也是拼爹的时候 一百多年前西方人对中国的杀人偿命观念就愕然，认为是野蛮愚昧的思维方式，所以西方国家要求治外法权。一百多年后我们的技术进步了，生活水平提高了，我们自认为文明了，可思维方式还是脱离不了传统文化的模式。世界上还没有哪个国家文化不进步但社会能进步，文明能进步。 有减刑的一般就13--15年左右<br>也就是说这高中生不到40就又可以回到社会了<br>被害者是不是算白死了？ 虽然未满十八岁，但高中二年的学生是有完全的主观能力，完全可以负责自己的行为了，应判死刑。法律也应对被害者负责！再说杀人偿命，天经天义，更何况他是故意杀人！ 杀人偿命！ 无期徒刑原来是个卵？ 什么狗屁法官。中国的法律无数种解读法，谁的觜大，就按谁的来 屁。自古就有杀人不偿命例子。武松，杨志。 这才是个无期? 未满十八岁都有杀人执照 一直搞不懂“无期徒刑”到底有没有期限？是否坐一辈子牢？ 这也是拼爹的时候 一百多年前西方人对中国的杀人偿命观念就愕然，认为是野蛮愚昧的思维方式，所以西方国家要求治外法权。一百多年后我们的技术进步了，生活水平提高了，我们自认为文明了，可思维方式还是脱离不了传统文化的模式。世界上还没有哪个国家文化不进步但社会能进步，文明能进步。 "
    },
    "Title": "高中男生刺死室友被判无期 死者父亲：对判决不满_网易新闻",
    "PublishTime": "12/29/201719:15:41"
}