{
    "PublishTime": "01/02/201801:15:40",
    "Comment": {
        "Total": 1433,
        "Link": "http://comment.news.163.com/news2_bbs/D73VU9MG000187VI.html",
        "Reply": 129,
        "Content": "不想过多非议这一职业，但对殡葬这一行真没好感…有次好友至亲离逝，我们几个朋友临时得知赶去告慰，由于市内不能随意停放灵堂，只在指定灵堂祭奠，晚上吃饭时比预定超了一个人，让灵堂方面加双碗筷，结果被告之不行，只能花钱租一整席碗筷，另外，大冷天主人还没喊开饭，就把饭菜上到桌上，客人上桌都TM凉了，让给热一下，回答:没空，要热就先等着-尼马不是朋友不想在这伤心难过的时候跟他们计较，我们几个兄弟伙早TM掀桌子了 虽然一楼说的也不对，但二楼你就是个傻子，你这么干警察立即找上门你信不信？ 不容易 那些为逝者整理遗容等的人说真的还是值得尊重。<br>但是殡仪馆有的项目，的确太黑了。 为人生的最后服务高尚，说别人挣死人钱的，请你去挣你能吗 致敬从事特殊行业的工作者！ 人一看透了生死，就是无敌的存在。 一楼也可以不办白事，一分钱不花，多好 一个破骨灰盒就几千，不去火葬场不知道那里的黑，但是，现在大家都黑，就无所谓了黑白啦。。。，记得单位附近铺设天然气管线，想让施工单位留一个接口，以便日后使用，就一个三通一个阀门的事，那厮居然张口就要40万。。 什么工作都得有人干，以上几位网友说你们赚死人钱，那活着的人在医院花的更多吧？你们不也是心干情愿的往外掏钱吗？<br>你可以自己去烧吧！别不讲理了，网友！ 本来就是赚死人钱，死人的钱就赚不得了？不想出钱别往殡仪馆送啊 这工作不容易。 加油你是最棒的 人死后不要槁化装来赚钱,烧了百了,老百姓们的心声 这是你的心声，不能代表大家 那殡仪馆的钱是天上掉下来的？ 你也可以选择自己在家烧完了拿簸箕一装洒大街上，没人拦你。 一楼，你在家自己烧啊。。。。 尼玛你们见惯了生死已无人性你们不是挣死人钱的问题是敲诈死人钱的问题 特殊行业 这话说的，割痔疮凭什么不收费？医院的钱也不是天山掉下来的，假如你家开医院，别人去你那看病，你不收费？ 什么职业都需要有人去做，其实这种职业更需要尊敬 以前曾经存在，后来喷子多了，也就成了奢侈品 人们应该说的不是她，是说这个行业，从一条龙-到墓地。 说你赚死人钱难道说错你了？是骂你了？ 相对于死人，活人更可怕。 追悼会是家属要办的，怎么叫赚死人钱呢？你嫌花钱可以不办，直接火化。 人生短短几十年，得抓紧时间去珍惜。珍惜家人、珍惜健康，珍惜目前拥有的一切。 我这个我必须要说说2楼，别的地方我不知道，你来南京试试。<br>你要没有买墓地。<br>火葬场根本就不跟你火化。 建议大家看看日本电影《入殓师》，获得多个奖项！ 明明赚得的活人的钱，死人会给钱吗？ 不应该是没几个人敢做，才不得不加人工才能留得住人吗？！再说那些人只是打工的，对价格不满意的话不是该去找定价格的部门吗？！ 去过这地方和里面的工作人员聊天，其实这份工作在外面看来有点恐怖，对于他们来说早已习惯一切，就像平常我们工一样的，而且殡仪馆不是说进就能进的，和我聊天的那个就是靠关系才能进去民政局有熟人。他们的工资福啊待遇也不错 40万那是给公家的，你要是私下给他点儿，这40万就省了 割个痔疮也收费要点碧莲？ 人到中年，接触殡仪馆的机会逐年递增 为什么殡葬师能坚持，因为这是标准的事业单位。 真的是不容易 行业里就需要有人服务 我说句实话，可能很多人要骂。我觉得这种殡葬行业，暴利就是应该的。我想问下假如给这里的人一天1000元让你去整理那种肉泥一样的尸体，你干吗？正是因为没几个人敢做这种事情，所以他们就应该赚钱。 人生驿站，这个名字好 你本来就是赚死人钱。医院后面一条龙服务，哎，真是让人百感交集。 理这东西，至少在网易上是很少存在的。 楼上傻逼难道说错你了？是骂你了？ 理解万岁耶[微笑][微笑][微笑] 一楼也可以不办白事，一分钱不花，多好 关你屁事儿小编 真的是不容易 致敬从事特殊行业的工作者！ 貌似现在自己处理还真不行啦，这是犯法的，哈哈 人死后不要槁化装来赚钱,烧了百了,老百姓们的心声 嫌弃她赚你钱别去啊？ 你也可以选择自己在家烧完了拿簸箕一装洒大街上，没人拦你。 不送殡仪馆送哪儿？自己烧行不？火化证明是啥知道么？我还想土葬呢 楼猪装疯卖傻么？她干的这一行现在是垄断，暴利惊人。 起码你得尊重工作人员，价格又不是她说了算的。就像医院，你有不去的权利。 逝者安息,生者珍爱生命 我要是你们，就闭上鸟嘴。能创收是人家的本事，合理合法，用不着红眼病品头论足。 说你赚死人钱难道说错你了？是骂你了？ 主要还是要看收费标准的，像婚纱照的化妆师收多少？你贵一倍，情有可原。你贵五倍，这个你说呢？ 为人生的最后服务高尚，说别人挣死人钱的，请你去挣你能吗 追悼会是家属要办的，怎么叫赚死人钱呢？你嫌花钱可以不办，直接火化。 你割痔疮不收费吗？我有好多人想割，请您帮个忙。付出劳动，就应得到相应的报酬，请你端正思想。 建议大家看看日本电影《入殓师》，获得多个奖项！ 入土为安啊，我埋山坡上呢？ 不应该是没几个人敢做，才不得不加人工才能留得住人吗？！再说那些人只是打工的，对价格不满意的话不是该去找定价格的部门吗？！ 广州怎么出来你这么个傻逼 大多数辽宁人不把自己当东北人 广州怎么出来你这么个傻逼 哎。这个职业确实不太好 东北黄虫卖菊花， 东北黄虫卖菊花， 哈哈 底层黄虫，东北就是被你吃穷的 特色行业 拉去派出所当着工作人员面前烧 东北黄虫卖菊花， 操，你自己烧烧试试，连机会打扫都没有 在院子烧真心不行啊火化证明死亡证明齐了才能去笑户口吧 一线员工不容易挣钱的是民政局下属单位殡仪馆 本来就是赚死人钱，死人的钱就赚不得了？不想出钱别往殡仪馆送啊 你可以不找美容师 这是你的心声，不能代表大家 只要是正常死亡，不土葬的话就没犯法 做这工作，要强大的内心 黄虫好好呆着，别飞到北上广深 挣死人钱说的很对啊殡葬师不挣死人钱难道挣活人钱？？？？ 愿逝者安息,生者珍爱生命 能啊 黄虫好好呆着，别飞到北上广深 人家不是东北人，是东北的黄虫，东北的虫估计也比你们那里的虫贪婪 你神经了啊 真正挣死人钱的是救护车，同事家人不行了想回家待一会儿需要救护车送救护车坐地起价爱走不走 明明赚得的活人的钱，死人会给钱吗？ 人一看透了生死，就是无敌的存在。 你本来就是赚死人钱。医院后面一条龙服务，哎，真是让人百感交集。 割个痔疮也收费要点碧莲？ 人到中年，接触殡仪馆的机会逐年递增 我说句实话，可能很多人要骂。我觉得这种殡葬行业，暴利就是应该的。我想问下假如给这里的人一天1000元让你去整理那种肉泥一样的尸体，你干吗？正是因为没几个人敢做这种事情，所以他们就应该赚钱。 死人身上是有的， 什么工作都不容易需要人们互相体谅 不想过多非议这一职业，但对殡葬这一行真没好感…有次好友至亲离逝，我们几个朋友临时得知赶去告慰，由于市内不能随意停放灵堂，只在指定灵堂祭奠，晚上吃饭时比预定超了一个人，让灵堂方面加双碗筷，结果被告之不行，只能花钱租一整席碗筷，另外，大冷天主人还没喊开饭，就把饭菜上到桌上，客人上桌都TM凉了，让给热一下，回答:没空，要热就先等着-尼马不是朋友不想在这伤心难过的时候跟他们计较，我们几个兄弟伙早TM掀桌子了 虽然一楼说的也不对，但二楼你就是个傻子，你这么干警察立即找上门你信不信？ 是啊，何况在家里就算想烧也不行吧，这个是包赚钱的生意，被垄断了的，呵呵。反正要面子钱受罪，不要面子嘛，那还说啥。 这是个多么开朗的人，善良的人，明白的人！ 其实这也是个艰难的工作 每一份工作都要受到尊重，试想没有这个行当当怎样？ 让死者走得更体面，让家人朋友最后的一场送别，没有遗憾，其实没有什么歧视的必要，行业存在，就有它存在的理由 什么工作都得有人干，以上几位网友说你们赚死人钱，那活着的人在医院花的更多吧？你们不也是心干情愿的往外掏钱吗？<br>你可以自己去烧吧！别不讲理了，网友！ 这工作不容易。 人生短短几十年，得抓紧时间去珍惜。珍惜家人、珍惜健康，珍惜目前拥有的一切。 加油你是最棒的 一个破骨灰盒就几千，不去火葬场不知道那里的黑，但是，现在大家都黑，就无所谓了黑白啦。。。，记得单位附近铺设天然气管线，想让施工单位留一个接口，以便日后使用，就一个三通一个阀门的事，那厮居然张口就要40万。。 你也可以选择自己在家烧完了拿簸箕一装洒大街上，没人拦你。 你试试有没人拦 你是爹妈没教养好，不会好好说话可以不说 特殊行业 以前曾经存在，后来喷子多了，也就成了奢侈品 愚蠢的家属 焚烧垃圾污染空气 我这个我必须要说说2楼，别的地方我不知道，你来南京试试。<br>你要没有买墓地。<br>火葬场根本就不跟你火化。 你可以自己烧，烧完之后，看我国刑法会不会刑罚你的家人 为什么殡葬师能坚持，因为这是标准的事业单位。 一楼不要碧莲 焚烧垃圾误判空气 不单单医院，除了殡葬行业都是赚活人钱，殡葬行业就是赚死人钱有什么不对？不知你们那里情况，我们这里殡仪馆搬迁到半山坡上，没有公交车，打车四五十，每天花费近万甚至上万，这对于我所在的城市一个三四线城市来说不是个小数字，除了正常花费，小费必不可少的，这些你了解吗 你本来就是赚死人钱。医院后面一条龙服务，哎，真是让人百感交集。 理这东西，至少在网易上是很少存在的。 这工作不容易。 这工作不易！为她们点👍！😈🏬😝⛓🏫🐛😃🐶🏣😃⛪️🏦💀 那些为逝者整理遗容等的人说真的还是值得尊重。<br>但是殡仪馆有的项目，的确太黑了。 割个痔疮也收费要点碧莲？ 这怎么能叫挣死人钱呢？我就不信死人能自己来要求办殡葬，我也没见过死人会给钱的。 向殡葬师们致敬！ 你一定是年轻人，没有什么经历。你不知道有一个叫身不由己，办白事，主家可以说没有什么权力，口水舆论，能压死你。 难道不是? 阴阳关口守关人，皇帝也要过此一关，见官大三级 一楼，你在家自己烧啊。。。。 尼玛你们见惯了生死已无人性你们不是挣死人钱的问题是敲诈死人钱的问题 网易才是真正的业界良心，你就一五毛脑残。 什么职业都需要有人去做，其实这种职业更需要尊敬 人们应该说的不是她，是说这个行业，从一条龙-到墓地。 人都是会死的，对吧？ 网易喷子毫无理性，楼上就是明证 说你赚死人钱难道说错你了？是骂你了？ 民政局下属的事业单位，福利非常好。 确实黑。 你吹牛吧？你试试有没有人拦你？ 40万那是给公家的，你要是私下给他点儿，这40万就省了 幸好俺们都是直接土葬 行业里就需要有人服务 相对于死人，活人更可怕。 二楼是在殡仪馆上班吧，死者家属才不会打车去那儿吧。 特殊行业 你本来就是赚死人钱，这怎么是骂你？我说尼母亲是女人是在骂你麻？我说够吃屎是在骂够？这不是客观陈述么？到底谁不讲理？ 不容易 这样的工作。人难做的哦 嗯…… 你本来就是赚死人钱，这怎么是骂你？我说你母亲是女人是在骂你麻？我说狗吃屎是在骂狗？<br><br>这不是客观陈述么？到底谁不讲理？ vbb 你是不知道火葬场有多黑，我认识一个卖骨灰盒的，一个火葬场的提成最少一半。 什么工作都得有人干，以上几位网友说你们赚死人钱，那活着的人在医院花的更多吧？你们不也是心干情愿的往外掏钱吗？<br>你可以自己去烧吧！别不讲理了，网友！ 怎么叫赚死人钱？你去殡仪馆问死人要点钱看看 去过这地方和里面的工作人员聊天，其实这份工作在外面看来有点恐怖，对于他们来说早已习惯一切，就像平常我们工一样的，而且殡仪馆不是说进就能进的，和我聊天的那个就是靠关系才能进去民政局有熟人。他们的工资福啊待遇也不错 胆子真大啊！ 能够干这种职业，胆真肥啊！ 钱在手，任他唾液飞溅。反手闭门，清静世界一片。心无愧，管他无事生非，安休出国，西方理性国门。 那他就涉嫌违法了！他也就痛快痛快嘴！ ？？ 你也可以选择自己在家烧完了拿簸箕一装洒大街上，没人拦你。 殡仪馆吗！<br>赚死人钱见怪不怪了！ 人生驿站，这个名字好 你本来就是赚死人钱。医院后面一条龙服务，哎，真是让人百感交集。 理这东西，至少在网易上是很少存在的。 "
    },
    "Article": "（原标题：服务逝者慰藉生者）从业十年的卫艳茹说，她相信电影《寻梦环游记》里面讲的，人去世了，仍会以另一种形式存在。或是精神，或是血脉。新京报记者尹亚飞摄殡葬师被人称作“人生驿站送行者”。卫艳茹说，她喜欢这个名字。卫艳茹这份工作干了十年，时刻提醒自己殡葬无小事。婚礼可以彩排，葬礼只有一次。出了错就是大事故。有时连续几场下来，“人的整个气就耗掉了”。刚工作的时候，爷爷还笑着对她说，“以后我的葬礼茹来办。”后来爷爷去世了，卫艳茹用专业技能完成了他的遗愿，说自己没让爷爷丢脸。目击生死离别成为工作，卫艳茹并没有像别人猜测的那样变得麻木。她反倒开玩笑地说，在殡仪馆上班没有人得抑郁症。人生短短几十年，得抓紧时间去珍惜眼下拥有的一切。目击生死告别成为工作12月的北京，清晨六点半，体感温度只有零下五摄氏度。还要再过一个小时，天才会大亮。在大兴区殡仪馆做了十年的殡葬礼仪师，卫艳茹早已习惯每天早上5点钟起床，赶着不堵车，6点10分左右到达单位。然后换上工作服，戴上工牌，准备迎接一天中的“早高峰”。不到8点，从接待家属、核对逝者基本信息、安排家属站位、将悼词组织成文，紧接着主持告别仪式……卫艳茹连着完成了三场。这还不是最多的，忙的时候，她一个人要主持6场告别。“有些家属讲究遗体不能见光，所以都赶着天不亮就来。我们也只能根据家属的要求来安排。”她说，自己主持的告别仪式，根据家属及来宾的人数、悼词多少等，有短到十几分钟就结束，最长也有持续一个多小时的。仪式上不敢出错，出了就是大事故。卫艳茹不断地提醒自己，殡葬无小事。“红事儿”可以彩排。“白事儿”的过程无法重来。如果说错一个字，总会觉得对不起逝者或者家属。相应地，每次主持内心的压力也很大。连续几场下来，“整个气就耗掉了”，要坐下来缓上半天才能再站起来。压力大的时候，做梦都还会梦到主持告别仪式的场景。从2006年工作至今，这份工作的职业性质告诉她，工作必须要保持理智，控制好情绪，让仪式顺利进行。但当目击生死离别之时，卫艳茹坦言完全置身事外很难。一次，她主持一个小女孩的告别仪式，最终还是没有控制住自己的情绪。车祸中，小女孩在睡梦中离世。她的父母带来了她最喜欢的裙子和玩具，摆放在告别厅里。因为是颅内伤，表面上看孩子就像睡着了一样。以往为了让告别厅里的人都听得清，卫艳茹主持的声音需要洪亮，但那天她却说得很轻柔。“我怕会吵到这个漂亮的小生命，怕惊扰到她。”整个仪式，自己一边流泪，一边为她送别。“那天下班回到家，我赶紧抱起我的闺女，紧紧地抱着，许久没撒手。”爷爷嘱托：“我的葬礼茹来办”卫艳茹还记得第一次跟着师傅给遗体化妆。逝者身上都是伤口，内脏多处破裂。卫艳茹就跟其他几个实习生一起打下手，帮忙清洗缝合。“我们从头到尾，动作都很轻。虽然是第一次，但是并不害怕，觉得自己终于学有所用。”缝合时遇到体液外渗，就按师傅教的，用保鲜膜缠好，然后再穿衣服。遗体脸上有伤口的，就用花把头围起来，这样看起来人就像躺在鲜花里一样，很安详。卫艳茹的老家在吉林通化，那是位于长白山天池脚下的城市。高考那年，因为数学成绩不理想，没够上本科线。妈妈建议，一个女孩子要不就去学师范或者英语。“那时候的想法很简单，就是学个专业，将来好找工作。”卫艳茹觉得，殡葬是个冷门，就业应该没什么问题。卫艳茹的爷爷说，帮人家做白事，协调各种事情，是个积德行善的好事儿。“孩子报这个，挺好的。你们反对也没用，这是善事。等我走的时候，后事就交给茹来办。”而卫艳茹自己，也认定了这行。从课堂上学习卫生学、心理学、大学语文、社会学……到去医院参观人体标本，再来到殡仪馆实习，跟着师傅操作。一步步接受，一点点摸索。后来，爷爷去世了。卫艳茹说：“走的前两分钟还跟人抽烟、聊天。然后忽然就说抽不下去，自己要死了。走的时候没有痛苦。”卫艳茹一直记得爷爷生前说的，他的葬礼要由我亲手操办。告别仪式上，卫艳茹代表家人讲述爷爷一生的生活与不易。整个葬礼仪式过程，她一直控制着自己的情绪和主持的节奏，因为她深知爷爷的嘱托，不能给爷爷丢脸。“他特别有威严，懂得很多，读这个专业就是爷爷支持我的”；“每次过年回家，我都会陪他，捏捏肩捶捶腿……”最终，爷爷的葬礼仪式结束了，卫艳茹终于不需要再克制，尽情地放声大哭起来。服务逝者更是服务生者卫艳茹从不避讳向别人提及自己的职业。但结果往往都是听的人很忌讳。“问我在哪上班，我说在殡仪馆，他们就会本能地往后退，然后说啊，你胆儿够大的啊。”她可以理解，人们通常恐惧死亡，忌讳尸体。卫艳茹说，这份工作自己干了十年，慢慢理解了别人眼中的“特殊”。除了让逝者走得安详，更多的还是要通过服务，让生者感到慰藉。“那是我这几年都难以忘却的。”她回忆道，那天在殡仪馆接待了一位头发花白的老太，拄着拐杖，说儿子自杀了，40岁，正当年。生前最喜欢花，她希望在告别仪式上加些植物，不想让儿子走得冷清。“老太太虽然年纪大了，但是前期所有的事情包括告别仪式当天，她都没有失控，条理很清晰。”卫艳茹说，自己虽然每天都目击生死离别，但并没有像别人猜测的那样，会变得麻木。“我们也是人，也会感同身受，更何况是这种白发人送黑发人。”凭借着经验，卫艳茹开始帮忙策划。按照以往，在告别仪式上，逝者的名字是用电子横幅显示的。但这次，用的是鲜花。“我们看过他生前的照片，很阳光很帅气。所以遗像也没用黑白，而是选了一张很精神的彩照挂上。”最后告别时，老太太说她尊重儿子的选择，让他放心地走，她会照顾好自己，不用记挂。“然后紧紧握着我的手说谢谢，还向我鞠躬。我想这应该就是对我们的认可和尊重。”抓紧时间去珍惜有时也会遇到家属情绪失控，“刚到殡仪馆，一下车就骂我们挣死人钱。”卫艳茹说，刚工作的时候自己听到很委屈，会哭。但慢慢地自己也能理解。“有的家里人花了好几十万，结果人没救回来，换谁心里都不舒服。骂两句就骂两句吧。”现在，自己反倒是看得特别开，还开玩笑说，在殡仪馆上班的好像都没有得抑郁症的。看得多了，她有时候就会想，没有必要去计较那么多。人生短短几十年，得抓紧时间去珍惜。珍惜家人、珍惜健康，珍惜目前拥有的一切。去年6月，卫艳茹因为敬业奉献，入选“北京榜样”。原定年底参加颁奖，但她推辞了。卫艳茹说：“一年到头，好不容易能休假。爸妈从来没坐过飞机，趁着弟弟刚考完试，想带着他们去南方转转。”卫艳茹说，她相信电影《寻梦环游记》里面讲的，人去世了，仍会以另一种形式存在。或是精神，或是血脉。本文来源：新京报作者：潘佳锟责任编辑：官平_NN4892",
    "Source": "Netease",
    "Title": "女殡葬师目击生死告别10年:有时被家属骂挣死人钱_网易新闻",
    "KeyWords": "生者,葬礼,殡葬",
    "URL": "http://news.163.com/18/0102/01/D73VU9MG000187VI.html"
}