{
    "Article": "（原标题：蔡英文民调连跌马英九跨年夜逛夜市受热捧摊商:就靠你了）马英九跨年夜到六合夜巿吃海产粥。（图片来源：台湾《中时电子报》）中国台湾网1月1日讯随着现任台湾地区领导人蔡英文的支持度最近3个月再度连续下跌，前领导人马英九在岛内的受欢迎程度则不断回升。昨天（31日）的跨年夜当晚，马英九出现在一向被视为绿营票仓、大本营的高雄，结果受到民众热情欢迎，仿佛当年的“巅峰人气”再度回归。昨晚，马英九兴致勃勃走访了高雄六合夜市，被蔡英文错误两岸政策“坑苦”的摊商握着马英九的手说，“六合夜市生意就靠你了。”据台湾《中时电子报》、“中央社”等媒体报道，由于要参加国民党“立委”黄昭顺于元旦清晨，在高雄体育场举行的升旗典礼，马英九索性提前一晚就住到高雄，于是便在跨年夜，由“立委”黄昭顺、陈宜民陪同着逛起六合夜巿。感受到高雄乡亲的温暖，让他直呼“真是太热情了”。过程中，马英九吃海产粥、泡茶、喝木瓜牛奶，胃口相当不错，民众发现是本尊，争相合照、要签名，他则来者不拒，足足逛了快3个小时才离开。马英九跨年夜到六合夜巿泡茶。（图片来源：台湾《中时电子报》）据报道，马英九才走进夜巿，当地民众就蜂涌上前、争相拍照，他也一一跟摊商、民众问好。热情的民众、摊商要求合照、签名，马英九通通有求必应，不少人拍照后兴奋的不得了，有摊商拜托他常来，有的摊商甚至握着马英九说“六合夜市生意就靠你了”。对此，马英九说，“”就是来增加买气的。”离开夜巿前，马英九还在8年前留下照片的人形立牌前合影，魅力不减当年。马英九跨年夜到六合夜巿喝木瓜牛奶，并为民众签名。（图片来源：台湾《中时电子报》）本文来源：中国台湾网责任编辑：张宪超_NN9310",
    "Title": "蔡英文民调连跌 马英九跨年夜逛街受热捧:就靠你了_网易新闻",
    "PublishTime": "01/01/201811:28:39",
    "Source": "Netease",
    "Comment": {
        "Content": "做总统的玩书法，宋徽宗最好。 笑看风云 得民心者得得天下⋯ 蔡<br>逼<br>死了！ 这几年干的不好吗？ 你俩这对话真和谐 哈哈哈！谁干说不好！ 国民党在台湾混成这样悲哀 靠，就你了 马英九一脚己踏进牢房门了，蔡英文会加速操作！ 台湾的政治人物没TM一个好的。 蔡英文从政以来民调一直大跌，就像安倍似的民调低迷还老连任。 国家如果正式公布台独战犯名单，老百姓就可以随时把他们合法弄死。 马英九书法写的非常棒，菜英文就差得远了.. 他在位时也没能靠得住 台湾的环境挺好 暮气沉沉的国民党还有什么号召力？ 哈哈哈！必须好！ 哪个天下？ 嗯，就你们北京人好 做总统的玩书法，宋徽宗最好。 笑看风云 得民心者得得天下⋯ 蔡<br>逼<br>死了！ 这几年干的不好吗？ 哈哈哈！谁干说不好！ 国民党在台湾混成这样悲哀 台湾的政治人物没TM一个好的。 马英九一脚己踏进牢房门了，蔡英文会加速操作！ 蔡英文从政以来民调一直大跌，就像安倍似的民调低迷还老连任。 国家如果正式公布台独战犯名单，老百姓就可以随时把他们合法弄死。 看来是要杀个回马枪🔫了。 他在位时也没能靠得住 哪个天下？ 靠，就你了 蔡大妈要下岗了 台湾的环境挺好 暮气沉沉的国民党还有什么号召力？ 马英九书法写的非常棒，菜英文就差得远了.. 你俩这对话真和谐 嗯，就你们北京人好 现在又觉得好了。足见台湾人都是傻B ",
        "Reply": 23,
        "Link": "http://comment.news.163.com/news_guonei8_bbs/D72GJICK0001875N.html",
        "Total": 330
    },
    "KeyWords": "蔡英文,马英九,跨年夜,台湾",
    "URL": "http://news.163.com/18/0101/11/D72GJICK0001875N.html"
}