{
    "Source": "Netease",
    "PublishTime": "12/26/201717:17:06",
    "KeyWords": "伯恩利,穆帅,毒奶,曼联",
    "Title": "大军未至,毒奶先行!伯恩利主帅:很欣赏穆帅的足球_网易体育",
    "Comment": {
        "Link": "http://comment.sports.163.com/sports2_bbs/D6JM59KD00058781.html",
        "Total": 388,
        "Content": "两台大小巴士，干脆队员对队员，教练对教练，石头剪刀布算了。。 鸟大师:英国警察嘛？我要报警，有人摆大巴！！？？😂 “他们理应获得喝彩，因为他们确实踢得很不错，他们是欧洲最好的球队，他们很好的把球员结合在了一起，但我不认为这是对曼联的贬低。”<br>这一句太坏了，直接毒奶里面加石头渣滓 摸鸟：有种你来攻啊……戴彻：有种你来攻啊……<br>摸鸟：有种你来攻啊……戴彻：有种你来攻啊……<br>摸鸟：有种你来攻啊……<br>戴彻：有种你来攻啊……<br><br>裁判一声哨响，比赛结束！ 伯巴对曼巴？？？！！！ 英雄所见略同,我们都认为他是唯一强于瓜帅的教练 摸鸟：有种你来攻啊……戴彻：有种你来攻啊……<br>戴彻：有种你来攻啊……摸鸟：有种你来攻啊……<br>摸鸟：有种你来攻啊……<br>戴彻：有种你来攻啊……<br><br>裁判一声哨响，比赛结束！ 这赛季除了曼城巴萨不怕毒奶，其他的一奶就死[狗] 鸟兄，你的大巴摆得很风骚，小弟我也学着摆一摆，咋们来场龟龟大会😂各拿一分走人 英伦大巴哪家强就看今晚这两位老司机的对决了 各自站在本队半场90分钟，各拿一分岂不是皆大欢喜？ 巴萨打拜仁的时候不算防反吧？ 潜台词就是我要摆大巴，你赢不了可不许不开心呦😂 有一点可以肯定，想赢瓜帅的球队，自古以来都是防守反击才能有机会赢，对攻，永远都是站着死。 两台大巴一起摆，谁进攻谁孙子 大祭祀上场就能干，漏哥上去是真漏[喷水][喷水] 这赛季除了曼城巴萨不怕毒奶，其他的一奶就死[狗] 鸟兄，你的大巴摆得很风骚，小弟我也学着摆一摆，咋们来场龟龟大会😂各拿一分走人 MSN太强势了 英伦大巴哪家强就看今晚这两位老司机的对决了 各自站在本队半场90分钟，各拿一分岂不是皆大欢喜？ 鸟大师:英国警察嘛？我要报警，有人摆大巴！！？？😂 毒奶 潜台词就是我要摆大巴，你赢不了可不许不开心呦😂 哈哈哈,太可爱了,相当于场上球员冲裁判拉眼皮了 有一点可以肯定，想赢瓜帅的球队，自古以来都是防守反击才能有机会赢，对攻，永远都是站着死。 就是摆大巴咋滴，回头不还是干了娜婊一个3比1 这场比赛没必要看吧？曼联如果踢不过它，可以解散了 两台大小巴士，干脆队员对队员，教练对教练，石头剪刀布算了。。 “他们理应获得喝彩，因为他们确实踢得很不错，他们是欧洲最好的球队，他们很好的把球员结合在了一起，但我不认为这是对曼联的贬低。”<br>这一句太坏了，直接毒奶里面加石头渣滓 摸鸟：有种你来攻啊……戴彻：有种你来攻啊……<br>摸鸟：有种你来攻啊……戴彻：有种你来攻啊……<br>摸鸟：有种你来攻啊……<br>戴彻：有种你来攻啊……<br><br>裁判一声哨响，比赛结束！ 伯巴对曼巴？？？！！！ 英雄所见略同,我们都认为他是唯一强于瓜帅的教练 摸鸟：有种你来攻啊……戴彻：有种你来攻啊……<br>戴彻：有种你来攻啊……摸鸟：有种你来攻啊……<br>摸鸟：有种你来攻啊……<br>戴彻：有种你来攻啊……<br><br>裁判一声哨响，比赛结束！ 这哥们不够诚意呀，红酒都没买[微笑] 巴萨打拜仁的时候不算防反吧？ 曼联把球权让给你了，不开心才怪 我感觉对面一拜起大巴了曼联就不知道怎么踢了 维尔马伦自带吸伤害 两台大巴一起摆，谁进攻谁孙子 曼城有玄学大师达尼漏，巴萨有大祭司维尔马伦！ ",
        "Reply": 26
    },
    "Article": "网易体育12月26日报道:今晚，曼联将在主场对阵伯恩利，在接受天空体育采访时，伯恩利主帅戴彻再度对曼联发动毒奶攻势，他表示，他很欣赏穆里尼奥的足球哲学。在本赛季英超联赛上半程的比赛中，戴彻带领的伯恩利发挥出色，不过面对本场比赛的对手曼联戴彻不抱任何幻想。他表示：“我很欣赏穆里尼奥的就是他和他的队员们在比赛中找到了不同的获胜方式。虽然现在关于曼联对比赛的重视程度有着比较多的问题，但他们依然是一支很强大的球队，同时穆里尼奥非常了解英超联赛。”面对强大的对手，戴彻依旧强调说他们很享受在老特拉福德比赛，并且很有自信在比赛中展示球队自身的技战术风格。戴彻说道：“我们会期待这场艰苦的比赛，我们只会去展示我们自己的风格，并了解对手，带着清晰的头脑去参加比赛。”而他的模式正是给球员以自由度，让球员们知道自己的工作。在谈到穆帅时，戴彻交口称赞：“穆里尼奥的头脑很清楚，他会坚持自己的东西，我非常佩服他。曼联在这些年总有着不同的方式来取得胜利，他们可以顽强的防守，也可以打出流畅的进攻。现在的曼联依旧如此，他们有着一群非常出色的球员，是一支优秀的球队。”在谈到一月对阵曼城的比赛时，戴彻还表示：“他们理应获得喝彩，因为他们确实踢得很不错，他们是欧洲最好的球队，他们很好的把球员结合在了一起，但我不认为这是对曼联的贬低。”这样的称赞无疑是再次将毒奶抛给了穆里尼奥，在联赛杯对阵布里斯托城的比赛中，对方主帅就表示非常欣赏穆帅的战术，并希望亲自和他取经，但最终，曼联1-2不敌对手。而这一次，再度面对对手的“欣赏”，不知穆帅的曼联会给出怎样的回应。本文来源：网易体育责任编辑：郑鑫桐_BJS5086",
    "URL": "http://sports.163.com/17/1226/17/D6JM59KD00058781.html"
}