{
    "URL": "http://news.163.com/17/1227/18/D6MDFT110001899N.html",
    "Comment": {
        "Reply": 48,
        "Content": "山寨帮贵族 明明是肆无忌惮的腐败！不是什么“错误”可以掩盖得了的！主要负责领导双规双开吧！ 看过两次开门大吉，一次答主说是说自己已经是五代石油，一次说自己是三代消防，这一听起来都是把一切献给X和郭嘉的意思，围观群众感动的纷纷鼓掌……可就不想想，实在却是一伙垄断集团培养出来的近亲繁殖的利益既得分子…… 8月初，在庐山管理局2011年度事业单位工作人员招聘考试中，11个岗位的笔试成绩第一名中有5个是当地干部子女，引起当地市民普遍质疑，称之为“招聘‘超级舞弊门’事件”。媒体对此进行报道后，江西省人力资源和社会保障厅紧急叫停庐山管理局招考工作，并与九江市相关部门组成调查组进驻庐山，着手对整个招聘过程展开调查。调查人员采取对相关人员进行询问、查阅试卷和相关资料，及核对有关记录等方式对“庐山招聘”情况进行核查。<br><br>调查组调查认为，庐山管理局此次招聘工作存在违规问题。主要包括随意新增招聘职位，未按规定在**网站公告、对报名资格审查不严、违反招聘工作应实行回避制度的规定等。 感觉姓蒯的没好人 萝卜招聘本来内部商定的，这不公开发布出来，不是打脸吗？不过处理也是不痛不痒，没卵用！ 在那个地方可能萝卜招聘是常态，不过这个部门撞到枪口上了。现在发这个招聘条件，想想都恶心。 太正常了。而且处罚也是罚酒三杯 这样的低级政治错误也犯？恐怕是神经病吧！ 基本都是事业单位招考，但是老百姓骂的还是公务员，骂事业单位感觉没意思 11年南方电网公司招聘网上有一条选填项“有没有亲属在南方电网工作的”，当时好多同学是平时根本没有上过课的，平时都挂科的亲属全部都进去了，到了面试阶段隔壁班有个是他表哥来面试的，回来第二天就告诉大家他进了。现在在那个有点福利好点的单位都是这种情况，都是二三代亲属在里面 透明阳光招聘，有什么问题。这不是鼓励的讲实话？？？？ 80%医疗费用用于高干病房及其家属，高房价也是此类人推动，待遇高国企事企公务员也是，高退休金也是，幼儿园也是，公积金也是，特供大米，油，菜也是，多的去了，哪个东西无缘无故给这么多好处？ 拿~打错了 这年头说真话风险太大 龙生龙凤生凤老鼠生儿打地洞 贵族阶层没毛病啊，他们父母无私服务那么多年了，应该的，支持！ 这也太肆无忌惮了吧？低调点行不 记者前往庐山管理局调查了解招聘情况。庐山管理局人事劳动处副处长朱常明说，网上关于领导干部子女笔试入围人员名单和领导干部的职务身份基本属实，在问及11个职位中，为何会有5位领导干部子女以第一名的成绩入围的问题时，他说：“我们也觉得很惊讶，但这是一种巧合，他们中的很多人是应届毕业生，考得比较好！” 懂套路 处分太重，罚酒三杯 没有大的变故，垄断只有越来越严重的 环卫管理员是弄啥了？是不是环卫工扫地在旁边看着当监工？还是人家扫完那个称量灰罚款了？这活太爽了 说实话被处分，假话就成了通用语言 不是说很公正的吗？ 这样太赤祼祼了，一般是和另一个单位交换名额，互相录用对方单位领导的关系户的 有事实说话！ 居然敢明写出来，脑袋被门夹了 靠，这也太赤裸裸了，你们一贯使用的作秀装B套装也忘记穿了？ 不小心把()里的发出来了[大笑][大笑][大笑] 事业单位的招聘,按照要求,在当地的人力资源与社会保障网,公布职位,要求等.基本上都是采用考试的形式,面向社会公开考试招聘 山寨帮贵族 明明是肆无忌惮的腐败！不是什么“错误”可以掩盖得了的！主要负责领导双规双开吧！ 不是说很公正的吗？ 看过两次开门大吉，一次答主说是说自己已经是五代石油，一次说自己是三代消防，这一听起来都是把一切献给X和郭嘉的意思，围观群众感动的纷纷鼓掌……可就不想想，实在却是一伙垄断集团培养出来的近亲繁殖的利益既得分子…… 支持严查，杜绝暗箱操作，还百姓公平！ 8月初，在庐山管理局2011年度事业单位工作人员招聘考试中，11个岗位的笔试成绩第一名中有5个是当地干部子女，引起当地市民普遍质疑，称之为“招聘‘超级舞弊门’事件”。媒体对此进行报道后，江西省人力资源和社会保障厅紧急叫停庐山管理局招考工作，并与九江市相关部门组成调查组进驻庐山，着手对整个招聘过程展开调查。调查人员采取对相关人员进行询问、查阅试卷和相关资料，及核对有关记录等方式对“庐山招聘”情况进行核查。<br><br>调查组调查认为，庐山管理局此次招聘工作存在违规问题。主要包括随意新增招聘职位，未按规定在**网站公告、对报名资格审查不严、违反招聘工作应实行回避制度的规定等。 感觉姓蒯的没好人 龙生龙凤生凤老鼠生儿打地洞 萝卜招聘本来内部商定的，这不公开发布出来，不是打脸吗？不过处理也是不痛不痒，没卵用！ 基本都是事业单位招考，但是老百姓骂的还是公务员，骂事业单位感觉没意思 11年南方电网公司招聘网上有一条选填项“有没有亲属在南方电网工作的”，当时好多同学是平时根本没有上过课的，平时都挂科的亲属全部都进去了，到了面试阶段隔壁班有个是他表哥来面试的，回来第二天就告诉大家他进了。现在在那个有点福利好点的单位都是这种情况，都是二三代亲属在里面 说实话被处分，假话就成了通用语言 针对网民的质疑，8月8日，“中国网事”记者前往庐山管理局调查了解招聘情况。庐山管理局人事劳动处副处长朱常明说，网上关于领导干部子女笔试入围人员名单和领导干部的职务身份基本属实，在问及11个职位中，为何会有5位领导干部子女以第一名的成绩入围的问题时，他说：“我们也觉得很惊讶，但这是一种巧合，他们中的很多人是应届毕业生，考得比较好！”<br><br>今年6月7日，庐山管理局**人才工作领导小组发布公告称，经庐山管理局**研究决定，面向全山公开招聘10名事业单位工作人员（后增至11名）。<br><br>对此，朱常明解释说，庐山开展此次招聘是在实施一项“民生工程”，多年来庐山没有进人，一些单位男女职工比例失调，一些单位青黄不接；同时，许多庐山籍和在庐山管理局上班的员工子女大学毕业后没有找到工作。为了解决这一问题，从2008年开始，庐山局党委共拿出36个事业单位的岗位面向全山招聘，前几年搞得都比较成功。 这智商，搞份文件都出事。 这也太肆无忌惮了吧？低调点行不 降职的处分已经算是大的了.肯定会有处分卡塞档案的. 龙生龙，老鼠生儿子打地洞，有天草人以来都是这样。 居然敢明写出来，脑袋被门夹了 懂套路 你这X表示什么？ 环卫管理员是弄啥了？是不是环卫工扫地在旁边看着当监工？还是人家扫完那个称量灰罚款了？这活太爽了 这种事他们落实到文字上？？真想不到。 记者前往庐山管理局调查了解招聘情况。庐山管理局人事劳动处副处长朱常明说，网上关于领导干部子女笔试入围人员名单和领导干部的职务身份基本属实，在问及11个职位中，为何会有5位领导干部子女以第一名的成绩入围的问题时，他说：“我们也觉得很惊讶，但这是一种巧合，他们中的很多人是应届毕业生，考得比较好！” 这年头说真话风险太大 太正常了。而且处罚也是罚酒三杯 长沙党政事业单位都是这么玩的吗？ 在那个地方可能萝卜招聘是常态，不过这个部门撞到枪口上了。现在发这个招聘条件，想想都恶心。 应定为招十年以上环卫一线职工子女要这样你看试试？ 这样的低级政治错误也犯？恐怕是神经病吧！ 8月初，在庐山管理局2011年度事业单位工作人员招聘考试中，11个岗位的笔试成绩第一名中有5个是当地干部子女，引起当地市民普遍质疑，称之为“招聘‘超级舞弊门’事件”。媒体对此进行报道后，江西省人力资源和社会保障厅紧急叫停庐山管理局招考工作，并与九江市相关部门组成调查组进驻庐山，着手对整个招聘过程展开调查。调查人员采取对相关人员进行询问、查阅试卷和相关资料，及核对有关记录等方式对“庐山招聘”情况进行核查。<br><br>调查组调查认为，庐山管理局此次招聘工作存在违规问题。主要包括随意新增招聘职位，未按规定在**网站公告、对报名资格审查不严、违反招聘工作应实行回避制度的规定等。 透明阳光招聘，有什么问题。这不是鼓励的讲实话？？？？ 80%医疗费用用于高干病房及其家属，高房价也是此类人推动，待遇高国企事企公务员也是，高退休金也是，幼儿园也是，公积金也是，特供大米，油，菜也是，多的去了，哪个东西无缘无故给这么多好处？ 拿~打错了 事业单位的招聘,按照要求,在当地的人力资源与社会保障网,公布职位,要求等.基本上都是采用考试的形式,面向社会公开考试招聘 好严重的惩罚啊 贵族阶层没毛病啊，他们父母无私服务那么多年了，应该的，支持！ 真理的代价～～ 处分太重，罚酒三杯 没有大的变故，垄断只有越来越严重的 靠，这也太赤裸裸了，你们一贯使用的作秀装B套装也忘记穿了？ 这也能过人社局审核 这样太赤祼祼了，一般是和另一个单位交换名额，互相录用对方单位领导的关系户的 有事实说话！ 表示我胆 八点二十分发 不小心把()里的发出来了[大笑][大笑][大笑] 说真话竟然会被处分...太那个了吧 针对网民的质疑，8月8日，“中国网事”记者前往庐山管理局调查了解招聘情况。庐山管理局人事劳动处副处长朱常明说，网上关于领导干部子女笔试入围人员名单和领导干部的职务身份基本属实，在问及11个职位中，为何会有5位领导干部子女以第一名的成绩入围的问题时，他说：“我们也觉得很惊讶，但这是一种巧合，他们中的很多人是应届毕业生，考得比较好！”<br><br>今年6月7日，庐山管理局党委人才工作领导小组发布公告称，经庐山管理局党委研究决定，面向全山公开招聘10名事业单位工作人员（后增至11名）。<br><br>对此，朱常明解释说，庐山开展此次招聘是在实施一项“民生工程”，多年来庐山没有进人，一些单位男女职工比例失调，一些单位青黄不接；同时，许多庐山籍和在庐山管理局上班的员工子女大学毕业后没有找到工作。为了解决这一问题，从2008年开始，庐山局党委共拿出36个事业单位的岗位面向全山招聘，前几年搞得都比较成功。 ",
        "Total": 740,
        "Link": "http://comment.news.163.com/news2_bbs/D6MDFT110001899N.html"
    },
    "Title": "长沙面向“干部子弟家属”违规招聘被查:4人被处分_网易新闻",
    "Source": "Netease",
    "KeyWords": "招聘,区环卫局,区政府",
    "PublishTime": "12/27/201718:43:19",
    "Article": "（原标题：长沙面向“干部子弟家属”违规招聘被查，局长等4人被处分）新华社长沙12月27日消息，日前，长沙市天心区市容环境卫生管理局向社会发布招聘合同制环卫管理员公告，其中招聘范围面向“干部职工子弟、家属和亲戚朋友”的规定引发关注。天心区委、区政府27日通报，经当地纪委部门紧急调查，初步确认招聘违规，已责令暂停招聘，并追究相关人员责任。25日，天心区环卫局发布公告公开招聘8名合同制环卫管理员，任职基本条件包括：年龄在25至40周岁以内、高中及以上文化程度、身体健康和无犯罪记录等。同时，注明招聘报名范围为干部职工子弟，干部职工家属、亲戚朋友，以及自我推荐。这一限定报名范围的条件引发关注。记者了解到，在区环卫局发布招聘公告后，天心区委、区政府迅速采取查处行动，责成区纪委成立调查组，启动调查程序。经查，此次招聘的具体实施过程中，天心区环卫局局长蒯建红、副局长魏洪亮、人事科长文杰、人事科副科长喻春梅，违规设定招聘条件，未对招聘内容严格审查把关，发布前未将公告报送人社部门审核同意，违反了《长沙市天心区机关事业单位编外合同制人员管理办法》第十五条规定。针对上述问题，决定给予蒯建红警告处分，给予魏洪亮记过处分，给予文杰警告处分，给予喻春梅记过处分，并调离现岗位。天心区委、区政府要求区属各部门以此为戒，强化法制意识、程序意识。本文来源：新华社新媒体专线责任编辑：张海桐_NN9053"
}