{
    "URL": "http://news.163.com/17/1229/05/D6Q43MND0001875P.html",
    "Article": "（原标题：太原：狠心！父亲将一双儿女“扔”在派出所门口）12月27日下午5点多，太原公安郝庄派出所来了两个小孩，女孩9岁，男孩只有3岁多。他们告诉民警要找妈妈，可无论民警如何拨打孩子母亲的电话，都无人接听……经过民警了解到，小女孩名叫茜茜，是一名小学生，父母都是外地人，在太原租房子住，孩子爸爸平时靠蹬三轮车为生……掌握情况后，民警赶紧联系孩子的学校校长、房东、孩子父亲的同事。都没能找见孩子妈妈和家人。可当民警调取了派出所门口的监控后，所有人都惊呆了……下午5点14分时，一个男人带着两个孩子出现在派出所楼下，走到楼梯口时，男人不知和小女孩说了句什么，三个人向派出所楼上走去。40秒后，男子消失了，就只剩下两个孩子走进了派出所。经过民警辨别，这个男人正是他们的亲生父亲！孩子的父亲为什么要把孩子“扔”到派出所门口？孩子的妈妈又在哪里？本文来源：山西广播电视台责任编辑：刘效武_NN4113",
    "Source": "Netease",
    "PublishTime": "12/29/201705:16:20",
    "KeyWords": "孩子,太原,楼梯口,公安,遗弃",
    "Comment": {
        "Content": "都养到九岁和三岁了，不是迫不得已谁会不要自己的孩子？那些把杀婴或死抱孩子一起跳楼的才是罪该万死！ 是不是以这种方式求助于警察找回老婆？ 遗弃罪呢？肯定又是糊弄过去了 天灾人祸，谁也无法预料,有些困难，更本不是一帮看客站着说话不腰疼. 中国生育思想愚昧的悲剧 啥几把人都有，这样的缺德东西应该判刑 作为父母,做事前请为孩子先三思~~~ 我国，孩子们哭泣的地方耶[暴怒][暴怒][暴怒] 遗弃罪呢？肯定又是糊弄过去了 靠蹬三轮车为生,自己都难养活，生个球的娃娃，还二个，脑袋进屎！ 富翁也可能有破产的时候，生孩的时候生活好，过几年因病致贫或别的原因致贫不行么？ 有能力有担当的生养，没有滚一边凉快去 养不起就送给派出所了？ 他们和动物的思维差不多 养不起还生两个！ 社会本来就不公平，谁要对你负责？你也真搞笑。生孩子就为了养老？你是清朝人吗？ 没钱，遗弃罪有个屁用，只能雪上加霜！ 都养到九岁和三岁了，不是迫不得已谁会不要自己的孩子？那些把杀婴或死抱孩子一起跳楼的才是罪该万死！ 肯定有难处的，扔到派出所算好的吧，比那些卖给人贩子的好多了！ 生育是人的天性，也是作为一个人不可被剥夺的权利。一对夫妇生两个孩子是人类得以生存的最少生孩数了，如果一对夫妻生只生了两个小孩都养不起要送人，这就不是个人的责任了，而应该是整个社会对此负责。 生活艰辛！ 狠心？蹬三轮车挣钱的父亲，内心不作任何斗争，是他狠心？ 生育是人的天性，也是作为一个人不可被剥夺的权利。一对夫妇生两个孩子是人类得以生存的最少生孩数了，如果一对夫妻生只生了两个小孩都养不起要送人，这就不是个人的责任了，而应该是整个社会对此负责。 区区一个遗弃罪怎能解决穷人的问题?真是遇到家庭变故，无法抚养的话，国家没有人任何的帮助措施，靠惩罚只会雪上加霜，无法解决根本问题，尽快出台社会救助细则才行。国心中无民，民心中就无国，如果一个政府每天考虑的是如何多收税，对人民的困难视而不见，这就是最大的害国，这些孩子将来会帮助八国联军扶梯子。 所以建议，连自己都养不起的时候别要孩子！害了孩子！ 生孩子不需要证，哆嗦一下就完事了，生下来傻眼了。。。。建议给新婚夫妇普及一下，别什么人都以为自己可以当父母，没用责任心的人就不要生了，大人孩子受罪不说，将来引发很多社会问题。。。 靠蹬三轮车为生,自己都难养活，找个球的老婆，生个球的娃娃，还二个，脑袋进屎！ 作为一个正常人，对自己的孩子都不负责任，凭什么让社会为你买单？干嘛还要生孩子呢，条件不成熟可以不生，生下来遗弃还能怨社会？ 生了就要养，要么NTMD就带个套 生育是人的天性，也是作为一个人不可被剥夺的权利。一对夫妇生两个孩子是人类得以生存的最少生孩数了，如果一对夫妻生只生了两个小孩都养不起要送人，这就不是个人的责任了，而应该是整个社会对此负责。 最可恶的是没能力还生一堆的，养不起又跑网络上哭穷。这种人完全不值得同情！我想说：没钱还多生，快去死！ 你没能力养，干嘛还要生？花5元做个安全措施不行么 不配为人父母！ 养不起就带套做，没必要让后代为你的无能负责 父亲这二个字你不配，抛妻弃子的联畜牲都不如。畜牲都知道把孩子的孩子养大！！！ 将来如何不知道，如果你能活到那个时候扶梯子的可能性最大。 富贵醉酒温柔乡，贫贱日夜卖笑忙。<br>猫鼠合肥天下瘦，宦富同乐民凄凉。<br>牛头马面堂上坐，大鬼小鬼笑飞扬。<br>贫苦生求方寸地。几多血泪夜茫茫! 生孩子不需要证，哆嗦一下就完事了，生下来傻眼了。。。。建议给新婚夫妇普及一下，别什么人都以为自己可以当父母，没用责任心的人就不要生了，大人孩子受罪不说，将来引发很多社会问题。。。 啥几把人都有，这样的缺德东西应该判刑 如果你没有做好为人父母的准备，做爱时请戴套。 生不养，生来干嘛 作为父母,做事前请为孩子先三思~~~ 生了就要养，要么NTMD就带个套 社会本来就不公平，谁要对你负责？你也真搞笑。生孩子就为了养老？你是清朝人吗？ 靠蹬三轮车为生,自己都难养活，生个球的娃娃，还二个，脑袋进屎！ 富翁也可能有破产的时候，生孩的时候生活好，过几年因病致贫或别的原因致贫不行么？ 有能力有担当的生养，没有滚一边凉快去 养不起就送给派出所了？ 养不起还生两个！ 是不是家庭出现一些问题了，孩子在上学，政府管一下吧。看样子，家庭出现的事情，父母怕是一时间解决不好。政府出援手，温暖孩子。让他们感受到国家已经浮起来的幸福。 遗弃罪呢？肯定又是糊弄过去了 那也应该做申请啊，低保或者救助什么的，直接把孩子扔了就行了啊！<br>而且人不努力，全靠政府也不可能吧，我不相信以他的情况，如果老婆确实跑了或者生病了，申请不来低保或者其他补贴 抛弃孩子的为何都是女人 再难，也得把孩子养大啊 生育是人的天性，也是作为一个人不可被剥夺的权利。一对夫妇生两个孩子是人类得以生存的最少生孩数了，如果一对夫妻生只生了两个小孩都养不起要送人，这就不是个人的责任了，而应该是整个社会对此负责。 太狠心了 为什么，不是他的孩子们。 没有做好为人父母的准备，爱爱时请戴套 所以建议，连自己都养不起的时候别要孩子！害了孩子！ 死心吧这年头有核弹，有坦克飞机，你们蹦不起来的 是亲生的吗？ 作为一个正常人，对自己的孩子都不负责任，凭什么让社会为你买单？干嘛还要生孩子呢，条件不成熟可以不生，生下来遗弃还能怨社会？ 我国，孩子们哭泣的地方耶[暴怒][暴怒][暴怒] 养不起就带套做，没必要让后代为你的无能负责 你没能力养，干嘛还要生？花5元做个安全措施不行么 不配为人父母！ 父亲这二个字你不配，抛妻弃子的联畜牲都不如。畜牲都知道把孩子的孩子养大！！！ 都养到九岁和三岁了，不是迫不得已谁会不要自己的孩子？那些把杀婴或死抱孩子一起跳楼的才是罪该万死！ 天灾人祸，谁也无法预料,有些困难，更本不是一帮看客站着说话不腰疼. 不能听任P民自生自灭！国家、社会，负起责任吧…… 贫穷是原罪！ 我能申请领养吗/ 都养到九岁和三岁了，不是迫不得已谁会不要自己的孩子？那些把杀婴或死抱孩子一起跳楼的才是罪该万死！ 有困难找警察。没毛病。 有核弹，大不了玉石俱焚，还怕毛的扶梯子的人！ 是不是家庭出现一些问题了，孩子在上学，政府管一下吧。看样子，家庭出现的事情，父母怕是一时间解决不好。政府出援手，温暖孩子。让他们感受到国家已经浮起来的幸福。 没钱，遗弃罪有个屁用，只能雪上加霜！ 这父亲母亲都没不配 肯定有难处的，扔到派出所算好的吧，比那些卖给人贩子的好多了！ 生活艰辛！ 狠心？蹬三轮车挣钱的父亲，内心不作任何斗争，是他狠心？ 生育是人的天性，也是作为一个人不可被剥夺的权利。一对夫妇生两个孩子是人类得以生存的最少生孩数了，如果一对夫妻生只生了两个小孩都养不起要送人，这就不是个人的责任了，而应该是整个社会对此负责。 区区一个遗弃罪怎能解决穷人的问题?真是遇到家庭变故，无法抚养的话，国家没有人任何的帮助措施，靠惩罚只会雪上加霜，无法解决根本问题，尽快出台社会救助细则才行。国心中无民，民心中就无国，如果一个政府每天考虑的是如何多收税，对人民的困难视而不见，这就是最大的害国，这些孩子将来会帮助八国联军扶梯子。 他们和动物的思维差不多 生育是人的天性，也是作为一个人不可被剥夺的权利。一对夫妇生两个孩子是人类得以生存的最少生孩数了，如果一对夫妻生只生了两个小孩都养不起要送人，这就不是个人的责任了，而应该是整个社会对此负责。 肯定有难处的，扔到派出所算好的吧，比那些卖给人贩子的好多了！ 将来如何不知道，如果你能活到那个时候扶梯子的可能性最大。 富贵醉酒温柔乡，贫贱日夜卖笑忙。<br>猫鼠合肥天下瘦，宦富同乐民凄凉。<br>牛头马面堂上坐，大鬼小鬼笑飞扬。<br>贫苦生求方寸地。几多血泪夜茫茫! 是不是以这种方式求助于警察找回老婆？ 遗弃罪呢？肯定又是糊弄过去了 哎！ 中国生育思想愚昧的悲剧 养不起就送给派出所了？ 养不起还生两个！<br>猪啊！ 以后他也会被孩子一样遗弃掉 靠蹬三轮车为生,自己都难养活，找个球的老婆，生个球的娃娃，还二个，脑袋进屎！ 靠蹬三轮车为生,自己都难养活，生个球的娃娃，还二个，脑袋进屎！ 我弟弟信上帝.他认为他的存在就是在帮助上帝拯救人类.每次打完电话他都会说愿上帝保佑你,各种为我祈祷.他很乐意与我谈论信上帝的好处.并全身心投入工作和关爱家人,只因他觉得主耶稣是他学习的榜样--我不认为他们的信仰会造成交流障碍.即使我认真问他:上帝是否存在?而他总会回答:若爱存在,上帝就存在.因为上帝就是创造爱的源头上帝永远住在爱里，上帝爱世界上所有人包括想悔改的罪人想要信耶稣的可以到本地教堂买一本圣经看看每个地方都有教堂的信耶稣此生平安来世得永生有所信仰就会有所敬畏，有所敬畏就会知何事可为与何事不可为，知道了什么事可为什么事不可为，就不会干出背理天意人伦的逆天大错，遵从了天意人伦的法则就会一生安宁幸福这就是大道之法则，也就是爱的法则，神之道！ 妄为人啊，可怜的是孩子。 大的一个都9岁上小学了，估计不是遗弃那么简单，静观事态发展 ",
        "Total": 432,
        "Link": "http://comment.news.163.com/news_shehui7_bbs/D6Q43MND0001875P.html",
        "Reply": 63
    },
    "Title": "狠心！父亲将一双年幼儿女\"扔\"在派出所门口_网易新闻"
}