{
    "Title": "国家林业局:今起全面停止商业性象牙加工销售活动_网易新闻",
    "PublishTime": "12/31/201709:36:56",
    "URL": "http://news.163.com/17/1231/09/D6VNQ9MF0001875N.html",
    "Source": "Netease",
    "KeyWords": "销售,国家林业局,商业性,象牙",
    "Comment": {
        "Reply": 14,
        "Content": "原来你一直在加工。 没有买卖就没有杀害 然後以後就都是慈善性的了 这个可以支持一下 少假慈悲你们害死的人不少了 自然死亡大象的象牙要低价给受禁方 这个必须支持 这个归林业局管？ 就是说艺术性的还可以？ 没有买卖就没有杀害 这个可以支持一下 原来你一直在加工。 少假慈悲你们害死的人不少了 把商业性更改为全部性质。 不错哦 这个归林业局管？ 真没钱了。 然後以後就都是慈善性的了 自然死亡大象的象牙要低价给受禁方 今起全面停止商业性象牙加工销售活动商业停止不明白还有其他的? 这个必须支持 要有人担当！ ",
        "Total": 128,
        "Link": "http://comment.news.163.com/news_guonei8_bbs/D6VNQ9MF0001875N.html"
    },
    "Article": "（原标题：我国今起全面停止商业性象牙加工销售活动）国家林业局今天（31日）发布，为打击象牙非法贸易，展现我国负责任大国形象，国务院办公厅于2016年12月30日发布通知，宣布于2017年12月31日全面停止商业性象牙加工销售活动，并要求各地、各有关部门积极做好引导象牙雕刻技艺转型、严格管理合法收藏的象牙及制品、加强执法监管和宣传教育等工作，确保停止商业性加工销售象牙及制品活动顺利进行，并妥善做好相关单位和人员安置、转产转型等工作，维护社会和谐稳定。按照通知的要求，国家林业局已于2017年3月就有序停止商业性加工销售象牙及制品活动有关工作进行了部署，要求12家象牙加工单位和55处销售场所在2017年3月31日前停止相关活动，其余22家加工单位和88处销售场所于2017年12月31日前停止相关活动，并于2017年12月1日起停止受理相关行政许可申请。日前，国家林业局再次发出通知，要求对有关象牙加工单位和销售场所按照截止期限进行自查，并将会同公安、海关、工商、林业等部门联合执法检查，在全面停止商业性加工销售象牙活动后，按照职责分工，开展常态化执法监管，继续加大对违法加工销售、运输、走私象牙及制品等行为的打击力度，重点查缉、摧毁非法加工窝点，阻断市场、网络等非法交易渠道，并广泛开展保护宣传和公众教育，大力倡导生态文明理念，营造有利于保护象等野生动植物的良好社会环境。本文来源：央视新闻作者：施韶宇责任编辑：张宪超_NN9310"
}