{
    "URL": "http://ent.163.com/17/1227/09/D6LFGUVI00038FO9.html",
    "Comment": {
        "Total": 448,
        "Reply": 42,
        "Link": "http://comment.ent.163.com/ent2_bbs/D6LFGUVI00038FO9.html",
        "Content": "我就想问一句，啥时候把老虎还回来 看到你我就想到了大治 期待白夜追凶2 董洁：好男人姐要和你复合 白夜追凶从烦你到粉你，加油 难度最佳配角🐯 好演员靠演技翻身的典型例子。 这是关宏锋？ 正义砸到你的头顶英 [狗][狗][狗][狗]，我以为是光良 差点被娘们毁了的男人，还好浴火重生。 定义为实力派演员 潘粤白、潘粤夜！演技了得！顶！ 之前给人骂个半死，现在又捧上天。现在的网友够任性 终于翻身了，点赞ﾟ∀ﾟd 总算翻身了，正义会迟到但不会缺席！ 确实是温文尔雅 这张有点像陈汉典 我就想问一句，啥时候把老虎还回来 期待白夜追凶2 潘粤白、潘粤夜！演技了得！顶！ 白夜追凶。。。 董洁：好男人姐要和你复合 雅痞气质 [狗][狗][狗][狗]，我以为是光良 白夜追凶从烦你烦粉你，加油 有演技，感觉很低调的一个演员！ 白夜追凶从烦你烦粉你，加油 一直很喜欢潘粤明,从蓝色爱情开始 是不是要复婚了 确实是温文尔雅 潘粤明和文章长得巨像 加油 他们很低调的啊. 不要整天上头条秀自己，都一把年纪岁数大的老男人，既然已经成为人夫为人父为人家庭主管了，那就好好回家照顾带小孩儿去哇！潘粤明哈哈 有点像光良啊 之前给人骂个半死，现在又捧上天。现在的网友够任性 白夜追凶从烦你到粉你，加油 白夜追凶 白夜追凶不错 看到你我就想到了大治 好演员靠演技翻身的典型例子。 确实是温文尔雅 喜欢你 潘老师好嫩 期待白夜追凶2 难度最佳配角🐯 正义砸到你的头顶英 帅帅哒 真的好喜欢那会还小，十多岁时看他跟陶虹演的电影，文艺帅嫩的很现在演技真的好棒，白夜追凶看的我热血沸腾。很好看啥时候出第二季呢？期待 像某个同学 差点被娘们毁了的男人，还好浴火重生。 给不了你性福，你还是跟大治吧！ 快拍白夜追凶2吧 定义为实力派演员 潘粤白、潘粤夜！演技了得！顶！ 终于翻身了，点赞ﾟ∀ﾟd 总算翻身了，正义会迟到但不会缺席！ 这是关宏锋？ "
    },
    "Article": "潘粤明截图网易娱乐12月27日报道12月26日晚，演员潘粤明更新微博，上传了一张在后台的自拍，无奈地写道：“连续几天都是拼嘴拼说话的节目，又不是拼吃，口水已干涸，估计接下来得不语几日缓冲一下。”吐槽火力全开，另外还傲娇地坚称，“我不崩溃，一点也不崩溃！”照片中潘粤明穿着得体的白衬衫搭配黑领带，外面是一件黑白条纹的外套，看上去彬彬有礼、温文尔雅，眼睛乌黑清亮。然而他却对着镜头做出了一副搞怪的表情，看上去颇为反差萌。本文来源：网易娱乐责任编辑：李彤_NK4455",
    "KeyWords": "潘粤明,自拍,演员",
    "Source": "Netease",
    "Title": "潘粤明后台自拍 扮相温文尔雅表情搞怪反差萌_网易娱乐",
    "PublishTime": "12/27/201709:59:37"
}