{
    "Source": "Netease",
    "KeyWords": "闯红灯,抢劫,违法",
    "Title": "男子闯红灯撞倒辅警被刑拘 辩称：我以为他要抢劫_网易新闻",
    "PublishTime": "12/25/201715:25:17",
    "URL": "http://news.163.com/17/1225/15/D6GTBQL40001875P.html",
    "Article": "（原标题：上海一违法男子不配合检查，闯红灯逃逸甩倒辅警被刑拘，竟辩称：我以为他要抢劫）交通违法被辅警指出却拒不配合检查，驾驶员郭某反而一脚油门闯红灯逃逸，还将辅警带倒在地……“我以为有人要抢劫呢，所以才开车加速离开。”被捕后，郭某这样为自己辩解，令人啼笑皆非。目前，郭某因涉嫌妨害公务罪已被嘉定警方刑事拘留。12月15日上午9时20分许，嘉定公安交警支队三大队民警带着辅警小朱在沪宜公路裕丰路口执勤。红灯亮起，小朱发现一辆外地牌照宝马车未及时减速，停车时车身超出停车线半个车头的距离，违反了相关法律规定。此外，民警发现该车未按规定粘贴车辆检验合格标志。在民警授意下，辅警小朱随即上前站在车辆驾驶室一侧，要求车辆驾驶员出示驾驶证件交由民警处理。但该车司机不仅不予理睬，同时升起驾驶室车窗，闯红灯加速逃离现场，过程中将执勤辅警小朱带倒在地。民警见状立即驱车对逃逸车辆进行拦截，并将违法司机郭某控制。经医院诊断，被车辆甩倒在地的辅警小朱手部软组织挫伤。据悉，郭某是一家公司的程序技术人员，事业有成，家庭完满。对于自己开车闯红灯逃逸的行为，他的回应让人哭笑不得：“我要以为他要抢劫呢，出于人的本能反应，我赶紧开车离开。”郭某称，当时他正急着赶去开一个重要的会议，会后还要带刚满6个月的小孩去医院打预防针，心里很着急。“人的内心有一条道，左边是魔，右边是佛。成佛还是成魔，就在一念之间。”在看守所里，郭某反思了自己因一念之差造成的“恶果”，也为给辅警造成的伤害感到愧疚。同时，他也表示以后驾驶车辆的过程中，一定会配合警方的各项执法检查。上海警方表示，公安民警依法执行公务受法律保护，一切阻挠民警执法、妨碍执行公务的行为，都将受到严厉制裁。交管辅警在民警的带领下指挥交通受法律保护，广大交通参与者都应服从交管指挥。警方提醒，任何以暴力、威胁方法拒绝或阻碍交管辅警指挥交通的行为，都将受到相应的法律处罚。构成犯罪的，公安部门将依法追究其刑事责任。希望市民群众自觉配合民警和辅警的执法检查，共同营造安全文明的交通出行环境。本文来源：上观新闻责任编辑：韩佳鹏_NN9841",
    "Comment": {
        "Content": "明抢啦 为何有这么多人支持在路上不守规矩的人渣呢？因为同类的人渣比较多！ 最多抢２００元 没有 以后还有机会吗？这智商估计告别汽车了吧 天灾人祸这么多，道德崩溃，假恶暴邪魔控制污染人心，分辨善恶，明哲（真相）保身。 跟贴被火星网友带走啦~ 8几年9几年估计很多，现在估计很少了。 我们这里00年左右出过类似的事情。假警察加假警车，拦了一晚上超载，罚了好多钱。最后拦到上面有人的车才被发现…… 不是以为是真的 下次交警一见他就直接把他崩了！理由：我以为他又要撞人。 过年了，罚款任务重很难完成， 烂？小伙子之前肯定是开货车的！等你那天去开货车了就不会说这种没脑子的话了 撞的好！就是来抢劫的 请问你全家都是傻逼吗 以前有吧，现在基本少了，以前我舅舅去云南运水果经过一个村只敢凌晨45点过那坡又长又陡货车都是严重超载的（不超载没钱赚）那里的村民直接爬车上去一袋袋的往下拿要是敢停车去阻止你基本连人带车都扣在那<br>白天直接放石头拦路以前运货没个56人带家伙不敢跑长途 不是以为。。。。。 能不逗么？除了你妈你能分辨外，你还能分辨谁的真假？你都直接撞上去？反正不是你妈，其他都可能是假的 快过年了，弄点年终奖 这实话说的真拗口，什么叫以为是抢劫。<br>人家就是抢劫好不好？<br>要尊重别人的职业。 他这句话真是一语双关了。厉害啊！ 本就是在剪径抢劫 无法区分 就是拦路抢劫的 跟贴被火星网友带走啦~ 跟贴被火星网友带走啦~ 抢劫还有理了! 不远处有正规军在车里坐着的话，辅警就有执法权。这算正规军带着执法。辅警自己出来没有执法权 什么令人啼笑皆非？你说说看怎么分辨马路上正宗的辅警和伪装成辅警的劫匪？ 本来就是抢劫，你没认错 跟贴被火星网友带走啦~ 不用扮，差不多，看说话的那副嘴脸 怎样区分真假警察 我爸以前跑货车也备着两把刀，以前小以为耍酷的。长大了就明白了 这理由，我给你一百分。不怕你骄傲: 自觉配合辅警的执法检查？可是辅警有执法权吗 你这说法，我也给你100分，不怕你骄傲。穿着辅警和警察的衣服在红绿灯路口抢劫？我的智商不够用了，咋办？ 没毛病 快年底了，大家小心假冒警察的抢劫。 以为抢劫，原来真抢劫 闯红灯还有理了？？ 跟贴被火星网友带走啦~ 辅警也太难了，经常看到路口只有辅警没有交警，按照法规要求辅警需要在交警的指导下工作。其实，就把辅警改编为交警就好了，违规者也不敢如此放肆了。 借口太烂了。 可惜你是在上海，如果在南京，你随便浪，哥都能保你没事。 明抢啦 “我以为有人要抢劫呢，......。”上午9时20分许太大胆儿了吧，这个时间段儿！ 最多抢２００元 过圣诞节啦!天上有大声音呼唤牧羊人，主诞生啦，在那马槽里!天上有光柱引导牧羊人至马槽! 没有 我只想知道是怎么处罚的 天灾人祸这么多，道德崩溃，假恶暴邪魔控制污染人心，分辨善恶，明哲（真相）保身。 这种理由能骗谁 8几年9几年估计很多，现在估计很少了。 如果在荒郊野岭，这个理由可以成立，这是在路口闯红灯，理由太牵强了 本就是在剪径抢劫 不是以为是真的 下次交警一见他就直接把他崩了！理由：我以为他又要撞人。 让你开口只不过是为了体现法制,别以为你说啥就是啥 这借口…………你是逗比吗？ 烂？小伙子之前肯定是开货车的！等你那天去开货车了就不会说这种没脑子的话了 我去这借口！尼玛牛逼呀 司机应该网易网友 过年了，罚款任务重很难完成， 撞的好！就是来抢劫的 不是以为。。。。。 能不逗么？除了你妈你能分辨外，你还能分辨谁的真假？你都直接撞上去？反正不是你妈，其他都可能是假的 快过年了，弄点年终奖 我们这里00年左右出过类似的事情。假警察加假警车，拦了一晚上超载，罚了好多钱。最后拦到上面有人的车才被发现…… 以后还有机会吗？这智商估计告别汽车了吧 请问你全家都是傻逼吗 这实话说的真拗口，什么叫以为是抢劫。<br>人家就是抢劫好不好？<br>要尊重别人的职业。 他这句话真是一语双关了。厉害啊！ 以为抢劫，原来真抢劫 无法区分 就是拦路抢劫的 我爸以前跑货车也备着两把刀，以前小以为耍酷的。长大了就明白了 跟贴被火星网友带走啦~ 抢劫还有理了! 不远处有正规军在车里坐着的话，辅警就有执法权。这算正规军带着执法。辅警自己出来没有执法权 荒唐，人才 什么令人啼笑皆非？你说说看怎么分辨马路上正宗的辅警和伪装成辅警的劫匪？ 本来就是抢劫，你没认错 光天化日下在北京上海的大马路上冒出个伪装成辅警的劫匪也是真的很神奇……你要知道满眼都是👮……这劫匪得多么的标新立异 抓得挺好 怎样区分真假警察 闯红灯还有理了？以后闯红灯的全是这个借口，多提醒点儿自家孩子过马路时小心吧 当大家被闯倒后，弥留之际，想到司机是为了撞那些穿制服的，肯定会原谅的 自觉配合辅警的执法检查？可是辅警有执法权吗 你这说法，我也给你100分，不怕你骄傲。穿着辅警和警察的衣服在红绿灯路口抢劫？我的智商不够用了，咋办？ 没毛病 快年底了，大家小心假冒警察的抢劫。 这借口…………你是在侮辱执法人员的智商 闯红灯还有理了？？ 跟贴被火星网友带走啦~ 辅警也太难了，经常看到路口只有辅警没有交警，按照法规要求辅警需要在交警的指导下工作。其实，就把辅警改编为交警就好了，违规者也不敢如此放肆了。 借口太烂了。 厉害到把自己弄进去了，的确很厉害 可惜你是在上海，如果在南京，你随便浪，哥都能保你没事。 辅警身上穿的不是虎皮裙套装吧！别管人家要干什么，看见警察制服的人让你干啥就干啥没错，什么不是正式的啊，什么假警察啊，什么要执法证啊都TMD和你有什么关系，你就说你屁股上有屎，怕人发现 我感觉有人要喷 为何有这么多人支持在路上不守规矩的人渣呢？因为同类的人渣比较多！ 神马叫你以为?就是抢劫!你老老实实的 烂？小伙子之前肯定是开货车的！等你那天去开货车了就不会说这种没脑子的话了 好像没毛病。好像 车有问题吧 他以为你是汽车炸弹 怎么是抢劫呢，是停车罚款！ 别TM出来丢人现眼了 你真是个不要脸中的人才！ 什么令人啼笑皆非？你说说看怎么分辨马路上正宗的辅警和伪装成辅警的劫匪？ 不用扮，差不多，看说话的那副嘴脸 所以你看到交警辅警检查都不理的？装什么傻逼还是你就是个傻逼？想分辨你可以让他出示证件，也可以打110报警 你就说他穿的衣服不是正规的警察，所以才跑的，起码能减少一大半的责任 哈哈，这理由不错，我当初被查酒驾，我直接开车跑了，后来追到我了，一群交警过来，让我吹气，然后他们说，你没喝酒，你跑什么跑？？我说，最近得罪了几个人，以为人家要暗算我，大晚上的没看清你们的警服，所以跑了。然后，带我去派出所了，问七问八，在里面待了24个小时。 呵呵！ 尼玛 辅警查验证件，没毛病 牛人 借口太烂了。 可能以前被穿着制服的抢怕了！ 这理由，我给你一百分。不怕你骄傲: ",
        "Reply": 73,
        "Link": "http://comment.news.163.com/news_shehui7_bbs/D6GTBQL40001875P.html",
        "Total": 1163
    }
}