{
    "Title": "18岁少女意外怀孕楼道产子 将婴儿从7楼抛下摔死_网易新闻",
    "URL": "http://news.163.com/17/1227/00/D6KF6CO00001875P.html",
    "KeyWords": "婴儿,产子,怀孕,男婴",
    "PublishTime": "12/27/201700:34:36",
    "Article": "（原标题：18岁少女意外怀孕，在楼道突然产子后竟将婴儿从7楼抛下……之前被妈妈赶出家门！）18岁少女意外怀孕，在楼道突然产子后，竟将婴儿从7楼抛下！12月25日，厦门思明法院对外发布，这起未婚妈妈过失害死男婴案例。看完太震惊！太揪心了！事情要从去年9月讲起↓↓↓被妈妈赶出家门意外怀孕在楼道意外产子！厦门女孩小花跟妈妈住一起，同住的还有男友阿星。因为被嫌弃吵闹，事发前一天下午，阿星被赶出家门，小花也跟着离开家。直到当天23时许，两人都没找到落脚地。因小花肚子疼，两人遂决定去投靠阿星的姐姐。△图片来源：视觉中国（图文无关）两人找上门时，姐姐不在家。等人开门期间，小花肚子一阵阵疼起来。“想上厕所。”小花形容那种痛感。于是，小花独自往楼下去找地方上厕所。在七楼与八楼的转台上，小花的肚子越来越痛，瘫坐在了地上。“没过多久，我感觉小腹有东西在往下坠，出血了。”凌晨3时许，一阵剧痛袭来，小花的眼前除了血还有个婴儿。“这时我才知道我生小孩了。”△图片来源：视觉中国（图文无关）少女很害怕竟将婴儿从7楼抛下摔死产下男婴后，小花把婴儿捧在手上，但婴儿不哭也不动。“很害怕，不知道怎么办。”小花因未听到该婴儿哭叫，也感觉该婴儿未动弹，在未检查婴儿是否有呼吸、心跳的情况下，就认为这个婴儿系死婴，将该婴儿从窗户抛到楼下。9月11日下午，婴儿被小区保安发现。9月16日，接到警方的电话通知后，小花到公安机关投案。经法医初步检验鉴定，婴儿系因高处坠落致身体重要器官损伤而死亡。经查，小花才18岁，湖北潜江人，初中文化，在厦门一家KTV上班。公诉机关建议判处小花有期徒刑2年3个月至2年9个月，同时宣告缓刑。思明法院审理认为，小花因疏忽大意，认为产下婴儿不是活体，将婴儿抛至楼下致其死亡，其行为已构成过失致人死亡罪。思明法院采纳了公诉机关的量刑建议，判决小花过失致人死亡罪，判处有期徒刑2年9个月，缓刑4年。哎，悲剧！花样的年纪，懵懂无知的少女，可怜的男婴……可悲的是，类似的新闻并不罕见！据估算，全世界每年约1600万名分娩少女，我国每年流产人数约800万到1300万，19岁以下少女人群占3%，也就是说每年24万到39万少女去堕胎！△图片来源：视觉中国（图文无关）更有许多未成年妈妈出于害怕、耻辱、仇恨等原因，而遗弃、杀掉新生儿。江苏无锡少女产子后抛婴至垃圾箱；北京17岁少女产子后将孩子扔下5楼，孩子当场死亡，自己被取保候审；沈阳17岁女孩产子后担心孩子啼哭，用卫生纸塞满婴儿之口险些造成其死亡……而在厦门，此前也曾发生过类似的惨事↓↓↓2014年3月8日，18岁的杨佳住在海沧石塘村的婶婆家。上午婶婆出门前，杨佳说吃多了肚子疼，在床上躺着。下午2时许，杨佳腹部突然阵痛，不知过了多久她发现自己满手鲜血，床上有个婴儿。“我当时什么都不知道了，就觉得很怕。”杨佳在法庭上这样说。因为年纪小又是未婚，她不敢让任何人知道自己成了母亲，本能反应是得把屋子弄干净。她挣扎着要去洗手间，却发现孩子和自己还连着脐带。“我想把它弄断，可用手没扯掉，看到桌上有把水果刀，就拿过来用刀割。”杨佳说，割脐带时，她失手划伤了婴儿的腹部。孩子大哭起来，害怕暴露自己的杨佳上前捂住孩子嘴巴，拎起水果刀划伤孩子的颈部及躯干，又连续捅刺腹部数次直至孩子死亡，再把他丢进一只黑色垃圾袋，藏在桌下。事后，她挣扎着来到洗手间清理身体，拖了地板上的痕迹，洗了床单上的鲜血。在杀害孩子之前，她给孩子的第一次亲吻，成了母子间最后一次亲吻。第二天下午3时许，杨佳搭乘摩的回到自己暂住的渐美村。在村口水塘边，她扔下了装着儿子的黑色塑料袋。另据《中国青少年生殖健康调查报告》显示，“15岁～19岁女孩中8%有性经历且多次怀孕率高于20岁～24岁”。对于很多经历堕胎的少女，尚未长大，人生的底色便是悲凉。而造成未成年少女怀孕的主要原因就是缺乏性教育。有妇产医生透露，到妇幼保健院堕胎的未成年少女很多，“大部分父母都责骂她们不知羞耻，很少有父母会反思自己的问题。”一桩桩案件让人心痛！未成年人的身心健康，需要全社会共同关注！所以，请告诉你的孩子↓↓↓1.内衣遮盖的地方，不能让别人碰；2.陌生人有可能就是坏人，要学会保护自己。不要随便吃别人的东西，上别人的车；3.你的善良应该有点锋芒。“如果一个成年人真的想寻求帮助，他们一定会找另一个成年人，而不是找一个孩子求助。”4.不止要提防陌生人，熟人也要小心。要知道：70%以上的儿童性侵的施害人，都是熟人！！！5.不要以为男孩就不会被性侵！林肯公园的主唱查斯特·贝宁顿在家中上吊自杀，有很大一部分原因是他7岁的时候，曾经被一个“大他很多岁的”男子性侵和虐待，长达6年。性教育真的要从小抓起，就像网上流传很广的一句话：“你嫌性教育太早，强奸犯不会嫌你孩子太小”。孩子对世界的认知十分浅显，他们也不具备分辨好坏、保护自己的能力，家长有责任帮助孩子辨别可能存在的危险，让他们学会保护自己。只愿所有的罪恶都能被扼杀在摇篮里，所有的孩子都能够在阳光下快乐的成长。本文来源：新闻夜航责任编辑：乔敬_NN6607",
    "Comment": {
        "Content": "张口一个“亲”，闭口一个“亲”，回头把自己的亲生骨肉扔到楼下去。 天道如此，女人只管下蛋，蛋的命运如何就管不着了。 当然不是建议大家现在也拖晚生产期，或者说必须自己处理，只是想说说加强锻炼以及作息什么正常真有好处的 现在的屌丝为了有逼鈤也是没人挑挑拣拣了 我最近刚听说了一个奇葩事。有个男的竟然取了个孕妇，孕妇肚里的孩子还不是他的！看来农村男多女少的情况太严重了，连这种女人都有人要？ 年纪轻时盆腔肌肉韧带柔韧舒展比较好的原因，难产普遍是因为缺乏体力锻炼的女性，劳动妇女难产很少的，清公主没有几个能活过三十岁都是因为难产早逝，就是因为太养尊处优 竟然还有这等愚昧之人，真是难以想象。 无痛人流的广告可以放肆打，避孕套的广告不能上电视 千刀万剐，婴儿死得好惨！ 可以统计一下，发生这种情况的少女，父母都是什么文化水平、工作性质、家庭生活条件，家庭整体在哪个层次。 以中国的人口素质，应该对父母加强性教育才对，首先得让做父母的知道什么是性教育，接受性教育的理念，这个看似很简单，但对于中国的人口素质来说，其实很不易。 这个世界对女人真的是太宽容了，什么叫“意外怀孕”？ 可怜的婴儿来世间成了匆匆过客还死得这么惨🙏 这些孩子没人教过他们，以后长大成人了，大学毕业了工作了谈恋爱交往的时候万一要激情，一定要戴套吗？这才是真爱！不然对自己和别人都不负责。 你吗的，都他吗什么人啊。。。看着那么个小生命怎么下得去手啊。没人性的东西。新闻我都不敢往下看了，哎。 小姑娘都说“宁娶从良妓不娶过墙妻”，就问一句，18就这样了，等到人老成渣了身体糟蹋报废了跟你领个证立马变“良”了？反而干净善良的的女孩子人生没谈过几回恋爱的不干净了？或者老公不好离婚的女人不干净了？ 高啊AA 这种ktv上班的性知识就不需要什么普及了，还是普及一下医学知识吧。。。堕胎虽然不好，总比扔了个小人好 只有那些20到35的产妇才矫情的要命！ 你不知道会员有一言九顶吗？ 这社会正一步步走向无极限的邪恶和畸形 能不能完善收养制度，大力宣传一下，救救无辜的孩子 小花被判两三年徒刑为什么男友没事！？ 才13个人进来，你有16个赞了 不想要小孩的很容易就生下来了，而那些真正要孩子的生得都很痛苦，似乎有点魔鬼定律的意思。 这些十几岁的人怀孕了自己也不知道，没有注意营养，通常宝宝都是偏小或者早产所以好生养。你觉得女人生孩子矫情你也可以让你老婆跟这些姑娘一样选择在家里或者厕所里生啊！ 替孩子难受，刚下生还没感受到的温暖 自己摸着良心说的话吗？以为生下来就是死婴所以扔了？我咋就不相信 晚上11点到凌晨3点，4个小时时间，她男朋友都没从楼上下来找她么？ 现在农村还真不挑了，是个女的就有人抢着结婚 责任感缺失的人。 公主不会这么弱智 别急等这波孩子都死了社会就好了 事实证明15-20岁生孩子无需接生婆 人都找不到啊，还有是中国没有相关对父亲责任的法律，当然你可以私底下找人去教训 你说你，想要搞，偏偏不戴避孕套，现在好，怀孕了，生下的孩子你要不要？ 十八岁了，够判刑了 没关系，以后会找到老实人接盘的。 正常人生个孩子痛的快死掉，有的人就跟便秘一样简单。还能做出那样毒的事。 杀人居然判缓刑，还真是有特色 天道如此，女人只管下蛋，蛋的命运如何就管不着了。 ktv上班的公主？ 故意杀人罪判的越来越清了！ 你以为堕胎和杀婴有本质区别吗？ 世界疯狂了~这个物欲横流的社会 这女孩一辈子都要背着良心过 太上老君急急如令赦，让这个骚货去死吧 现在的80.90甚至00后都不知道带套吗，又不是几十年前安全套还没普及的时候 的点点滴滴 32岁当奶奶么？ ！！！！！！胆大心狠！！！ 女人杀婴为何总能轻判？ 当然有区别，堕胎、杀婴、流产，都有区别。不然的话，难道堕胎和流产也没区别了？ 人都找不到啊，还有是中国没有相关对父亲责任的法律，当然你可以私底下找人去教训 前提是她看得起老实人。。不是所有老实人都这么“幸运”的~~ 主要是父母都男盗女娼的，养活个女儿也不当好东西，没有机会学习正常的家庭关系，没有机会去上学，没有一技之长，才去KTV的，比如：郭美美，干露露。这个东西也是家族遗传的。她们生了孩子也不会负责任，没扔死的就算不错了。 这些孩子没人教过他们，以后长大成人了，大学毕业了工作了谈恋爱交往的时候万一要激情，一定要戴套吗？这才是真爱！不然对自己和别人都不负责。 感觉判罚的太轻了，应该更重一些，直接让她在监狱度过生育期。 在KTV上班的没有不具备这些常识的 老实就是无能的代名词，你不接盘谁接盘，真有本事的男人看得起这种烂货么 生个孩子和拉屎一样顺畅 淫大的阴谋 这些姑娘大多是初中就辍学出来打工的未成年，多好的年纪，新的生命，一声叹息，烦躁 十八岁的成人了，无知不是犯罪的理由，这样对小生命公平吗？ 五不娶五不嫁。。。。。。<br><br>参考第十四期:古代的婚姻观男人五不娶,女人五不嫁<br><br>可见现在连老祖宗的教训都无知了 我堂哥，89年的找了一个02年的怀孕2次第二次也3个月了 有的男人就是不带套，还有的男的结婚了说不想要孩子，但是还不做任何措施， 不想要小孩的很容易就生下来了，而那些真正要孩子的生得都很痛苦，似乎有点魔鬼定律的意思。 我最近刚听说了一个奇葩事。有个男的竟然取了个孕妇，孕妇肚里的孩子还不是他的！看来农村男多女少的情况太严重了，连这种女人都有人要？ 你说你，想要搞，偏偏不戴避孕套，现在好，怀孕了，生下的孩子你要不要？ 南无地藏王菩萨 因为教育缺失，因为哺乳期，因为。。。 dddddddddd 18岁，99年的，好嫩，谁给破的处啊 孩子大哭起来，害怕暴露自己的杨佳上前捂住孩子嘴巴，拎起水果刀划伤孩子的颈部及躯干，又连续捅刺腹部数次直至孩子死亡，再把他丢进一只黑色垃圾袋，藏在桌下。怎么忍心啊，可怜的孩子 孩子的无知有多少是大人造成的？ 你这是站在恶意的角度去看人，这本身就是错误的。 现在的屌丝为了有逼鈤也是没人挑挑拣拣了 阿弥陀佛。 教过啊，可是人家一看自己学习成绩，高考都不用参加了，那么教的大学之后的破事还有什么用，就都扔在脑后了呗 毒妇 可怜的婴儿来世间成了匆匆过客还死得这么惨🙏 02年的怀孕2次？第一次时基本未成年啊？你堂哥摊上大事了！ 杀人了你！ 怀孕没有意外，请不要再说意外怀孕 市场供求关系啊，需要减少男丁，这样就平衡了 一个毫无信仰，无所畏惧的民族。 fffffffffffff 与其开放二胎，还不如把女性结婚生育年龄提前到16岁。 能不能完善收养制度，大力宣传一下，救救无辜的孩子 小姑娘都说“宁娶从良妓不娶过墙妻”，就问一句，18就这样了，等到人老成渣了身体糟蹋报废了跟你领个证立马变“良”了？反而干净善良的的女孩子人生没谈过几回恋爱的不干净了？或者老公不好离婚的女人不干净了？ 欢愉时想过这个生命吗真烂垃圾 超级恐怖。失去了道德约束，每个人都不安全，包括婴儿。 无知！无教！无德！没心没肺，谁的错？ 我只能用恐怖来形容内地方 他是挺流弊，去年还是前年找了一个96的，也是怀孕了，后来没结婚， 没关系，以后会找到老实人接盘的。 不会的，没良心 这一丢花陨落<br>用心良苦却成空<br>我的痛怎么形容<br>一声叹错投你胎中 人？一个脑袋两条腿，直立行走便叫人？还是说有个身份证就叫人？<br>恶意？你刚出生吗？以为这是童话世界呢？ 小花被判两三年徒刑为什么男友没事！？ sb不要就早打掉，现在你丢下楼激发人民的圣母心恶心谁呢 看网上说什么生孩子还得清宫，胎盘剥离，剪脐带之类的，好几个人配合得。但是网上的新闻，比下个蛋都痛快。连一盆开水都不用。 你以为堕胎和杀婴有本质区别吗？ 女人受每月来月经的影响，导致女人学习的时间减少，月经失血导致女人体力不如男人，自然因素使女人的生存能力不如男人。在此情况下有些女人不主动争取时间<br>弥补，反而把时间用在画妆上。结果女人的劳动技能不如男人。女人画妆是为了吸引男人，想找个有钱的男人不用劳动就能吃好的，穿好的，住好的，用好的。所以<br>处于青春期的女人都爱打扮自己，这使得女人没有更多的时间学习知识。没知识的女人设法靠男人生存，所以女人都比较爱财,也更容易行贿受贿。但漂亮的女人生活<br>的并不都快乐。黑社会老大专找漂亮的女人做老婆，女孩做了黑社会老大的老婆后会很温顺的让老大玩。稍有不从女孩的全家都不得安宁。女人靠别人生存，就会在<br>人格上低人一等，即使你很漂亮，但没有靠劳动生存的本领。所以女人经常是家庭暴力的受害者,丈夫出轨也不敢反抗。由于私营企业和国营企业共存，老板为了利益<br>最大化会最大限度地减少工人的数量，增加工人的劳动强度。国有企业为了和私人企业竞争，也会最大限度地减少工人的数量，增加工人的劳动强度。社会就业压力<br>始终很大。女人没有工作，要生存，又不能去偷，抢，只能冒着怀孕得性病的风险出卖自己的肉体供有钱人玩。女人供有钱人玩不创造商品、只为了满足有钱人的性欲。<br>小姐也要吃，穿，消耗资源，这些资源是工人，农民创造出来的，小姐的钱是嫖客给的，嫖客的钱又是从工人，农民那里剥削、贪污,受贿来的。就是说你的父母，兄弟<br>姐妹通过劳动为嫖客创造了财富（钱），嫖客再用这些钱嫖你。也就是人民养着嫖客。小姐侍奉嫖客。大多数人做小姐是被黑社会，娱乐场所威逼利诱的。小姐也要<br>自强，多学一些劳动技能。岁数大了就做不了小姐了，都嫖年轻的，谁嫖老太太呢。并且当小姐并不会有太多的钱，你卖淫一半的收入要被娱乐场所的老板占有。你<br>从事卖淫的行业是危险的行业，性病，爱滋病很有可能传染给你。得了病，怀了孕你挣的钱就搭进去。爱滋病会夺去你的生命。你挣钱虽然有肉体的付出，但你没有<br>为社会创造有用的价值，你的行为对社会是有危害的。并且你服务的对象也不是好人。你也许想通过卖淫去掠夺有钱人的钱，但是你错了，有钱人钱太多了，平时根<br>本消费不了，只有靠祸害妇女才能使他的钱不至于在他死后变成废纸。只要存在贫富差别，就会有妓女存在。大多数小姐都是被酒店，夜总会等娱乐场所强迫利诱的。<br>我们更应该将娱乐场所及蛇头干掉，让他永远不能营业，将危害社会安定的毒瘤彻底清除干净。 好像一首歌的旋律。张宇的吧？ 你想说什么，那个跳楼的.... 年纪轻时盆腔肌肉韧带柔韧舒展比较好的原因，难产普遍是因为缺乏体力锻炼的女性，劳动妇女难产很少的，清公主没有几个能活过三十岁都是因为难产早逝，就是因为太养尊处优 我爱看新闻 她就是个大淫妇 无痛人流的广告可以放肆打，避孕套的广告不能上电视 想收养孩子的这么多，就不能送人，哎可怜的孩子。 智障脑袋小，是不用 超薄届的MVP，看不见的极致薄，杰士邦零感 只有那些20到35的产妇才矫情的要命！ 你不知道会员有一言九顶吗？ 千刀万剐，婴儿死得好惨！ 没关系，以后会找到老实人接盘的。 网易小编我就想住到为什么和人家一样的评语人家就能上去我就不行，我需要一个合理的解释，你是不是故意的，我和你有仇啊. 还好婴儿的疼痛不如成年人，生下来都不哭，安静都没换来被弃杀，来人世间还未好好体验光明就被亲身母亲杀了，想想心酸， 别急等这波孩子都死了社会就好了 晚上11点到凌晨3点，4个小时时间，她男朋友都没从楼上下来找她么？ 你说你，想要搞，偏偏不戴避孕套，现在好，怀孕了，生下的孩子你要不要？ 说谎话逃避和减轻法律制裁而已。。。<br>18岁在KTV上班，有“男朋友”，生了孩子都能亲手摔死的畜生，别跟我说什么缺乏性教育！这样的玩意死有余辜 18岁，99年的，好嫩，谁给破的处啊 尼玛，生个孩子比拉泡屎还容易！ ktv上班的公主？ 十八岁了，够判刑了 竟然还有这等愚昧之人，真是难以想象。 法律就是个任人打扮的小姑娘 老实人挖你家祖坟了？丑沙比！！！ 那些在医院难产的…算了不说了 这应该属于故意杀人吧！ 可以统计一下，发生这种情况的少女，父母都是什么文化水平、工作性质、家庭生活条件，家庭整体在哪个层次。 以中国的人口素质，应该对父母加强性教育才对，首先得让做父母的知道什么是性教育，接受性教育的理念，这个看似很简单，但对于中国的人口素质来说，其实很不易。 意外怀孕用的好，难道是背景强大？ 可怜的婴儿来世间成了匆匆过客还死得这么惨🙏 15-20逼应该挺紧啊？为啥像拉屎般顺畅 没有区别。可是把自己的孩子这样，实在是太瘆人了。 妈的确实啊 我堂哥，89年的找了一个02年的怀孕2次第二次也3个月了 天道如此，女人只管下蛋，蛋的命运如何就管不着了。 穷山恶水出刁民，越是贫穷落后的地方，出的地痞，流氓，黑社会，土匪，小偷，骗子越多，这些人的成长与父母及家庭教育有直接关系，<br>有大批父母为了不让孩子受欺负，对子女进行暴力，自私，贪婪的行为教育，这些子女长大后就变成对社会有危害的人，对子女的生存甚至生命<br>构成威胁。人是高级动物，与一些低等动物是有区别的。记得小时候，打砸抢的人特别多，当时社会的经济不是很富裕。经过1983年的严打，社会治安得<br>到有效的改善，当时东北三省的地痞，流氓特别多，这应该是南方人不喜欢东北人的原因吧。东北地区人口比较复杂，山东人，满族人，当地汉人，<br>回族人，日本人的后裔混杂在一起，加上长期受俄国人，日本人的分裂，使人形成了自私自利的思想，没有正义感，没有责任感，更没有社会担当。<br>这个地区也是出汉奸最多的地方，到现在仍然有一些当年为日本人做事的人的后代和日本人留在中国的后代，他们认为国人当汉奸是被逼无奈，是<br>没有错误的。有人说对这些人要采取教育的方法，其实教育有时不管用，只有对其采取措施才有效果。曾在黑龙江的火车上看到一个喝酒的男子抢<br>了一个车票有座位的小男孩的座，还骂这个小男孩，旁边几个男青年看不下去了，说了喝酒的男子几句，谁说他他骂谁，后来几个男青年就想揍他，<br>当着他的面说操他在场的姐姐，好激怒他，结果喝酒的男子没敢进车厢，在车厢连接处站到下车。同时加强中小学生的思想品德教育，思想<br>品德教育不应脱离社会现实，防止当他们走向社会后发现老师教的和现实不一样。1987年我从黑龙江坐火车到西安上学，在哈尔滨火车站遇到<br>一个无赖，他说媳妇不让他回家，非要抢我的座位睡觉。坐火车到了沈阳，上来好几个不三不四的人，到车上连偷带抢。那时社会治安不是太好。<br>火车到了天津，上来几个地痞，强行占座，有一个还躺在木制靠背椅中间的梁上，腰间还别着刀，火车到了北京，感觉首都人民很热情，问路都<br>细心的告诉，不象东北人说北京人那样问路往相反的方向指。火车到郑州站正好是半夜，上来一帮人把全车的人偷个遍。经过一路的旅行，感觉<br>人的素质和地区有很大的关系。 呵呵。。。。要的是过程，而不是产品，， 才13个人进来，你有16个赞了 我表弟，13岁，没变声，同班的妞搞他，躲都没法躲，他妈妈34岁，准备当奶奶了。 超级恐怖。失去了道德约束，每个人都不安全，包括婴儿。 替孩子难受，刚下生还没感受到的温暖 自己摸着良心说的话吗？以为生下来就是死婴所以扔了？我咋就不相信 千刀万剐，婴儿死得好惨！ 家长没管好 不好意思，轮回说是虚假的 鸡婆！ 事实证明15-20岁生孩子无需接生婆 随心所欲地，权利无限大！ 摊上这样的爹妈还不如早日轮回 请问算不算故意杀人罪？而且在未成年人保护法下，是不是罪加一等？ 故意杀人罪判的越来越清了！ 天道如此，女人只管下蛋，蛋的命运如何就管不着了。 杀人居然判缓刑，还真是有特色 张口一个“亲”，闭口一个“亲”，回头把自己的亲生骨肉扔到楼下去。 摔得好，本來就不該生下來 在这个变态当大哥的服务器，就自己好好练级吧。。。 。。。。。。 无痛人流的广告可以放肆打，避孕套的广告不能上电视 ktv上班的公主？ 男人坚持不肯戴套 故意杀人 你吗的，都他吗什么人啊。。。看着那么个小生命怎么下得去手啊。没人性的东西。新闻我都不敢往下看了，哎。 这就是打击“贩卖儿童”的后果！ 高啊AA 这种ktv上班的性知识就不需要什么普及了，还是普及一下医学知识吧。。。堕胎虽然不好，总比扔了个小人好 只有那些20到35的产妇才矫情的要命！ 未成年性教育是什么鬼？ 所以古代结婚早 一抛了之 20多、30多的女人顺生更多，没报道罢了 被解锁过姿势的生小孩才要死要活 一夜游，祝你下辈子好运！ 颠倒了，这些个不正常的特会有特好生，那些合法的却想要又不得 妈<br>的<br>！<br>这傻逼女人以后生了孩子还会把他们摔死！<br>信不！<br>因习惯了！ 我点一个赞顶你九个，这个很正常 缓刑。呵呵有什么存在的意义？ 这样的新闻也看到好几起了，虎毒不食子，狼凶不吃父，这话在你们身上没用。还有这应该是一起杀人的刑事犯罪吧。 狗娘养的 怀孕之后，看这种新闻觉得都是扯谈，不可能感觉不到怀孕的 可怜的婴儿来世间成了匆匆过客还死得这么惨🙏 有过失吗？我看她脑子清醒的很啊，以为是死婴，明明是为自己找了一个逃避法律责任的借口！！ 杀了 扔完继续草 缓刑意思就是接着生继续杀呗…… 这社会正一步步走向无极限的邪恶和畸形 可怜的宝宝，愿你在天堂没有痛苦。🙏🙏🙏 才13个人进来，你有16个赞了 傻逼还会摔死的！ 人比人气死人 不自重，还意外怀孕，这标题作者是个傻b吗 😱😱我还是不明白，难道年轻真的比较容易生娃？ 好残忍 耽误老娘挣钱 没有准生证吧 责任感缺失的人。 公主不会这么弱智 事实证明15-20岁生孩子无需接生婆 适者生存，森林法则，一步到位，强强联合，落后就要挨打，谁叫你是婴儿，活该。 意外怀孕？小编你意外过？ 没关系，以后会找到老实人接盘的。 这个世界对女人真的是太宽容了，什么叫“意外怀孕”？ 才13个人进来，你有16个赞了 畜生禽兽不如猥亵儿童和强奸犯都应该活剐！！！ 正常人生个孩子痛的快死掉，有的人就跟便秘一样简单。还能做出那样毒的事。 揪心 畜生！ ",
        "Total": 2369,
        "Link": "http://comment.news.163.com/news_shehui7_bbs/D6KF6CO00001875P.html",
        "Reply": 160
    },
    "Source": "Netease"
}