{
    "PublishTime": "12/28/201701:31:05",
    "Source": "Netease",
    "Comment": {
        "Link": "http://comment.news.163.com/news2_bbs/D6N4R0ME00018AOP.html",
        "Total": 1240,
        "Reply": 98,
        "Content": "标题肯定是文科生写的 电流……伏特…… 电流可达四万伏你妈 是人是狗都能在网上发这种连电流单位都搞不清楚的文章了？ 两男子架设电网捕猎电死村民:瞬间电流可达四万伏——小便，你是小学毕业的吗？电流单位是伏吗？ 4万伏的电流太高了! 乡下人罪恶滔天 前段时间网易不是在招聘编辑吗，1500+提成，这工资水平，写出这样的标题，我一点都不意外！ 这编辑水平太低，物理课是音乐老师教的？电流会达到四万伏？全世界也没有电流用伏特计量的！你干脆说电流达到三千尺好了！ 这智商活该穷 这位记者，这个新闻的标题有问题，电流的单位是安培，电压的单位才是伏特，我想从这个标题明白一点是电死人了，但学识性不强，需要加强， 求你们了，看到这标题不要提物理老师。跟物理老师没有关系，这小便应该没有读到8年级。 说的好像农民现在就不是他爷爷一样 哈哈哈哈哈，没忍住笑出声了 哈哈哈哈！不过当心灵魂丑陋的东西骂你汉奸。 这个是不是会去告供电局啊 非法铺设电网这种人断子绝孙不得好死！ 中国人只分为三种人：丑陋的中国人、偶尔不丑陋的中国人，偶尔丑陋的中国人。 科技进步了。但非法使用科技谋利造成的危害也很大。 他爷爷以前就是农民 电压4万伏，什么电流4万伏？胡言乱语。 两万元一条命，这后台大过陈水扁 请问什么是农民。 非法铺设电网，决不饶恕 作奸犯科者几乎全是农民。 高压多少万伏？ 中考要考物理吧？他怎么考上的高中？ 自卑没关系，但是别把别人扯进去，你说的完美的人不存在，是人都有私心，这话放在哪个国家都合适 现在编辑都是小学毕业就能当了吗？ 参考绿城放火案，可向当地政府部门讹钱～ 的确电流用伏特来做单位吗？ 还是初中毕业不了的文科生 而且还是智障版的哈士奇 我进来看见大家都在骂标题就放心了 电流可达四万伏[大笑][大笑][大笑] 这种自媒体，呵呵 这物理是哈士奇教的 非法铺设电网这种人断子绝孙不得好死！ 这帮死垃圾还是留在乡下别出来了😱丧尽天良！ 把这些垃圾驱除出境 中国供电与社会上的黑心电工狼狈为奸坑害用电户，更没有什么好东西！ 非法铺设电网这种人断子绝孙不得好死！ 电鼠网，灭四害神器 估计小学都没上。 标题肯定是文科生写的 滚，一楼看到新闻提出一个愤怒的观点，二楼站在客观角度理性反驳，你在干什么？把一楼的气话当做真理？ 造孽，，不管是电死动物，，还是电死人，，都是要遭报应的 电流可达四万伏你妈 二楼是第一类人 4万伏的电流太高了! 伏特是电压！傻小编！电流单位是安傍，你是文科男吧！ 非法铺设电网这种人断子绝孙不得好死！ ............. 应该让这两个罪犯，第一进监狱劳动改造，二是让其家赔偿，若没有钱拆房子也补偿！ 中国供电与社会上的黑心电工狼狈为奸坑害用电户，更没有什么好东西！ 前段时间网易不是在招聘编辑吗，1500+提成，这工资水平，写出这样的标题，我一点都不意外！ 这些电鱼的、下兽夹的、下毒药野鸭的，都是恐怖分子！抓住就地吊死 这编辑水平太低，物理课是音乐老师教的？电流会达到四万伏？全世界也没有电流用伏特计量的！你干脆说电流达到三千尺好了！ 两万元一条命，这后台大过陈水扁 我还以为你要说老鼠没电死人电死了[不屑] 现在编辑都是小学毕业就能当了吗？ 事发地架设电网捕猎的情况时有发生，电瓶装上变压器，瞬间释放电流可高达四万伏。小编啥学历，电流单位是伏吗？电压单位才是伏 那玩意我拆过，用10个黑白电视机的高压包放电给电容充电，一头牛碰上马上就死，不带翻身的；电容是270-300个并联和串联，大概算了下容量大概在330-470UF，耐压是12000V左右，放电是另外一个零件，很小，火柴盒那么大点，原谅我不知道那是什么东东，只知道里边有个线路板，然后用硬胶封死的，别人的东西不敢砸！！ 非法铺设电网这种人断子绝孙不得好死！ 小编在电脑前瑟瑟发抖 哈哈哈哈哈，没忍住笑出声了 伏特是电压！傻小编！电流单位是安倍<br>，你是文科男吧！ 这个是不是会去告供电局啊 非法铺设电网这种人断子绝孙不得好死！ 杀生！<br>一群人渣！<br>杀了！ 中国人只分为三种人：丑陋的中国人、偶尔不丑陋的中国人，偶尔丑陋的中国人。 有个电工用电焊机电老鼠，只电了一个老鼠焊机就炸了。亲眼所见。 小编小学毕业吧！ 文科生写专业数据要用点心 高压1000V已上，民用最大380，一般不可能买个变压器电动物吧，耗电量要多大，不划算啊 网易小便都这中水平？ 非法铺设电网，决不饶恕 高压多少万伏？ 我能说小编知识很匮乏吗？电流跟电压都分不清楚就在这儿发这个，丢人不？不知道哪个老师教的你，你怎么当上记者的 这位记者，这个新闻的标题有问题，电流的单位是安培，电压的单位才是伏特，我想从这个标题明白一点是电死人了，但学识性不强，需要加强， 你就是一个喷子 非法铺设电网这种人断子绝孙不得好死！ 而且还是智障版的哈士奇 拉电网吧电鱼吧网鸟毒箭这么多 还是初中毕业不了的文科生 我进来看见大家都在骂标题就放心了 这种自媒体，呵呵 这物理是哈士奇教的 自卑没关系，但是别把别人扯进去，你说的完美的人不存在，是人都有私心，这话放在哪个国家都合适 四万伏的电流？小编你物理老师没打死你吗 这帮死垃圾还是留在乡下别出来了😱丧尽天良！ 高压不是属于输电线路?输电线路好像最低30kv到500kv啊，北京目前应该最高500kv吧 小编的物理老师娓娓道来这样一个故事：我有个学生，跟这作者差不多，也是不懂装懂，胡说八道，去年走的。走的时候并不安详，尸体在太平间抽搐了三天，火化的时候烧得滋滋响，嘴里还在嚎叫，烧了几个钟头才烧完，烧完以后上了灵车，出门就翻车了，骨灰洒了一地,还被风吹走了不少，刚想把剩下的扫起来，迎面来了一辆洒水车。唉…… 电流可达四万伏 把这些垃圾驱除出境 伏特是电压！傻小编！电流单位是安培<br>，你是文科男吧！ 非法铺设电网这种人断子绝孙不得好死！ 两个冒号用的就看出什么水平了 看标题就知道小编的物理知识还不及初中生。 估计小学都没上。 电流4万伏。没文化就不要出来了 尼玛电流是4万“伏”！！！小编估计想说电压是200安！！我想问到网易上班需要什么学历？ 请问什么是农民。 两男子架设电网捕猎电死村民:瞬间电流可达四万伏——小便，你是小学毕业的吗？电流单位是伏吗？ 作奸犯科者几乎全是农民。 物理老师坐不住了！ 瞬间释放电流可高达四万伏。 中考要考物理吧？他怎么考上的高中？ 应该是瞬间电压[窃笑] 是人是狗都能在网上发这种连电流单位都搞不清楚的文章了？ 标题肯定是文科生写的 参考绿城放火案，可向当地政府部门讹钱～ 的确电流用伏特来做单位吗？ 现在的国人基本上都是第一种[可怜] 电流……伏特…… 你就是个杂种！ 网易也太不严谨了，电流的单位是伏特。这是初中的最基本知识。可见小编没上过初中。还文科生呢！ 他爷爷以前就是农民 电流可达四万伏[大笑][大笑][大笑] 乡下人罪恶滔天 嚓！这太猛了 这智商活该穷 中国需要成为法制国家，并且严格执行才能改变现状。 求你们了，看到这标题不要提物理老师。跟物理老师没有关系，这小便应该没有读到8年级。 m..<br>.........<br>.........<br>....r<br>[石化][石化][石化][石化][石化][石化][石化][石化][石化][石化][石化][石化][石化]<br>.<br>...........................<br>.<br><br><br>. 电流四万伏，临时工写的吧 说的好像农民现在就不是他爷爷一样 北戴河韩国呵护 这标题蠢哭了 我敢担保你是第一种 流星月亮地球太阳系有发动机么？没有!他们却高速在宇宙中运行!为什么？因为他们的运行轨道本身就是太空高速时空隧道!他们的运行路线一半为去路一半为来路，周而复始地运行着!地球自转公转着，本就没有东西南北上下左右等方位!谁定的？我们的天父啊!目的只有一个，告诉人类我们天父的星座方位!所以九曲桥的方向始终对着东北方!在宇宙一切物质中，永远是子体围绕母体运动，这是恒定的!所以地球自转并围绕太阳公转!因地球是自转公转的，所以根据地球的东西南北是找不到星外文明的星座方位的!只有找到太阳的上下前后东西南北才能准确地给天父星座方位定位!我们天父星座方位在太阳系东北上方第九颗恒星那里!那里以双伴恒星为中心带动周围108颗恒星运动着! 哈哈哈哈！不过当心灵魂丑陋的东西骂你汉奸。 电压单位才是伏特，小编有点物理常识好不好！！！！ 该整治一下这种事了，愿以后不要发生了。 电鼠网，灭四害神器 宣传部写的 傻逼中国人🉑️真多……害人不浅！ 科技进步了。但非法使用科技谋利造成的危害也很大。 流星月亮地球太阳系有发动机么？没有!他们却高速在宇宙中运行!为什么？因为他们的运行轨道本身就是太空高速时空隧道!他们的运行路线一半为去路一半为来路，周而复始地运行着!地球自转公转着，本就没有东西南北上下左右等方位!谁定的？我们的天父啊!目的只有一个，告诉人类我们天父的星座方位!所以九曲桥的方向始终对着东北方!在宇宙一切物质中，永远是子体围绕母体运动，这是恒定的!所以地球自转并围绕太阳公转!因地球是自转公转的，所以根据地球的东西南北是找不到星外文明的星座方位的!只有找到太阳的上下前后东西南北才能准确地给天父星座方位定位!我们天父星座方位在太阳系东北上方第九颗恒星那里!那里以双伴恒星为中心带动周围108颗恒星运动着! 你不是眼睛瞎了就是脑子进屎了 物理书上说的电流单位我忘记了。 小编的物理是门卫老大爷教的吧！？ 电压4万伏，什么电流4万伏？胡言乱语。 中国人只分为三种人：丑陋的中国人、偶尔不丑陋的中国人，偶尔丑陋的中国人。 "
    },
    "Article": "（原标题：架设电网捕猎电死村民）华商报讯12月18日下午1时30分许，洋县黄家营镇庞湾村村民刘某（男），因触及邻村俩村民非法架设的捕猎电网而被电击身亡，21日，洋县黄家营镇政府对此事作出情况说明。据受害者家属说，事发当天，刘某到庞湾村村委会领取扶贫补助款返程时，触及邻村俩村民非法架设的猎捕电网而发生悲剧。当地村民介绍说，事发地架设电网捕猎的情况时有发生，电瓶装上变压器，瞬间释放电流可高达四万伏。“而电网周围并没有任何警示标志，电网与草色十分相近，不仔细辨认很难发现。”12月21日，洋县黄家营镇人民政府对此事作出情况说明称，刘玉文是被洋县黄安镇何家村六组村民段某某和谢村镇小池村二组村民李某某非法架设的猎捕电网电击身亡。案发后，镇政府高度重视并成立事故处理领导小组，在配合公安机关侦破案件的同时，积极安抚受害人家属处理善后事宜，已先行支付2万元安置受害人家属生活，同时正在协商受害人安葬及赔偿相关事宜。为杜绝此类事件，黄家营镇政府召开会议，开展专项行动，对非法架设电网猎捕进行严厉打击，同时加大法制宣传教育，引导群众知法守法。目前，两名犯罪嫌疑人李某某和段某某，因涉嫌以危险方法危害公共安全已被洋县公安局依法刑事拘留。本文来源：华商网-华商报责任编辑：荀建国_NN7379",
    "Title": "两男子架设电网捕猎电死村民:瞬间电流可达四万伏_网易新闻",
    "URL": "http://news.163.com/17/1228/01/D6N4R0ME00018AOP.html",
    "KeyWords": "捕猎,非法,电网"
}