{
    "URL": "http://news.163.com/17/1231/17/D70I3H9K0001899N.html",
    "Article": "（原标题：恐怖！男子嫌楼房外施工太吵，拿菜刀割断吊绳：工人4楼坠下重伤）#endText.video-infoa{text-decoration:none;color:#000;}#endText.video-infoa:hover{color:#d34747;}#endText.video-listli{overflow:hidden;float:left;list-style:none;width:132px;height:118px;position:relative;margin:8px3px0px0px;}#entText.video-lista,#endText.video-lista:visited{text-decoration:none;color:#fff;}#endText.video-list.overlay{text-align:left;padding:0px6px;background-color:#313131;font-size:12px;width:120px;position:absolute;bottom:0px;left:0px;height:26px;line-height:26px;overflow:hidden;color:#fff;}#endText.video-list.on{border-bottom:8pxsolid#c4282b;}#endText.video-list.play{width:20px;height:20px;background:url(http://img1.cache.netease.com/video/img14/zhuzhan/play.png);position:absolute;right:12px;top:62px;opacity:0.7;color:#fff;filter:alpha(opacity=70);_background:none;_filter:progid:DXImageTransform.Microsoft.AlphaImageLoader(src=\"http://img1.cache.netease.com/video/img14/zhuzhan/play.png\");}#endText.video-lista:hover.play{opacity:1;filter:alpha(opacity=100);_filter:progid:DXImageTransform.Microsoft.AlphaImageLoader(src=\"http://img1.cache.netease.com/video/img14/zhuzhan/play.png\");}if(/(iPhone|iPad|iPod|Android|NETEASEBOBO|blackberry|bb\\d+)/ig.test(navigator.userAgent)||/safari|chrome|firefox/i.test(navigator.userAgent)&&navigator.plugins&&!navigator.plugins[\"ShockwaveFlash\"]){varstr1='<videocontrols=\"controls\"preload=\"auto\"width=\"100%\"poster=\"http://vimg3.ws.126.net/image/snapshot/2017/12/D/O/VD62OGQDO.jpg\"style=\"max-height:100%\">';varstr2='<sourcetype=\"video/mp4\"src=\"http://flv.bn.netease.com/videolib3/1712/31/dvEYt1836/SD/dvEYt1836-mobile.mp4\">您的浏览器暂时无法播放此视频.</video>';document.getElementById(\"FPlayer1404863609673\").parentNode.innerHTML=str1+str2;}他嫌施工太吵割断吊绳,工人4楼坠下（来源：~）window.NTES&&function(d){varf=function(c){varb=c.getAttribute(\"flashvars\"),a=c.getAttribute(\"repovideourl\").replace(\".flv\",\"-mobile.mp4\");h=d(c.parentNode.parentNode.parentNode),g='<embedsrc=\"http://v.163.com/swf/video/NetEaseFlvPlayerV3.swf\"flashvars=\"'+b+'\"allowfullscreen=\"true\"allowscriptaccess=\"always\"quality=\"high\"wmode=\"opaque\"width=\"100%\"height=\"100%\"type=\"application/x-shockwave-flash\"/>';if(/(iPhone|iPad|iPod|Android|NETEASEBOBO|blackberry|bb\\d+)/ig.test(navigator.userAgent)){g='<videocontrols=\"controls\"preload=\"auto\"width=\"100%\"height=\"100%\"><sourcetype=\"video/mp4\"src=\"'+a+'\">您的浏览器暂时无法播放此视频.</video>';}h.$(\".video\")[0].innerHTML=g;},e=function(b){vara=d(b.parentNode.parentNode.parentNode);a.$(\"li\").removeCss(\"on\"),b.addCss(\"on\"),a.$(\".video-title\")[0].innerHTML=\"string\"==typeofb.textContent?b.textContent:b.innerText,a.$(\".video-title\")[0].setAttribute(\"href\",b.getAttribute(\"url\")),a.$(\".video-from\")[0].innerHTML=\"（来源：\"+b.getAttribute(\"source\")+\"）\",f(b);};window.continuePlay=function(){vara,b=d(d(\".video-list.on\")[0].nextSibling);3==b.nodeType&&(b=d(b.nextSibling));if(b&&d(\".video-innerinput\")[0].checked){e(b);}},function(){vara={init:function(){if(d(\".video-listli\")[0]){d(d(\".video-listli\")[0]).addCss(\"on\"),this.eventBind();}},eventBind:function(){d(\".video-listli\").addEvent(\"click\",function(b){e(d(this)),b.preventDefault();});}};a.init();}();}(NTES);12月31日，河南郑州一名工人身系吊绳在4楼切割管道时，4楼的一名男子嫌切割机声音太吵与工人发生争执，随后拿菜刀切断吊绳，工人跌落，身上多处骨折，目前已送医。28日，海南三亚刚发生了一起房主割断高空作业人员安全绳事件，警方通报：事件属实，但网传工人躺地摔伤照为虚构，实为工人躺地休息照。本文来源：一手Video责任编辑：李杭_BJS4645",
    "KeyWords": "吊绳,菜刀,工人",
    "Source": "Netease",
    "Comment": {
        "Reply": 248,
        "Content": "民工跟官员一样坏。 活在这个国嘉不易阿 一个南京官法对付13亿农名工绰绰有余！ 河南这回是真的吧？海南的已经反转了 大家有没发现这类新闻里，蜘蛛人只有吊绳没有保险绳么？甚至有小便认为那根绳就是保险绳！（我只是说应该加强监督，重视安全，没说隔断绳子不缺德，不要乱喷，网易的无脑喷子真叫人恶心） 这种事情都干的出来，这是人嘛，人肉大神何在？ 这新闻早上不是说二层摔下，怎么又是四楼了！不管几楼，我建议让他们两口子也出去体验一下飞翔的感觉！任何处罚都比不上这种教育意义大！ 多大的情绪也不能在有人的情况下割绳子啊 骂你傻逼大家应该会赞我吧！你单纯骂后者也就算了 看你们还推小车送粮不。 谋杀吧！ 图四，“躺地休息照”，鼻子上的透明塑料管是什么睡眠神器？ 河南的新闻一出来怎么总这么招人恨呢？ 农民工没有 你的心情我能理解，但是不能割绳子，倒尿就可以了 故意杀人 唉～民工也不易，体谅一下，去外面玩玩呗... 烟台海阳市个人重赏，因我儿子于2012年8月1号在方圆北大门，对面马路北的平房上一广告牌上干活，原阳酒酒店东平房上，被海阳公安部认定为意外触电身亡，经我们多方了解是非正常触电身亡，也就是被谋杀后有人故意为掩盖事实真相造成触电假象，因为烟台海阳公安机关办案人员掩盖、包庇袒护杀人凶手包谋杰等人外来因素影响，使我儿子被人谋杀事实被某些人掩盖，所以我们一直认为是意外死亡，经过多年调查使事实基本清楚，其中包某杰等人有作案动机和机会，因为我们不在现场撑握的证据，因为公安部门主要领导和凶手有特殊关系不认可，所以使凶手得不到伏法，希望有正义人士知道详情的提供给本人有重赏和绝对保密，假如你能帮助和提供重要线索和证据的使凶手得到伏法，并原意指证可以获得10一20万元的奖励，提供一般有价值和证据的也可得到奖励，可以协商，非城勿扰，因为我们是失独老人。13697629175<br><br><br>13697629175 能不能判故意杀人？ 肯定有你这样不仔细看文章就乱说的人发这样的帖子 要不我来？老子楼上那户从去年开始至今装修一年多了，天天电锯锤子叮叮哐哐[喷水] 这种非紧迫性的工作在很多国家节假日是禁止的，可怜的农民工 首先施工应该提前告知附近居民，不是你想干就随便干的，施工的噪声污染也是有规定的。其次应该采取更缓和的方式来处理这样的事情，冲动是魔鬼。最后，法律是公正无私的，该怎么判就怎么判 31日不是全民假日吗？上班该给三倍工钱吧？ 31日星期天，元旦三倍工资，但是农民工肯定没有。 现在许多人精神处于极度不健康的状态，甚至处于崩溃的边缘，稍受刺激，便冲冠而怒，不计后果。可怜的中国人啊！ 你看一楼名字 这个不会又反转了吧，故意杀人走一波[暴怒] 故意伤害,妥妥的. 这个应该不会再被反转了吧！ 海南，河南，剧情大放送，傻傻分不清[晕][晕] 这算故意杀人吧 一些在别人休息的时间施工的，的确该杀 按照一级谋杀没问题！ 这个问题值得深思！！！ 二楼说的不对，不管是民工也好，普通人也好，教授精英也好，都有好人坏人。说某个群体都是坏人的人自己本身也不会好到哪去 烟台海阳市个人重赏，因我儿子于2012年8月1号在方圆北大门，对面马路北的平房上一广告牌上干活，原阳酒酒店东平房上，被海阳公安部认定为意外触电身亡，经我们多方了解是非正常触电身亡，也就是被谋杀后有人故意为掩盖事实真相造成触电假象，因为烟台海阳公安机关办案人员掩盖、包庇袒护杀人凶手包谋杰等人外来因素影响，使我儿子被人谋杀事实被某些人掩盖，所以我们一直认为是意外死亡，经过多年调查使事实基本清楚，其中包某杰等人有作案动机和机会，因为我们不在现场撑握的证据，因为公安部门主要领导和凶手有特殊关系不认可，所以使凶手得不到伏法，希望有正义人士知道详情的提供给本人有重赏和绝对保密，假如你能帮助和提供重要线索和证据的使凶手得到伏法，并原意指证可以获得10一20万元的奖励，提供一般有价值和证据的也可得到奖励，可以协商，非城勿扰，因为我们是失独老人。13697629175<br><br><br>13697629175 海南那个翻转了，这个应该是真摔了，话说现在人戾气真重啊！ 这个老无赖不得善终！ 施工扰民确实不好，但工人也只是执行人，要杀就杀决策的领导 海南也不算反转，只是报警人夸大了事实。楼上的东北候鸟还是割了绳子的。 坐等湖南 这样的人一定要重罚，严惩不贷。 一个海南一个河南😂 人均gdp都不算农民工，三倍工资不存在 以前午睡的时候，突然觉得附近有人，起来一看。俩民工蹲在窗台上。<br>我拎着大砍刀指着他们，要么给我跳下去了。要么挨一刀掉下去。<br>两人面如死灰的说，我们不是贼，是拆广告牌的。<br>经过确认后，让他们从门口滚出去了。<br>拆广告牌的就可以趁我睡觉的时候，随随便便爬进我卧室？ 一个国家，害怕自己的民众，还是不是1国家？<br>答，封建王朝算不算1个国家？ 都是自私鬼，就觉得别人装修自己嫌吵，不想自己当初装修也一样吵 自从得了精神病，整个人都精神多了，有精神病不是你的错，但出来害人就是你的不对，如今社会压力大精神病真多 作死 割得好，充当没有道德的盾牌那就到地狱去吧 其实一大群又玩成“地主搞女人”的国家，对民众上街权这件可以引导好的人文的事却深感恐惧的，，，，，，，，，，，，，，，<br>================================================ 海南的是2楼，河南的是4楼，广西怎么有这么傻逼的亲戚真是丢脸 这新闻早上不是说二层摔下，怎么又是四楼了！不管几楼，我建议让他们两口子也出去体验一下飞翔的感觉！任何处罚都比不上这种教育意义大！ 继续下一位，南期拉夫 什么是正常装修时间？装修扰民这也是不容忽视的因素 水南边，，真危险，，，下一个会不会是湖南。。 这个畜牲有多坏？ 海南的辟谣了这个看来坐实了故意杀人 海南的咋反转？ 这就是我为什么反感瞎说运10这类东西1样的道理，1开始哪个国家能r“手工做出来运10、或者DOS”，那可这个国家懂了原理的好经验，为什么却受到打击呢，这打击能骗到起什么人呢？有什么好处呢？？？ 不看那些小说了，这些小说都带着垃圾目标很难烂，还是我自己来写：<br>1、女：你看那个女的了哦。<br>男：看了，咋的，你想这样满足我？<br>女：鬼才想。<br>----------<br>男：你看那男的了哦。<br>女：看了，咋了，你想这样满足我？<br>男：没那本事，视角人文之喜好何其多也，1J1B较为公频，而引诱之力，是相互需要时努力做出来的结果，找个地儿来1下？<br>========================<br>那里有地主，灭之。<br>那里有个农民，给点技术。<br>那价值如何引导？<br>农民连开个路边店的钱劳动的资格权的钱都不发，这叫什么社会？地主不劳实际劳动，却把价值引导方向取向多搞女人，这是什么定价社会？ 故意杀人罪 河南这回是真的吧？海南的已经反转了 按理由来说，印度应当更在意中俄美欧，却反其道行之，1天玩中，这种虚假的战略又骗取不了人，毫无用处却还玩得非常给力，应当是无聊的讹诈类，<br>====================<br>因为基于定价权来说：<br>1、一个国家的内部定价权想玩多好就玩多好，这事他人管不了，比如原社和现在的美欧。<br>2、而一个国家的外部定价权是合作得利，讹诈欺骗等都毫无意义，瞎玩什么呢？ 肯定故意杀人 唉～民工也不易，体谅一下，去外面玩玩呗... 图四，“躺地休息照”，鼻子上的透明塑料管是什么睡眠神器？ 美国的尊重示威权的确是好的，打得伊朗这类不良国家直跳。<br>=================================================<br>从权利上来说，民众之众音总是显示在公频、正义等人类正面价值上，这本是定价权引导的好事，但是：<br>1、美国是选的，有这上街引导了好的，又可以不好的选不上。<br>2、而伊朗这种弱国，以权利获利的地主式国家，想想要正义肯定不干得对打，用枪相互打起来，结果搞烂了伊朗，所以“美国是在送好的，烂国却受不起这份礼”也。<br>3、话又说回来，真的受得起这份“礼”的国家，美国又不给了，这就是所谓的奸计？？？？？？？ 肯定有你这样不仔细看文章就乱说的人发这样的帖子 网易的新闻不可靠 31日星期天，元旦三倍工资，但是农民工肯定没有。 人渣， 装修是八点到十二点，十四点到六点，装修合理合法 谈不上翻转，割绳是事实，只是没有摔伤，刑事立案没问题 河南这个估计翻转不了，因为是民对民 你看一楼名字 31日不是全民假日吗？上班该给三倍工钱吧？ 海南，河南，剧情大放送，傻傻分不清[晕][晕] 再接下去还有云南...... 怎么反转了？ 这个要算谋杀了吧！ 再下一位，北国境线以南 你忘了一条节假日不能装 只要是正常装修时间，人家就有权利施工，这种应该判刑 最后又是摆拍 我刚看完公安局辟谣，是城管造谣被拘留，被人摔伤，割绳子的时候没人，你现在又给我看这？？？ 国家节假日禁止装修，工作日也是也是下午6点后就不能弄了吧 海南那个翻转了，这个应该是真摔了，话说现在人戾气真重啊！ 明天民工把你房子拆了，你也去铁良体谅体谅体谅吧 一个是拆广告，一个是切割管道 这眼睛赶快去看看吧！ 此新闻证实了网易新闻的评论者大多数是不看就评，并且多数为网络暴徒。 说故意杀人的脑子都喂狗吃了？ 这是故意杀人吧一定要严判[暴怒][暴怒] 妈的，干啥都有跟风。 这故意的必须要判刑 以前有遇到擦外墙的，开我们窗东张西方望，我借电给他们，他们不感谢，还说要进来卡死我，我一脚踢墙我脚劲大，他们才怕了。所以他们走险路的真的不要命，割不是没有原因的。最好不要跟他们接触。 管理者和稀泥？导致民众自发解决问题？ 对，擦外墙的就是。 二楼是伤人，四楼够杀人了！ 以后4楼以下不要他们擦了。因为楼层太低。8楼10楼的看他们得色。 假新闻也应该判刑啊 一个海南一个河南😂 别的先不说，命真大啊，四楼摔下来只是骨折了，另外割绳子的那个sb得怎么判？故意杀人？ 扰民是有时间规定的晚10点到早5点吧好像。 人均gdp都不算农民工，三倍工资不存在 告死他，叫他卖了房子也要赔，没了房子这个狗娘养的以后才知道自己到底做错了什么 没摔时是河南，摔下来就变海南啦？ 坐等湖南 河南这回是真的吧？海南的已经反转了 大家有没发现这类新闻里，蜘蛛人只有吊绳没有保险绳么？甚至有小便认为那根绳就是保险绳！（我只是说应该加强监督，重视安全，没说隔断绳子不缺德，不要乱喷，网易的无脑喷子真叫人恶心） 割得好，充当没有道德的盾牌那就到地狱去吧 这新闻早上不是说二层摔下，怎么又是四楼了！不管几楼，我建议让他们两口子也出去体验一下飞翔的感觉！任何处罚都比不上这种教育意义大！ 一个接一个的割，那个是造谣，这个呢？ 还是没抓住病根，得治领导。 割得好？你以为是割包皮啊，割这个是要出人命的。 烟台海阳市个人重赏，因我儿子于2012年8月1号在方圆北大门，对面马路北的平房上一广告牌上干活，原阳酒酒店东平房上，被海阳公安部认定为意外触电身亡，经我们多方了解是非正常触电身亡，也就是被谋杀后有人故意为掩盖事实真相造成触电假象，因为烟台海阳公安机关办案人员掩盖、包庇袒护杀人凶手包谋杰等人外来因素影响，使我儿子被人谋杀事实被某些人掩盖，所以我们一直认为是意外死亡，经过多年调查使事实基本清楚，其中包某杰等人有作案动机和机会，因为我们不在现场撑握的证据，因为公安部门主要领导和凶手有特殊关系不认可，所以使凶手得不到伏法，希望有正义人士知道详情的提供给本人有重赏和绝对保密，假如你能帮助和提供重要线索和证据的使凶手得到伏法，并原意指证可以获得10一20万元的奖励，提供一般有价值和证据的也可得到奖励，可以协商，非城勿扰，因为我们是失独老人。13697629175<br><br><br>13697629175 我看是擦墙的找死。 这样做也太缺德了 什么样的人都有！ 河南的新闻一出来怎么总这么招人恨呢？ 皖南怎么办？ 海南那个本身就是钓鱼，表演痕迹很重，这个不好说，兴许是真的。 吊绳的绳字换行了 人都有惰性的，觉得自己熟练了，没问题，就懒得再折腾了。 割绳不对，但也别忽视了噪音扰民，谁先侵权也很重要 这个是城管虚构的吗？ 绳子质量不行，里面没钢丝 都不敢评论了，怕反转来的太快就像龙卷风…… 31日不是全民假日吗？上班该给三倍工钱吧？ 严重涉嫌故意杀人， 31日星期天，元旦三倍工资，但是农民工肯定没有。 闽南蠢蠢欲动 有不少蜘蛛人懒得再搞一根保险绳，嫌麻烦。当然正常情况下也没有这类人为割断绳子的事情。 12月29日，云南通海，某中学多名同学，疑为争篮球场地发生群体斗殴事件。据受伤同学描述，目前已造成2死7伤。 海南，河南，剧情大放送，傻傻分不清[晕][晕] 近期剪刀便宜了吗。 这算故意杀人吧 一些在别人休息的时间施工的，的确该杀 你不是香港的就是台湾澳门或者海外的农民工，你用的繁体字，我说的对不 三根保险绳都没用，割不断的拿锯子锯，锯不断的拿老虎钳夹，有几根夹几根，不怕你摔不到地上去。 誒！我就是農民工 这割绳子的是不是精神不正常啊！！ 这个是城管虚构的吗？ 这次到底是真是假？ 危害的轻重……他已经输了……刑事案件，关几年，留案底，赔偿……就为意气之争……后悔都没有用 烟台海阳市个人重赏，因我儿子于2012年8月1号在方圆北大门，对面马路北的平房上一广告牌上干活，原阳酒酒店东平房上，被海阳公安部认定为意外触电身亡，经我们多方了解是非正常触电身亡，也就是被谋杀后有人故意为掩盖事实真相造成触电假象，因为烟台海阳公安机关办案人员掩盖、包庇袒护杀人凶手包谋杰等人外来因素影响，使我儿子被人谋杀事实被某些人掩盖，所以我们一直认为是意外死亡，经过多年调查使事实基本清楚，其中包某杰等人有作案动机和机会，因为我们不在现场撑握的证据，因为公安部门主要领导和凶手有特殊关系不认可，所以使凶手得不到伏法，希望有正义人士知道详情的提供给本人有重赏和绝对保密，假如你能帮助和提供重要线索和证据的使凶手得到伏法，并原意指证可以获得10一20万元的奖励，提供一般有价值和证据的也可得到奖励，可以协商，非城勿扰，因为我们是失独老人。13697629175<br><br><br>13697629175 再等等吧 已经反转了 我想说。我们小区别人总放烟花，我是不是也该提刀下去砍人？ 真是有病，应该判死刑！ 海南那个翻转了，这个应该是真摔了，话说现在人戾气真重啊！ 施工扰民确实不好，但工人也只是执行人，要杀就杀决策的领导 这个是城管虚构的吗？ 故意杀人罪论处 这个是城管虚构的吗？ 河南人真中 新年前夕外地都在上演狗屎剧，没完没了的 已经从2楼割绳，上升到了，4楼割绳， 我日…… 这算故意杀人吧 一个海南一个河南😂 包工头的主要责任,屋主有次要责任 海南那个是说是装的，这个不知道剧情有没有逆转。 没和业主沟通，野蛮施工，没法说了。 没反转，虚构伤情，绳还是割了。 河南学得真快 河南这回是真的吧？海南的已经反转了 畜生 尽快的要不然都到明年了 这新闻早上不是说二层摔下，怎么又是四楼了！不管几楼，我建议让他们两口子也出去体验一下飞翔的感觉！任何处罚都比不上这种教育意义大！ 这事儿得割房主啊 这个老无赖不得善终！ 请不要害别人 这次不是虚构的吧？ 几点施工才导致他人嫌吵闹，一般正常工作时间吵一点也不会这么过激行为吧！！搞不懂现在人太烦躁了，我有时候都烦路怒症了，都靠酒精缓解压力，唉！！！！ 要不我来？老子楼上那户从去年开始至今装修一年多了，天天电锯锤子叮叮哐哐[喷水] 自媒体又在编故事了…… 这个必须按故意杀人判！高楼越来越多，这种高危服务必须有保障！ 都挺南 必须这样判才合理！ 你是弱智吗？ 什么情况又来 海南的是假的，现在来个真的[喷水] 真乃畜牲也。。。 激情杀人未遂罪 故意杀人罪，证据确凿，因没被杀死，判无期。 上午还说是东北人干的 现在许多人精神处于极度不健康的状态，甚至处于崩溃的边缘，稍受刺激，便冲冠而怒，不计后果。可怜的中国人啊！ 谋杀罪 海南，河南，剧情大放送，傻傻分不清[晕][晕] 畜牲不如，丧心病狂。 这算故意杀人吧 安全绳质量不过关啊，应该选激光都割不断的 河流入海 虽然人家不对，你也不能故意杀人！ 你特么嫌太吵了，飞机从你头顶飞过去的时候你怎么不把它打下来，我去年买了个表 都喜欢割绳子玩。 难辨真假了！海南反转了，河南会吗？！ 修墓 谋杀啊，这人不没有脑子吗 这人有病，还特严重。这下不用住这房了，吵不他了。医药费，赔偿，得卖房抵债。 海南也不算反转，只是报警人夸大了事实。楼上的东北候鸟还是割了绳子的。 人家割你也割 河南海南云南这几天都有事啊。 坐等湖南 这样的人一定要重罚，严惩不贷。 尼玛前天看还是说两层的时候割断的，现在又变四层，这就是尼玛的态度[窃笑][窃笑][窃笑] 故意杀人未遂 修园明园吗，修了这么久 宇宙的探索是离不开我的话的，只有把围绕地球公转的一切物质包括气体计算在地球体积之内才能找到地球真正的边和角，那是反引力汇聚地，是真正的真空隧道，宇宙高速路，太阳系内的动脉!把围绕太阳公转的一切物质包括气体计算在太阳体积之内才能找到恒星与恒星的边和角，那是恒星与恒星之间的真空高速隧道，找到真空隧道以近光速超光速飞行那不是个事!宇宙飞行器也不能按照飞机的二维结构原理制造，飞机是不能高速自转的，但只有高速自转才能产生真空电磁场，以近光速飞行，未来的宇宙飞行器必须按地球原理制造，八层以上结构，你看地球高速自转着前进，我们人坐在地球上有啥不适感觉吗？ 一个海南一个河南😂 真真假假，假假真真 反正都有一个南字[大笑][大笑][大笑] 简直可怕 一个南京官法对付13亿农名工绰绰有余！ 河南这回是真的吧？海南的已经反转了 这种事情都干的出来，这是人嘛，人肉大神何在？ 这话说得太好了，支持。 躺地休息照，要插难么多管子？ 多大的情绪也不能在有人的情况下割绳子啊 人社部解释了，主动加班的不算 一个海南一个河南😂 看你们还推小车送粮不。 谋杀吧！ 活在这个国嘉不易阿 这年头怎么。怪人这么多？ 农民工是工人+农民，本应是双灵道阶级，没想到啊 农民工没有 故意杀人 唉～民工也不易，体谅一下，去外面玩玩呗... 河南的就不能反转了吗？这片神奇的土地一点儿也不奇怪 南（难）字爱出事 你的心情我能理解，但是不能割绳子，倒尿就可以了 触犯刑法，故意杀人 首先施工应该提前告知附近居民，不是你想干就随便干的，施工的噪声污染也是有规定的。其次应该采取更缓和的方式来处理这样的事情，冲动是魔鬼。最后，法律是公正无私的，该怎么判就怎么判 31日不是全民假日吗？上班该给三倍工钱吧？ 呵呵呵河南人，大家心照不宣，大家都懂的 31日星期天，元旦三倍工资，但是农民工肯定没有。 故意致人重伤，有这罪没[疲惫] 简直可怕 期待官方的反转剧 我觉得这是虚构的，不信的看明天的新闻。 故意伤害,妥妥的. 这个应该不会再被反转了吧！ 都是南啊 这算故意杀人吧 割断绳索这人戾气太重了，留在社会上迟早是个祸害，建议重判。 这名男子一定重判 肯定没你们这群狗狗幸福，围着主人转就有吃的了！ 脾气太大了 按照一级谋杀没问题！ 贪官害死更多人，你为什么不追究？小老白姓好欺负好追究吗？ 你家人被打死，你不追究是吧？？？ 俩大南颠覆三观！ 这新闻早上不是说二层摔下，怎么又是四楼了！不管几楼，我建议让他们两口子也出去体验一下飞翔的感觉！任何处罚都比不上这种教育意义大！ 看场景这个是河南没错了，海南三亚哪会穿这么厚，而且电动车造型和电话号码都不对上号 社会戾气太重，必须严惩！ 怎么这个就没前2天那个没受伤的有热度？这个是没推手？ 别造谣.了，刚看了假的。 割绳子的不是东西，但是高空作业为什么没有看绳子的。也有责任的 都是按日结算的，没什么节假日啊 想· 你当美帝 跟贴被火星网友带走啦~ 跟贴被火星网友带走啦~ 林子大，什么鸟都有。 民工跟官员一样坏。 施工有时候真的恶心我这边施工都一年多了不分时间施工有时候凌晨3点多还在敲敲敲早上6点准时开工真的很累 真的假的？ 呃！吵可以报警。但不能割绳杀人这就是犯罪 他们做的肯定不对，但城市噪声污染也应管管，广场舞，汽车喇叭，商业叫卖，等等 河南这回是真的吧？海南的已经反转了 这新闻一旦出了新篇章立马后面铺天盖地出类似的 31日不是全民假日吗？上班该给三倍工钱吧？ 这新闻早上不是说二层摔下，怎么又是四楼了！不管几楼，我建议让他们两口子也出去体验一下飞翔的感觉！任何处罚都比不上这种教育意义大！ 我操！你妈的太狠了吧啥素质 那是海南这是河南😄 按照一级谋杀没问题！ 这个问题值得深思！！！ 这算故意杀人吧 天一亮就开始冲击钻电锯连续一个多月谁吃得消 这次是真的吗？都不敢相信了，故事反转的太快 噪音把人逼疯了。。泼粪不行吗？？ 海南那个翻转了，这个应该是真摔了，话说现在人戾气真重啊 能不能判故意杀人？ 121 你丫更坏！ 割绳子属实，只是没人受伤。 农民工没有 作为佛系青年，得过且过，何必下此狠手 4楼的话是对着2楼说的，但是却结结实实的直接扇了3楼的脸、、、、、、 哪里都有好人坏人，你敢保证官都是好人或者都是坏人？ 割断安全绳为真，摔地照片为假，咋滴，绳断了没掉在地上 我这里也闲太吵、我是不是也拿锤子把那些音响锤了！ 有态度就好！ 9<br>[被黑] 割绳子害人肯定是不对，但小区施工扰民也是一大问题，物业根本不管。 这两起事件有异曲同工之妙，不过第一个已经反转了！ 犯罪也给三倍惩罚 海南的没反转 这个不会又反转了吧，故意杀人走一波[暴怒] 按照一级谋杀罪判刑没问题！ 吃不消就可以这样？你个鸭子！ 故意杀人！ 还那样那样彪婆子：我们的权力 一个接一个，年底了都想吃免费饭吗？ 唉～民工也不易，体谅一下，去外面玩玩呗... 谁说不是呢？ 二楼说的不对，不管是民工也好，普通人也好，教授精英也好，都有好人坏人。说某个群体都是坏人的人自己本身也不会好到哪去 ",
        "Total": 4945,
        "Link": "http://comment.news.163.com/news2_bbs/D70I3H9K0001899N.html"
    },
    "PublishTime": "12/31/201717:16:21",
    "Title": "男子嫌施工太吵拿菜刀割断吊绳 工人4楼坠下重伤_网易新闻"
}