{
    "Title": "女司机没带驾照开车实线变道顶翻后车 被扣7分落泪_网易新闻",
    "URL": "http://news.163.com/17/1226/20/D6K039KB0001899N.html",
    "KeyWords": "女车主,高架,轿车,小型轿车",
    "PublishTime": "12/26/201720:10:46",
    "Article": "2017年12月26日，一辆黑色轿车在上海高架上实线变道引发车祸。本文图片来自微博@上海交警女司机高架实线变道，把后车“掀”了个底朝天。12月26日，一段发生在上海高架上的惊险车祸视频在网上热传。视频中，因前方拥堵，一辆黑色轿车打灯左拐，越过实线转向了左侧车道。一秒多后，一辆后车刹车不及，狠狠撞上变道中的黑色轿车，翻了个底朝天后，又向前滑行了一段。当日晚些时候，上海警方认定，变道的黑色轿车女司机负全责。上海市公安局交警总队官方微博“上海交警”当日发文称，12月26日9时许，吴某驾驶沪AKH365小型轿车在中环高架外侧近金沙江路下匝道处，违反禁止标线指示变更车道，撞击陈某驾驶的沪BRT302小型轿车，致后者翻车后，又与龚某驾驶的沪LA6880小型轿车相撞，无人伤，造成三车损坏道路交通事故。“上海交警”表示，经市公安局交通警察总队高架支队调查，认定吴某承担本起道路交通事故全部责任，陈某、龚某均不承担本起道路交通事故责任。根据“上海交警”发布的处罚视频显示，吴某是一名年轻女性，填写处罚单时，她还擦拭了下左右眼角的泪水。吴某正在接受处罚。“上海交警”表示，吴某未随车携带驾驶证、机动车违反禁止标线指示，车辆在道路上发生事故后，不按规定设置警告标志或使用警示灯光，分别处以100元记1分、200元记3分、200元记3分，共计500元记7分的处罚，因其在一个记分周期内累积记分达到12分，依法扣留其机动车驾驶证。本文来源：澎湃新闻责任编辑：张海桐_NN9053",
    "Comment": {
        "Content": "罚的太轻了 路口看了没车就可以闯红灯了。 你都自己说女司机了还要求这么多？ 基本不看后视镜的<br>被几个女司机贴着变道别过<br>他娘的 看后视镜了就能实线变道了？ 会中文不：因其在一个记分周期内累积记分达到12分，依法扣留其机动车驾驶证 害人不浅 遇上这种煞笔恨不得上去给他两脚，特码的以为道路是你家的啊，后视镜是摆设吗！ 没死已经很幸运了 好多女司机都是马路杀手，走在路上又慢，还看个手机。 出事还委屈落泪感觉自己才是受害者一样。。。。。。。。。。 尼玛，这么轻的处罚有个屁用 没车吧？不带驾照扣两分，有法律规定的 差点把人家害死还好意思哭 这个女司机变道不看后视镜？不看地上的线吗？ 有些人变道从不看后视镜，等着别人让，以为自己技术很高 没判刑，没吊销。也许是流下激动的泪水。 我昨天在浙江天台隧道里看到大货车都敢随时实线变道到左面行驶，而且还超速，吓出我一身(▔㉨▔)汗 怎么又有货车上中环了？ 你这是本末倒置主次都分不清 已经打开雨刷了，你还要怎样？ 这种交通意识，吊销驾照就不要再开车了，保险公司也不要给她上保险了，很难改，不要放、当马路杀手了 实线变道，不打方向灯，不看倒后镜，转弯不让直行，这种女人真的别出来害人害己。 实线变道不是主要，关键是没有看后视镜，否则可以避免这场车祸。 女司机，除了对自己脸保养上心，其他的啥时候用过心？ 实线还敢变道[喷水] 就这种司机一年120分都不够她扣的 你不知道她曾经成功变道多少次了，这次是意外 所以后车也存在经验不足。像这种情况，看到这个车只要从静止开始出现往左打轮的苗头，我就第一时间减速！绝不打半点方向盘。要么停下来，要么直着撞上去。只要你躲他变道，翻车或者撞上旁边的车，责任都是你的了。没经验！！ 反复看了动图，翻车的司机下意识躲了她。很危险。如果不躲她直接撞上去，会安全些。 还委屈了！没判刑就不错了。庆幸吧。傻女人 我是女司机，06年考出的驾照，至今驾龄8年，只在高架上没变道正常行驶下被后车追尾，后车全责。被扣过一次三分，开始开车时会快，但现在开车只求安全到目的地，一定要遵守交规。不开斗气车，不值得。 没有车，可以。 和带不带驾照有毛关系[微笑][微笑] 碰到过不少这样的男司机，都是想怎么开就怎么开的主！反正拿定了你肯定要踩刹车的！ 路上多了去了 没扣分恭喜你啊继续驾驶呗 女司机最恐怖的地方不是技术差，而是无视规则，逆行，实线变道，拐弯不让执行，分不清远近光。出了事还觉得自己没错。 这种人就不应该再开车了 女司机会开车的真不多，大多数只会开，其余的都不很懂。我那同事远光近光灯都分不清 路上见过后视镜收起来的 老司机告诉你:遇到前车实线变道，一定不能打方向，踩刹车然后直接撞上去，这样能充分保证自己车的安全。<br>遇到车祸对方是女司机，第一时间要求交警查看其驾照和行驶证，80%的女司机都不带驾照。如果交警觉得损失不大，去快速处理中心，一定不要去。要求先出发违章再处理陪赏 能多扣一分！人家交警也想扣满她十二分让她赶紧从马路上滚蛋 路口看了没车就可以闯红灯了。 前天也遇到过一个，也是女司机，差点追尾了…… 杀手 比如实线变道，比如观察后视镜，比如提前开启转向灯，这3个里面做到一个，事故风险至少降低5成。做到两个，至少七八成。3个里面做到后两个，最多就是你违章扣分罚款，而不是发生事故。而国内发生事故，大部分原因都是违章引起的。比如电瓶车和机动车的事故。。。 昨天早上上班，我走辅道，然后对面逆行一辆车跟我堵上了，我下车一看是个女司机，我让她退10米就到路口了，那个傻逼女的说我家就在前面，就逆行了死活不退，这种傻逼 我们国家应该取消女司机驾驶资格。 已经打开雨刷了，你还要怎样？ 碰到过不少这样的男司机，都是想怎么开就怎么开的主！反正拿定了你肯定要踩刹车的！ 出事还委屈落泪感觉自己才是受害者一样。。。。。。。。。。 我是女司机，不是所有女司机都是一样的好不！开了13年🚗了、大多数男司机开车我还瞧不起呢[大笑] 肇事女车主直接被撞身亡…… 女司机大都是想怎么开就怎么开 掉头不管直行车，好像整条路只有她一个人开车。 无知者无畏 没判刑，没吊销。也许是流下激动的泪水。 护身符不是这个，而是保险。假设违章变道出了事故之后是自己口袋里掏银子，你觉得还有那么多。。。。么？而后车除非是想大修了，不然的话，修理费反正也没什么好处可以捞，但是得搭进去误工费（交警处理，扣车，去修车，去取车等）和车辆维修期间的无法用车产生的费用（车辆折旧，上下班打车或公交）以及人身伤害的风险。而这些，只要不触碰无证酒驾为年检等底线，保险是理赔的。 翻车的司机日了狗了 和二楼一样，我还开到人家车旁边，提醒她打开后视镜[窃笑] 实线变道不是主要，关键是没有看后视镜，否则可以避免这场车祸。 今早也差点吃闷头了，我直行，她右转，她旁边还有飞机动车好几个，她都直接就把车插过来，从她车头走过看到傻比就知道看着自己转弯的方向。真想停车下来骂她一顿，大爷的， 罚得好广而告之 开大众的正常 所以后车也存在经验不足。像这种情况，看到这个车只要从静止开始出现往左打轮的苗头，我就第一时间减速！绝不打半点方向盘。要么停下来，要么直着撞上去。只要你躲他变道，翻车或者撞上旁边的车，责任都是你的了。没经验！！ 还落泪，则枪毙句 我是女司机，06年考出的驾照，至今驾龄8年，只在高架上没变道正常行驶下被后车追尾，后车全责。被扣过一次三分，开始开车时会快，但现在开车只求安全到目的地，一定要遵守交规。不开斗气车，不值得。 那有人在家和宠物狗用同一个碗，你管得着么？但是在公共场所啊，餐馆啊，你还不能反对么？就像3楼说的路口没车闯红灯的，至少人家观察了，确定不发生危险了才闯的，你可以说他不遵守规则，可以处罚，但是至少人家确保安全这一个目的了。设置规则不也正是为了确保安全的目的么？但是如果根本不观察肆意的闯红灯，不仅仅是对自己的不负责也是对他人的不负责。 女司机最恐怖的地方不是技术差，而是无视规则，逆行，实线变道，拐弯不让执行，分不清远近光。出了事还觉得自己没错。 老司机告诉你:遇到前车实线变道，一定不能打方向，踩刹车然后直接撞上去，这样能充分保证自己车的安全。<br>遇到车祸对方是女司机，第一时间要求交警查看其驾照和行驶证，80%的女司机都不带驾照。如果交警觉得损失不大，去快速处理中心，一定不要去。要求先出发违章再处理陪赏 路上见过后视镜收起来的 这个不能只说女司机，实线变道男司机更多，主要是人不守规矩 你都自己说女司机了还要求这么多？ 这个新闻在网易上海本地看过，下面评论几乎都是地域的，什么女司机的话题性都不如新上海人的优越感😂。 女司机方圆50米，寸草不生。 看后视镜了就能实线变道了？ 害人不浅 女司机交通法规意识薄弱甚至没有，车子真的不适合女人开，除了女汉子[大笑] 便宜她了 活该 你当变道是15°方向么？不少都是45°方向的。赞同的一点是直行加减速。但是不要猛踩刹车甚至一口气踩死刹车，到时候你没碰到别人都自个儿翻车了。即便你是刹车刹住了，你很难保证你的后车有足够的反应时间，所以减速撞击是最合理的选择，能避免撞击还是避免的好。100码的撞了90吗的，和70码的撞了40码的，哪一个效果更严重？ 不是所有女司机驾驶技术都很差，都无视交通规则的好吧 都已经造成翻车事故，应该以危险驾驶，危害公共安全罪刑拘就对了，应该给长长记性。这次也罚得太轻了 可能是习惯了，在家她就是规则。 这个女司机变道不看后视镜？不看地上的线吗？ 反复看了动图，翻车的司机下意识躲了她。很危险。如果不躲她直接撞上去，会安全些。 你这是本末倒置主次都分不清 带不带驾照，对事故根本没影响，有没有驾照才是关键。其次是遇到电瓶车，鉴定是不是机动车才是根本。而快速处理中心，就看你自己的时间是不是宝贵，耗不耗得起。 女司机的后视镜只在化妆的时候有用😄 被吓死了 最恐怖的，高速错过路口在快速道上停车！！！我真操 女司机，除了对自己脸保养上心，其他的啥时候用过心？ 我并不反对你说的，但是也提醒你靠右行驶。慢不是问题，高速上超车道稳定60的就不要上高速了。不发生事故不代表驾驶技术好，还有可能是没遇到驾驶技术烂，不遵守交规的。 女司机真的很可怕，马路是她家的，真的 还委屈了！没判刑就不错了。庆幸吧。傻女人 为什么大家都喷女司机，这个问题其实并不在于女司机的技术或者容易慌乱，男司机也有很多奇葩的；问题在于我认识的人中，男性一般对自己的驾驶技术有点B数，有几个直接放弃考驾照，因为他们觉得自己技术和意识太菜，不适合开车；然而很多女司机就不然了，自己啥技术水平心里都没点B数，非要逞能硬上，交通法都没看过就敢开车上路，这就是为什么大家都喷女司机的原因 哭你麻痹 是的是的，我看见一个，除了收起后视镜，直线还走进左转道。不知道她开了多远，居然还没有撞。 中环上怎么有辆卡车呢? 没人留意四号车道的黄牌集卡上高架？？？ 我那天右拐，刚好人行道绿灯，我停在那让行人，后面车拼命按喇叭，然后从我旁边穿过，一女的打开窗户骂我，我那个委屈啊，看到是个女的算了，不跟她计较 傻逼，没把她撞死真是可惜了。 罚的太轻了 和教练睡睡多睡几年 之前就被扣过那么多分，呵呵 拥堵就变道的都是垃圾！没素质的垃圾！潜意识里就没有遵守规则的习惯！ 差点把人家害死还好意思哭 果然女司机 这种人就不应该再开车了 能多扣一分！人家交警也想扣满她十二分让她赶紧从马路上滚蛋 女司机，神一样 我昨天在浙江天台隧道里看到大货车都敢随时实线变道到左面行驶，而且还超速，吓出我一身(▔㉨▔)汗 看也白看，根本不懂 怎么又有货车上中环了？ 枪毙 没车吧？不带驾照扣两分，有法律规定的 女司机不是技术不好，而是开车很自我，没有什么交规概念 实线还敢变道[喷水] 和带不带驾照有毛关系[微笑][微笑] 估计这女人都不清楚什么是实线吧 文中只扣了一分，为何？ 前几天我也遇到了类似的情况，不过我反应快一把方向让过去了。也是个女司机！ 这种傻逼有没有驾照都一样 果然是女司机，昨天新闻刚出就有网友说肯定是女司机！ 女司机最恐怖的地方不是技术差，而是无视规则，逆行，实线变道，拐弯不让执行，分不清远近光。出了事还觉得自己没错。 转向灯打了一下就同时变道了 这个处罚真是很轻了，从宽处理了 傻B 女司机变道没变错方向都万幸了还指望她看后视镜？ 你都自己说女司机了还要求这么多？ 又是女司机 我是女的，你得让着我…… 为了凑齐12分，把这条加上了，交规规定的。但不出事交警不会追究。 无论男司机女司机，很多车子变道根本不看后车什么位置什么速度，想怎么开就怎么开，以为后车一定能看见他，让他。 女司机 这个女司机变道不看后视镜？不看地上的线吗？ 好多女司机都是马路杀手，走在路上又慢，还看个手机。 半径五十米草木不生~珍爱生命远离女司机 现在上海扣满12分要重新路考，我估计这女司机麻烦了 现在带身份证就可以了 才扣7分啊 就这种司机一年120分都不够她扣的 有些人变道从不看后视镜，等着别人让，以为自己技术很高 遇到太多这样的女司机了，根本不看后视镜，想变道就变道，尤其在下闸道的时候，太特么吓人了 还委屈了！没判刑就不错了。庆幸吧。傻女人 太危险了 搽和毛线，应该12分，回炉再造 估计拿驾照没多久，而且很少开车。 满12分了看来这次可能出不来了 十个女司机九个边开边看手机 她們可能在看手機 没死已经很幸运了 不带驾照100元1分啊 不但不看标线，估计后视镜也没看，转向灯都没打。这样的女人适合驾车吗？简直是谋杀。 实线变道的该杀！说你们呢！实线变道的狗们！操！ 牛逼啊 脑子不知道在想什么！ 这种傻逼，罚轻了！ 有些人总想着别会帮她看着点 没车吧？不带驾照扣两分，有法律规定的 为啥不扣12分 你不知道她曾经成功变道多少次了，这次是意外 说的是事故 实线还敢变道[喷水] 这个明显是SB女！ 没有车，可以。 和带不带驾照有毛关系[微笑][微笑] 为什么我就是觉得很好笑呢？ 让速不让道，幸好戴了安全带 路上多了去了 都说下意识了 不仅仅女司机，来俺大肛西看看，没规则的遍地是。 女司机最恐怖的地方不是技术差，而是无视规则，逆行，实线变道，拐弯不让执行，分不清远近光。出了事还觉得自己没错。 反复看了动图，翻车的司机下意识躲了她。很危险。如果不躲她直接撞上去，会安全些。 小编，你傻啊，这是两滴幸福的眼泪：我他妈终于证明我是女司机了，好开心！ 这种人难道不应该吊销驾驶证吗 躲她再跟最左侧的车相撞，很危险，责任就复杂了 一楼意思是此次事故与驾照带否无关 你都自己说女司机了还要求这么多？ 拐弯、进出路口勇猛，正常行驶肉 基本不看后视镜的<br>被几个女司机贴着变道别过<br>他娘的 你的所有跟帖都是踩你的多 还有脸哭 遇上这种煞笔恨不得上去给他两脚，特码的以为道路是你家的啊，后视镜是摆设吗！ 这下知道宁停三分不抢一秒了吧[喷水] 不看，就看前面。 这个女司机变道不看后视镜？不看地上的线吗？ 这种交通意识，吊销驾照就不要再开车了，保险公司也不要给她上保险了，很难改，不要放、当马路杀手了 一看你就没开过车，实线变道不要太多。 实线变道，不打方向灯，不看倒后镜，转弯不让直行，这种女人真的别出来害人害己。 不带脑子 谁给她发的驾照？直接吊销结束她的驾驶前程 认识一个女司机，开车时候话特别多，而且到路口从来不看转向道，每次都硬挤。 女司机…… 深圳不用带驾驶证，啥事没有 唉！ 就算再怎么不守交通规则也好歹要打个转向灯吧，本来就是拥堵路段 这女人开车太随性了 这种傻逼有没有驾照有区别吗 危险 标题前三个字已经很说明问题了 尼玛，这么轻的处罚有个屁用 会中文不：因其在一个记分周期内累积记分达到12分，依法扣留其机动车驾驶证 实际驾龄与素质样样都没有还敢开车？ 恭喜啊，這下又少了個馬路殺手了 这女的挺漂亮的 还真是女司机啊 为什么不扣分！！应该扣36′ 无人伤亡真是万幸 同情 我滴天，驾照买的吗，直接从新考试 活该，处罚轻了 傻逼 没扣分恭喜你啊继续驾驶呗 实线变道[喷水]不带驾照[喷水]后车司机就不该躲啊[喷水] 妹子以后好好开车，对你好，对别人更好啊！ 没死人就好，不会开车别害别人 女司机会开车的真不多，大多数只会开，其余的都不很懂。我那同事远光近光灯都分不清 ",
        "Total": 2350,
        "Link": "http://comment.news.163.com/news2_bbs/D6K039KB0001899N.html",
        "Reply": 167
    },
    "Source": "Netease"
}