{
    "URL": "http://ent.163.com/17/1231/13/D706MSS500038FO9.html",
    "Article": "萧敬腾晒出过去吃雪糕，席地而坐的照片网易娱乐12月31日报道据台湾媒体报道，2017年进入尾声，即将迎接2018年到来，在各大社交网站上纷纷刮起18岁怀旧风潮。金曲歌王萧敬腾30日晚间跟风在脸书晒出18岁的稚嫩照片，回忆起12年前的自己，老萧骄傲的说：“谁没有18岁，那时候我就已经有弯刀一般的眉了。”只见他咬着雪糕，煞气的眼神霸气爆棚，让粉丝也跟着参与青春的学生时期。萧敬腾18岁咬着巧克力雪糕，随意蹲坐，还留起流行的刺蝟发型，双眼炯炯有神、斜视紧盯镜头不放，有稜有角、似笑非笑的表情霸气外露，他笑说：“谁没有18岁，当时的我就已经有那弯刀一样的眉了。高级脸也慢慢养成。”搞笑搭配歌词曝光稚嫩学生照，和现在的模样其实没有太大差别，顶多只是多了点青涩感。网友看到照片都大赞“从里到外的帅”、“从来没有看过有任何人能吃雪糕吃的那么帅”、“与生俱来的高级脸”等话，笑翻不少人，而这张嫩弟照不到一天时间就获得2万多个赞。本文来源：网易娱乐责任编辑：李彤_NK4455",
    "KeyWords": "萧敬腾,歌王,雪糕",
    "Source": "Netease",
    "Comment": {
        "Reply": 7,
        "Content": "这样就笑翻众人了 萧敬腾还是比较优质的艺人，谦虚。内敛 怎么感觉变脸了 这有什么好笑的？ 笑点太低了吗？ 跟现在完全不一样了，是瘦了？ 怎么只有一张图片？ 这样就笑翻众人了 萧敬腾还是比较优质的艺人，谦虚。内敛 怎么感觉变脸了 ",
        "Total": 28,
        "Link": "http://comment.ent.163.com/ent2_bbs/D706MSS500038FO9.html"
    },
    "PublishTime": "12/31/201713:57:13",
    "Title": "萧敬腾刺猬头旧照曝光 坐地啃雪糕拽相笑翻众人_网易娱乐"
}