{
    "Comment": {
        "Content": "",
        "Link": "http://comment.news.163.com/news2_bbs/D77DOOFR000187VE.html",
        "Reply": 0,
        "Total": 14
    },
    "KeyWords": "司法部,学历,法律服务所",
    "PublishTime": "01/03/201808:39:00",
    "Title": "司法部新规：基层法律服务工作者学历条件大幅提高_网易新闻",
    "Source": "Netease",
    "Article": "（原标题：司法部新规：申请基层法律服务工作者执业学历条件大幅提高！）司法部发布修订后的基层法律服务所和基层法律服务工作者管理办法申请基层法律服务工作者执业学历条件大幅提高司法部1月1日公布了修订后的《基层法律服务所管理办法》（司法部令第137号）和《基层法律服务工作者管理办法》（司法部令第138号）,两个办法自2018年2月1日起施行。修订后的《基层法律服务所管理办法》对基层法律服务所设立和组织形式作出了调整,删除了基层法律服务所设立的相关规定,规定了事业体制和普通合伙制两种组织形式，并对这两种组织形式的基层法律服务所应当具备的条件作出了明确规定。修订后的《基层法律服务工作者管理办法》完善了执业核准条件、执业核准程序。根据修订后的《基层法律服务工作者管理办法》，对申请基层法律服务工作者执业的学历要求比原《办法》规定的“具有高中或者中等专业以上的学历”有了较大提高。修订后的《基层法律服务工作者管理办法》规定，符合下列条件之一的人员可以申请基层法律服务工作者执业：一是具有法律职业资格；二是曾经取得过基层法律服务工作者执业资格；三是高等学校法律专业本科毕业，参加省级司法行政机关组织的考试合格，对参加考试人员的学历要求比原《基层法律服务工作者管理办法》规定的“具有高中或者中等专业以上的学历”有了较大提高。同时，修订后的《基层法律服务工作者管理办法》规定，各省、自治区、直辖市的自治县（旗），国务院审批确定的国家扶贫开发工作重点县，西部地区省、自治区、直辖市所辖县，可以将上述学历专业条件放宽为高等学校法律专业专科毕业，或者非法律专业本科毕业并具有法律专业知识。修订后的《基层法律服务工作者管理办法》对基层法律服务工作者诉讼代理执业区域作出有别于律师的规定：基层法律服务工作者代理民事、行政诉讼案件应当符合下列条件之一：一是至少有一方当事人的住所位于其执业的基层法律服务所所在的县级行政区划辖区或者直辖市的区（县）行政区划辖区内。二是案件由其执业的基层法律服务所所在的县级行政区划辖区或者直辖市的区（县）行政区划辖区内的基层人民法院审理，案件进入二审、审判监督程序的，可以继续接受原当事人委托，担任诉讼代理人。修订后的《基层法律服务工作者管理办法》还规定，省级司法行政机关根据本地实际，认为确有必要的，可以对基层法律服务工作者诉讼代理执业区域作出适当调整。本文来源：澎湃新闻责任编辑：苏泓珵_NBJ9980",
    "URL": "http://news.163.com/18/0103/09/D77DOOFR000187VE.html"
}