{
    "URL": "http://ent.163.com/17/1227/18/D6MDT0UP00038FO9.html",
    "Comment": {
        "Total": 113,
        "Reply": 18,
        "Link": "http://comment.ent.163.com/ent2_bbs/D6MDT0UP00038FO9.html",
        "Content": "天龙八部里的段正明 一路走好 一路走好 一路走好 为什么隔这么久才开追悼会 香港要排期 标题主谓错置，小编语文零分 一路走好 看不到了 一路走好 为什么隔这么久才开追悼会 一路走好 应为：资深演员江汉追思会将于本月30日举行。 一路走好 香港要排期 天龙八部里的段正明 我看成了李双江。。。 一路走好老艺术家 标题主谓错置，小编语文零分 我好喜欢这位艺术家 “楚汉骄雄”里面风度翩翩的项梁老将军。 铁拐李 菜🐔 应为：资深演员江汉追思会将于本月30日举行。 "
    },
    "Article": "网易娱乐12月27日报道据香港媒体报道，华南电影工作者联合会名誉顾问、著名演员江汉（姜永明）本月7日病逝，享年79岁。江汉的追思会将于12月30日在红磡世界殡仪馆举行，翌日出殡。江汉一生在电影、电视或舞台剧上演出过不少脍炙人口的角色，六十年代起踏足影坛，曾演出多部作品，如《火烧少林寺》、《雪山飞狐》、《巴士银》、《我来也》、《海燕》、《球国风云》等。1979年，他先后加入丽的电视及无线电视，演出过多部作品，包括《人在江湖》、《烈火雄心》、《冲上云霄》、《溏心风暴》、《仁心解码》和《回到三国》等。本文来源：网易娱乐责任编辑：陈恺_NK4686",
    "KeyWords": "追思会,演员,电视,江汉",
    "Source": "Netease",
    "Title": "资深演员江汉将于本月30日举行追思会_网易娱乐",
    "PublishTime": "12/27/201718:50:29"
}