{
    "PublishTime": "12/31/201711:03:49",
    "Comment": {
        "Total": 183,
        "Reply": 13,
        "Link": "http://comment.news.163.com/news2_bbs/D70B9E28000187VG.html",
        "Content": "20年后就可以不用坐牢了？ 当年已经刑事立案了，不存在追诉期20年的说法 为什么不劝解？根据对方家庭情况，民警根据受害者家庭情况判断，选择最大的利益。我觉得是合情合理的，24万对受害方应该算是一大笔钱。如果判刑啥都没有了。 哦！哦！哦！<br>都20年了也叫强大的攻势下，牛逼啊！！！ 20年追诉时效过了ok?不懂法就自己好好学学再来跟帖吧 肇事逃逸不是要追究刑事责任么？10年以上有期徒刑，难道刑事责任签了谅解书就不用追究责任？ 劝解？劝解？？劝解？？？<br>司法机构多次做被害人家属工作？？<br>真的是玩笑？？刑事案件附加民事索赔就劝解了？ 谅解成功不用坐牢了吗？真是有钱能使鬼推磨。 20年后就可以不用坐牢了？ 20年追诉时效过了ok?不懂法就自己好好学学再来跟帖吧 应严惩。和事老警察不合格。 哦！哦！哦！<br>都20年了也叫强大的攻势下，牛逼啊！！！ 这个已经失去胜诉权了，和解还真是最好的办法 肇事逃逸不是要追究刑事责任么？10年以上有期徒刑，难道刑事责任签了谅解书就不用追究责任？ 劝解？劝解？？劝解？？？<br>司法机构多次做被害人家属工作？？<br>真的是玩笑？？刑事案件附加民事索赔就劝解了？ 当年已经刑事立案了，不存在追诉期20年的说法 这是鼓励犯罪！ 为什么不劝解？根据对方家庭情况，民警根据受害者家庭情况判断，选择最大的利益。我觉得是合情合理的，24万对受害方应该算是一大笔钱。如果判刑啥都没有了。 法律尊严何在？ 前面几个跟贴的以及给点赞的，是不是都不明白什么叫追诉时效啊。。一群法盲。。 "
    },
    "Title": "男子撞死人潜逃20年后自首 警察劝解两家签谅解书_网易新闻",
    "Source": "Netease",
    "KeyWords": "肇事,逃逸,交警",
    "URL": "http://news.163.com/17/1231/15/D70B9E28000187VG.html",
    "Article": "（原标题：撞死人潜逃20年常德交警以情理法化解仇怨）双方签订谅解书。双方握手言和。红网时刻12月31日讯12月28日下午4时，因交通肇事逃逸结下怨仇20年的双方当事人家属，在常德津市交警和调解员等人的共同见证下握手言和，终于打开了双方仇恨的心结。受害人大女儿韩某利选择了谅解肇事逃逸司机何某，并签下了同意刑事和解的谅解书。1998年1月19日，一个逼近年关的暗夜，在津市李家铺利兴村路段，一场突如其来的车祸，令两个原本毫无牵扯的家庭从此结下了血海深仇。交通肇事司机何某因当时家境困难愚昧出逃，从此开始了近二十年提心吊胆、东躲西藏亡命他乡的非正常生活。而受害人韩某芳因故去世，留下了一个年近七旬的老母和一双十多岁的女儿，孤苦无依、饱受他人的冷眼和生活的折磨。韩某芳正值豆蔻年华的大女儿韩某利虽然连肇事逃逸司机长什么样都不知道，却毅然带着年幼2岁的妹妹，坚定地踏上了近二十年为母昭雪的辛酸路。津市交警也从未放弃追捕，2017年11月20日，在交警强大的攻势下，何某在家人的陪同下，到津市交警大队投案自首，并被刑事拘留，案件得以侦破。交警多次组织双方当事人进行调解。为了尽力弥补受害人家属韩某利姐妹俩和她年迈的外婆，身陷囹圄且身患糖尿病、高血压等多种疾病的何某依然委托妻子在短时间内，东挪西凑了24万元给韩某利作补偿。最后，经过交警多次于情于理于法的做工作，韩某利深知，冤家宜解不宜结，恩怨的折磨是相互的。多方权衡后，韩某利决定走出阴影，宽容地对待他人，也宽容地对待自己，当场签订了刑事谅解书，并与肇事逃逸司机何某的妻子胡某兰握手言和。本文来源：红网作者：覃正文刘一力责任编辑：李杭_BJS4645"
}