{
    "URL": "http://news.163.com/17/1227/15/D6M3A17F00018AOR.html",
    "Comment": {
        "Total": 9743,
        "Reply": 579,
        "Link": "http://comment.news.163.com/news2_bbs/D6M3A17F00018AOR.html",
        "Content": "去当兵的人渣其实比例很高 我就喜欢喷狗们以点带面，所以只能一辈子做喷狗。 唉，逝者安息。<br>其实一般出去跑步的身上只带运动手环or运动手表or手机，这也抢，只能说赌博中毒已深，脑子坏掉了，可惜这位跑友 也不全是 军人守护我们辛苦了，虽远必诛，我们的岁月静好来自你的默默承受，这点小事就算了吧，不就一个傻老娘们嘛 看看都什么智商的去当兵，抢个锻炼的能抢回15万来？这样智商的队伍能武桶台湾？ 傻狗，那都是他自己说的，人死了随他怎么说，死无对证为了减轻罪名，他什么都能说 那个被造谣的不知道出来没有😊 这只是凶手一面之词，谁知道当时情况是直接弄死还是他说的这个原因。 嗯，人家最可爱了 这和她性格有关，要强好胜害了她自己 我直接说吧:退伍的兵走上社会就是社会垃圾，因为思想不一样，跟在社会生活的普通人思想不一样。在部队里，领导会对他们说国家如何如何的好，结果退伍了，发现社会就是跟首长说的不一样，结果自己什么都不能干。久了，就堕落了，赌博，抢劫，嫖娼犯法的事。 你也是喷狗，替主子喷的喷狗 戒赌吧老哥各个都欠几十个，也没这么狠啊！ 赌博，你这杀人不见血的刀！ 喷子们不管，他们只要一个喷点，这是个退伍兵那就够了，在他们眼里所有的兵都是垃圾 也不全不是 如果不是被抢后克制不住气愤，高喊自己立即报警，也许将会是另外一个结局。愿灵魂得以安息！ 确实有点傻 人已死，无对证！难道退伍兵痞说的就是真话？也许它一照面就下了死手，后劫财！ 他没有想到被抢后的王某欣不服气，高声说要去报警抓他。<br>看到此处，我真有些恨其出声，何必呢，都已经走了……唉。 为什么要穿貂出去跑步？ 穿貂皮大衣去跑步也是醉了！ 我们单位有一转业干部，心胸狭窄，靠着人民给的权利，一天到晚整这个人整那个人，心理极度扭曲，现在人见人恨！ 犯罪分子都说对方激烈反抗什么的，为了量刑而已，谁被抢了不报警，就是一个穷凶极恶的人罢了 子弟兵们手上这些年就没沾过外国人的血 遇到劫匪要钱给钱要东西给东西，怎么这么想不开呢。 区区几个小钱要人性命，这样的歹徒应该凌迟处死 去当兵的有几个不是在家无所事事的混混 杀人越货都该斩立决！ 为什么要24小时后立案？这是谁规定的？脑子有病 原来是退役的可爱的人民子弟兵啊 这或许只是罪犯为自己的杀人动机开脱的一面之词。 实事求是的讲，大部分丘八都是一些父母老师都管不了的二流子。这些人的身影，常见于强拆现场。退役之后常见于各公共场所保安室。 原来是退役的人民子弟兵啊 没有死刑震慑，这种事会越来越多，那些主张取消死刑的，就是帮凶！ 不是造谣吗？造谣的人已经被拘留了啊 抢一个跑步的？？？我也是服了你了，就你这眼神，上了战场也是炮灰。你怎么不去夜总会伤呢？ 子弟兵嘛，专打自己人，你见过一场胜利的对外战争么？ 穿貂皮大衣去跑步也是醉了！ 部队怎么教育的 看看现在的小学生，只不过是基本洗脑教育，就能听见国歌在雨中敬礼。那些在专业洗脑基地出来的能有几个正常人?而且还是经过暴力武装的。看看那些暴力强拆的，难道都是普通人客串的?不干坏事的多，但是一部分干坏事足以说明问题 只是凶手事后一面之词，一楼智商堪忧。[疲惫] 唉，逝者安息。<br>其实一般出去跑步的身上只带运动手环or运动手表or手机，这也抢，只能说赌博中毒已深，脑子坏掉了，可惜这位跑友 哎！一个弱女子，家中还有小孩，被抢就被抢，何必呢 喷子里面都是好人? 之前还一群傻逼喷子非说不是为财杀人 傻狗，那都是他自己说的，人死了随他怎么说，死无对证为了减轻罪名，他什么都能说 那个被抓的造谣的现在怎么处理的？？？？？？？ 嗯，人家最可爱了 闭嘴吧喷子老子抗洪的时候你还在包尿布吧？ 新闻里有说这个被害人性格要强，我想和这个有一定关系 退伍补贴15万？ 説實話當兵的卻是素質都比較差，公司裏招的新員工，屬退伍當兵的素質最差，自以為是，目中無人，沒禮貌，沒教養，就是這羣人，大家都很煩，不過沒辦法，這是政治要求，集團有一部分名額必須給退伍兵。 没有死刑震慑，这种事会越来越多，那些主张取消死刑的，就是帮凶！ 如果不是被抢后克制不住气愤，高喊自己立即报警，也许将会是另外一个结局。愿灵魂得以安息！ 人已死，无对证！难道退伍兵痞说的就是真话？也许它一照面就下了死手，后劫财！ 前几年，有几个身才高大拿大剪刀准备减我单车钥匙，刚刚我走过去看到。可是我不敢吱声，别人还笑话我。 哎呦呦，当兵的啊 新闻说你就信了?而且是罪犯说的 讲理，是要靠背后的战斗力做保证的。没有强大的战力做保证，你上前理论什么。补充一点：手枪可拉平战力，使人人平等。 这女的是不是蠢，本来别人都走了，你还非要过过嘴瘾，结果就把命丢了撒，我们这里也有个一模一样的案子，也是一个女的走夜路被抢劫，抢了50块钱，本来别人就准备这么走了，结果这女的说看清楚他的脸了，要报警，然后就被弄死了丢桥下面去了 区区几个小钱要人性命，这样的歹徒应该凌迟处死 关键时刻，摄像头总坏！ 遇到这样的事，又在偏僻地方，还是保持沉默好 女的是为了身外之物，连命都不要了。可惜了。 我觉得你也是蠢货 学学丁义珍副市长 哈哈，再次验证了好男不当兵的铁律。 部队怎么教育的 怎么教育？入伍班长先问谁是城市兵谁是农村兵！然后呢？再接着跟大家说，中队大家身上就不要放现金了。统一由班长保管，需要花的时候找班长拿（你敢去问他拿？）然后尼玛b的洗衣服袜子内裤，倒水叠被打扫卫生。不灵光的城市小朋友还要被敲竹杆，不乖巧的农村小朋友要被当狗使唤！一切一切历历在目！都是真实的！ 24小时过后一切尘埃落定 高喊就不必了，但默默报警是必须的，且要快~~ 看看现在的小学生，只不过是基本洗脑教育，就能听见国歌在雨中敬礼。那些在专业洗脑基地出来的能有几个正常人?而且还是经过暴力武装的。看看那些暴力强拆的，难道都是普通人客串的?不干坏事的多，但是一部分干坏事足以说明问题 这大溶炉也太烤人了。 戒赌吧老哥？ 在部队嗜赌？ 这叫不理智。 赌博害人不浅啊 人死了都由他说了，不太可信 15日凌晨2时，依然找寻无果之后，王家到人民西路派出所报警，但警方表示成人失踪需要24小时之后才能立案。<br>16日凌晨零时20分，人民西路派出所介入调查。由于女教师跑步失踪案在乐山整个市区传得沸沸扬扬，引起乐山警方重视。<br><br><br>呵呵 这种怎么逮住的呀，好奇怪 所以你智商比王健林都高？ 不是说造谣吗？ 由于女教师跑步失踪案在乐山整个市区传得沸沸扬扬，引起乐山警方重视。 确实有点傻 二楼真相了 只可智取，不可力敌啊 杀人偿命 都动动脑子好不，一个第一次打劫的会在得手跑路后转头回去杀人？跑特么还来不及呢。这货明显就是在抢夺时就把人给杀了，为了减轻罪责故意编的。 而且是刚刚退伍的。。。很多都是痞子 你智障，文章都说了人家性格要强 现在的小学生也没你说得那么不堪。关键看遇到什么样的老师。在别的老师灌输学生们仇日思想时，我女儿的班主任给她们介绍宫奇峻的《天空之城》。 最可爱的人！ 我身边当兵的孩子基本上都是上学不行，家里人没办法送去当兵的。实话实说，勿喷。[疲惫] 很中国！既不是第一个也绝不是最后一个！ 原来是退役的人民子弟兵啊 只要警察重视还真没几个能跑的 我曾经遇到过抢劫，手机，钱都抢走了，我没有喊，是以为害怕， 说个那就能减轻罪名了？奸杀和强劫杀人不少被害者就是因为大声呼喊才让歹徒起了杀心。什么时候命都是第一位。 当兵的 不具体分析情况，一律一刀切，国情[疲惫] 我们不是全世界最幸福的国家吗？怎么会发生这种事情？美的天天枪击案，到底死了几个？我觉得不拿数据说话得都是在耍流氓。中国人口多少，每年发生多少恶性案件，没报案的也要算进去。美的人口多少，每年发生多少恶性案件。拿出来数据比一比才能知道谁更安全啊。但是我知道一件事情，我们家一共六层，从楼下到楼上，全都有防盗窗，跟鸽子笼子一样，如果发生火宅没跑出来的话，跳楼都没条件。 赌徒跟吸毒的，这两类人是没有灵魂的行尸走肉。 唉，逝者安息。<br>其实一般出去跑步的身上只带运动手环or运动手表or手机，这也抢，只能说赌博中毒已深，脑子坏掉了，可惜这位跑友 夜跑还要穿皮草，一个人的时候还是尽量穿破点，避免让人动坏心思 肯定是没有把被子叠好 抓起来没什么不对的，他说奸杀 嗯呢！保持沉默，人活着就好！不过万一没喊，完了再报警，我估计案子破不了…… 呵呵 傻狗，那都是他自己说的，人死了随他怎么说，死无对证为了减轻罪名，他什么都能说 至少可以活啊...哎活着什么都好 人民纸弟兵，不科学啊😔😏 呵呵，现在当兵的什么样大家都懂。 嗯，人家最可爱了 是的，所以老祖先们总结的识时务者为俊杰没错。不是任何时候都要逞英雄的 几年前没有查部队腐败的时候，部队大部分当兵的吃喝嫖赌还有打群架习惯，现在好多了！ 脑子不太灵光的就是所谓适合部队的人千万别呆时间太长了，回到社会真的跟不上，更容易走极端！ 丢退伍军人的脸！！！ 被抢记住歹徒样子然后报警。反抗会很危险的，毕竟是一个女人呀 如果不是被抢后克制不住气愤，高喊自己立即报警，也许将会是另外一个结局。愿灵魂得以安息！ 而且天天跑步对膝盖也不好 好大学里国防生不少 欠款不代表生活过得差，我还欠马云十万呢，照样高枕无忧。 少数民族 遇到这种事别激怒歹徒，把命留着比什么都强。还有，部队怎么教育出这种人渣 我不相信仅仅是为了劫财 当兵的都是农村的家里还管不住当兵去吧能上好大学的没人去当兵 女人夜跑都是装逼的 没有死刑震慑，这种事会越来越多，那些主张取消死刑的，就是帮凶！ 部队出来的人比较单纯容易被骗钱赌博 然后呢？你故意往曾经职业上引，然后你心里就舒服了？ 部队的政治教育不够彻底 穿貂皮大衣去跑步也是醉了！ 高喊就不必了，但默默报警是必须的，且要快~~ 退伍解放军干的？ 我记得之前有新闻说没找到之前有人传这女的死的老惨了被抓起来说造谣。。。 部队是个大熔炉。 不管说没说<br>讲讲这个死者没有注意安全是肯定的，这个天气，六点基本上就天黑了，又冷，又刚好都是搬走了人少的地方，看照片，说是山高林密都可以说的上了。<br>很多女的，真是一点警觉性都没有 跑步为什么要穿貂？被抢了后，为什么非要激怒劫匪呢？ 可以说洗脑基地出来的没几个有独立思考能力的！我所有接触过的都是 现在正常人谁没点贷款，活着的情况下人家正常工作很轻松还了！ 14号19点走失，16号凌晨看见朋友圈把事情搞大了，于是17号开始干活，支持威武有希望了！ 15日凌晨2时，依然找寻无果之后，王家到人民西路派出所报警，但警方表示成人失踪需要24小时之后才能立案。 我哦你说24小时 去抢当官的啊，他们还不敢报案。 喷子里面没坏人吗? 部队能教育什么？个个戾气重，性格强硬 15日凌晨2时，依然找寻无果之后，王家到人民西路派出所报警，但警方表示成人失踪需要24小时之后才能立案。<br>16日凌晨零时20分，人民西路派出所介入调查。由于女教师跑步失踪案在乐山整个市区传得沸沸扬扬，引起乐山警方重视。<br><br><br>呵呵 确实有点傻 原来是退役的人民子弟兵啊 此女太要强，不然不会死 大家记住，赌，和，毒，千万不要碰 当兵政审咋过的啊？ 当时不要和歹徒犟，保护自己最重要。唉！ 我也记着有这事，说奸杀，尸体找到凶手被抓，造谣者被抓拘留好几天 我曾经遇到过抢劫，手机，钱都抢走了，我没有喊，是以为害怕， 目前的研究表明、<br>死刑与犯不犯罪没什么关系、更没有帮凶这一说法 部队怎么教育的 给自己脱罪找的借口而已，事实是什么只有他知道 林子大了，什么鸟都有，部队没有错。 被抢了，赶紧跑到有人地方再报警 退伍费不少啊 抢钱抢跑步的？真日了鬼了 刚看一个湖南杀环卫工的，怎么都这么暴虐，杀人犯是永远消灭不净的 赌博，是在部队学会的，新兵下了连队后，那群当兵的就喜欢赌博！我讨厌当兵的！尤其喜欢赌博的军人！垃圾！ 不高兴花纳税人的钱养着一帮吃干饭的 看照片应该是个美女，白瞎了 我想问部队可以每晚玩电脑吗？ 嗯，人家最可爱了 基本上都是这样的货！ 为什么要24小时后立案？这是谁规定的？脑子有病 估计是这女的要强不服气，让男的又返回想强奸她（女友出走了），剧烈反抗就只有你死我活了，结果是两个都死！这也是这两个人的命吧！ 唉，逝者安息。<br>其实一般出去跑步的身上只带运动手环or运动手表or手机，这也抢，只能说赌博中毒已深，脑子坏掉了，可惜这位跑友 确实，染上赌博的人真的很疯的，没得救！输了想着下一回我会赢的，结果赢的还没上一回输得多，搞来搞去输的越来越多！ 如果不是被抢后克制不住气愤，高喊自己立即报警，也许将会是另外一个结局。愿灵魂得以安息！ 可以判几百年让他永远坐牢，还可以发配边疆做苦力。 抢一个跑步的？？？我也是服了你了，就你这眼神，上了战场也是炮灰。你怎么不去夜总会伤呢？ 洋大人丢个自行车分分钟给你找回来 唉～可惜了… 不能黑，小心 部队教育没有错，错在赌博中毒太深。也许1楼真的没见过赌徒是什么样的。。他可以六亲不认，甚至丧尸做人最基本的本性 仿皮的吧 可惜你没 哪个行业没几个垃圾？ 人民军队人民爱，人民军队爱人民 没有死刑震慑，这种事会越来越多，那些主张取消死刑的，就是帮凶！ 照你这话讲，九年义务怎么交易的？ 失踪24小时后才能立案这规矩能改改灵活点吗 真是丢人现眼！在部队白混了 [疲惫]也是醉了，部队教育几年？照你这意思，是不是也可以统一概括，九年义务交易出来的也是XX？全国杀人犯多了去了，找个和你一个样的同类也轻松多了。 穿貂皮大衣去跑步也是醉了！ 杀人偿命，留着浪费粮食 看看现在的小学生，只不过是基本洗脑教育，就能听见国歌在雨中敬礼。那些在专业洗脑基地出来的能有几个正常人?而且还是经过暴力武装的。看看那些暴力强拆的，难道都是普通人客串的?不干坏事的多，但是一部分干坏事足以说明问题 去当兵的人渣其实比例很高 你们不可以自己组织吗？可以组建乐队什么的 保护好自己，生命最重要，在不利于自己的情况下要克制自己的情绪。 不会等他走远了再报警啊 畜牲啊 有免死金牌，没事 部队怎么教育的 你说得对 这波新闻真污点，好丢人[大哭][大哭][大哭][大哭] 脑子是个好东西 估计劫匪提出劫色！ 可恶 无脑货，劫匪讲话你也信？劫匪说：他转身走十多米远，那女子后头大喊她要去报警。这种话也就你会相信！ 是小编瞎编的吧，怎么会有凶杀案呢？中国可是世界上最安全的国家 反正得要怪女的，不能怪退伍[窃笑] 想的美，看你在那了，机关有，到一线，肯定没有，就是打牌 学校社区村长领导不来认领了？？ 那兵早就归还给人民了，他是民，网易垃圾何其多，混淆视听最能说！ 欠十几万的账，还家境好呢 我直接说吧:退伍的兵走上社会就是社会垃圾，因为思想不一样，跟在社会生活的普通人思想不一样。在部队里，领导会对他们说国家如何如何的好，结果退伍了，发现社会就是跟首长说的不一样，结果自己什么都不能干。久了，就堕落了，赌博，抢劫，嫖娼犯法的事。 万一遇到脑袋一热就玩失踪的人，那公安不得累死…我身边就有一生气就失踪的朋友，最长的时间消失3个月，家人都快疯了，父母直接进了医院…结果呢？三个月晃晃悠悠的回来，轻描淡写的一句去外地朋友家散心了…这种情况又怎么办？这种人很多的，不过我记得失踪好像是48小时才立案的吧？确实不好说，万一遇到什么危险，时间就是生命啊… 朋友圈害死人啊 部队里其实人渣不少！！ 原来是退役的人民子弟兵啊 就跟打游戏似的，输了就想赢，然而游戏又总是很难，不过打游戏会控制自己不要花钱 高喊就不必了，但默默报警是必须的，且要快~~ 这种歹徒，放过了这个，又怎么可能放过下个，无非是另外一个家庭破碎而已 遇到劫匪要钱给钱要东西给东西，怎么这么想不开呢。 多少隐患都是出事后才引起警方的重视真可悲 太同意了，中国未来也许可以取消死刑，但现阶段绝对不行 没吃过亏的人。 唉，逝者安息。<br>其实一般出去跑步的身上只带运动手环or运动手表or手机，这也抢，只能说赌博中毒已深，脑子坏掉了，可惜这位跑友 赌博，是在部队学会的，新兵下了连队后，那群当兵的就喜欢赌博！我讨厌当兵的！尤其喜欢赌博的军人！垃圾！ 应该是属于没吃过亏的那种人！ 估计劫匪提出劫色！ 求你别再黑了[微笑][微笑][微笑] 赌博，你这杀人不见血的刀！ 我也沾染了。但是我庆幸的是我自己尚未泯灭的人性让我挣扎出来了。输得只是辛苦一年的时光。人生走错了路。但是我想趁着天没黑。能走回去。 是不是嫌劫匪不劫色呢？？？ 原来少数民族的退伍有那么多钱的啊？我的同学回来才几万，不知道是跟服役期多久有关系的吗？ 你就不会等他走了再报警，何必要这么逞强！命才最重要！愿安息，天堂没有伤害！！ 女教师的职业是成人教育招生的！！！ 这女的也有点作死，劫道的听要报警能不灭口嘛 有时候的确需要点智慧 如果不是被抢后克制不住气愤，高喊自己立即报警，也许将会是另外一个结局。愿灵魂得以安息！ 被人抢劫一般不要反抗了抢就抢吧反正身上也没几个值钱的抢完了该走就走还喊什么报警回家再报警不行？ 现在女的都他么自以为是，其实在别人眼里屁都不是，一个女人和一个男人争什么？单亲就可以看出这女的有一点争强好胜。女权古装电视剧少看一点，不是女的都是武则天。 部队教育没有错，错在赌博中毒太深。也许1楼真的没见过赌徒是什么样的。。他可以六亲不认，甚至丧尸做人最基本的本性 不该穿貂皮大衣去跑步，肯定以为有钱人 军人守护我们辛苦了，虽远必诛，我们的岁月静好来自你的默默承受，这点小事就算了吧，不就一个傻老娘们嘛 很奇怪么？ 不知道什么性质叫赌博，打二十的麻将输赢一场两三千，打金花输赢一场一万左右。 部队培养出来的人才连一点素养都没有即使是犯罪也这么无脑低级垃圾 没有死刑震慑，这种事会越来越多，那些主张取消死刑的，就是帮凶！ 这个女人也太要强了，本来可以活命的，非要逞能，在这种情况下一定要自己安全了再做打算！ 退伍兵，不奇怪。我身边就有。 被杀也怪自己。本来抢劫的人本性就暴躁，破财消灾而已。。喊什么报警，找死。。。。跑回家再报警不行？人要学会随机应变。能伸能屈。。。社会二愣子多。别把自己害了 那视频我也看了<br>女人没死<br>植物人了。说实话真是有钱没命花。人家都敢担着几年刑期的危险去抢劫。难道人家就不敢捅你两刀吗。这也不是打架你靠横就能虎住对方的。所以说遇到打劫的。如果你没能力干过他。就当运气不好丢钱得了。 不一样，就跟工作一样越是艰苦越是很少人干就只能工资开得比别人高。这个当兵的估计去很远，很偏避且环境气候不好的地方当兵。 赌场到处都是，买彩票都可以玩到倾家荡产。<br>但是你我并没有成为赌徒。懂了？ 谁能科普一下15万退伍补助金的构成 看看这个鸟人干的这件事情 扯淡，现在没死刑？ 才当五年兵退伍补助就十五万，国家真有钱 半年多时间就将15万元退伍补助金挥霍一空。 她还说了句，我老公是警察 有次晚上我被人东西顶着，我一句话不说直接拿钱给他，不废话。有时还是命重要 那个失踪不到24小时不准立案是真事啊？不是有辟谣说是假的吗？ 姑娘太要强了，可惜了。 傻逼，看文章没，是这女的自己多嘴 既然被抢了。那么就不要激怒罪犯！<br>回到家中再报警也行！<br><br>上次看了一个新闻监控，一个持枪抢劫的罪犯再银行ATM机那里抢一个女子的钱，女子不给钱，大声说：有本事你打死我吧。（这个监控有声音的）结果罪犯真的开枪打再她脑袋上。只听到女的大叫一声，直接倒地。罪犯跑了。。。 可怜的家人 现在抢劫还能抢到钱吗？ 确实有点傻 穿貂皮衣服去跑步? “他没有想到被抢后的王某欣不服气，高声说要去报警抓他！”这女人🉐🈶多傻呀！ 没办法 遇到劫匪要钱给钱要东西给东西，怎么这么想不开呢。 看看都什么智商的去当兵，抢个锻炼的能抢回15万来？这样智商的队伍能武桶台湾？ 部队怎么教育的 还武统台湾？有点智商行不 我们单位有一转业干部，心胸狭窄，靠着人民给的权利，一天到晚整这个人整那个人，心理极度扭曲，现在人见人恨！ 楼上尼玛了隔壁 原来是退役的人民子弟兵啊 真是太傻了，还当着那人说这句话，简直是一点安全意识都没有。 嗯，人家最可爱了 此人是转业的，做事很，毒。 难道没人注意点到他19岁当兵几年时间退伍费就有15万？少数民族的我朋友当兵几年才3万汉人 很傻 离开了部队，变成了一头恶狼~ 三万也不少了，管吃管住还教你本领，还给你三万，不到两年兵 主张取消的是行贿受贿的死刑！ 借款十几万装修房子的。还想做什么除甲醛生意这种人不傻也难怪了 智商是个好东西，有时能救自已的命，走出10米，你喊个屁，记住相貌特征就行 凶手新搬到乐山不久，就赌博，可能是遇到团伙，被套进去了 你也是喷狗，替主子喷的喷狗 年轻时和叔叔在深圳坪山找工作，有一个晚上坐在工厂对面的小山玩，十点左右被打劫，被绑好搜身，不敢反抗，劫匪走后手上绳子没解连滚带爬跑回来，想想命真大啊。 赌博，你这杀人不见血的刀！ 嫌犯是马边的，怕不是彝胞哦，难怪家属要求死刑，当过兵又是少数民族，死刑有点困难[微笑] 嗯，人家最可爱了 被子肯定叠的好 进入组织时，你是英雄好汉，离开了组织，你连屁都不是。 闭肛 当了兵的回来有一大半都懒成狗，要是家里没钱的，回来根本不知道做什么，还不是去打工。 女教师这智商。我们出国前反恐培训，教官告诉我们如果有抢劫的，把身上的钱包手表手机都拿出来给对方 如果不是被抢后克制不住气愤，高喊自己立即报警，也许将会是另外一个结局。愿灵魂得以安息！ 失踪24小时才立案的规定是警察的严重渎职！ 对上一副嘴脸。对以前得罪过他的人，现在都遭罪了。 这女的也是，安全意识太差了，还有，夜跑并不适合女人！！！ 出门一定要注意安全 确实 去当兵的有几个不是在家无所事事的混混 你既没上好大学，也没当兵，我也没见你混的有多么灯光。 死者为大我本来不该多说但是这种情况大多数人哪会像他这样 一般的当兵的肯定是脑子稍微偏弱的，你念书那么好，或者平常成绩初中毕业去当兵？ 全世界都这样。<br>不然20分钟也立案？是不是以为警察一天到晚就坐着喝茶？就这件事来看一个小时和一百小时立案有什么区别？ 我以前等公交车，一直都满座，当时年轻23岁，刚出来工作，因为下班时间，的士很少，也不舍得打，一部白色面包车路过，我看到是那种黑车，车副驾是一个老太婆，中间2个女的，后面2个男的。公交车2块钱，它收5块，因为就几公里路程，我就坐了。结果原来是打劫的，一个是幸好我没钱，二个是我被按住的时候，说了你们出来求财，我钱也不多，就手机，银行卡没钱，钱包几百块，我说找个没人的地方放我下来，我的东西就当今天掉了，我不报警。后面那车的人找个菜地放我下来，还把我的零钱20来块给了我。就当买了个经验，现在出社会比古惑仔还精 赶紧回家，把华为卖了买一盒减肥茶漱漱口，要抓紧这是病，得治 不当兵就变匪，难怪古时候一直流传兵匪兵匪的。 大家都是从学校毕业过来的，想想那时候会读书的都想做律师，医生，教师，工程师，程序员之类的哪个理想会想去当兵？有后门靠关系的都想进国企，事业单位，公务员，有稳定的收入和未来的安逸保障，哪个理想是去当兵？有想法脑袋的都是开小店，保险金融跑业务提成，进货开网店之类的，哪个会想跑去当兵？最后剩下毕业后当兵的是什么人就可想而知了。 确实不够机智，学会自救。有句话好汉不吃眼前亏，在歹徒面前要么服软要么机智自救 可悲可叹 15日凌晨2时，依然找寻无果之后，王家到人民西路派出所报警，但警方表示成人失踪需要24小时之后才能立案。<br><br>呵呵 斩杀！ 这样说智商好管啊！执行命令不打折扣。对内足够了。 跑步能带钱去跑？这种人还参军？傻逼一个，枪毙。 说得有道理，最怕那些人有案底的，还是认孙子配合吧， 就像陈翔六点半的女主，被醉鬼杀了。有时候碰到傻逼，就躲的远远的，因为傻逼干什么事都是傻逼行为，就像蟑螂，打它弄一手脏，自己还恶心好久，还不如躲的远远的，让傻逼安静的走开！ 青岛房东被杀死没信息尼咋 女人碰到这事保命要紧，这都说过多少次了，别激怒或者让歹徒觉得有威胁，很多都是临时起意杀人。开始应该就是抢点钱而已！ 嗯！所以说呀出门不要带太多钱银行卡也别带最主要的嘴别说狠话！像这个一句话二条命 是人的问题不是赌的问题，<br>赌场到处都是。彩票站会阻止你几千几万的买刮刮乐？<br>可是你赌了么？我赌了么？ 一定得死刑，这种垃圾就应该早点从地球上消失！ 确实有点傻 再BB，叠个豆腐被子秀死你。 你这话中有话啊 很多悲剧的背后都有赌博的影子……… 在当今社会里，老百姓随时都有丢掉小命的危险！ 吃喝嫖赌抽，后两个不能粘 中国不是治安好的让老外羡慕不已吗？ 好多人，尤其是女人，蛮横惯了，总觉得别人不敢把自己怎么样，碰到真敢下手的，就后悔了。估计道理她也知道，只是习惯了。 看看都什么智商的去当兵，抢个锻炼的能抢回15万来？这样智商的队伍能武桶台湾？ 李某介绍？犯罪手段当事迹？小编咋搞的。 它们优先就好，，就靠它们了。 她是老师，也没多少钱，何必呢 原来是退役的人民子弟兵啊 好男不当兵 我有两次目睹当兵的欧打百姓，那个惨，我见兵有意无意地避开点。 只要你服从就行何来教育？ 部队怎么教育的 "
    },
    "Article": "（原标题：调查：乐山女教师公园跑步之死）遇害的女教师王某欣（化名）。12月22日，四川乐山市警方发布消息，称在公园跑步离奇失踪7天的女教师遇害案告破，涉嫌抢劫杀人的凶手李某被警方抓获。上游新闻记者在乐山调查案件时发现，行凶的犯罪嫌疑人李某刚退伍不久，因嗜赌半年输光15万元准备用于结婚的退伍补助金，于是铤而走险踏上抢劫之路，碰巧遭遇孤身在公园跑步的女教师王某欣。一个是31岁热爱跑步健身的单亲妈妈，一个是嗜赌如命输光未来的24岁退伍兵，双方在一个没有人的公园里完成了一次致命的邂逅。女教师最后的一条朋友圈“宝贝，妈妈出去跑一圈就回来，你和奶奶乖乖在家看电视。”12月14日下午5时35分，眼看天色渐晚，31岁的王某欣向6岁的女儿打了一声招呼，就出门跑步了。在厨房洗碗的母亲范建英看见女儿出门时，上身穿棕黑色貂皮外套，下身穿青色短裙和黑色紧身裤，脚上一双白底运动鞋，手里拿着手机和耳机线。“她出门跑步随身都不会带钱。”自从一年多以前搬到七星海棠小区之后，王某欣养成了几乎每天出去跑步健身的习惯。七星海棠小区位于乐山市中区人民西路，小区的背后几百米就是植被茂密号称是城市肺叶的绿心城市公园。王某欣这次出门后再也没有回来。死者在朋友圈发的最后一条信息。从家门口出来之后，王某欣顺着大门向左，跑过一段30米的门前公路，然后再向左拐，就进入大丛林巷，巷子弯弯曲曲，路面只有4米宽，两车交错必须停车让行。沿着巷子跑300米，就进入了绿心公园环线的入口。绿心公园面积超过10平方公里，四周修建了一条长达10多公里长的环线步道，供周围的居民跑步和骑车健身。为了保留原始森林公园的原貌，公园里只修了一条从东北延伸向西南的双向四车道过境公路绿心路，将绿心公园截成一大一小两个半圆。王某欣经常跑步的就是被绿心路截断的东南角小半圆。王某欣的堂哥谭俊琪说，妹妹在绿心公园长期跑步的线路是进入东南入口之后，就向西南方向慢跑，沿途会经过一碗水、塘湾和桥儿洞三个小地名，然后在快接近绿心公路时掉头原路往回走，线路单程3公里左右。谭俊琪说，下午6：19，当地天已经开始慢慢黑了，王某欣一边慢跑，一边在微信上发了一条配图的朋友圈，“是我来得太早，还是雨纷飞就没有人走路了”，配图是一张黄昏时候的跑道；4分钟后，她在这条信息下回复“我已经走了半圈，雨下大了只能跑回去。”自此之后，她再无消息。晚上7时许，早已超过了女儿应该返回的时间，范建英给女儿打电话，结果关机。随后拨打多次，电话一直无法拨通。而给女儿的朋友们打电话，也均无结果，一种不详的预感顿时涌上家人的心头。“妈妈去外地出差了”15日凌晨2时，依然找寻无果之后，王家到人民西路派出所报警，但警方表示成人失踪需要24小时之后才能立案。通过调取沿途监控录像，王家发现王某欣在当天下午5：41离开七星海棠小区大门，10分钟后，从绿心公园大门入园，由于绿心公园多个监控镜头损坏，最后只看到王某欣在6：23从塘湾附近经过，此后再无踪迹。15日，焦急如焚的王某欣家人和朋友除了到处在网上发寻人信息外，也开始自发组织起来到绿心公园寻人。下午3时许，王某欣的家人和朋友30多人来到绿心公园，沿着她曾经的跑步线路四处寻找，但依然没有任何踪迹。此时，王某欣的家人们已经陷入绝望。6岁的女儿一直哭喊着要找妈妈，范建英只能瞒着年幼的孙女，告诉她妈妈出外地出差了。为了防止消息走漏，家人专门给孩子班主任打招呼，让全班的家长都不要告诉孩子们真相。王某欣的母亲悲痛欲绝。女教师失联7天后警方抓获凶手16日凌晨零时20分，人民西路派出所介入调查。由于女教师跑步失踪案在乐山整个市区传得沸沸扬扬，引起乐山警方重视。乐山警方在12月17日开始组织数百民警携带10多条警犬，开始沿着王某欣跑步的线路进行搜山。但由于前两天下雨，公园面积太大，搜救效果并不理想，现场依然没有找到王某欣的任何踪迹。12月22日，当地警方突然通知王某欣的父亲王珉高，王某欣的遗体已经找到，抢劫杀人的凶手也已经抓获，让王家下午到乐山市殡仪馆来领取尸检通知书。在殡仪馆，王珉高终于看到了失踪7天的女儿，浑身伤痕累累，头部遭遇重创，额头右侧塌陷，疑遭遇钝物打击，同时牙齿多颗脱落，显然生前经过了激烈的反抗。王某欣手腕上的玉镯消失，连同跑步时听音乐的手机一并被歹徒抢走。赌博输红了眼的退伍军人虽然女教师失踪案传得沸沸扬扬，在中铁二十局乐山基地家属区摆鞋摊的老陈却亲眼目睹了凶手落网的一幕。12月21日下午3时许，他正在和一个补鞋的居民聊天，突然看到一大群人从小区里涌出，几名荷枪实弹的警察提着一个头上罩着头套的男子出来，然后押上了警车，呼啸而去。旁边围了一大群围观群众，大家这时才知道戴头套的男子是杀害女教师的嫌疑人李某。凶手李某租住的房屋阳台和客厅。嫌疑人所住的中铁二十局家属区距离王某欣住的七星海棠小区也不过四五百米，两个小区均背靠绿心公园，在一个路口分叉。在中铁20局家属区大门口，距离李某租住的民房不足200米，就是人民西路派出所，无论作案前后，李某只要出门，都必须从此经过。邻居们介绍，李某所租住的1-3号位于五六米高的堡坎之下，采光不好。防盗门上张贴着一张白色的封条，封条上写着人民西路派出所封，查封时间为12月21日。这栋房屋是两室两厅的结构，客厅摆了一个电视，客厅是简单的茶几和沙发，阳台上有一个梳妆台，阳台一侧晾晒有衣服，其中有多件是女人的内衣。隔壁邻居杨先生说，原来的房东廖先生因为嫌房屋受潮，在一年以前搬到几公里外的女儿家住，于是将房屋挂到网上出租。大概半年前，李某通过中介租了此房。通过交谈，房东了解到李某今年24岁，19岁参军，今年上半年退伍。老家是距离乐山市区83公里的马边彝族自治县。邻居们介绍，当时李某入住时还带来了女朋友，李某个子不高约一米六，皮肤黝黑，偶尔出门和邻居相遇，还打一声招呼。据房东介绍，李某计划先在乐山市区找份工作站住脚，边上班边按揭买一套房，然后结婚。但不久，邻居们发现这对小两口经常争吵，女友也随后离开，原因是因为李某沾上了赌博的恶习，半年多时间就将15万元退伍补助金挥霍一空。这笔钱，本来是李某的全部未来。女教师曾与劫匪激烈搏斗邻居们推测，在输光家底之后，李某情急之下走上了抢劫之路，结果没有想到在绿心公园与冒雨跑步的王杰欣相遇。12月25日，在绿心公园，多名清洁工一边在公厕边扎扫帚，一边向健身的市民闲聊案发地经过。李某落网后，很快向警方交代了作案的过程，并被警方带回案发现场指认，他很快交代了抛尸地点。有在公园里做清洁的清洁工目击了指认过程。李某介绍，在输光家底之后，他决定铤而走险，去小区背后的绿心公园抢点钱。12月14日下午，在王某欣出门跑步之前，李某就已经骑着摩托车早早进入了绿心公园守候。绿心公园里的1488户原住民被迁走后，方圆10平方公里的公园里就此没有了常住人口，变成了一个巨大的无人区。沿着步道周边，还有多条支路连接绿心公路，方便驾车逃跑，而茂密的植被也易于躲藏。当晚近6时40分左右，天色渐晚，还飘起了小雨，在塘湾附近守候多时的李某终于见到了一边听音乐一边往回走的王某欣。看见对方只是一名孤身女子，还穿有貂皮外套，李某猜想对方可能有钱，当即上前将其手机和玉镯抢走，由于事发突然，王某欣根本来不及反应。让李某失望的是，对方身上没有带钱。李某有些失望的转身准备逃离现场，走出不到10米，他没有想到被抢后的王某欣不服气，高声说要去报警抓他。李某顿时有些气急败坏，返身回来，将王某欣劫持进步道旁边的树林里，身高1.55米的王杰欣拼命反抗。经过十多分钟的激烈搏斗，力量更占优势的李某用石头将对方砸晕杀害。趁着夜色，李某沿着小路，将王某欣尸体运到距离绿心公路不远的一处竹林找了一个靠墙的排水沟，将上面的竹叶和浮土刨开，将王某欣丢进去，然后用泥土和竹叶勉强盖上，随即仓皇驾车上了绿心公路逃回家。12月25日，在谭俊琪带领下，上游新闻记者找到了埋尸的地点——一处距离小路不到3米的小竹林，上方20米就是车来车往的绿心路和一处公厕，该处距离案发地差不多有2公里，沿途会经过一个涵洞和多个已经变成断垣残壁的民居，周围荒无人烟。王某欣被埋的土坑。埋尸地点是一个靠墙挖的小坑，很浅，不到半米深，坑里摆放着家属送来祭奠的几支绿色康乃馨，旁边有几个橙色的橘子，以及几只燃得只剩把柄的红烛。家属希望严惩凶手以命还命12月26日，七星海棠小区门口，两个蓝色的帐篷搭在小区门口空地上，白色的挽联高挂在帐篷门口，几十个花圈沿着门口公路摆放了100多米远。灵堂里摆放着王某欣的遗像，灵堂里没有冰棺，因为王某欣遗体还在殡仪馆等待警方鉴定。56岁的范建英坐在灵堂前声音沙哑，神情已经有些恍惚，不时呼天抢地地号哭，但已经哭不出眼泪：“老天啊，你可不可以用我的命换我女儿的命啊！”王珉高说，自己老家在乐山五通桥附近，他和老伴的文化水平不高，妻子范建英最开始蹬三轮，后来两人在街道服装厂做缝纫工，历经艰辛将女儿抚养长大。女儿高中毕业后，被送入当地卫校读书，但毕业之后，她没有选择去当一名护士，而是自谋出路，到乐山一学院当了一名招生办老师，这一干就是9年。王珉高说，女儿是家中独女，性格外向要强不服输，家里大小事都自己做主，同时待人热情，朋友很多。服装厂十多年前倒闭，他们不得不靠女儿缴纳养老金。女儿结婚后，先后生有一女一子，2015年，因为感情不和，女儿与丈夫协议离婚，孙女跟了女儿，当时2岁多的孙子跟了父亲。财产分割时，女儿要了七星海棠的房子，王珉高老人说，当初就是考虑距离绿心公园近，空气好，宜居，没想到却让女儿在此遭遇生死劫，等来白发人送黑发人的人间悲剧。王某欣随后找朋友借了10多万进行装修，一家人在2016年11月搬进新居。在装修过程中，女儿发现预防装修过程中的甲醛等空气污染很重要，于是和几个朋友在工作之余成立了一个环保公司专门预防空气污染。作为家里顶梁柱，工作繁忙的王某欣开始通过抽空跑步来舒缓压力，没想到却遭遇生死劫杀。“家里还有10多万的债务未还，孙女才上小学一年级，未来怎的不知道怎么办？”对于凶手，王家希望予以严惩，“必须要他以命还命”。警方多措施填补真空绿心公园在乐山是在居民搬迁后打造的城市公园。据介绍，2017年，因为城市发展需要，绿心公园开始实施绿色生态整治工程，对绿心内1488户村民全部实施生态搬迁，目前完成了总进度的99.87%。死者曾经在公园的这条路上跑步。女教师王某欣在绿心公园跑步遇害案发生后，公园原居民生态搬迁后的“真空期”引起了乐山警方重视。据多家媒体报道，12月19日，乐山市公安局副局长、政治部主任姚平率队调研绿心公园治安防控工作。警方经过调研后，确定了6方面措施，加强治安防控，排查安全隐患。这些措施包括加强巡逻防控力度，增派警车警力，针对重点时间段以汽车巡、摩托车巡、徒步巡等多元化模式开展巡逻防控；对拆迁未倒房进行逐一清查，彻底消除各类不安全因素；组织发动社区人员、绿心公园管理处人员开展巡逻防控，严密治安防控网；加强对绿心环线监控探头和路灯亮化的梳理，做到重点路段、重点部位全覆盖、无盲点；联勤消防、森林公安、绿心公园管理处防火员，进行消防安全风险隐患大检查；加强对绿心内流浪犬只的管理，联合相关部门开展对绿心公园内流浪犬只的捕捉工作。乐山市市中区公安分局政工科工作人员告诉上游新闻记者，除了凶手李某被抓获，遇害者遗体找到外，该案件还在进一步侦办中。提醒：女性夜跑事故频发专家提醒应结伴而行上游新闻记者统计发现，近年来，随着跑步热在国内蔓延，越来越多的年轻人开始夜跑，但也由此带来很多安全事故。2014年，宁波一姑娘夜跑时被歹徒拖进草地强暴并被拍裸照；此前杭州一夜跑女孩被抢劫，成都一女孩在夜跑时也差点被强暴……2015年9月，合肥一名女孩独自夜跑时被歹徒盯上，遭到强暴，犯罪嫌疑人已被包河区检察院批准逮捕。2015年10月，陕西宝鸡一名女舞蹈老师夜跑时失踪，后证实遇害。安全专家提醒，女性夜跑应该尽量结伴而行，不要时间太晚，也不要跑偏僻的地段，如果遭遇抢劫等犯罪，一定要智斗，采取宁可舍财也要保命的原则，千万不可过于慌乱，大喊大叫，这样会激怒歹徒，很可能起杀意。本文来源：重庆晨报上游新闻责任编辑：张海桐_NN9053",
    "KeyWords": "跑步,夜跑,抢劫,女教师",
    "Source": "Netease",
    "Title": "女教师公园跑步被害 凶手刚退伍嗜赌如命输光15万_网易新闻",
    "PublishTime": "12/27/201715:45:18"
}