{
    "URL": "http://news.163.com/17/1228/17/D6ORV46L000187VE.html",
    "Comment": {
        "Reply": 14,
        "Content": "共享单车都是骗钱的货！！！ 是不是违停，被扣了信誉分，还欠费了 对，你们放余额宝的钱说没就没了，但放国有银行比如工行很安全，国家说了就算银行破产五十万额度之内的国家保证全赔 说你是傻逼，肯定会被顶。 我见过好多做鸡的，难道你妈也是做鸡的？ 第一，我不信摩拜差你这299，系统有问题不可以给点时间人家处理？<br>第二，保安和工作人员上前推拦的原因是什么？<br>第三，摔哪了，居然要赔1万多 sb没见到好多共享单车公司跑路了？一个人299一万人多少了？摩拜单车老板是你爹？ 金圆券也是国家信誉保证的!👍 理性发言：这种线上转账支付资金，怎么证明确定实现了，系统的记录可以修改或抹去。作为普通的用户，能提供什么实物证据之类的呢？就算是淘宝这样的公司，都值得怀疑，却又无从追究理清 小便要提醒摩拜该续费了[鄙视] 保安就是流氓的代名词！ 共享单车都是骗钱的货！！！ 对，你们放余额宝的钱说没就没了，但放国有银行比如工行很安全，国家说了就算银行破产五十万额度之内的国家保证全赔 说你是傻逼，肯定会被顶。 我见过好多做鸡的，难道你妈也是做鸡的？ 理性发言：这种线上转账支付资金，怎么证明确定实现了，系统的记录可以修改或抹去。作为普通的用户，能提供什么实物证据之类的呢？就算是淘宝这样的公司，都值得怀疑，却又无从追究理清 金圆券也是国家信誉保证的!👍 告共享单车欺诈。 是不是违停，被扣了信誉分，还欠费了 第一，我不信摩拜差你这299，系统有问题不可以给点时间人家处理？<br>第二，保安和工作人员上前推拦的原因是什么？<br>第三，摔哪了，居然要赔1万多 后台老板比较硬！ sb没见到好多共享单车公司跑路了？一个人299一万人多少了？摩拜单车老板是你爹？ 共享单车一出来，就知道肯定想吃掉按金啦，0．5元／小时怎能养得起这么高管啊，尽快把按金退出来吧 小便要提醒摩拜该续费了[鄙视] ",
        "Total": 209,
        "Link": "http://comment.news.163.com/news2_bbs/D6ORV46L000187VE.html"
    },
    "Title": "用户起诉摩拜:299元押金没退成 反遭推阻受伤_网易新闻",
    "Source": "Netease",
    "KeyWords": "原告,保安,共享单车,客服",
    "PublishTime": "12/28/201717:23:00",
    "Article": "（原标题：用户将摩拜告上法庭：称299元押金没退成，反遭推阻受伤）某共享单车用户称，其申请退还单车押金不成，还遭到公司保安推阻受伤。故该用户提起诉讼，要求摩拜公司退还单车押金299元，并赔偿因被保安推阻受伤产生的医药费、误工费等共计12300.59元。日前，北京海淀法院受理了此案。原告某共享单车用户诉称，其在摩拜单车手机APP中申请退还共享单车押金299元，摩拜公司却迟迟未予退还，其于8月31日联系摩拜客服，客服答复无权处理退款，将向上级反映，建议原告继续等待。挂断电话后半小时，原告发现摩拜APP中显示“你尚未缴纳押金”，而自己并未收到退款。此后其又多次联系客服，均答复无权处理押金事宜。原告于当日前往摩拜公司办公地址，要求退还押金，公司前台答复“有事拨打官方客服”。随后，多名保安和工作人员上前推拦，导致原告摔倒受伤。报警后，警察出警调取了监控摄像头录像，制作了笔录。直至起诉时，原告仍未收到押金退款。目前，该案正在进一步审理中。本文来源：澎湃新闻责任编辑：赵亚萍_NN9005"
}