{
    "Source": "Netease",
    "KeyWords": "外挂,游戏,非法,服务器",
    "URL": "http://tech.163.com/17/1225/07/D6G317PF00097U7R.html",
    "PublishTime": "12/25/201707:45:07",
    "Comment": {
        "Content": "说实话…这玩意还到不了要找国外开发者的程度， 当年偷菜种菜。真怀念。 那个在坟头拉屎的说你呢，过分了啊 说实话，角色扮演用就算了，竞技游戏还有就真的欠打了 新版本才更新没多久，排名靠前的全是外挂群，一抓一大把，支持 挂还不是内部的人搞出来的？而且就像地下城那个游戏，设计的不用外挂你就要话巨额金钱才能玩下去，TX的游戏挂最多了！！ 同意挂狗现在根本不敢开枪。 韩国棒子把中国人当傻逼，我们依然愿意玩这傻逼游戏 只有孤儿与残疾人才用外挂和鼠标宏 这话就不愿意听了，玩什么游戏个人所好，你不玩别骂人家玩的的人，素质不行啊 你好我是圣诞老人，我带了大量圣诞礼物来中国！可惜被海关扣了要交税，请给我转一万块钱，能我拿到礼物以后，送你一辆兰博基尼。 外挂门槛低…我只能呵呵 一名软件工程师告诉北青报记者，外挂软件的制作成本极低：“一方面，外挂软件只需要最基本的编程技术便可以制作出来，有些人通过自学就可以掌握相关的技术，门槛很低，让这沙壁在没源码的情况下逆向一下，门槛低？areyoukiddingme？ 你看中国上亿人都知道五五开的事，蓝洞封他大号不，拿中国人当傻子呢，不封号也不在微博为他澄清就让这事这么一直发酵难道不是当群众傻子？组个国家队去比赛韩国方面困难重重，难道不是玩这群中国玩家？我说韩国棒子死妈还有中国人跟我对跳舔，呵呵 我就说怎么最近我老是打进决赛圈，吃鸡次数也多了起来，肯定是打击起作用了。 故事情节跌宕曲折！ 判定屏幕图像的，然后模拟鼠标键盘操作，这两个步骤搞清楚，所有游戏不就都有外挂了嘛 死妈的东西，本来这个世界已经够不公平了，玩游戏还投机取巧，垃圾。一辈子都是一坨屎。 从这点看，tx和sd一样，你卖外挂我没钱拿，我就找警察抓你，我自家gm盗号卖外挂，那就情有可原。 685584 一看就不懂，判断不同游戏屏幕图像，识别自瞄,说的轻巧，能完成这个功能的，早就不干外挂了，国内一堆ai公司求着你来，合法收入颇丰,外挂都是针对某一程序，逆向，没说的那么轻巧 为卢本伟上柱香 来了顺便吐口痰再走吧，芦苇老爷生前也是个体面人[微笑] 游戏是社会的缩影，游戏规则如同社会规则，为了自己的利益，绞尽脑汁，不息破坏规则，很符合当下中国社会意识形态。 挂，这个东西，盛大孤儿绝对是主要责任，内部自己放出外挂，源代码流出，干脆明目张胆的内挂。腾讯儿子学的彻底，最后变本加厉，把外挂搞成阶级斗争，有钱想开就开，封了就解。 开镜就是澳门皇家赌场上线了 外挂真的有这么简单吗，在玩看来要反汇编程序，破解通信协议，这都不是简单的事情啊 不是腾讯的游戏挂多，是韩国的游戏挂多……[微笑][微笑][微笑] 开挂是漠视亲情的表现 遇到bilbil前缀的玩家一定要让他，你把他打死了他就会说你是孤儿了 很多都是国外免费网站搬过来的，翻译下，搞个登录器！<br>那些主播订制G也是花钱找俄国hacker！ 相亲，女方挺不错的，彼此问道怎么来的，男:坐公交来的。女：我电动车。吃完饭她也不让送，最后两人停车场相遇，看看女的A6，男的X5对视一笑。。。<br>然后各自回家，下午又在租车公司相遇～互相面子上感觉过不去，想出去放松一下，晚上在洗浴中心又再次见到。男的碰巧点了她。他们拥抱相吻，男人伸手探向其神秘地带。。。。。。。。。。<br><br>她邪魅的一笑说道：“大不？”<br>男子羞涩一笑，弯下了腰。。 物质屌丝一夜逆袭精神屌丝永不翻身 一楼说的那么委婉，二楼说的那么直接 然并卵 腾讯qq全是卖外挂的。腾讯想抓就抓 国外的月亮真圆啊我告诉你LOL的外挂bol美国leaguesharp德国e#美国还有越南等等近十个外挂中国只有两三个d3d绘图都不会的小猫小狗做的外挂 WOW的外挂都不管了么？还在这发Tx的新闻！ 当年偷菜种菜。真怀念。 开挂是漠视亲情的表现 只有孤儿与残疾人才用外挂和鼠标宏 鼠标宏也是挂 新版本才更新没多久，排名靠前的全是外挂群，一抓一大把，支持 挂还不是内部的人搞出来的？而且就像地下城那个游戏，设计的不用外挂你就要话巨额金钱才能玩下去，TX的游戏挂最多了！！ 測試 外挂门槛低…我只能呵呵 看挂的种类，我可以0代码几天快速做出除草，去迷雾，亮化敌人显示，开镜，透视等功能，这类分析起来较简单。自动瞄准开枪这种稍微比较难一些，也有办法，用不到AI算法 现在小孩子觉得开挂玩游戏很正常，我在网吧看到那些初中生左右大的孩子讨论那个外挂好用都已到这种地步了，怪不得绝地求生官方说中国是外挂使用最多的国家，国外玩家那个鄙视啊。 说实话，角色扮演用就算了，竞技游戏还有就真的欠打了 这一波歧视孤儿和残疾人，666 开挂的脑壳有屎 一看就不懂，判断不同游戏屏幕图像，识别自瞄,说的轻巧，能完成这个功能的，早就不干外挂了，国内一堆ai公司求着你来，合法收入颇丰,外挂都是针对某一程序，逆向，没说的那么轻巧 我大毒奶粉什么时候要巨额才能玩 孤儿开挂，我其实也能理解。全家都死完了，只能在游戏机找找存在感了。 有些垃圾游戏直接读内存就可以了对你没看错就是说的那款游戏 不是腾讯的游戏挂多，是韩国的游戏挂多……[微笑][微笑][微笑] 一楼说的那么委婉，二楼说的那么直接 因为不是自家的外挂。 打脸不用打这么狠的宝贝 只有孤儿与残疾人才用外挂和鼠标宏<br>——我white 物质屌丝一夜逆袭精神屌丝永不翻身 但却是很孤儿。。。诶。。如何拯救这些孤儿呢 外挂的制作者看到腾讯就害怕了，哈哈，国内只有腾讯联合警方找他们麻烦 打击外挂先得从那些挂逼主播开刀影响太坏 说实话…这玩意还到不了要找国外开发者的程度， 竞技游戏都开挂玩，玩尼玛的脑残！ 为卢本伟上柱香 禁外挂要靠警察了……… 判太轻 劳资玩单机都不开挂。玩游戏开挂有个毛体验 魔兽世界 解放双手，让游戏索然无味！不是挺好的么？ 别人虎牙龙哥，残疾人，都不用挂 在骂卢本伟吗 一名软件工程师告诉北青报记者，外挂软件的制作成本极低：“一方面，外挂软件只需要最基本的编程技术便可以制作出来，有些人通过自学就可以掌握相关的技术，门槛很低，让这沙壁在没源码的情况下逆向一下，门槛低？areyoukiddingme？ 单机游戏用过挂，[羞羞] yyyyyy 判定屏幕图像的，然后模拟鼠标键盘操作，这两个步骤搞清楚，所有游戏不就都有外挂了嘛 死妈的东西，本来这个世界已经够不公平了，玩游戏还投机取巧，垃圾。一辈子都是一坨屎。 大快人心 一鞠躬 都说了，你只要用了微信和QQ，那么你一点秘密都没有，包括你手机上通讯录，短信，相册。 游戏是社会的缩影，游戏规则如同社会规则，为了自己的利益，绞尽脑汁，不息破坏规则，很符合当下中国社会意识形态。 那广告有那么赚吗？谁会去点那广告 你这是侮辱孤儿和残疾人 外挂真的有这么简单吗，在玩看来要反汇编程序，破解通信协议，这都不是简单的事情啊 遇到bilbil前缀的玩家一定要让他，你把他打死了他就会说你是孤儿了 很多都是国外免费网站搬过来的，翻译下，搞个登录器！<br>那些主播订制G也是花钱找俄国hacker！ 玩个游戏都用挂，证明国人素质确实低 tmd诈骗不去抓叔叔们去抓外挂了，真是爱岗敬业 卖房子太赚，有人靠它成亚洲首富。 一楼说的那么委婉，二楼说的那么直接 厉害了 对对对，就你知道的多，人家内部事你都能知道，你这么能干怎么富豪榜上没你名字？ 开挂是漠视亲情的表现 只有孤儿与残疾人才用外挂和鼠标宏 我也觉得，最近我们固定队4黑都是见人就刚，尤其新图，很多人枪法意识不怎么样，多半能打赢，也有可能我分段低 腾讯内人员这玩得炉火纯青，上下齐心搞挂，王者荣耀删举报外挂、使命召唤你举报外挂还要恐吓你封你号。 从这点看，tx和sd一样，你卖外挂我没钱拿，我就找警察抓你，我自家gm盗号卖外挂，那就情有可原。 同意挂狗现在根本不敢开枪。 我就说怎么最近我老是打进决赛圈，吃鸡次数也多了起来，肯定是打击起作用了。 代练也是 怪不得最近菜B越来越多了。原来是外挂不能用了。叫你们直播装13. 开挂的民族才开挂 腾讯qq全是卖外挂的。腾讯想抓就抓 开挂的：在座的都是爹。。 算啊 685584 抓了就是和钱过不去，才不抓呢。 开镜就是澳门皇家赌场上线了 我想去学编程了 来了顺便吐口痰再走吧，芦苇老爷生前也是个体面人[微笑] 这种游戏用外挂起什么心里？？变态了吧？现实中受欺负，游戏里杀人找平衡？对现实社会不满？在游戏里找平衡？你没想想，给你外挂你都吃不了鸡，你现实中那么垃圾不是你咎由自取！！ 五五开亲妈棺材板都炸了 上个版本一直用一键大跳算鼠标宏吗？ 植入广告我只服贪玩蓝月 那个在坟头拉屎的说你呢，过分了啊 相亲，女方挺不错的，彼此问道怎么来的，男:坐公交来的。女：我电动车。吃完饭她也不让送，最后两人停车场相遇，看看女的A6，男的X5对视一笑。。。<br>然后各自回家，下午又在租车公司相遇～互相面子上感觉过不去，想出去放松一下，晚上在洗浴中心又再次见到。男的碰巧点了她。他们拥抱相吻，男人伸手探向其神秘地带。。。。。。。。。。<br><br>她邪魅的一笑说道：“大不？”<br>男子羞涩一笑，弯下了腰。。 哈哈哈斗鱼是不是要关了 呵呵呵 韩国棒子把中国人当傻逼，我们依然愿意玩这傻逼游戏 Cs外挂大牛也是被江苏抓到，江苏的法治还是可以的 你好我是圣诞老人，我带了大量圣诞礼物来中国！可惜被海关扣了要交税，请给我转一万块钱，能我拿到礼物以后，送你一辆兰博基尼。 模拟人进行偷菜种菜也是也算外挂？？ 相当年完ＣＳｏＬ水平太高经常性被T把ID改成了挂逼死全家[窃笑] 你看中国上亿人都知道五五开的事，蓝洞封他大号不，拿中国人当傻子呢，不封号也不在微博为他澄清就让这事这么一直发酵难道不是当群众傻子？组个国家队去比赛韩国方面困难重重，难道不是玩这群中国玩家？我说韩国棒子死妈还有中国人跟我对跳舔，呵呵 老司机，1024 故事情节跌宕曲折！ 哈哈😄，亚服前10名有3个55K！哈哈哈😂，芦苇抓紧代言WG吧！ 这话就不愿意听了，玩什么游戏个人所好，你不玩别骂人家玩的的人，素质不行啊 腾讯为什么不转型？ 挂，这个东西，盛大孤儿绝对是主要责任，内部自己放出外挂，源代码流出，干脆明目张胆的内挂。腾讯儿子学的彻底，最后变本加厉，把外挂搞成阶级斗争，有钱想开就开，封了就解。 五五开要复出啦 挂逼们，你们要将爸爸们置于死地吗？ 能不能抓抓voljrsdtp这种外挂作者啊这他妈抓的都是什么妖魔鬼怪 然并卵 tx自己做外挂自己招代理出售外挂，还天天打着反外挂的口号。😂😂😂 ",
        "Total": 1276,
        "Link": "http://comment.tech.163.com/tech_bbs/D6G317PF00097U7R.html",
        "Reply": 101
    },
    "Article": "（原标题：警方破获首个《绝地求生》外挂案此前国内已判决多个外挂制作、传播案）近日，腾讯游戏安全中心宣布联合警方破获了网络游戏《绝地求生》的首起外挂软件制作、传播案件。腾讯方面表示，今年以来已协助警方破获了30多起外挂案件，抓获犯罪嫌疑人120余人。北京青年报记者查询过去7年间关于网络游戏外挂的判决书发现，网络游戏外挂层出不穷的一大原因是较低的门槛和巨大的利益。不少参与制作、销售外挂软件的人一年的非法获利可达数十万元甚至数百万元。一些犯罪分子甚至利用境外人士参与销售外挂软件，试图逃避打击。“吃鸡”用外挂警方破获首案12月22日，腾讯游戏安全中心宣布联手江苏警方破获了旗下“吃鸡”网络游戏《绝地求生》的首起外挂软件制作、传播案件。《绝地求生》是一款当红网络游戏，在平台上的同时在线人数一度突破1700万人。11月22日，腾讯宣布获得了该款游戏的国内代理权，同时成立了专项小组调查该游戏的外挂制作及销售线索。“在腾讯守护者计划安全团队的协助下，无锡江阴警方于12月13日成功抓捕并捣毁了‘望月’、‘神兵’等多个外挂制作及销售团伙，3名核心涉案犯罪嫌疑人全部落网，并对犯罪事实供认不讳。”腾讯游戏安全中心称，2017年1月到11月，腾讯的相关人员协助警方破获了外挂案件30余起，抓获犯罪嫌疑人120余人。所谓游戏的外挂，顾名思义是从外部控制住网络游戏程序的内容，从而令使用外挂的玩家获得升级加快、赚钱更多等功能的软件。对于不使用外挂的游戏玩家而言，使用外挂形成了不公平的竞争。对于游戏运营商而言，外挂引发的不公平可能引发玩游戏的人大幅减少，缩短了网络游戏的运营寿命。早在2003年，当时的多部委在《关于开展对“私服”、“外挂”专项治理的通知》中明确指出“外挂违法行为属于非法互联网出版活动，应依法予以严厉打击”。尽管如此，网络游戏中的外挂仍旧屡禁不绝。通过植入广告获利数百万元北青报记者查阅了过去7年间关于网络游戏外挂案件的相关判决发现，早在“偷菜”类网游盛行的时候，便已经有人利用外挂软件牟取暴利了。1991年出生的邓建豪只有初中文化。2010年4月份，邓建豪建立了“QQCEO”网站，并在该网站上传了“QQ农场牧场餐厅偷匪三合一”等网络游戏外挂软件程序，供网民下载使用。检察机关指控称，邓建豪与两家公司建立合作，将两家公司的广告编入外挂软件中，当网民使用外挂程序后便会自动弹出网页广告。邓建豪根据网民对网页广告的点击量向上述公司收取广告费。邓建豪后来在法庭上供述，他开发的“QQ农场牧场餐厅偷匪三合一”软件的运作原理是模拟鼠标点击，自动发模拟数据给服务器，使服务器误以为网民自己进行操作，达到“种菜”、“偷菜”、“收菜”等效果。最终，当地法院认定邓建豪以营利为目的，非法经营额超211万元，判处其有期徒刑三年，并处罚金人民币150万元。一名软件工程师告诉北青报记者，外挂软件的制作成本极低：“一方面，外挂软件只需要最基本的编程技术便可以制作出来，有些人通过自学就可以掌握相关的技术，门槛很低。另一方面，只需要有电脑就可以完成一个软件，其出售给玩家的电子复制过程几乎毫无成本，相比玩家给出的钱，其硬件成本也可谓微乎其微。”在另一起案件中，陈伟与只有职高文化的肖海涛合作，由肖海涛制作了一款针对当时大热的网络游戏《征途2》的外挂软件，并给这款外挂软件取名为“推土机”。利用这款外挂软件，玩家可以获得自动操作的功能，从而明显强于其他玩家。肖海涛开发出“推土机”后，由陈伟负责在网络上对外出售这款软件，两人对销售所得按约分成。至2014年6月案发，半年多的时间里，陈伟已通过支付宝转给肖海涛超过180万元。层层分包之后下线仍能获利北青报记者发现，在多起关于网络游戏外挂的案件中，犯罪分子建立了复杂的销售网络。外挂的制作者往往并不负责销售，而是发展下线，下线销售者还会发展自己的下线，但地位越低的下线，其获得的利润越低，地位最高的销售者则坐拥暴利。今年9月4日，江苏省盐城市中级法院二审审理了杨长春、王垒等人非法经营罪一案，此案中的被告人达11人。判决书显示，2012年3月至2013年8月，王垒通过一名网友获取了网络游戏《地下城与勇士》的外挂程序，并通过收取“版权费”及使用费的形式，向杨长春等人非法出售该游戏外挂程序计1000余个，非法经营额计200余万元，非法获利计100万元。作为下线的杨长春又将约799个外挂程序转卖给陆维锋、王传珠、徐辉等人，非法经营额超过425万元，非法获利超200万元。更低一层级的王传珠则将从杨长春处获得的123个外挂程序转卖给徐辉等人，非法经营额超69万元，非法获利超5万元。再低一层的下线徐辉将从杨长春、王传珠等人处获取的88个外挂程序转卖给程芝健等人，非法获利2万余元。位于转包末梢的程芝健仍然有利可图，他把从徐辉等人处获取的62个外挂程序，非法出售后获利16000余元。本案的判决书中坦言，虽然相比7个G大小的游戏软件，外挂软件的大小仅有1M左右，但多名被告人非法经营非法出版物，扰乱市场秩序，分别达到“情节特别严重”或“情节严重”的标准，构成非法经营罪。最终法院判决被告人杨长春犯非法经营罪，判处有期徒刑6年，并处罚金人民币200万元。其余被告人也都获得了相应的刑罚。招揽境外人士参与制作销售相关判决书显示，一些用外挂软件牟利的犯罪分子为了规避法律打击，利用电子产品可以轻松跨越国境的特点，招收境外人士参与犯罪。2013年底，时为吉林省图们市质量监督局稽查分局工作人员的刘勇和咸某合谋，搭上当时由韩国引进的知名网络游戏《剑灵》的风，制作并出售《剑灵》游戏的外挂软件获取暴利。刘勇在法庭上供称，咸某告诉他国外有人能做游戏外挂，觉得确实有利可图，就找人来做销售。法院审理后确认，咸某找到了朝鲜人金某，由金某制作出一款针对《剑灵》的游戏外挂，命名为“ufo”，并安排崔某负责与金某联系该游戏外挂的技术维护等事项。刘勇则找来了一位名叫桥上的日本人，安排其通过QQ在网上以招收代理的方式销售该游戏外挂，其中周卡每张销售价格为25元，月卡每张销售价格为100元。刘勇后来供述称，之所以找到桥上负责销售，是因为知道销售外挂软件违法，认为“找外国人安全一些”。借助外挂销售，刘勇在2013年11月到2014年5月期间，累计收入141万余元，并向咸某支付了68万元。最终法院以非法经营罪分别判处刘勇有期徒刑5年，并处罚金人民币80万元。一位曾经使用过外挂的网络游戏玩家告诉北青报记者，玩家之所以使用外挂，一方面是因为玩游戏“图个乐子”，希望能够获得战胜其他玩家的快感。另一方面是因为一些有钱的玩家会投入大量的金钱来获得更好的能力，对于钱不多的玩家来说，购买外挂是一种更加省钱又便捷的方式。这位玩家表示，随着这些年网络游戏管理越来越严格，使用外挂的风险变得越来越大，“以前投入了很多钱的一个账号因为被发现使用外挂而被封号了。”文/本报记者屈畅供图/视觉中国本文来源：北青网-北京青年报责任编辑：王凤枝_NT2541",
    "Title": "网络游戏外挂太赚钱：有人通过植入广告获利数百万_网易科技"
}