{
    "URL": "http://news.163.com/17/1229/13/D6QUQOKN0001875P.html",
    "Article": "（原标题：开奔驰的美女老板，被杭州奢侈品店员一句话激怒！竟想出这么一招报复）今天就要讲一位“土豪”老板娘。不过，跟电视剧里的桥段不同，她上演了一段现实版的“花式作死”.....事情还得从12月初开始说起......11月29日武林商圈某奢侈品专柜一位运动潮流范儿的女子踏入专柜。仔细一看，还是个美女，眉宇之间还透露着点“林青霞”的味道......女子拿起包包，左看右看：“诶，服务员，这个包里面还有吗，多少价格啊......”“哦，那个啊，就一个了。”“柜哥”不知道是不是心情不佳，抬头瞥了一眼，没好气地应付了一句，随后又低头干自己的事情。“诶，你注意一下，瞧不起人吗？我还没遇到过这样的服务态度！”“柜哥”火气也不小，于是，你一言我一句的，女子压着怒气离开了柜台。在附近闲逛了一圈，女子越想越气愤，自己开奔驰穿名牌，也是个工厂的老板娘啊，凭什么在这受服务员的气？！不知怎么地，又转回到这个专柜。女子看看那个“柜哥”还在，于是，心生一计，要好好地“报复”一下他......女子再次走进专柜内，假装不经意地挪到了之前看上的包包的位置，伸手——将包包塞进了环保袋里，随后，大大方方地转头就走......“哼，店里丢了包，服务员肯定得赔钱了，这个包估计能抵过他几个月的工资了......”回去路上，女子还不由自主地为自己的“小聪明”暗自窃喜...12月1日2天过去，天水派出所接到了报警：“警官，我们店里一只20000多的包包被人偷走了！”民警立案侦查、调取监控，很快便锁定了嫌疑人——张某。张某在案发前曾入住辖区内某酒店，不过，案发后，她便离开杭州，杳无音讯。就这么让她跑了？民警信息研判过后，发现一条重要线索——嫌疑人在宁波有过工作信息！张某很有可能去了宁波！侦查小组快马加鞭赶赴宁波开展工作。经过走访、蹲守，12月5日12时许，民警在余姚某洁具厂将嫌疑人张某抓获。“我只是不甘心，想让那个服务员赔钱吃点苦头......”审讯室里，这个“女老板”交代了事情经过，对自己的盗窃事实供认不讳。目前，张某已被警方刑事拘留，案件仍在进一步办理中。本文来源：杭州交通918责任编辑：张宪超_NN9310",
    "Source": "Netease",
    "PublishTime": "12/29/201713:03:19",
    "KeyWords": "奢侈品,美女,包包,违法",
    "Comment": {
        "Content": "我是二楼我招架不住留给三楼吧 这女的人品感觉很差，发生矛盾第一想到的是去陷害别人，而不是正面解决或者找第三方，太恶心了。 厉害了！所以说读书是多么的要紧！法盲一个，估计要蹲大牢了！ 两万一个的包引发的血案，，又是哪家的美美，唉，大家还记得祖孙环保无力医治唯有绝食的事吗，， 练好嘴皮子喷的他当晚自尽不就不用被抓了[羞羞] 腿真粗，二楼，收了她 我是二楼我招架不住留给三楼吧 两万一个的包引发的血案，，又是哪家的美美，唉，大家还记得祖孙环保无力医治唯有绝食的事吗，， 这女的人品感觉很差，发生矛盾第一想到的是去陷害别人，而不是正面解决或者找第三方，太恶心了。 何必呢，哈哈哈 扔了算是故意破坏？ 我觉得去投诉消费者协会或者直接找经理，都是合理解决方式。 练好嘴皮子喷的他当晚自尽不就不用被抓了[羞羞] 所以能当女老板啊 腿真粗，二楼，收了她 生气了 不是说开奔驰吗？图里是小面啊 厉害了！所以说读书是多么的要紧！法盲一个，估计要蹲大牢了！ 不算还是算盗窃因为盗窃罪已经即遂。后面包包怎么被转卖破坏藏起来对于被害人而已只有一份财产性利益损失了 还是失策咯 这老板娘怕不是个煞笔吧？？？ 两万一个的包引发的血案，，又是哪家的美美，唉，大家还记得祖孙环保无力医治唯有绝食的事吗，， 不喜欢服务态度可以投诉啊不需要这样吧 有钱任性 ",
        "Total": 39,
        "Link": "http://comment.news.163.com/news_shehui7_bbs/D6QUQOKN0001875P.html",
        "Reply": 18
    },
    "Title": "美女老板被奢侈品店员激怒 将2万元的包扔进环保袋_网易新闻"
}