{
    "Article": "（原标题：张文中、顾雏军再审案合议庭成员确定）新华社北京1月3日电最高人民法院提审的原审被告人张文中诈骗、单位行贿、挪用资金案和原审被告人顾雏军虚报注册资本，违规披露、不披露重要信息，挪用资金案合议庭已经组成。张文中再审案，审判长为最高人民法院党组成员、审判委员会委员孙华璞。合议庭成员分别为最高人民法院审判委员会委员、审判监督庭庭长夏道虎，审判监督庭审判员齐素、董朝阳、周庆。邓亮担任法官助理，刘牧骅担任书记员。顾雏军再审案，审判长为最高人民法院审判委员会专职委员、刑二庭庭长、第一巡回法庭主审法官裴显鼎。合议庭成员分别为审判委员会委员、民事审判第四庭庭长、第一巡回法庭副庭长、主审法官张勇健，审判监督庭副庭长、第一巡回法庭主审法官罗智勇，第一巡回法庭主审法官司明灯、刘艾涛。石冰担任法官助理，张燕清担任书记员。10年坚持终迎旧案重审顾雏军:我的上市公司应还我12月28日，最高人民法院决定提审顾雏军一案。12月29日，顾雏军意味深长地说道：“前几年我努力还更大一点，现在都已经疲了，在我快绝望的时候这个下来了，要感谢这个形势。”“10年了，终于盼到了。我从二审就一直在申诉，到现在10年，从2012年出狱也5年了。”顾雏军说道。最高法:顾雏军案将由最高法第一巡回法庭提审对于张文中案，将由最高人民法院直接提审;对于顾雏军案，将由最高人民法院第一巡回法庭提审。最高人民法院将依法组成合议庭，以对法律负责、对人民负责、对历史负责的态度，以事实为根据，以法律为准绳，对上述两案依法公开、公平、公正审理。本文来源：新华社新媒体专线责任编辑：张海桐_NN9053",
    "URL": "http://news.163.com/18/0103/23/D78TOTCC0001899N.html",
    "KeyWords": "顾雏军,张文中,法官,巡回法庭",
    "PublishTime": "01/03/201823:14:12",
    "Title": "最高法:张文中、顾雏军再审案合议庭成员确定_网易新闻",
    "Comment": {
        "Content": "张文中，诈骗成性，死不悔改，在物美商户都给搞过，腐败分子，该重判 好消息，庆幸，幸运 这个规格高的，希望法院在每一个司法案件中都做到实事求是，公平公正！！ 做个调查，物价油价房价上涨感觉生存压力越来越大的点支持谢谢 张文中，诈骗成性，死不悔改，在物美商户都给搞过，腐败分子，该重判 做个调查，物价油价房价上涨感觉生存压力越来越大的点支持谢谢 厉害！ 必须严判 好消息，庆幸，幸运 这个规格高的，希望法院在每一个司法案件中都做到实事求是，公平公正！！ ",
        "Link": "http://comment.news.163.com/news2_bbs/D78TOTCC0001899N.html",
        "Total": 48,
        "Reply": 6
    },
    "Source": "Netease"
}