{
    "Article": "网易体育12月29日报道：在阿森纳对阵水晶宫的比赛中，桑切斯梅开二度，是球队3-2取胜的最大功臣。然而，他却遇到了尴尬的一幕：进球后部分队友拒绝与他庆祝。枪手名宿亨利直言阿森纳内部出现了矛盾，桑切斯遭到了孤立，他希望自己的老东家能尽快团结起来。桑切斯破门后，仅有4名队友跑过来庆祝比赛的第62分钟，桑切斯接到拉卡泽特的传球，大力抽射，2-1，阿森纳反超了比分。进球后，桑切斯非常的兴奋，他疯狂的跑到球场的右侧，并招呼队友一同庆祝。然而，只有4个阿森纳球员（扎卡、穆斯塔菲、拉卡泽特、厄齐尔）来到桑切斯身边一同庆祝，其他大部分的队友都转过头朝中圈走去。看到大部分队友没有过来参与庆祝，桑切斯再次向他们发出了邀请，但依旧没有回应。慢镜头显示，桑切斯结束庆祝后向拉卡泽特做出了一个不解的动作，他无法明白那些队友为什么对他如此冷漠。桑切斯不解队友为何不来庆祝担任天空体育解说嘉宾的亨利看到这一幕后非常心寒，他表示：“这足以说明阿森纳出现了内讧。他在招呼队友一起庆祝，但响应者很少。他们为什么不庆祝？是因为他们不想庆祝？记住，你们不是为桑切斯而踢球的，你们是在为阿森纳踢球。阿森纳进球后，你们有义务去庆祝，这跟谁进球没有关系。是的，他们应该和队友一起庆祝。”亨利直言阿森纳内部出现了分裂“也许我们过度解读这一幕了，但是所有人都看到了这一切。桑切斯让我明白了枪手的问题，他看上去非常孤独。”亨利说道。与亨利一起解说比赛的格雷厄姆-索内斯也强调：“这足以说明阿森纳更衣室出现了问题，他们并不欢迎桑切斯。很显然，枪手内部暗流涌动。”《每日邮报》称钱伯斯、科拉希纳茨、威尔希尔、贝莱林以及科斯切尔尼都拒绝祝贺桑切斯的进球，他们完全无视桑切斯多次的庆祝呼吁。英媒体《太阳报》此前就曾指出阿森纳多名球员已经对桑切斯感到反感，他们不满桑切斯拒绝续约的决定以及其本赛季的消极态度。赛后，记者再次问起桑切斯的去留问题，温格这般答道：“桑切斯是一个伟大的球员，我们需要他这样的球员。没人知道未来会发生什么，我无法预测。很多事情都是未知的，就像你也不知道你会在目前的城市住多久一样。我们能做的只有一点，一定要全力以赴。”圣诞节的时候，有媒体拍到了桑切斯现身巴黎机场的图片。对此，温格解释道：“我当时给球队放了2天假。桑切斯没有回智利，他或许是和自己的家人在那里见面吧。”本文来源：网易体育作者：风过乡责任编辑：冯昊天_NSJS2656",
    "PublishTime": "12/29/201718:00:40",
    "URL": "http://sports.163.com/17/1229/18/D6RFR7RC00058781.html",
    "Comment": {
        "Content": "扎卡、穆斯塔菲、拉卡泽特、厄齐尔去哪儿都不愁，钱伯斯、科拉希纳茨、威尔希尔、贝莱林、科斯切尔尼都是难脱手的。 小德就愿意来？在大巴黎主力到主力替补之间，高薪，保底联赛冠军，能踢欧冠。来阿森纳能有啥？ 一场比赛进两球保住胜利，还叫出工不出力？ 可能守门员和拖后中卫因为距离太远没跑过来。至少都得六，七人吧，中前场的。 所有事都有两面性，不和桑切斯庆祝的球员，主要是桑切斯不顾俱乐部的利益，选择夏天得到曼城的巨额签证费 374没有遇到自己进球疯狂庆祝，队友进球黑脸或者举手向裁判投诉的队友，374你算幸运的啦 你没踢过球还是没看过球？ 球队不想提升实力又迟迟不续约这让球员有什么心思比赛，温格这老贱人一边想惩罚球员又不得不抱大腿抢分数，非常期待过几个月自由身转会走人看着娜娜没了几千万 374无论去到哪里阿森纳都应该永远尊敬他在任何方面他都是球员中的典范 2010你举办的世界杯？ 374走吧，每次场上你是最卖力的，作为大腿，多少次拯救阿森纳，他们如今竟然这样对你，这样的阿森纳真不配桑切斯！年年争四，活该！ 。。。好吧，2010南非奥运会，可以了吧 马🐴拉多纳虽然才165，但他有1986世界杯🏅🏆，1990世界杯银牌。2个美洲杯冠军。是世界⚽️👑。梅西三个亚军，还不是球王！14年世界杯决赛，进球被吹，心态崩了，被格策绝杀！美洲杯决赛踢飞冠军。现在阿根廷很弱，有些球队，虽然有所谓的球王，凝聚力差。所以取得不了好成绩！ 请快点走，不送，被拦截丢球高的一批，还装老大 典型的老大带不动他们，不想和他们玩了就恩将仇报，因为以后防守压力会更大，没了大腿 一楼的意思是有一个球员做代表过来庆祝就行了。。。 虽然罗纳尔迪尼奥巅峰期短，但是是我心中无人超越的球王 一群人在混吃等死，突然来了个肯干事、做出成绩的人，不孤立你孤立谁 亨利是传奇！ 呵呵，看过阿森纳比赛没，之前好几次队友进球桑切斯都不上去跟着庆祝，现在自己进球队友不上来跟着庆祝，怎么说呢，报应 反超比分这么关键的进球，替补队员一起庆祝都不过分 亨利还是要点脸吧，2010的世界杯，谁在搞分裂啊 从比赛看，桑切斯和厄齐尔基本被其他球员隔离 估计要起内讧。 足球荣誉真是奇怪，世界杯明显不是代表足球的最高水平，欧冠才是，像美国的NBA才是代表篮球的最高荣誉而不是奥运会 说这话昧着良心不？夏天374明确表态要走，温格打死不放，也不引援加强，还怪374太有进取心吗？水往低处流，人往高处走，374何错之有？ 呵呵，你这样的居然都是球迷了 鳖三<br>别的人都不给你跑位、接应，你当每个人都是马拉多纳梅西吗？ 希望加钱和巴黎换小德过来 更衣室肯定分裂了 我们班级以前男生也不喜欢和学习成绩太好的学霸一起玩 亨利千里走单骑帅呆了 374272不续约就想着出工不出力熬点明夏自由转会，真正热爱阿森纳的人都不会对他们有好感。 大一那年代表校队去打比赛，进球之后打后卫的那帮大三大四师兄全部冲上来叠罗汉一样没把我给压背气！ 一楼阿森纳的球迷输球都输的快智障了吧 现役球员没有球王，球王只有贝利和马拉多纳 温格在乎球队的工资结构，最高只给374和厄齐尔18万，然后谈不拢，一拖大半年，等到夏窗续约无望又不肯卖，自己作的。<br>反观切尔西，阿扎尔合同还有两年半就开始谈续约，时间无比宽裕，就算这半年谈不拢，有两年合同垫底也能卖个好价钱。<br>说白了吧，续约必加工资，阿森纳在乎的是那一年的（相对）低薪旧合同。 374第二个进球，大部分人都去庆祝了 阿森纳不仅队员在场上踢着大保健的球，球迷不也是差不多。看看阿森纳的球迷论坛感觉都是一些温水煮青蛙的帖子，赛季保个四个个开心的不得了。这几年英超惨案比赛基本上阿森纳都是被屠杀的那一方。6-24-0太多了，以后估计争取个欧联杯资格全队上下都笑嘻嘻。 每个进球11个人抱一起庆祝？不能分两拨人就近庆祝？你踢过球没 大家都踢养老球，374这沙币却非得拼命踢 难道每个进球都有11个人在庆祝？侮辱智商啊 因为要去曼城或巴黎了😄 亨利都变成名宿了 这是赶大腿走啊 作为阿森纳球迷在374身上看到场上的勤奋，这是骨子里的东西，这种场上勤奋在苏亚和瓦尔迪身子也有。374还是去更有冠军属性的球队吧。阿森纳这样下去，每年争四都难了。 我才明白为什么我为什么没有资格投票 一群学渣排挤学霸的故事曾经在我们身上无数次上演过哈哈哈 也许曾经的阿森纳是辉煌的，但现在它是一个不思进取，只求争四进欧冠小富即安的球队，这样没有队魂没有追求的球队不值得374、272为他留守，也不配有更多的球迷喜欢它！ 看过，皇马就只有十个人庆祝。 这还出工不出力呀？272和374如果真出工不出力的话，现在娜娜至少少好多积分。 小德就愿意来？在大巴黎主力到主力替补之间，高薪，保底联赛冠军，能踢欧冠。来阿森纳能有啥？ 确实啊。 傻逼 对！ 他两个都没干过，这还用问吗 一楼阿森纳的球迷输球都输的快智障了吧 德乌洛费乌还差不多 你没踢过球还是没看过球？ 一楼没踢过足球，不懂吗 梅西就是球王 374在巴萨球都踢不上？？胡说八道也要有依据 球队不想提升实力又迟迟不续约这让球员有什么心思比赛，温格这老贱人一边想惩罚球员又不得不抱大腿抢分数，非常期待过几个月自由身转会走人看着娜娜没了几千万 374走吧，每次场上你是最卖力的，作为大腿，多少次拯救阿森纳，他们如今竟然这样对你，这样的阿森纳真不配桑切斯！年年争四，活该！ 球王都是后人评的，老马退役前也没被公认叫球王吧 他踢球费鞋，看球费电，和他讲话费唾沫星子...... 😶😶 就好比一个单位全是不工作的懒逼天天混吃等死忽然来个充满朝气肯干事的年轻人大家就看不惯了 最起码前场球员都会上去庆祝 来参军吧 有人的地方就有江湖啊 💊 马🐴拉多纳虽然才165，但他有1986世界杯🏅🏆，1990世界杯银牌。2个美洲杯冠军。是世界⚽️👑。梅西三个亚军，还不是球王！14年世界杯决赛，进球被吹，心态崩了，被格策绝杀！美洲杯决赛踢飞冠军。现在阿根廷很弱，有些球队，虽然有所谓的球王，凝聚力差。所以取得不了好成绩！ 看到这么多人骂你我就放心了 也就这四个人了其他都是篓子 侏儒：我矮子哥今年冬窗转会，要去阿森纳，打爆桑切斯这条狗！为你们争口气[色色][色色][色色] 内讧…… 估计要起内讧。 心寒 欧联 C罗算一个，不论成就还是技术甩梅西一条街！你们承认吧？ 争四啊！ 希望加钱和巴黎换小德过来 更衣室肯定分裂了 我们班级以前男生也不喜欢和学习成绩太好的学霸一起玩 374272不续约就想着出工不出力熬点明夏自由转会，真正热爱阿森纳的人都不会对他们有好感。 智利球王 646走吧我们只要有老头在就永远可以争第四老头光辉照全球 不管怎样桑神都对得起我破 现役球员没有球王，球王只有贝利和马拉多纳 哄去吧，这种没志气的球队必须跌入谷底才能不破不立，懒得看这种窝囊废 哈哈词穷还是没看过球？ 此地不留爷。 难道每个进球都有11个人在庆祝？侮辱智商啊 阿什利科尔就说过，以前训练结束了大家都不急着回家，会在基地的咖啡厅喝点咖啡，聊聊天，或者玩玩牌。 世界杯不如欧冠，欧冠才是最高水平，梅西才是唯一的球王 这还出工不出力呀？272和374如果真出工不出力的话，现在娜娜至少少好多积分。 我厂成就了不少球员，从我厂出去的除了科尔，好像没一个是巨星，范佩西出去也风光一年而已。阿内尔卡，小法，阿德巴约，宋出去阿森纳也就板凳坐穿。374也是我厂成就了他，在巴萨连球都踢不上，厄齐尔也是，看看现在没有多少豪门对他敢兴趣就知道他有多不行，只有我厂把他当宝。还有欢迎满购来喷。 不带这么玩儿的。 连个欧冠都没，肥罗敢称球王？ 梅西想给三楼一巴掌 可笑的是，你厂的工资结构限高不限多，10-14万的一大堆，扎卡、拉姆塞11万你敢信？ 看过，皇马就只有十个人庆祝。 374在智力国家队训练比赛从不与人说话。以前有报道的。 梅西是球仙 豪门不解释 那是当然 物以类聚人以群分 小德就愿意来？在大巴黎主力到主力替补之间，高薪，保底联赛冠军，能踢欧冠。来阿森纳能有啥？ 还不是教练垃圾的原因！wengerout 所有事都有两面性，不和桑切斯庆祝的球员，主要是桑切斯不顾俱乐部的利益，选择夏天得到曼城的巨额签证费 你在说c罗吗 哥们你应该没踢过球吧 你没踢过球还是没看过球？ 争四 阿森納活該 为钱呗 现役球员没有球王，球王只有贝利和马拉多纳 最主要374熬到明年，就可以高薪加巨额签字费了。为什么要损失自己的利益换小德。 过不几天就走了就要成对手了 374走吧，每次场上你是最卖力的，作为大腿，多少次拯救阿森纳，他们如今竟然这样对你，这样的阿森纳真不配桑切斯！年年争四，活该！ 走，必须走！阿森纳是一只没有进取心的球队，留在这里什么荣誉也得不到。回巴萨或者皇马或者去拜仁都是很好的选择 看球费电 你看过贝利踢球吗？ 年年争四的刺激感！比在巴黎夺冠更惊心动魄 😏😒 虽然罗纳尔迪尼奥巅峰期短，但是是我心中无人超越的球王 他们只看文字 带不动 亨利是传奇！ 374最适合去曼城了只有瓜秃懂他，但是去了萨内斯特林肯定是牺牲品 看了比賽，很多人跑去慶祝啊。 这样的娜娜能有多远？！ 管亨利什么事，这只叛逃到巴萨的老狗。 C罗是他爹，整天提！ 有温格在就不会允许更衣室分裂、别瞎猜疑、老外思维和中国人不一样、不一起庆祝不代表什么 加入争四大军 呵呵，你这样的居然都是球迷了 哈哈 简单明了的阐述了一个问题：不怕神一样的对手，就怕猪一样的队友！你们难道想让我一打二十一吗？ 希望加钱和巴黎换小德过来 小家子气，温格已经可以下课了 齐达内可以。 是的，小罗踢球总让人感觉很快乐。一种特别欢快的感觉隔着屏幕都能被感染。可惜堕落的太快，巅峰太短暂 足球荣誉真是奇怪，世界杯明显不是代表足球的最高水平，欧冠才是，像美国的NBA才是代表篮球的最高荣誉而不是奥运会 未来不是每个伟大球员都会出生在当时最强的足球国度，不以成败论英雄 温格控制不住了！ 温格在乎球队的工资结构，最高只给374和厄齐尔18万，然后谈不拢，一拖大半年，等到夏窗续约无望又不肯卖，自己作的。<br>反观切尔西，阿扎尔合同还有两年半就开始谈续约，时间无比宽裕，就算这半年谈不拢，有两年合同垫底也能卖个好价钱。<br>说白了吧，续约必加工资，阿森纳在乎的是那一年的（相对）低薪旧合同。 阿森纳的大佬们都只是在工作而已并不是踢球输赢跟他们没关系只要出工就可以了 阿森纳不仅队员在场上踢着大保健的球，球迷不也是差不多。看看阿森纳的球迷论坛感觉都是一些温水煮青蛙的帖子，赛季保个四个个开心的不得了。这几年英超惨案比赛基本上阿森纳都是被屠杀的那一方。6-24-0太多了，以后估计争取个欧联杯资格全队上下都笑嘻嘻。 亨利千里走单骑帅呆了 只能说。桑切斯爱足球，但已经不爱阿森纳了 …😜😜😂😂 374没有遇到自己进球疯狂庆祝，队友进球黑脸或者举手向裁判投诉的队友，374你算幸运的啦 亨利都变成名宿了 不止11个人，连教练，助教，替补都会庆祝 难道每个进球都有11个人在庆祝？侮辱智商啊 阿4纳 假期多啊！！！ 不允许傻子眼瞎啊！ 马🐴拉多纳虽然才165，但他有1986世界杯🏅🏆，1990世界杯银牌。2个美洲杯冠军。是世界⚽️👑。梅西三个亚军，还不是球王！14年世界杯决赛，进球被吹，心态崩了，被格策绝杀！美洲杯决赛踢飞冠军。现在阿根廷很弱，有些球队，虽然有所谓的球王，凝聚力差。所以取得不了好成绩！ 374和272赶紧换地方吧，唉，心疼 小德就愿意来？在大巴黎主力到主力替补之间，高薪，保底联赛冠军，能踢欧冠。来阿森纳能有啥？ 难道是你举办的？ 基本上门将不会过来的 桑切斯在阿森纳一直就很孤独 这很中超！ 不懂别逼逼 你没踢过球还是没看过球？ 可惜 教授很上火啊 2010你举办的世界杯？ 374走吧，每次场上你是最卖力的，作为大腿，多少次拯救阿森纳，他们如今竟然这样对你，这样的阿森纳真不配桑切斯！年年争四，活该！ 看到你说老马165，我又突然想起有人招球员必须180 。。。好吧，2010南非奥运会，可以了吧 升米恩斗米仇 能踢欧联啊 典型的老大带不动他们，不想和他们玩了就恩将仇报，因为以后防守压力会更大，没了大腿 早点走人 挣四体验刺激啊 厄齐尔在皇马就很猛，好吗？另外为啥那么多球员都要出走尼？球队没毛病？ 马🐴拉多纳虽然才165，但他有1986世界杯🏅🏆，1990世界杯银牌。2个美洲杯冠军。是世界⚽️👑。梅西三个亚军，还不是球王！14年世界杯决赛，进球被吹，心态崩了，被格策绝杀！美洲杯决赛踢飞冠军。现在阿根廷很弱，有些球队，虽然有所谓的球王，凝聚力差。所以取得不了好成绩！ 是啊，二楼希望进球领先的时候庆祝半个小时 最后一块拼图？板凳坐穿 都是新来的 你这学渣还挺有优越感[鄙视] 官方认可只有贝利 亨利还是要点脸吧，2010的世界杯，谁在搞分裂啊 真是没看过吧 赶紧离开这破地方 是维埃拉吗还是谁，早期去上海申花试训竟然被徐根宝认为是黑又硬的傻大个给踢了😅 庆祝进球不仅仅是庆祝开心一下，更是从士气上打倒对手 cccgbjgff 反超比分的进球， 起码中前场的人都要跑过来 希望加钱和巴黎换小德过来 拿经验走人 马拉多纳什么时候得的美洲杯冠军？ 有大锅饭 傻B都这么想 大一那年代表校队去打比赛，进球之后打后卫的那帮大三大四师兄全部冲上来叠罗汉一样没把我给压背气！ 法国输给了担架！ 有温哥 现役球员没有球王，球王只有贝利和马拉多纳 374态度消极？阿森纳其他的废材们能不能要点脸？ 还有一个足球皇帝贝肯鲍尔 亨利最后说到:我的护球像李毅… 难道每个进球都有11个人在庆祝？侮辱智商啊 能确保踢主力。明年世界杯了，小德会需要一个稳定出场的位置，来争夺国家队主力。现在大巴黎的话，主要替补为主。所以冬窗是阿森纳唯一出手机会，夏窗估计小德自己都无所谓了。 官方？呵呵 要是梅西进球，除门将外，哪个不跑来一起庆祝？ 我厂成就了不少球员，从我厂出去的除了科尔，好像没一个是巨星，范佩西出去也风光一年而已。阿内尔卡，小法，阿德巴约，宋出去阿森纳也就板凳坐穿。374也是我厂成就了他，在巴萨连球都踢不上，厄齐尔也是，看看现在没有多少豪门对他敢兴趣就知道他有多不行，只有我厂把他当宝。还有欢迎满购来喷。 阿森纳？笑话的一个球队 为黑而黑，为喷而喷……老马没有美洲杯 一群学渣排挤学霸的故事曾经在我们身上无数次上演过哈哈哈 374在瓜的手下只踢了一个赛季，刚来坐板凳很正常，巴萨是因为后来内马尔来了才送走的桑切斯，其实桑切斯后来在巴萨已经很不错了。 有联赛第四 第四 电视上看过贝利和马拉多纳的集锦，就球商和个人技战术来说梅西已经是球王，唯一的遗憾是世界杯只拿到亚军。 当年，374作为瓜氏巴萨的最后一块拼图，现在曼城肯定对他青睐有加。不知道其他阿森纳球员是酸还是苦。 居然还有给他点赞的一群视频集锦忠实球迷 一楼是没脑子 教授家长式的带队方式过时了 小德就愿意来？在大巴黎主力到主力替补之间，高薪，保底联赛冠军，能踢欧冠。来阿森纳能有啥？ 梅西是狗不解释，拉影全体拉稀，皇马球迷力挺桑切斯 该滚的应该是你 有四呀。 商标？ 争四啊 最后一块拼图？板凳坐穿 你没踢过球还是没看过球？ 温格滚吧 374该走了，虽然情感上不舍，但枪手无法满足他对锦标的追逐，终其一生守住一座城25载只收获一座联赛冠军的故事，只能说世间只有一个托蒂 374无论去到哪里阿森纳都应该永远尊敬他在任何方面他都是球员中的典范 那你见过进个球只有四个人庆祝的？ 大帝说得没错 374走吧，每次场上你是最卖力的，作为大腿，多少次拯救阿森纳，他们如今竟然这样对你，这样的阿森纳真不配桑切斯！年年争四，活该！ 有人逼你喜欢了吗？傻乎乎的别装我厂球迷，欢迎满购来喷。 全员11人再加教练席再加替补席再加所有工作人员和球迷一起这才正常 马🐴拉多纳虽然才165，但他有1986世界杯🏅🏆，1990世界杯银牌。2个美洲杯冠军。是世界⚽️👑。梅西三个亚军，还不是球王！14年世界杯决赛，进球被吹，心态崩了，被格策绝杀！美洲杯决赛踢飞冠军。现在阿根廷很弱，有些球队，虽然有所谓的球王，凝聚力差。所以取得不了好成绩！ 我靠，那你对阵利物浦那么拼干嘛？ 感觉亨利在巴萨作用也不大。 亨利这货适合当球队总政治部主任，卵蛋大的事上纲上线。 曼狗。 真的没职业道德 就是，照他那个说法，尼玛巴萨一堆球王，佩德罗都算半个球王了 希望加钱和巴黎换小德过来 这一楼是从你的场跑出来的吧 大腿是真的孤独 你他妈的年年都有要转会的吊事，想想几任队长尤其小法！大伙都心累了！谁能保证，你今天进了球，明天又以此为筹码要挟离队走人？！这跟公司同事一个情况，想走就干脆点，磨磨唧唧的矫情就不受待见了！ 梅西是智利球王 争四。 最近几场比赛看了吗键盘侠？你看看374场均跑动断球是不是倒数，沙雕一个还在这bb 现役球员没有球王，球王只有贝利和马拉多纳 难道还有雄心？ 他是傻逼！只会喷 户口本最坏 路过 走吧374阿森纳都是小孩子 争四又危险了…… 從娜娜球迷的言論也看出來了他們不喜歡374，哈哈，球迷diss主力carry？果然娜娜只能爭4了，要不14吧，還多個1 我厂成就了不少球员，从我厂出去的除了科尔，好像没一个是巨星，范佩西出去也风光一年而已。阿内尔卡，小法，阿德巴约，宋出去阿森纳也就板凳坐穿。374也是我厂成就了他，在巴萨连球都踢不上，厄齐尔也是，看看现在没有多少豪门对他敢兴趣就知道他有多不行，只有我厂把他当宝。还有欢迎满购来喷。 他知道个球⚽ 臭傻逼，你妈也在庆祝 可不可以来曼联 难道每个进球都有11个人在庆祝？侮辱智商啊 小德那么有能力，英超前三都可以选 374不续约完全是他的原因吗？也许他只不过是不想每年都争第四而已。 能跟温教授学习八国语言啊 也许曾经的阿森纳是辉煌的，但现在它是一个不思进取，只求争四进欧冠小富即安的球队，这样没有队魂没有追求的球队不值得374、272为他留守，也不配有更多的球迷喜欢它！ 山神，一路好走！ 就这样子吧……还能说什么 当年，374作为瓜氏巴萨的最后一块拼图，现在曼城肯定对他青睐有加。不知道其他阿森纳球员是酸还是苦。 完了娜娜这个赛季第四混不到了 扎卡、穆斯塔菲、拉卡泽特、厄齐尔去哪儿都不愁，钱伯斯、科拉希纳茨、威尔希尔、贝莱林、科斯切尔尼都是难脱手的。 小德就愿意来？在大巴黎主力到主力替补之间，高薪，保底联赛冠军，能踢欧冠。来阿森纳能有啥？ 小德去皇马 大曼城和大巴黎应该没机会啊，这个位置不缺人 桑切斯是南美球员,一般豪门里都分帮派:大致就是以南美帮与法国帮这两派为主 此言岔矣，明明是“得来可四乐” 你没踢过球还是没看过球？ 曼联挥舞着钞票扑向374，272 桑切斯回巴萨吧，巴萨现在也需要你，零转会费回来，给你高薪 德拉克四娜[窃笑][窃笑][窃笑] 374走吧，每次场上你是最卖力的，作为大腿，多少次拯救阿森纳，他们如今竟然这样对你，这样的阿森纳真不配桑切斯！年年争四，活该！ 早点滚蛋 请快点走，不送，被拦截丢球高的一批，还装老大 典型的老大带不动他们，不想和他们玩了就恩将仇报，因为以后防守压力会更大，没了大腿 我是老师，都被学渣挤走了呵呵 降级吧，垃圾球队，难看！ 马🐴拉多纳虽然才165，但他有1986世界杯🏅🏆，1990世界杯银牌。2个美洲杯冠军。是世界⚽️👑。梅西三个亚军，还不是球王！14年世界杯决赛，进球被吹，心态崩了，被格策绝杀！美洲杯决赛踢飞冠军。现在阿根廷很弱，有些球队，虽然有所谓的球王，凝聚力差。所以取得不了好成绩！ 就像你看过他俩直播踢球一样，远古吹。 反超比分这么关键的进球，替补队员一起庆祝都不过分 亨利说得不错。球员不是为了374踢球，是为了自己和球队而踢球，应该一起庆祝。 更衣室训练场都不说话进球了庆祝个jb问题在更衣室而不在球场 这么优秀的锋线杀手你们...温格也不说话你说寒心不寒心当时在巴萨...何必如此呢 卖力个鸭儿，就水晶宫这场卖命了 阿四娜绝大多数都不是这样想的<br>这赛季374一得球，绝大多数人都不跑位，基本都是原地站着看着，直到374丢球为止 374两场比赛丢了66次<br>就是因为一但374得到球以后，不但不跑位，甚至都远离他，就是看着374一人玩直到球丢了为止 贝利就算了，那个时代的防守就是渣 你有病吧 冈峦要走就早走，个垃圾拖的智利国家队都没进世界杯！逼个毛线 希望加钱和巴黎换小德过来 桑切斯是那种明知下场比赛就为对手效力，但这场比赛仍然死拼的球员。在场上有职业态度，场下所要高薪无可厚非 智障吗？笑死我了 我每次进完球都是去追着队友击掌庆祝😄 说好的争四，你却想要争冠，如何能做朋友 现役球员没有球王，球王只有贝利和马拉多纳 不准在别人主场庆祝 能拿保温杯啊！多好的。每年都有小礼品 肯定不满374啦，374走了就没人喊争冠啦，那些不加入庆祝的人不会被骂啦 分了裂了 唉.竟有这多人对孩子不关心? 一群人在混吃等死，突然来了个肯干事、做出成绩的人，不孤立你孤立谁 难道每个进球都有11个人在庆祝？侮辱智商啊 从比赛看，桑切斯和厄齐尔基本被其他球员隔离 大家都踢养老球，374这沙币却非得拼命踢 因为要去曼城或巴黎了😄 一楼这样的智障别来评论足球了... 点赞自动播放00:00◙▬▬▬▬▬▬▬51<br>⏮⏸⏹⏭ 娜婊子又高潮了 作为阿森纳球迷在374身上看到场上的勤奋，这是骨子里的东西，这种场上勤奋在苏亚和瓦尔迪身子也有。374还是去更有冠军属性的球队吧。阿森纳这样下去，每年争四都难了。 374第二个进球，大部分人都去庆祝了 一群学渣排挤学霸的故事曾经在我们身上无数次上演过哈哈哈 马拉多纳都不能算，还上帝之手，他么的手球就是手球 踢欧联啊 他只是想喷了。 四个还不够?想要14个? 一个百年的俱乐部居然配不上一个流星。真的服。。 如果是曼联肯定又有人喷穆抓内鬼😂 心疼374两年了 能有社区盾足总杯还能有什么季前赛锦标赛啥的杯还不满意？？ ",
        "Link": "http://comment.sports.163.com/sports2_bbs/D6RFR7RC00058781.html",
        "Total": 5024,
        "Reply": 314
    },
    "Source": "Netease",
    "Title": "374进球队友竟如此冷漠 亨利心寒:你们是为谁踢球?_网易体育",
    "KeyWords": "亨利,桑切斯,阿森纳,枪手"
}