{
    "Source": "Netease",
    "PublishTime": "12/26/201710:29:28",
    "KeyWords": "胡一天,",
    "Title": "胡一天写真花絮曝光 眼神不羁半卧撩人_网易娱乐",
    "Comment": {
        "Link": "http://comment.ent.163.com/ent2_bbs/PHOTJNI4000300AJ.html",
        "Total": 482,
        "Content": "演技好，特别帅，帅帅帅 有道理 真的超帅 为什么最近这货这么火啊？怎么突然就冒出来了，我都不知道这货是谁，叫什么名字 这谁？好像突然红了的 哇靠，怎么天天推送他的新闻，很红吗？ 谁能告诉我这逼到底是做什么的？ 演的江辰超级帅啊 他父母肯定很喜欢打麻将 翻版彭于晏 不认识这个人，到哪都能看见，特别喜欢凹表情，好烦这个人 大众脸，没感觉到有多帅，不喜勿喷 不要这样黑彭于晏。 同意呀 帅帅帅 为什么不叫李天一 ，80后的我们不太喜欢这样的小鲜肉，这年头都是微整的帅锅和美女，审美都疲劳 感觉他突然冒出来的，各种宣传，突然被迫认识了一个人 这逼背后是谁？怎么突然这么多宣传？ 鸭鸭 自我感觉很帅的样子真的让人心里泛恶心，脸窄且长鼻子太立体就觉得两个眼睛离得好近。纯个人观点不喜勿喷 还以为是彭于晏 这些他妈的都谁，别给我推送这帮傻逼的新闻了！ 他是谁？今天到处都是他，花了多少钱买的 这货怎么每次出现在新闻里都搞得像天之骄子一样，背后的后台给了多少钱 快来围观脑残 我不知道他哪帅了， 骂他的大多是男人，捧他的大多是女人😂 演技好，特别帅，帅帅帅 他下一步估计会整牙.. 同问，还上了快本 有人 为什么最近这货这么火啊？怎么突然就冒出来了，我都不知道这货是谁，叫什么名字 奇怪，我明明没点过他的新闻，一直给我推 这谁？好像突然红了的 哇靠，怎么天天推送他的新闻，很红吗？ 他的法令纹……很显老啊 只是喜欢江辰 他父母肯定很喜欢打麻将 翻版彭于晏 不认识这个人，到哪都能看见，特别喜欢凹表情，好烦这个人 帅啊 大众脸，没感觉到有多帅，不喜勿喷 同意呀 男的拍写真.谁买？ 江辰～～～～ 演了啥？？？ 为什么不叫李天一 综艺的时候还是要绷紧了，不洒脱 这逼背后是谁？怎么突然这么多宣传？ 打麻将的 这组写真有点装 这些他妈的都谁，别给我推送这帮傻逼的新闻了！ 嘴巴好奇怪 快来围观脑残 油腻 有道理 真的超帅 我来告诉你，就是一装13的 谁能告诉我这逼到底是做什么的？ 你懂个屁 不要这样黑彭于晏。 演的江辰超级帅啊 吹泡泡那张好像大猩猩......... 感觉他突然冒出来的，各种宣传，突然被迫认识了一个人 鸭鸭 自我感觉很帅的样子真的让人心里泛恶心，脸窄且长鼻子太立体就觉得两个眼睛离得好近。纯个人观点不喜勿喷 还以为是彭于晏 头发…好油腻呀 他是谁？今天到处都是他，花了多少钱买的 这货怎么每次出现在新闻里都搞得像天之骄子一样，背后的后台给了多少钱 我不知道他哪帅了， 骂他的大多是男人，捧他的大多是女人😂 帅帅帅 ，80后的我们不太喜欢这样的小鲜肉，这年头都是微整的帅锅和美女，审美都疲劳 ",
        "Reply": 47
    },
    "Article": "胡一天写真花絮曝光眼神不羁半卧撩人日前，胡一天《芭莎男士》写真花絮曝光。胡一天时而西装革履，时而休闲造型，眼神不羁望向镜头，十分魅惑。首度挑战雅痞绅士的胡一天半卧在沙发上，演绎型男慵懒风。",
    "URL": "http://ent.163.com/photoview/00AJ0003/646724.html"
}