{
    "Source": "Netease",
    "KeyWords": "禽流感,韩国,水产,家禽",
    "Title": "禽流感再度来袭 韩国紧急扑杀20万只家禽_网易新闻",
    "PublishTime": "12/25/201713:52:46",
    "URL": "http://news.163.com/17/1225/14/D6GOJDIK00018AOQ.html",
    "Article": "（原标题：禽流感再度来袭韩国紧急扑杀20万只家禽）新华社北京12月25日电韩国农业部门官员24日说，因禽流感病毒再度来袭，为防止疫情扩散，政府部门紧急扑杀了20.1万只家禽。韩国农林水产食品部一名官员当天说，位于西南部地区的4家养鸭场均检测出H5N6禽流感病毒。其中一家位于井邑，地处首尔以南约260公里处。另一家位于高敞，地处首尔西南约300公里处。另外两家均位于灵岩，位于首尔以南380公里处。这名官员说，自11月19日至12月24日，检疫人员已在上述4家养鸭场共计扑杀了20.1万只鸭子。韩国上月再度发现禽流感疫情后，不少人担忧疫情会蔓延至全国。为了防止疫情扩散，农林水产食品部长官金瑛录下达禁令，要求各大市场停止销售14周龄以下的幼雏。此外，农林水产食品部还成立16个检察组，监督检查禁令执行情况。同时，农林水产食品部还要求韩国全国300多处家禽交易点增加歇业和消毒次数。去年11月，韩国曾遭禽流感肆虐，扑杀超过3200万只家禽，占全国家禽总量的近五分之一。由于其中多数是能够产蛋的母鸡，导致下蛋母鸡数量锐减。今年春节期间，韩国曾陷入“鸡蛋荒”，鸡蛋一度摇身变为“金蛋”，价格飞涨。韩国随后从美国、西班牙、澳大利亚和新西兰进口鸡蛋，一定程度稳定了价格。但由于美国和西班牙也暴发疫情，韩国随后决定暂停从上述国家进口鸡蛋。本文来源：新华社新媒体专线作者：张旌责任编辑：邵小波_NN2479",
    "Comment": {
        "Content": "贫穷落后、吃不饱的一面，岂不是要雪上加霜了 假消息我们的没动静 ",
        "Reply": 2,
        "Link": "http://comment.news.163.com/news2_bbs/D6GOJDIK00018AOQ.html",
        "Total": 2
    }
}