{
    "Title": "湖南永州撤销两名\"火箭提拔\"干部任命 处分多人_网易新闻",
    "URL": "http://news.163.com/17/1225/18/D6H9IJ0G0001899N.html",
    "Source": "Netease",
    "Comment": {
        "Total": 2087,
        "Reply": 71,
        "Content": "倒算一下吧，20岁本科毕业，16岁上大学，10岁小学毕业，4岁上一年级，你觉得正常啊？ 20岁毕业参加工作很正常呀 继续深查普查吧，山东不少史上最牛公务员 严查，20岁就参加工作玩呢这是 没免干净算幸运了 湖南真的要将所有大小官员推到重来的时候了，世界上最贪的地方除了广东，湖南第二，世界公认。 谁提拔的？ 广东可不背这个黑锅，祖国山河一片黑，到处都一样！腐败不是今天才有的，绝对权力导致绝对腐败，这是必然的！ 不收手顶风作案的典型，拿下，斩立决，钦此！ 批评教育，诫勉是什么意思 查查他们的后台 20岁本科毕业... 湖南违规问题真多 领导要调走了，再不火速提拔就没机会了吧？ 干得好 顶风作案啊！厉害👍 永州之野产异蛇🐍 有钱能不能使鬼推磨呢？ 就是意思意思一下，哈哈哈 说什么常委会通过才行， 这种现象太普遍了。。。我们这90后当正科长了。。 哈哈，它们胆子还是那么大！肆无忌惮，那就必死无疑！ 湖南官场 对东安县委书记冯德校进行批评教育;对东安县委常委、县委组织部部长彭俊卿给予诫勉;责成东安县委对其他相关责任人进行问责。 湖南政治乱象 还有就是收的钱要退出来 这几年，湖南曝光了很多起，屡禁不止！ 我们银行里副局的儿子90后现在已经是副科级了 安徽不服 枪毙坐牢。 这种作假的还要留下来么 好，支持，必须支持 nmb，不是说打印机坏了，打出的字模糊吗，为湖南人感到羞耻 谁提的啊？ 严查这种作作的官场现形记 真聪明两个出生年月升官的时候用大的年月当官了用小的年月 看吧，刚爆出来的时候我就说绝对有问题。 永州产毅蛇 怎么我看到的老是湖南提拔干部问题多！ 不就是县委书记点头才有的这次提拔吗？ 92年，25岁，正科级实职，大好前途，毁于一旦，这一辈子副科到头了 干得好 20岁毕业参加工作很正常呀 永州是个什么情况？怎么感觉出了很多各种奇葩新闻。。。 人家是神童，三岁小学毕业，七岁中学毕业，十岁本科毕业。玩了十年，二十岁参加工作。。。。 乱相不治不行无法无天。 是产异蛇的那个永州吗？ 这种人肯定不是什么好东西！ 顶风作案啊！厉害👍 10多岁工作的也有 批评教育，诫勉是什么意思 没免干净算幸运了 干的漂亮 我们学校有位老师19岁专科毕业，正常的都是21岁或22岁毕业。 对东安县委书记冯德校进行批评教育;对东安县委常委、县委组织部部长彭俊卿给予诫勉;责成东安县委对其他相关责任人进行问责。 阅阅 湖南是全国最乱的 对顶风作案者应该严加处理 我们银行里副局的儿子90后现在已经是副科级了 安徽不服 各地查查，应该有很多。 这种作假的还要留下来么 说什么常委会通过才行， nmb，不是说打印机坏了，打出的字模糊吗，为湖南人感到羞耻 永州八记 永州之野产异蛇🐍！ 东安哪里的 倒算一下吧，20岁本科毕业，16岁上大学，10岁小学毕业，4岁上一年级，你觉得正常啊？ 严查后台！！！ 湖南真的要将所有大小官员推到重来的时候了，世界上最贪的地方除了广东，湖南第二，世界公认。 好好好 广东可不背这个黑锅，祖国山河一片黑，到处都一样！腐败不是今天才有的，绝对权力导致绝对腐败，这是必然的！ sb年年都有，今年忒别多 好，嚴查後台 乱七八糟 谈谈话就结束了？ 支持 就是意思意思一下，哈哈哈 比如张辉 所以还得论资排辈。 这种现象太普遍了。。。我们这90后当正科长了。。 我的家乡，东安，多多报道点！ 哈哈，它们胆子还是那么大！肆无忌惮，那就必死无疑！ 湖南官场 卖官不成亏把米。 继续深查普查吧，山东不少史上最牛公务员 严查这种作作的官场现形记 真聪明两个出生年月升官的时候用大的年月当官了用小的年月 应该不分彼此吧！ 不就是县委书记点头才有的这次提拔吗？ 92年，25岁，正科级实职，大好前途，毁于一旦，这一辈子副科到头了 处分？到底有多少分可扣？ 严查，20岁就参加工作玩呢这是 领导要调走了，再不火速提拔就没机会了吧？ 谁提拔的？ 还有就是收的钱要退出来 查查他们的后台 湖南违规问题真多 哦⊙∀⊙！ 谁提的啊？ 永州之野产异蛇🐍 干得好 这几年，湖南曝光了很多起，屡禁不止！ 怎么我看到的老是湖南提拔干部问题多！ 湖南政治乱象 很强势 20岁本科毕业... 枪毙坐牢。 92正科哎我太失败了85年才副处 好，支持，必须支持 干得好！ 不收手顶风作案的典型，拿下，斩立决，钦此！ 看吧，刚爆出来的时候我就说绝对有问题。 永州产毅蛇 有钱能不能使鬼推磨呢？ 20岁本科毕业，这种神童不去少年科技大学深造以便更好地报效国家，竟然跑到一个小县抢官当，真他妈的可恶。 干得好 ",
        "Link": "http://comment.news.163.com/news2_bbs/D6H9IJ0G0001899N.html"
    },
    "Article": "（原标题：湖南永州取消两名“火箭提拔”干部任命决定：未严格执行选拔任用工作程序）新京报快讯湖南东安县干部任命被指“火箭提拔”、“带病提拔”一事有进一步调查结果。今日(12月25日)，永州市委组织部回应称，两名简历存疑干部提拔过程未严格执行工作程序，现决定取消两人任命决定，多名主管官员被处分。新京报此前报道，12月10日，湖南东安县组织部发布的一份“干部简历公示”通告，引发广泛质疑。根据东安县组织部公示的简历信息，出生于1992年，拟提拔为东安县共青团县委书记的宋雨翼，按照正常学制推算，最早应于2014年毕业并参加工作，而官方公示其2012年本科毕业后，即成为选调生参加工作，时年仅20岁;本次拟提拔为东安县法院副院长的周建明，此前仅为乡镇法庭法官助理，2015年4月24日，永州市纪委办公室通报东安县人民法院办公室主任唐庆元违规操办女儿婚宴问题查处情况，被处分人员中包括周建明。10日上午，新京报记者从永州市委组织部获悉，针对东安县干部任前公示被质疑问题，永州市委组织部已启动调查复核程序，结果将及时向公众通报。今日，永州市委组织部通报事件调查结果称，经查，东安县委在周建明、宋雨翼的选拔任用过程中，未严格执行干部选拔任用工作程序，未按照干部双重管理的规定征求协管方意见。其中，宋雨翼早期学籍材料有两个出生年月，根据干部档案有关政策进行核实，其出生年月应为1991年4月。针对上述问题，永州市委组织部责成东安县委取消周建明拟任东安县人民法院副院长和宋雨翼拟任共青团东安县委副书记、党组成员的决定。对东安县委书记冯德校进行批评教育;对东安县委常委、县委组织部部长彭俊卿给予诫勉;责成东安县委对其他相关责任人进行问责。就宋雨翼年龄问题，移交有关部门继续调查处理。本文来源：新京报作者：王煜责任编辑：李杭_BJS4645",
    "PublishTime": "12/25/201718:58:41",
    "KeyWords": "湖南,官员,市委"
}