{
    "Source": "Netease",
    "PublishTime": "12/26/201716:24:11",
    "KeyWords": "大学,溜冰场,南方,滑冰",
    "Title": "大学操场浇水后变成溜冰场 南方学生乐坏了_网易新闻",
    "Comment": {
        "Link": "http://comment.news.163.com/news2_bbs/D6JJ4D070001899N.html",
        "Total": 75,
        "Content": "浪费水 看地方，是生姜~~~~~那地方现在到处XXXX 瞅啥咧 不错，人生总要多一点乐趣才好 新闻肯定不会说这帮哥们溜冰玩了进房间之后吹暖气还要脱衣服，来南方溜冰试试，溜完冰之后进房间你会发现房间里面比外面还TM的冷冷冷！ 哇！第一次冰上运动，感觉很新鲜！东北学生：瞅啥呢？这不是很常见吗？ 流星月亮地球太阳系有发动机么？没有!他们却高速在宇宙中运行!为什么？因为他们的运行轨道本身就是太空高速时空隧道!他们的运行路线一半为去路一半为来路，周而复始地运行着!地球自转公转着，本就没有东西南北上下左右等方位!谁定的？我们的天父啊!目的只有一个，告诉人类我们天父的星座方位!所以九曲桥的方向始终对着东北方!在宇宙一切物质中，永远是子体围绕母体运动，这是恒定的!所以地球自转并围绕太阳公转!因地球是自转公转的，所以根据地球的东西南北是找不到星外文明的星座方位的!只有找到太阳的上下前后东西南北才能准确地给天父星座方位定位!我们天父星座方位在太阳系东北上方第九颗恒星那里!那里以双伴恒星为中心带动周围108颗恒星运动着! 看地方，是生姜~~~~~那地方现在到处XXXX 不错，人生总要多一点乐趣才好 傻逼 浪费水 瞅啥咧 从小学到高中都是这样的啊～。～几块钱就可以租一个冬天的冰刀 新闻肯定不会说这帮哥们溜冰玩了进房间之后吹暖气还要脱衣服，来南方溜冰试试，溜完冰之后进房间你会发现房间里面比外面还TM的冷冷冷！ 脚气就这么传播的。 从小学到高中都是这样的啊～。～几块钱就可以租一个冬天的冰刀 我去，我失忆了 哇！第一次冰上运动，感觉很新鲜！东北学生：瞅啥呢？这不是很常见吗？ ",
        "Reply": 12
    },
    "Article": "（原标题：南方人不懂北方人系列：操场浇水变溜冰场，下雪天上滑冰课爽歪歪）#endText.video-infoa{text-decoration:none;color:#000;}#endText.video-infoa:hover{color:#d34747;}#endText.video-listli{overflow:hidden;float:left;list-style:none;width:132px;height:118px;position:relative;margin:8px3px0px0px;}#entText.video-lista,#endText.video-lista:visited{text-decoration:none;color:#fff;}#endText.video-list.overlay{text-align:left;padding:0px6px;background-color:#313131;font-size:12px;width:120px;position:absolute;bottom:0px;left:0px;height:26px;line-height:26px;overflow:hidden;color:#fff;}#endText.video-list.on{border-bottom:8pxsolid#c4282b;}#endText.video-list.play{width:20px;height:20px;background:url(http://img1.cache.netease.com/video/img14/zhuzhan/play.png);position:absolute;right:12px;top:62px;opacity:0.7;color:#fff;filter:alpha(opacity=70);_background:none;_filter:progid:DXImageTransform.Microsoft.AlphaImageLoader(src=\"http://img1.cache.netease.com/video/img14/zhuzhan/play.png\");}#endText.video-lista:hover.play{opacity:1;filter:alpha(opacity=100);_filter:progid:DXImageTransform.Microsoft.AlphaImageLoader(src=\"http://img1.cache.netease.com/video/img14/zhuzhan/play.png\");}if(/(iPhone|iPad|iPod|Android|NETEASEBOBO|blackberry|bb\\d+)/ig.test(navigator.userAgent)||/safari|chrome|firefox/i.test(navigator.userAgent)&&navigator.plugins&&!navigator.plugins[\"ShockwaveFlash\"]){varstr1='<videocontrols=\"controls\"preload=\"auto\"width=\"100%\"poster=\"http://vimg3.ws.126.net/image/snapshot/2017/12/B/4/VU5LR63B4.jpg\"style=\"max-height:100%\">';varstr2='<sourcetype=\"video/mp4\"src=\"http://flv.bn.netease.com/videolib3/1712/26/Ebqxr8431/SD/Ebqxr8431-mobile.mp4\">您的浏览器暂时无法播放此视频.</video>';document.getElementById(\"FPlayer1404863609673\").parentNode.innerHTML=str1+str2;}操场浇水变冰场，大学生爱上滑冰课（来源：original）window.NTES&&function(d){varf=function(c){varb=c.getAttribute(\"flashvars\"),a=c.getAttribute(\"repovideourl\").replace(\".flv\",\"-mobile.mp4\");h=d(c.parentNode.parentNode.parentNode),g='<embedsrc=\"http://v.163.com/swf/video/NetEaseFlvPlayerV3.swf\"flashvars=\"'+b+'\"allowfullscreen=\"true\"allowscriptaccess=\"always\"quality=\"high\"wmode=\"opaque\"width=\"100%\"height=\"100%\"type=\"application/x-shockwave-flash\"/>';if(/(iPhone|iPad|iPod|Android|NETEASEBOBO|blackberry|bb\\d+)/ig.test(navigator.userAgent)){g='<videocontrols=\"controls\"preload=\"auto\"width=\"100%\"height=\"100%\"><sourcetype=\"video/mp4\"src=\"'+a+'\">您的浏览器暂时无法播放此视频.</video>';}h.$(\".video\")[0].innerHTML=g;},e=function(b){vara=d(b.parentNode.parentNode.parentNode);a.$(\"li\").removeCss(\"on\"),b.addCss(\"on\"),a.$(\".video-title\")[0].innerHTML=\"string\"==typeofb.textContent?b.textContent:b.innerText,a.$(\".video-title\")[0].setAttribute(\"href\",b.getAttribute(\"url\")),a.$(\".video-from\")[0].innerHTML=\"（来源：\"+b.getAttribute(\"source\")+\"）\",f(b);};window.continuePlay=function(){vara,b=d(d(\".video-list.on\")[0].nextSibling);3==b.nodeType&&(b=d(b.nextSibling));if(b&&d(\".video-innerinput\")[0].checked){e(b);}},function(){vara={init:function(){if(d(\".video-listli\")[0]){d(d(\".video-listli\")[0]).addCss(\"on\"),this.eventBind();}},eventBind:function(){d(\".video-listli\").addEvent(\"click\",function(b){e(d(this)),b.preventDefault();});}};a.init();}();}(NTES);12月25日，新疆石河子大学，操场浇上水后就变成了溜冰场。全班同学在运动训练专业老师的带领下，开始了第一堂的特色滑冰课。南方学生感觉：哇！第一次冰上运动，感觉很新鲜！东北学生：瞅啥呢？这不是很常见吗？本文来源：一手Video责任编辑：李杭_BJS4645",
    "URL": "http://news.163.com/17/1226/16/D6JJ4D070001899N.html"
}