{
    "Article": "吉克隽逸越来越有气场宫廷风长裙好霸气近日，歌手吉克隽逸亮相成都群星新年音乐会，身着米色宫廷风长裙，显得十分优雅贵气。胸前的蛋糕褶皱特别浪漫，修身的设计又凸显出了黑美人的好身材。亮钻的耳饰闪耀夺目，衬托出她独一无二的优雅气质。早就知道黑美人什么发型都能驾驭，没想到大背头也hold得住，霸气干练，女王范儿十足。",
    "PublishTime": "12/30/201711:49:38",
    "URL": "http://ent.163.com/photoview/00AJ0003/646980.html",
    "Comment": {
        "Content": "挺好看的 你这就是重口难调 你也许喜欢吃巧克力 宋小宝亲戚 小黑妞这个造型不错 丑逼一个！ 别自卑，现在社会很宽容的！ 黑珍珠👍👍 竟然觉得有点好看？ 好声音 你这就是重口难调 你也许喜欢吃巧克力 丑逼一个！ 小黑妞这个造型不错 [狗][狗][狗] 黑人應該不喜歡吃巧克力 有点撑不起来这衣服，瘦了点，而且太矮。看比例穿了很高的高跟鞋。 这衣服好像婚礼时候切的那种好几层的蛋糕，不过是拉长版的 终于不穿尿不湿上台了 怀孕了 竟然觉得有点好看？ 这个傻子又续费了 是比以前好看了 宋小宝亲戚 别自卑，现在社会很宽容的！ 黑珍珠👍👍 挺好看的 ",
        "Link": "http://comment.ent.163.com/ent2_bbs/PHOTJNQ4000300AJ.html",
        "Total": 118,
        "Reply": 18
    },
    "Source": "Netease",
    "Title": "吉克隽逸越来越有气场 宫廷风长裙好霸气_网易娱乐",
    "KeyWords": "吉克隽逸,"
}