{
    "Source": "Netease",
    "KeyWords": "伊朗,步枪,狙击步枪,武器",
    "URL": "http://war.163.com/17/1222/15/D696E28H000181KT.html",
    "PublishTime": "12/22/201715:29:52",
    "Comment": {
        "Content": "《国家利益》是中国的，反对美国无理抢占。 东条英机敢反整个亚洲，你点不点赞？ 伊朗也学会赶以超美了吧？也解决有无的问题了吧？ 2楼你敢反抗你们村长吗 美帝人人都敢反，所以不是什么了不起的事情，呔！一楼，我说一国，你在这里反了，我就算你牛逼如何？ 人家敢于反抗强权，不是那种跪舔软骨头 我点赞伊朗，他在外交上，敢于反美，实力上比较强悍！ 拿个榴弹发射器跟反器材比,有可比性么 这枪看着像是给重机枪加了个瞄准镜似得，长的很像M2重机枪. 独裁国家没有未来 伊朗这几年在经济军事上发展较快，已成为中东强势的国家之一 真没有，差一步，可就是过不去。。 美菌不相信它能打爆自己的狗头，很想在小艇上跪着并老实滴双手抱头让伊朗试试……。呵呵 伊朗还能混多久？ 伊朗，加油！ 我点赞伊朗，他在外交上，实力上比较强悍！ 有核武，没人敢拿他怎么样，除非他自己解体…… 看成海尔了 除了zj这个点没什么可反对伊朗的 东条英机敢反整个亚洲，你点不点赞？ 伊朗也学会赶以超美了吧？也解决有无的问题了吧？ 真没有，差一步，可就是过不去。。 我点赞伊朗，他在外交上，敢于反美，实力上比较强悍！ 2楼你敢反抗你们村长吗 打就是萨达姆卡扎菲下场 呵呵 伊朗，加油！ 这枪看着像是给重机枪加了个瞄准镜似得，长的很像M2重机枪. 看成海尔了 伊朗是人类历史上最强悍的国家 人家敢于反抗强权，不是那种跪舔软骨头 我点赞伊朗，他在外交上，实力上比较强悍！ 一直在赶，为民族复兴！ 射一颗到美国试试，看朝鲜能活过一个月吗，中国也是一样，吹归吹，不敢用 《国家利益》是中国的，反对美国无理抢占。 独裁国家没有未来 起码比你美爸久 拿个榴弹发射器跟反器材比,有可比性么 看什么时候打， 敢，中国不是老是某国吗，名字都不敢提，更不用说打 伊朗这几年在经济军事上发展较快，已成为中东强势的国家之一 美菌不相信它能打爆自己的狗头，很想在小艇上跪着并老实滴双手抱头让伊朗试试……。呵呵 伊朗还能混多久？ 有核武，没人敢拿他怎么样，除非他自己解体…… ",
        "Total": 400,
        "Link": "http://comment.war.163.com/news_junshi_bbs/D696E28H000181KT.html",
        "Reply": 27
    },
    "Article": "（原标题：美刊揭秘伊朗新式国产反器材步枪：或很快现身中东各战场）参考消息网12月22日报道美国《国家利益》双月刊网站12月14日报道称，伊朗经常过分夸大自己军事技术，在某些情况下，它还会炫耀假装备用于宣传目的。伊朗的军事工业同样也是花样频出，常生产出一些有趣的武器，而伊朗随后把它们用在真实的冲突中。伊朗在今年4月披露了一款口径为12.7mm半自动“海达尔”狙击步枪，以庆贺一年一度的伊朗建军节——这是一个展示新硬件的舞台。这件样貌古怪的武器是一种反器材步枪（anti-materialrifle），主要用于摧毁装备和车辆。它并非各类狙击步枪中最令人印象深刻的一员。伊朗国家通讯社报道说，“海达尔”的有效射程为1600米，比美军的“巴雷特”M82和法国的“赫卡特”II型狙击步枪近了200米。美国陆军对外军事研究室在其新闻简报中提到了“海达尔”步枪，称这种武器“令人好奇”。让人好奇的不仅是它的射程，还有它的重量。“海达尔”很重，重量超过38磅（1磅约为0.45公斤），比“巴雷特”M82重8磅。这种笨重的设计令它称不上是最实用的武器，但这只是次要担心，最重要的是它对得到伊朗支持的准军事部队来说是否足够好。“海达尔”是一款混合了各种元素的步枪，它拥有模仿MG-3机枪的相似枪把和扳机的构造，MG-3是德国设计的MG-42机枪的现代化版本。在伊朗伊斯兰革命于1979年爆发前，伊朗就生产了本国版的MG-3机枪。“海达尔”还有一个侧置弹匣和一个用于减少后坐力的枪口制退器，考虑到装填的子弹威力强大，后者几乎是必需的。但是这款步枪看起来并不舒适。伊朗发布了一段显示一名士兵用“海达尔”进行射击的视频，这名士兵笨拙地努力把一侧脸颊抵在短短的枪托上，不过这款枪的后部似乎有一个可调节的附件。无论如何，如果“海达尔”很快出现在伊朗境外，别太惊讶。伊朗已经向叙利亚、黎巴嫩和加沙的盟友出口了反器材步枪。追踪枪械行业发展的“枪械博客”写道，鉴于伊朗自己实际上并没有在使用“海达尔”，至少现在还没有，所以伊朗心中或许已经有了至少一个出口目标。（编译/冯雪）资料图：“海达尔”狙击步枪。本文来源：参考消息网责任编辑：李曦_NN2587",
    "Title": "美刊揭秘伊朗新式国产反器材步枪:或现身中东战场_网易军事"
}