{
    "Source": "Netease",
    "KeyWords": "俄军,F-35,隐身战斗机,",
    "URL": "http://war.163.com/photoview/4T8E0001/2286743.html",
    "PublishTime": "12/22/201709:41:52",
    "Comment": {
        "Content": "美国人的发明的电脑、系统、网络，2楼土狗不是一样舔。 美12艘航母，剩余168个国家加起来才多少艘？穷兵黩武你到底想说谁？ 苏27迟到了10年，苏57迟到20年，下一型战斗机估计会迟到30年了，歼10迟到30年，歼20迟到20年，下一型战斗机估计只迟到10年 挪威的这个f35应该还是猴版的，美本土的岂不是要把毛子吓出屎来 二楼这货职业骂农民几年了吧 你舔美菊花的不是真正的汉奸哈哈 战机照片拍得真棒啊！ F22,F35,F117A,S71,X47B，无法逾越的 如果苏俄继续保留沿袭自己“传统”的穷兵黩武那一套，坚持所谓“走自己的路”，不与现代人权、自由文明融合，那它就仍然会让地球人担忧和惧怕，自己把自己置于异类，不得人心。 更别忘了米格29是真正的靶机，实战战绩为0，就是被美帝等飞行员刷战绩用的。 楼上的学中文太可惜了， 马里亚纳猎火鸡 十亿又穷又懒又烂生农民，种田都种不过美帝300万从事市民！还好意思喷科研工作者 我操F35可以随便拍照啊。我他妈拍了个奸6被审查一个月 别绕弯子了，直接说放弃武器做美国的狗不就行了？ 毛子彻底被F35吓到了目瞪口呆 同样叫35，做灰机的差距咋就这么大泥！ 用飘柔……就是这么自信！ 而你却被主流文明拒签！ 大家注意看一图那三位仁兄的表情，呆若木鸡，就像刘姥姥进了大观园，似发现新大陆一般。很显然他们被闪电的气场震住了心里直打鼓，这外星怪物般飞行器我们那些傻大粗货能打赢吗 还有这么比的？符合材料不是塑料，你这个塑料两个字用的真好。全球有2个国家，令人敬佩，一个是捷克、另一个是前苏，这2个国家擅于用二流的技术整合出一流的产品，美德法英等都想学会这招，可惜难以实现。前苏武器确实不太好看，但是人家确实能做到战术性能！即人家说了能做到什么事，就确实真的能做到，俄实际上这些年没什么新东西，都是在吃前苏老本，现在老本吃光了，自然难以为继。希望各位看问题不要肤浅，别学美国专家，初次看到米格25，发现是不锈钢制造，就迫不及待的开始群嘲，后来摸透机体后上天检测实战性能，被彻底惊呆，决口不提米格25落后过时等话题，因为米格25确实能做到，高空高速截击，西方现役战机无一可以匹敌，面对米格25的高空突袭束手无策。 罪犯最恨的就是全副武装的警察，更恨的就是居然有那么多的警察！ 说不定百来年后都全球统一了…… 苏-35在F-35的面前会是个什么呢？ 1图这三位被闪电气场镇住了的仁兄心里想F战机不愧为我们苏俄货的克星！服了！要是开战我们的战机没有赢的机会 没发现差距吗？ 米格25只能说明苏联的航空工业在某些方面可以做到极致，包括用一次性发动机跑到马赫3，用大功率电子管雷达实现远程火控等等，但是在飞机制造技术，材料技术，发动机，航电系统方面和美国的差距太大了 有啥用？虽然从来没见过j20实物，但j20是中国造的，所以就是无敌，其他一切都是垃圾，f22和35在j20面前根本不够秒的，就问你这么吹你服不服，不服就骂你是美狗 快点看吧，以后还没看到就被完了。 跟米格29在F15，F16面前一个样....成为最好的靶机！ 瞎说啥实话 一脸的懵逼加无奈 跟贴被火星网友带走啦~ 拖拉司机围观保时捷 二楼这货是条倭豚 好奇美国飞机涂装怎么这么好看啊，感觉涂料都跟我们不一样，好有质感 会成为残骸 F35是主流文明的一个象征 让你们鹅毛开开眼 饿军看了眼馋啊 俄罗斯造战机还在用金属，欧美已经用上塑料了。同一个题目重复报有意思吗？小编怎么不去采访一下他们俄罗斯人什么感想？ 手工作坊确实超越不了 不是说猛禽都怕苏35吗？哈哈 罪犯最恨的就是全副武装的警察，更恨的就是居然有那么多的警察！ 这质感…～👌 挪威的这个f35应该还是猴版的，美本土的岂不是要把毛子吓出屎来 你舔美菊花的不是真正的汉奸哈哈 美12艘航母，剩余168个国家加起来才多少艘？穷兵黩武你到底想说谁？ 楼上的学中文太可惜了， 十亿又穷又懒又烂生农民，种田都种不过美帝300万从事市民！还好意思喷科研工作者 我操F35可以随便拍照啊。我他妈拍了个奸6被审查一个月 二楼这货职业骂农民几年了吧 而你却被主流文明拒签！ 唉，但我们也要用生命跟美国为首西方国家战斗到最后一刻。在冲绳培训完冲绳独立组织的人，我下个月就去俄罗斯安保公司报道了，希望我在叙利亚的战斗能别少胳膊少腿吧。 说不定百来年后都全球统一了…… 手工作坊确实超越不了 1图这三位被闪电气场镇住了的仁兄心里想F战机不愧为我们苏俄货的克星！服了！要是开战我们的战机没有赢的机会 瞎说啥实话 三个傻逼眼睛已经无法关闭了， 霉狗开始舔。。。高潮了。。。 警察在某些地方叫合法流氓吧，还罪犯，知道几个词就把你得瑟的，辣眼睛。 一脸的懵逼加无奈 马里亚纳猎火鸡 大家注意看一图那三位仁兄的表情，呆若木鸡，就像刘姥姥进了大观园，似发现新大陆一般。很显然他们被闪电的气场震住了心里直打鼓，这外星怪物般飞行器我们那些傻大粗货能打赢吗 F35是主流文明的一个象征 还有这么比的？符合材料不是塑料，你这个塑料两个字用的真好。全球有2个国家，令人敬佩，一个是捷克、另一个是前苏，这2个国家擅于用二流的技术整合出一流的产品，美德法英等都想学会这招，可惜难以实现。前苏武器确实不太好看，但是人家确实能做到战术性能！即人家说了能做到什么事，就确实真的能做到，俄实际上这些年没什么新东西，都是在吃前苏老本，现在老本吃光了，自然难以为继。希望各位看问题不要肤浅，别学美国专家，初次看到米格25，发现是不锈钢制造，就迫不及待的开始群嘲，后来摸透机体后上天检测实战性能，被彻底惊呆，决口不提米格25落后过时等话题，因为米格25确实能做到，高空高速截击，西方现役战机无一可以匹敌，面对米格25的高空突袭束手无策。 俄罗斯造战机还在用金属，欧美已经用上塑料了。同一个题目重复报有意思吗？小编怎么不去采访一下他们俄罗斯人什么感想？ 不是说猛禽都怕苏35吗？哈哈 美国人的发明的电脑、系统、网络，2楼土狗不是一样舔。 苏27迟到了10年，苏57迟到20年，下一型战斗机估计会迟到30年了，歼10迟到30年，歼20迟到20年，下一型战斗机估计只迟到10年 吓尿了 没机会去霉国当美狗的霉狗倭豚高潮阵阵 战机照片拍得真棒啊！ 不谈判被秒杀，参考萨达姆卡扎菲 如果苏俄继续保留沿袭自己“传统”的穷兵黩武那一套，坚持所谓“走自己的路”，不与现代人权、自由文明融合，那它就仍然会让地球人担忧和惧怕，自己把自己置于异类，不得人心。 更别忘了米格29是真正的靶机，实战战绩为0，就是被美帝等飞行员刷战绩用的。 好奇美国飞机涂装怎么这么好看啊，感觉涂料都跟我们不一样，好有质感 跟贴被火星网友带走啦~ 毛子彻底被F35吓到了目瞪口呆 同样叫35，做灰机的差距咋就这么大泥！ 就这么泄密？ 是啊f那个刚被s200打断一体<br>条腿 美国做的飞机外形和涂色都好漂亮，俄罗斯的比较丑，但实战就不知道了 苏-35在F-35的面前会是个什么呢？ 米格25只能说明苏联的航空工业在某些方面可以做到极致，包括用一次性发动机跑到马赫3，用大功率电子管雷达实现远程火控等等，但是在飞机制造技术，材料技术，发动机，航电系统方面和美国的差距太大了 没发现差距吗？ 别绕弯子了，直接说放弃武器做美国的狗不就行了？ 快点看吧，以后还没看到就被完了。 跟米格29在F15，F16面前一个样....成为最好的靶机！ 用飘柔……就是这么自信！ 拖拉司机围观保时捷 有啥用？虽然从来没见过j20实物，但j20是中国造的，所以就是无敌，其他一切都是垃圾，f22和35在j20面前根本不够秒的，就问你这么吹你服不服，不服就骂你是美狗 会成为残骸 是的，你不是美帝的狗，是毛子的乖孙子！ 让你们鹅毛开开眼 饿军看了眼馋啊 F-22:都没人来看我，生气☹️ 非美既俄？好好做个中国人不行？ ，， ",
        "Total": 2317,
        "Link": "http://comment.news.163.com/photoview_bbs/PHOT25P4N00014T8.html",
        "Reply": 57
    },
    "Article": "首次“触电”！俄军近观F-35隐身战机据挪威国防部发布消息称，12月5日，俄罗斯武装部队的三名官员访问了挪威的叶尔兰空军基地，该基地驻扎有挪威空军1个月前刚从美国接收的F-35A隐身战斗机。这是俄罗斯军队人员首次可以近距离接触F-35战斗机。挪威国防部表示，此次的访问活动是根据俄罗斯和北约组织2011年在维也纳签署的削减进攻性战略武器条约框架内派出协查小组进行的正常活动。",
    "Title": "首次“触电”！俄军近观F-35隐身战机_网易军事"
}