{
    "Comment": {
        "Link": "http://comment.news.163.com/news2_bbs/D6KETS8V00018AOQ.html",
        "Reply": 85,
        "Content": "按去年气象专家分析不刮风的原因是北极西伯利亚寒带大冷气团稳固不活动导致没有冷空气南下，所以秋冬春相继无风。 据说开了几个风道，看来真管用 今年空气质量很好，治理收到了成效，望政府加大治理力度， 我们这里今年真不行，感觉比去年没见强多少 今年华北地区风很给力，每周不少两场风，去年秋冬春那风少的可怜。 你算球！全吹我们中部来了 虽然损失了一些利益，但我也吸到了良好的空气，有怨言，同时也点赞。 张家口的防风林………已经………，没觉得今年风大了吗！ 今年空气质量好转，天气是一个方面，治理力度大是绝对的因素，我是产销阀门的，铸造厂在河北，喷涂厂在天津都基本停产了，耽误了很多订单。还有华北西北大面积煤改电煤改气，也起了很大作用。 货车就别说了，小汽车还差不多。每次开车，前边只要有个柴油车，那家伙味儿大的，如果开着外循环，整个车里全是味儿呛得不行。躲避不及。 今年天气都不对两个月没看到雨雪了 这个专家说的是真活，北京现在污染指数144，马上就是中度污染，明后天很有可能是重度污染，所以别吹牛逼！治理污染，任重道远！ 我的评论能不能排第一 今天雾霾就来了 今天雾霾确实较往年少了 主要是煤改气，还有让很多污染企业停产了 每次冷空气来临，长江中下游就不行了 几十年前就说了不走西方人先污染再治理的老路，重蹈覆辙比别人摔得还惨有什么值得夸赞的？ 早说了是路边烧烤和家里炒菜的原因啦 这个不信 三天没风雾霾重来，可是在工厂关停大半的情况下。 不供暖问题就解决了 本来就和车的关系不大，要是大的话，那欧美不是该天天重污染。 昨晚开始能闻到煤烟味了,今天果然就破百了,也变得灰蒙蒙了 最烦的就是刚好没两天就又开始忘乎所以 这下确定真不管货车啥事吧。 什么情况 回到原始社会，到了季节，PM2.5一样爆表。 宫墙内这风从来就没用停过 对百姓的生命健康有莫大帮助 嗯，油品质量更好一些就好了，主要是工厂 停了工厂，你们懂的 政府的努力也起了很大作用 不供暖问题就解决了啊！ 目前大自然的风力太重要了，北京人要吹霾扫雾，大西北要发电挣钱，好好磨合吧！ 车还是没少，空气质量好转，说明和车关系不大 你们懂的 只要不刮风一天就轻度。 按去年气象专家分析不刮风的原因是北极西伯利亚寒带大冷气团稳固不活动导致没有冷空气南下，所以秋冬春相继无风。 有木头 这个专家说的是真活，北京现在污染指数144，马上就是中度污染，明后天很有可能是重度污染，所以别吹牛逼！治理污染，任重道远！ kkkl 刮了一冬天的大风功劳算环保局的吧！ 今年华北地区风很给力，每周不少两场风，去年秋冬春那风少的可怜。 东风独与京城便 今天雾霾就来了 主要是煤改气，还有让很多污染企业停产了 货车就别说了，小汽车还差不多。每次开车，前边只要有个柴油车，那家伙味儿大的，如果开着外循环，整个车里全是味儿呛得不行。躲避不及。 相比去年确实好了很多 呵呵 几十年前就说了不走西方人先污染再治理的老路，重蹈覆辙比别人摔得还惨有什么值得夸赞的？ 原来每次都会把雾霾吹到南方，今年情况好很多，家里南方也没听说几次雾霾了 不供暖问题就解决了啊！ 本来就和车的关系不大，要是大的话，那欧美不是该天天重污染。 环保搞的好 只要不刮风一天就轻度。 所以雪肯定是没有了，也不用盼了 回到原始社会，到了季节，PM2.5一样爆表。 解释解释国情蓝、apec蓝等各种蓝 今年空气质量很好，治理收到了成效，望政府加大治理力度， 呵呵 今年空气质量好转，天气是一个方面，治理力度大是绝对的因素，我是产销阀门的，铸造厂在河北，喷涂厂在天津都基本停产了，耽误了很多订单。还有华北西北大面积煤改电煤改气，也起了很大作用。 喜感 全烧天然气了 如何，只好 十里春风不如我大广州美！ 嗯，油品质量更好一些就好了，主要是工厂 河北、河南停产限产了很多工厂、打开了风道也是一方面、少挣点钱没关系、只要不是野蛮强行停产就能活、 虽然损失了一些利益，但我也吸到了良好的空气，有怨言，同时也点赞。 张家口的防风林………已经………，没觉得今年风大了吗！ 今年天气都不对两个月没看到雨雪了 和油有关！ 每次冷空气来临，长江中下游就不行了 是不错 早说了是路边烧烤和家里炒菜的原因啦 最烦的就是刚好没两天就又开始忘乎所以 这个不信 三天没风雾霾重来，可是在工厂关停大半的情况下。 满嘴喷粪？？大实话，车辆一辆没少，雾霾没了。不神奇么？？原来发布会说的话就和放屁一样。 昨晚开始能闻到煤烟味了,今天果然就破百了,也变得灰蒙蒙了 雾霾天气不好 怎么(ﾟoﾟ;弄的 就是风大而已。 对百姓的生命健康有莫大帮助 ，，， 河北今年限产50%，有可能年年如此么? 这下确定真不管货车啥事吧。 目前大自然的风力太重要了，北京人要吹霾扫雾，大西北要发电挣钱，好好磨合吧！ 车还是没少，空气质量好转，说明和车关系不大 傻逼美狗，那你说和啥有关系！ 这次为什么一直不承认整治有效呢？ 据说开了几个风道，看来真管用 好美 专家又来啦！ 全国人民辛苦了 河北人民已经很努力啦 呵呵 只要刮的是西北风，保证晴天没有雾霾，一刮的是东南风，保证雾霾，根源那里，不说自明。 你算球！全吹我们中部来了 努力吧…… 今年华北地区风很给力，每周不少两场风，去年秋冬春那风少的可怜。 没事，我多穿点就好。 谢谢！ 今天雾霾确实较往年少了 我的评论能不能排第一 每次冷空气来临，长江中下游就不行了 香港媒体总是那么不识时务。 经济，社会安定 冻死你丫挺的 停了工厂，你们懂的 河北河南山东大部分工厂停产，机器设备贴了封条，部分城市单双号限行，大小燃煤锅炉全部拆除更换，天然气供不应求，用空调取暖或硬扛着。好天气代价不小，不知道能坚持多久，如何找到长效机制，过两个月再看吧 今年春运火车票好买了 😂主要是散煤，现在很多城市禁止买卖和燃烧了，违者抓起来。 什么情况 上海有选择不吸霾的权利么？ 前几个月青岛的天空像诺尔盖，现在像北京😞 不供暖问题就解决了 我们这里今年真不行，感觉比去年没见强多少 ^_^回到原始社会空气质量绝对放心！ 山东问题多 今年空气质量好转，天气是一个方面，治理力度大是绝对的因素，我是产销阀门的，铸造厂在河北，喷涂厂在天津都基本停产了，耽误了很多订单。还有华北西北大面积煤改电煤改气，也起了很大作用。 治理任重道远，决胜优化产业。 中国崛起 政府的努力也起了很大作用 宫墙内这风从来就没用停过 你们懂的 ",
        "Total": 860
    },
    "Article": "（原标题：港媒关注北京蓝天增加：环境改善或成治污转折点）资料图片：这是2017年12月21日拍摄的颐和园十七孔桥“金光穿洞”美景。新华社记者张铖摄参考消息网12月27日报道港媒称，北京居民今年享受到了不同寻常的晴朗天空，官员们则表示，解决该市严重污染问题的措施似乎正在取得成效。然而，专家警告说，问题可能会死灰复燃。据香港《南华早报》网站12月26日报道，由于环境改善，11月份的PM2.5平均值比去年同期下降了54%，达到每立方米46微克。报道称，负责统计该数据的北京市环保局说，这是5年来11月份的最低数值。报道援引《北京日报》消息称，自从该市11月15日正式开始冬季供暖以来，数值停留在每立方米38微克，而之前4年的平均值是93微克。还记得今年1月份可怕雾霾的本地居民注意到，这个冬天多了许多蓝天。本月15日公布的官方数据显示，北京2017年的重污染天数减少到了21天，而2013年有58天。北京知名环保人士马军是公众与环境研究中心主任。他告诉《南华早报》记者：“政府努力治理污染。天气也帮了忙。”他说，今年冬天频繁出现强风和冷空气，是驱散空气污染物的重要因素，北京和周边地区的相关部门今年也采取严格措施治理空气污染。马军说，北京无疑将在今年年底实现把本市的PM2.5浓度控制在每立方米60微克的目标。这是该市治理空气污染五年计划的最后期限。不过，他警告说，不排除雾霾因天气变化卷土重来的可能性。马军还说，就在北京居民享受蓝天的同时，其他城市却出现了空气污染，比如西南省份四川的成都以及上海等地处长江三角洲的城市。这表明，要想实现在2030年之前把PM2.5浓度降低到每立方米35微克的目标，中国还面临着严峻挑战。报道称，中国政府已经把打击污染作为明年的优先重点之一。政府将推出全国范围的计划，迫使污染制造者赔偿损失。政府还打算在2021年之前让70%的北方城市从烧煤取暖改为烧天然气取暖。中国今年收紧了环保规定，强迫达不到环保标准的工厂关门。马军说，长期保持反污染措施是个难题。他警告说，中国北方的工业基础设施多年来一直是污染大户，如今仍然是推行清洁能源的障碍，而且规定需要充分执行。他说：“有必要确立法治，以加强环境监察、提高信息透明度并引入群众监督。”本文来源：参考消息网责任编辑：李天奕_NN7528",
    "PublishTime": "12/27/201700:17:01",
    "URL": "http://news.163.com/17/1227/00/D6KETS8V00018AOQ.html",
    "Title": "港媒关注北京蓝天增加：环境改善 或成治污转折点_网易新闻",
    "KeyWords": "北京,治霾,pm2.5,空气污染",
    "Source": "Netease"
}