{
    "Article": "网易娱乐1月2日报道据香港媒体报导，洪金宝于昨天（1月1日）元旦入马场，支持爱驹“飞云宝”在第二场出战。他戴着墨镜现身，精神十分好，健步如飞。赛前问他对爱驹是否有信心？他说有些，可惜“飞云宝”最后未能胜出。周家蔚上传全家福早前洪金宝的儿子洪天明被指疑似背妻“偷食（出轨）”；事后洪天明解释是喝酒而已，但强调没有做背叛老婆周家蔚的事。周家蔚也力挺老公，信任洪天明是对她及家庭负责任的人。洪金宝被问到洪天明此事，他立刻有点儿不耐烦，反问记者：“你有没有看到呀？你有没有看到呀？你不去问问他，眼睛那么犀利。”周家蔚前晚（12月31日）在社交网站继续上传一家四口合照，并祝大家新年快乐，看来事情已雨过天青。本文来源：网易娱乐责任编辑：陈恺_NK4686",
    "Title": "被问儿子出轨一事?洪金宝不耐烦回:你有没有看见_网易娱乐",
    "PublishTime": "01/02/201809:02:30",
    "Source": "Netease",
    "Comment": {
        "Content": "跟贴被火星网友带走啦~ 星二代出轨很正常啊！好爹不能白有 洪金宝的脾气可我真的不怎么好！特别能怼人！ 大家好，我是PGONE，请大家欣赏我的新rap《好吃不过饺子》：<br>comeon！<br>乃亮大哥，有些话不能多说。<br>你家的饺子味道真不错！<br>你的头发有点绿。<br>你的眼神有点忧郁。<br>你的人生就像言情剧。<br>哦，爸爸去哪儿了。<br>哦，嫂子去哪儿了。<br>嫂子和兄弟一起去哪儿了。<br>她挽着我的手。<br>她搂着我的头。<br>她把白白的饺子塞到我的口。<br>她在我的身下尽情的嘶吼。<br>one！two！three！four！<br>two！two！three！four！<br>three！two！three！four！<br>onceagainoh～yeah～<br>和我一起说唱！<br>嘿，乃亮！<br>不仅你的奶亮，你的头也亮！<br>嫂嫂说去做头发，我的小名就叫头发！<br>你天天喊我弟弟，嫂嫂也喊我弟弟，我还有个弟弟！<br>嫂嫂玩着你的弟弟，还玩着我的弟弟！<br>就问你刺不刺激！yeah！ 20年前的香港真的是大陆人梦寐以求的地方！香港人放个屁都是香的！<br>最佩服是洪金宝可以把范爷搞到人流，哪时的穷大陆巴结香港！<br>现在香港连我们乡下都比不上，香港人就如乡下佬！ 年轻时别人是大哥，他是小弟，现在他是大哥，自然会不一样了，不然在那个圈子，镇不住场子，要么退走美加，要么成为闲散人员。 年轻的他看着面善，年老的他看着面恶，大家发现没。。。 洪丞丞吗 警察姐姐穿裤子是不能随便搭的，要是穿着齐逼短裙的警察姐姐（柏芝同款）你是可以嗷....到天亮的 就是要你别bb问了 是的，简称乡港 自从演杀破狼以后越来越大佬样 修女应该玩过吧，牧师玩过没？ 是范丞丞我没翻译错吧 去东莞按摩，推门进来的是个学生妹，不错；后来经常去，有时候是护士，有时候是白领。昨晚推门进来的是一个女警察，我嗷地一声扑了过去。。。结果，哥悲剧了 出轨特么能看见？ 范丞丞还没结婚，怎么算出轨？ 范丞丞还没结婚，怎么算出轨？ 老子自己都管不住自己，儿子还能管 你有没有看到呀？你有没有看到呀？ 小心洪大爷一脚踢飞你 FCC一脸懵逼 说实话，狗仔队应该去找那些依靠炒作的女明星，洪金宝用不着。再说，他儿子的事儿关他鸟事儿，又不是未满18岁的人。 范冰冰的前夫，范丞丞的父亲。 老江湖了，也不会忌惮谁 我何时才能像你这样优秀 相随心生 啊哈哈哈 你算什么佬？ 上梁不正下梁才会歪 玩过穿中山装的再来吹吧。 誰被問這種事會很耐煩[疑問] 我被一楼逗喷了，哈哈 你有DNA鉴定报告？ 第一次看到这个段子的时候，我迎风尿三丈，现在都顺风滋一脚了 你们谁看见我骑冰冰了，一派胡言 呼伦贝尔大绿牛李晨：不要紧的！ 这位大佬不要随意惹了 我还真想现场看看 还真的是啊 跟贴被火星网友带走啦~ 就是要你别bb问了 修女应该玩过吧，牧师玩过没？ 20年前的香港真的是大陆人梦寐以求的地方！香港人放个屁都是香的！<br>最佩服是洪金宝可以把范爷搞到人流，哪时的穷大陆巴结香港！<br>现在香港连我们乡下都比不上，香港人就如乡下佬！ 年轻时别人是大哥，他是小弟，现在他是大哥，自然会不一样了，不然在那个圈子，镇不住场子，要么退走美加，要么成为闲散人员。 洪丞丞吗 你有没有看到呀？你有没有看到呀？ 是范丞丞我没翻译错吧 范冰冰的前夫，范丞丞的父亲。 很凶 范丞丞还没结婚，怎么算出轨？ 牛逼。 相随心生 啊哈哈哈 老江湖了，也不会忌惮谁 唉。。 这个的事情也问，哎，媒体也是挺累的 唉。。 誰被問這種事會很耐煩[疑問] 他那里很短得 姓李啊！ 你们谁看见我骑冰冰了，一派胡言 呼伦贝尔大绿牛李晨：不要紧的！ 这位大佬不要随意惹了 [挨揍]到底姓啥 星二代出轨很正常啊！好爹不能白有 洪金宝的脾气可我真的不怎么好！特别能怼人！ 大家好，我是PGONE，请大家欣赏我的新rap《好吃不过饺子》：<br>comeon！<br>乃亮大哥，有些话不能多说。<br>你家的饺子味道真不错！<br>你的头发有点绿。<br>你的眼神有点忧郁。<br>你的人生就像言情剧。<br>哦，爸爸去哪儿了。<br>哦，嫂子去哪儿了。<br>嫂子和兄弟一起去哪儿了。<br>她挽着我的手。<br>她搂着我的头。<br>她把白白的饺子塞到我的口。<br>她在我的身下尽情的嘶吼。<br>one！two！three！four！<br>two！two！three！four！<br>three！two！three！four！<br>onceagainoh～yeah～<br>和我一起说唱！<br>嘿，乃亮！<br>不仅你的奶亮，你的头也亮！<br>嫂嫂说去做头发，我的小名就叫头发！<br>你天天喊我弟弟，嫂嫂也喊我弟弟，我还有个弟弟！<br>嫂嫂玩着你的弟弟，还玩着我的弟弟！<br>就问你刺不刺激！yeah！ 小心洪大爷一脚踢飞你 唉。 大哥大 应该没有,也应该是三心两意 年轻的他看着面善，年老的他看着面恶，大家发现没。。。 自从演杀破狼以后越来越大佬样 没看 去东莞按摩，推门进来的是个学生妹，不错；后来经常去，有时候是护士，有时候是白领。昨晚推门进来的是一个女警察，我嗷地一声扑了过去。。。结果，哥悲剧了 范丞丞还没结婚，怎么算出轨？ 范丞丞还没结婚，怎么算出轨？ 是的，简称乡港 唉。。 战友呗 说实话，狗仔队应该去找那些依靠炒作的女明星，洪金宝用不着。再说，他儿子的事儿关他鸟事儿，又不是未满18岁的人。 唉， 我何时才能像你这样优秀 我被一楼逗喷了，哈哈 你算什么佬？ 玩过穿中山装的再来吹吧。 李晨见到金宝应该喊什么？ 你有DNA鉴定报告？ 第一次看到这个段子的时候，我迎风尿三丈，现在都顺风滋一脚了 瘦了 出轨肯定是不好 FCC一脸懵逼 还真的是啊 上梁不正下梁才会歪 出轨特么能看见？ 老子自己都管不住自己，儿子还能管 誰被問這種事會很耐煩[疑問] 我还真想现场看看 三狗屁记者，应该去问他儿子去 ",
        "Reply": 61,
        "Link": "http://comment.ent.163.com/ent2_bbs/D74QKM4500038FO9.html",
        "Total": 1261
    },
    "KeyWords": "洪金宝,洪天明,周家蔚",
    "URL": "http://ent.163.com/18/0102/09/D74QKM4500038FO9.html"
}