{
    "Title": "日媒：为追赶中俄，日尝试出口波兰新型核反应堆_网易军事",
    "URL": "http://war.163.com/17/1225/10/D6GBNUHL000181KN.html",
    "Source": "Netease",
    "Comment": {
        "Total": 541,
        "Reply": 34,
        "Content": "把福岛卖给波兰 世界上没有哪个核电站可以抗的了7级地震+海啸。现在是因为国内的都关了，不出口就坐等破产了 知道9级地震什么概念么？SB 但世界上让水泵事故变成接二连三爆堆事故的只有一家！ 日本的垃圾沸水堆，美国西屋的技术，卖不出去，强逼着日本接盘，还有韩国台湾，终于酿出福岛恶果。所以台湾反核也是有原因的哈。 欢迎来竞争，大家一起搞活市场！ 这真不比不了中国，出大状况我们的媒体肯定是第一时间报道。 躬将精神 说好了的剖腹呢？ 小鬼子要祸害欧洲的节奏。 7级都抗不了日本敢建那么多？福岛是百年不遇的九级地震造成的 日本敢往波兰送核反应堆？毛子的产略轰炸机立马又要去日俄边界兜风了 高技术就应该推广，像日本这种核泄漏处理技术就该配套核电站免费往世界输送。 万一出口波兰的爆堆了，放射水排向多瑙河？ 基础科学还是十八世纪的思维。。。。。。。 抗不了是一回事，出了事不积极处理，隐瞒不报，那是另一回事，还在这洗地。 是谁們家？快说说。。。 还想咋滴，罚酒？ 波兰人也不傻吧，敢用日本的核电站？ 2楼好酸！！！！！！！ 鞠躬就完事了？ 东电说：不管日狗怎么洗，我撒完谎就是不破产！ 尝试！核反应堆能随便尝试嘛！鬼子也太扯了！ 我们绝对没有把福岛的洗地水排向太平洋^_^ 把福岛卖给波兰 闭嘴，再说实话日杂咬死你 日本是一个科技发达的国家，它侵略中国，是因为它有侵略的能力和资本。日本非常重视国民教育，重视人才，所以日本的技术世界领先。日本的工业产品好用，<br>但到寿命周期就会坏。日本出口中国的商品大都是奢侈品，科技含量高，故意做的让你坏了修不了，也不给你提供配件，只能买新的。目的让中国先富起来的人<br>花更多钱买日本商品。<br>从早年的<br>计算器，照相机，手表，洗衣机，到现在的电视，冰箱，空调，电脑，手机，轿车，覆盖了所有家电行业消费品领域。把中国的企业顶破产。日本非常重视基础工业<br>的发展，例如电子产品，从电子元件到电子产品，日本都可以制造，而我国则是买日本和美国的电子元件组装电子产品。如果买来的电子元件质量不能保证，电子产品<br>的质量就无法和国外竟争。中国电子产品用的晶体管和集成电路都来源于日本和美国。日本出口中国的商品都是二等品。即使是二等品也比国货性能要好。<br>例如索尼笔记本电脑，操作系统做的特殊，坏了得收300元才给你装上。自己装的和原装的不一样。中国和日本在<br>科技上存在差距的原因是中国在国民教育方面投入较少，办学不是培养人才，而是让学校掏学生家长的腰包支撑学校的开支。社会分配不公，财富分配人的工资及灰色<br>收入太高。保障民生的房价太高，使很多人毕业后就陷入谋生的旋涡，没时间继续钻研科技知识。掌握高科技的人只被当作书呆子利用。都是有关系会行贿的人拿高工资。<br>真正做贡献的人劳动所得比不上这些人。有些书呆子为了表现自己，经常在领导，行贿人面前卖弄自己的能力，把知识无偿地传授给行贿人。不久，行贿人就可以<br>指挥书呆子干活了。政府应抵制日货，遏制日本的经济，让他没实力侵略扩张。打日本做不到，不买日货可以做到。靠百姓抵制日货不现实，<br>因为正常人绝不会花同样的钱买个不好的商品。日本从不卖给中国先进生产设备，更不卖实用技术。中国应该对日货加收高关税，将税收用于国内集成电路科研及<br>企业的发展。中国在抗日战争中出的最多的是汉奸。伪军，皇协军的数量曾经和皇军的数量相当，汉奸是为了自己的小利不惜出卖国家利益和人民的性命而向主子<br>（日本人）讨好的人，但日本人瞧不起汉奸，所以当汉奸没有利用价值时就会被杀掉。现在的行贿人所做的事情和汉奸一样是为了自己的利益不惜出卖大家的利益<br>向受贿人讨好的人。 知道9级地震什么概念么？SB 但世界上让水泵事故变成接二连三爆堆事故的只有一家！ 日本的垃圾沸水堆，美国西屋的技术，卖不出去，强逼着日本接盘，还有韩国台湾，终于酿出福岛恶果。所以台湾反核也是有原因的哈。 世界上没有哪个核电站可以抗的了7级地震+海啸。现在是因为国内的都关了，不出口就坐等破产了 这真不比不了中国，出大状况我们的媒体肯定是第一时间报道。 还想咋滴，罚酒？ 一枚核弹的土地再怎么折腾都是瞎折腾，再怎么强军大自然一样让你狗日的懵逼，等死吧小日本 说好了的剖腹呢？ 福岛的核泄漏解决了吗？ 小鬼子要祸害欧洲的节奏。 7级都抗不了日本敢建那么多？福岛是百年不遇的九级地震造成的 日本敢往波兰送核反应堆？毛子的产略轰炸机立马又要去日俄边界兜风了 世界上没有哪个核电站可以抗的了7级地震+海啸。现在是因为国内的都关了，不出口就坐等破产了 万一出口波兰的爆堆了，放射水排向多瑙河？ 高技术就应该推广，像日本这种核泄漏处理技术就该配套核电站免费往世界输送。 日本的垃圾沸水堆，美国西屋的技术，卖不出去，强逼着日本接盘，还有韩国台湾，终于酿出福岛恶果。所以台湾反核也是有原因的哈。 日本还敢偷袭珍珠港呢，就这么胆大 尝试！核反应堆能随便尝试嘛！鬼子也太扯了！ 基础科学还是十八世纪的思维。。。。。。。 不怕死就用日本制造。福岛，日本钢铁。日本高铁，日本三星手雷，谁愿意谁买。 是谁們家？快说说。。。 欢迎来竞争，大家一起搞活市场！ 鞠躬就完事了？ 人家不要的堆技术高价卖给你的，你真能吹。 波兰人也不傻吧，敢用日本的核电站？ 2楼好酸！！！！！！！ 淫棍！ 东电说：不管日狗怎么洗，我撒完谎就是不破产！ 抗不了是一回事，出了事不积极处理，隐瞒不报，那是另一回事，还在这洗地。 我们绝对没有把福岛的洗地水排向太平洋^_^ ",
        "Link": "http://comment.war.163.com/news_junshi_bbs/D6GBNUHL000181KN.html"
    },
    "Article": "（原标题：日媒：为追赶中俄，日尝试出口波兰新型核反应堆）资料图片：日本原子能机构的高温气冷堆“HTTR”。（《日本经济新闻》网站）【环球网军事12月25日报道】据《日本经济新闻》网站12月21日报道，日本政府和企业将携手于2030年之前在波兰建设属于新一代反应堆的“高温气冷堆”。东芝和三菱重工等日本企业与日本原子能研究开发机构将成为核心，新建输出功率16万千瓦的商用反应堆。预计2018年初在两国间正式签署协议。高温气冷堆被认为安全性高，同时二氧化碳排放量较少。在普通核电站出口没有进展的情况下，将推进弥补以往缺点的高温气冷堆的出口战略。日本企业方面有东芝、三菱重工和日立制作所等参与。计划在2018年内与当地企业组建企业联盟。力争商用反应堆2030年投入运行。作为前一阶段，到2025年在波兰国家原子能研究中心新建输出功率1万千瓦的研究反应堆。商用反应堆每座造价被认为约500亿日元，预计将是整体达到500亿~1000亿日元的订单。报道称，在世界范围内，高温气冷堆的商业运营仍未启动。日本原子能机构曾在茨城县建造研究反应堆，以功率3万千瓦投入运行，将利用由此积累的经验。日本方面目前已向波兰派出技术人员，推进调查。报道称，日本政府和企业共同推动高温气冷堆的出口，是因为现有反应堆的出口战略受阻。日本政府提出了在2020年前使海外基础设施订单增至2010年3倍的30万亿日元的目标，将作为目前主流反应堆的轻水反应堆出口定位为主要举措之一。2017年7月，日本允许向印度出口原子能技术的《日印核能协定》生效。报道称，日本的竞争对手是中国和俄罗斯。虽然日本的核电反应堆被认为竞争力更高，但2015年在印度尼西亚的试验堆竞争招标中，日本输给了俄罗斯。另一方面，中国将高温气冷堆定位为国家重大特别项目之一，正在大力推进。中国计划2018年新建2座25万千瓦的示范反应堆。2016年1月，中方还与沙特阿拉伯就建造合作达成协议。本文来源：环球时报-环球网。更多精彩，请登录环球网http://www.huanqiu.com责任编辑：姚文广_NN1682",
    "PublishTime": "12/25/201710:17:16",
    "KeyWords": "波兰,日本,日本政府,气冷"
}