{
    "Title": "秦舒培晒一家三口同框照 陈冠希抱妻女开心比耶_网易娱乐",
    "PublishTime": "01/01/201815:01:28",
    "URL": "http://ent.163.com/18/0101/15/D72SP8VA00038FO9.html",
    "Source": "Netease",
    "KeyWords": "陈冠希,秦舒培,全家福",
    "Comment": {
        "Reply": 20,
        "Content": "这个社会的道德标准还是对女人比较严格啊！阿娇明明是受害者，现在却生活的如此艰难！他却可以在这里不停的秀恩爱幸福！ 难道陈老师就忘了马桶盖上的警察姐姐了吗？ 时间会证明陈老师强过香港娱乐圈大多数的渣男。 这是啥网站 婊子配狗，天长地久 这照片是冠希哥拍的吗？ 阿娇怎么受害了？被逼迫？不是自愿的？那不早报警了？单身男女自由恋爱，陈爱拍对方假若不愿意他拍啥？所以都是受害者吧！陈以前是香港数得着有颜值有演技的演员！直接退出娱乐圈了 缘分这东西真奇怪，遇到那个他/她也很幸运 浪子回头金不换 元旦节快乐 陈老师，求新作 对的时间遇到对的人 这种人真的是林子大了什么鸟都有。 这个社会的道德标准还是对女人比较严格啊！阿娇明明是受害者，现在却生活的如此艰难！他却可以在这里不停的秀恩爱幸福！ 等到风景都看透，也许你会陪我看细水常流。。。。 难道陈老师就忘了马桶盖上的警察姐姐了吗？ 时间会证明陈老师强过香港娱乐圈大多数的渣男。 找了个驱除衰气的好老婆 少了一个字，心理阴暗的人渣，在越南做着下等人苦力活天天操着20块街边老母的人渣 秦舒培拯救了陈老师 婊子配狗，天长地久 这照片是冠希哥拍的吗？ 缘分这东西真奇怪，遇到那个他/她也很幸运 阿娇怎么受害了？被逼迫？不是自愿的？那不早报警了？单身男女自由恋爱，陈爱拍对方假若不愿意他拍啥？所以都是受害者吧！陈以前是香港数得着有颜值有演技的演员！直接退出娱乐圈了 对的时间遇到对的人 这个同意，演技也是强过一众渣男小鲜肉的 浪子回头金不换 这是啥网站 元旦节快乐 陈老师，求新作 对的时间遇到对的人 真好笑，你会记得你前女友还是你几年前的一个炮友？ ",
        "Total": 436,
        "Link": "http://comment.ent.163.com/ent2_bbs/D72SP8VA00038FO9.html"
    },
    "Article": "秦舒培在个人社交网站上晒出了一张全家福网易娱乐1月1日报道1月1日，秦舒培在个人社交网站上晒出了一张全家福，不但有一家三口的表情符号，还配文“happy2018！！！”。从照片中可以看出，陈冠希一家三口正在度假，陈冠希和秦舒培则穿的很是清凉，而女儿Alaia则是被放在了中间。与妻女合影的陈冠希看起来很开心放松，手伸长长比耶。有网友看到照片后留言：“要一直幸福快乐健康平安顺利”。本文来源：网易娱乐责任编辑：李彤_NK4455"
}