{
    "URL": "http://news.163.com/17/1231/20/D70RLLRE0001899N.html",
    "Title": "习近平第5次新年献词 这5大细节值得关注_网易新闻",
    "KeyWords": "新年,献词,细节",
    "Article": "（原标题：习近平第5次新年献词5大细节）今天（12月31日）晚上，习近平再次在《新闻联播》亮相，发表新年献词。这是他就任国家主席以来第5次新年献词。每当这个时候，最高领导人的献词总是令人关注。今年又有什么值得关注的重点？一起来看看。1.场景又变了2014年至2016年元旦到来之际，国家主席致新年献词的场景是这样的而2017年元旦到来之际，也就是2016年12月31日播出的新年献词，领导人致辞的场景是这样的2018年新年献词的场景，又与2014年至2016年时一样2.主题词新变化政知君做了个盘点。在回顾即将过去的一年时，习近平用的词汇都不一样。2014年献词，用“不平凡”来评价2013年；2015年献词，用“难忘”来评价2014年；2016年献词，用“欣喜”来评价2015年；2017年献词，用“非凡”和“难忘”来评价2016年，并且用“欣慰”这个词来表达心情。2018年献词，并未用简单的某个词来概括和形容过去的一年。不过在回顾时用了“天道酬勤，日新月异”的说法，在提到一系列成就时表示，“我为中国人民迸发出来的创造伟力喝彩！”3.首次列举数字政知道注意到，2018年新年献词与之前四次有一个很大的不同，就是首次列举出一连串数字：我国国内生产总值迈上80万亿元人民币的台阶城乡新增就业1300多万人社会养老保险已经覆盖9亿多人基本医疗保险已经覆盖13.5亿人又有1000多万农村贫困人口实现脱贫。340万贫困人口实现易地扶贫搬迁、有了温暖的新家各类棚户区改造开工数提前完成600万套目标任务这些数字的最大意义在于，“我们朝着实现全面建成小康社会目标又迈进了一大步”。4.首次回顾个人工作在回顾2017年时，新年献词里先后有两个主语。一个是“我们”。例如：我们在朱日和联合训练基地举行沙场点兵；我们还举行了纪念全民族抗战爆发80周年仪式和南京大屠杀死难者国家公祭仪式；我们在国内主办了几场多边外交活动……另一个是“我”。习近平向全国人民介绍了过去一年自己的亲身经历和工作情况。例如：香港回归祖国20周年时，我去了香港，亲眼所见，有祖国做坚强后盾，香港保持了长期繁荣稳定，明天必将更加美好。今年年初，我出席达沃斯世界经济论坛年会，并在联合国日内瓦总部作了讲话，后来又出席了二十国集团领导人峰会、亚太经合组织领导人非正式会议等。在这些不同场合，我同有关各方深入交换意见，大家都赞成共同推动构建人类命运共同体，以造福世界各国人民。2017年，我又收到很多群众来信，其中有西藏隆子县玉麦乡的乡亲们，有内蒙古苏尼特右旗乌兰牧骑的队员们，有西安交大西迁的老教授，也有南开大学新入伍的大学生，他们的故事让我深受感动。广大人民群众坚持爱国奉献，无怨无悔，让我感到千千万万普通人最伟大，同时让我感到幸福都是奋斗出来的。5.最牵挂的事这几年的新年献词，习近平都会特地提到一件事，扶贫。2014年新年献词，担任国家主席9个多月的习近平表示，让老百姓过上更加幸福的生活，还有大量工作要做。2015年新年献词，他指出，“我们时刻都要想着那些生活中还有难处的群众”。我们要满腔热情做好民生工作，特别是要做好扶贫开发和基本生活保障工作，让农村贫困人口、城市困难群众等所有需要帮助的人们都能生活得到保障、心灵充满温暖。2016年献词则表示，“让几千万农村贫困人口生活好起来，是我心中的牵挂”。全党全国要着力补齐这块短板，确保农村所有贫困人口如期摆脱贫困。对所有困难群众，我们都要关爱，让他们从内心感受到温暖。2017年的新年献词，他明确地说，“新年之际，我最牵挂的还是困难群众，他们吃得怎么样、住得怎么样，能不能过好新年、过好春节”。一方面他表示，一年来又有1000多万贫困人口实现了脱贫；另一方面，他也了解，部分群众在就业、子女教育、就医、住房等方面还面临一些困难。在辞旧迎新之际，习近平表态：“不断解决好这些问题是党和政府义不容辞的责任”。2018年的新年献词，最牵挂的事情成了一个庄严承诺：到2020年我国现行标准下农村贫困人口实现脱贫，是我们的庄严承诺。一诺千金。到2020年只有3年的时间，全社会要行动起来，尽锐出战，精准施策，不断夺取新胜利。3年后如期打赢脱贫攻坚战，这在中华民族几千年历史发展上将是首次整体消除绝对贫困现象，让我们一起来完成这项对中华民族、对整个人类都具有重大意义的伟业。这不仅是新年寄语，也是面向全国13亿人的允诺，更是新年到来之际的冲锋号。本文来源：政知道作者：傅凝责任编辑：李杭_BJS4645",
    "Source": "Netease",
    "PublishTime": "12/31/201720:03:33",
    "Comment": {
        "Link": "http://comment.news.163.com/news2_bbs/D70RLLRE0001899N.html",
        "Reply": 2,
        "Content": "新年快乐！！！ 祖国加油！ 祖国加油！ 新年快乐！！！ ",
        "Total": 25
    }
}