{
    "Source": "Netease",
    "KeyWords": "中国,俄罗斯,美洲,全局性",
    "URL": "http://war.163.com/17/1223/10/D6B7UTS9000181KT.html",
    "PublishTime": "12/23/201710:35:02",
    "Comment": {
        "Content": "正确 两边下注，让你们竞争 格林纳达，米帝后院啊～那边下决心靠岸啊。。。我就说，这绳子咋就越勒越紧嗫？连澳大利亚、法国、英国、印度和加拿大都凑上热闹了嗫。。。 因为美国实在没那份儿闲心。。。 玩经济，谁玩得过美国啊。苏联是怎么死的？ 聪明的小国！ 聪明，搭乘中国发展的顺风车！牛到家！弯道超车！ 中国愿推动世界各国的建设和发展，比起有的自闭大国武力搅乱，更符合人类发展发需要! 除此之外，还要啥 狗眼看人低 中国用经济手段比美国用武力解决事情高明。 又踏马是黑鬼 这样可以相互尊重 然并卵，去他那里还得签证 美主靠了几十年了，是时候换个主子了 原来一楼是狗啊！还好，它有自知之明！ 非常好 好的 为什么相信中国不相信美国？ 可惜美国的入侵只是为了更好的剥削加勒比海国家，这不符合美国一贯的自由民主平等的“王师”形象 房地产[喷水] 天天都在图上找，看也不看到哦 真的？ 原来煞笔是一楼 推动美国，法国，英国，加拿大，澳大利亚，德国，瑞士，等国家发展吗？ 看到你前面说的都挺好，但最后三句话有一种想吐的感觉！ 这个简单，搞房地产啊！ 跟贴被火星网友带走啦~ 几十年前，柬埔寨也曾把全局性国家发展战略通盘托付给中国，然后。。。。。。。 去问它们 千言万语二个字.就是要钱. 普通的生意说成人家把心都交给了你！ 过瘾吗？ 用经济手段比美国用武力解决事情好。 白皮看到落后国家，首先想到的是能不能打一打；<br>中国看到落后国家，首先想到的是能不能帮一帮。 柬埔寨二号！ 地图像台湾。小心上当受骗啊 哈哈，我还以为是巴西呢。 偷换概念 在落后面前才能体现先进。 到底是规划还是想向中国要钱? 一帮喷子已经到场开喷了，还有一大帮在路上！ 你是选择性失忆？ 自己家的某个地方都还是穷的很，跑去帮别人发展这是神马情况？ 阿弥陀佛 又在美国后院埋上一颗炸弹，好👍 中国愿推动世界各国的建设和发展，比起有的自闭大国武力搅乱，更符合人类发展发需要! 白皮看到落后国家，首先想到的是能不能打一打； 这意味着什么？ 未来中国在拉丁的根据地 原来一楼是狗啊！还好，它有自知之明！ 小编，一篇稿子你发了三遍。扣工资！ 对中国来说不知是福还是祸，本来是件有利于两国人民的好事，但由于其地处美国后院，美国绝不会让其发展好了，一定会使用各种歪招搞破坏，万万不可掉以轻心。警惕为上！ 👍 玩经济，谁玩得过美国啊。苏联是怎么死的？ 小编复制粘贴了2次 推动美国，法国，英国，加拿大，澳大利亚，德国，瑞士，等国家发展吗？ 格林纳达作为小国对中国如此信任实属罕见，这么深度的合作前所未有，但事情怕没这么简单，格林纳达作为拉美小国和中国合作，美国不会坐视不管，中美博弈会很激烈，包括煽动反对派，规划应该是长期的几十年建设，规划肯定会使该国内部分人在既得利益上做出牺牲，各种阻力肯定会有 这个国家很聪明，争取到第一个把国家发展托付给中国。中国为了全球大局着想，一定会全力帮助格林纳达达成目标，因为这是关系到中国在世界上的声誉，这下格林纳达想不发达都难。 噗…… 为什么相信中国不相信美国？ 白皮看到落后国家，首先想到的是能不能打一打；<br>中国看到落后国家，首先想到的是能不能帮一帮。 那是火花四溅的地方！如果没有个好价钱，胆敢触犯美帝的利益吗？ 在落后面前才能体现先进。 复制粘贴的内容吗？居然重复了两次 马云、马化腾、刘强东说要为我们村做发展规划，我当然也是高兴到不得了的。 一帮喷子已经到场开喷了，还有一大帮在路上！ 道不同不相为谋，腐败问题都无法解决，谈不上什么发展，秦朝发展了那么多代人，可一到胡亥手里就土崩瓦解。 除此之外，还要啥 不喷睡不着，又没其他事做！ 嗯嗯 那是火花四溅的地方！如果没有个好价钱，胆敢触犯美帝的利益吗？ 没有计生，多少资源、多少钱投进去都是无底洞。 呵呵。。。 这意味着什么？ 策划911的到底是什么人？<br>为什么不敢公开审判？？？ 日本靠美国，死了吗？ 格林纳达作为小国对中国如此信任实属罕见，这么深度的合作前所未有，但事情怕没这么简单，格林纳达作为拉美小国和中国合作，美国不会坐视不管，中美博弈会很激烈，包括煽动反对派，规划应该是长期的几十年建设，规划肯定会使该国内部分人在既得利益上做出牺牲，各种阻力肯定会有 这意味着什么？ 啊！那就是中国收购了一个殖民地咯！ 自己家的某个地方都还是穷的很，跑去帮别人发展这是神马情况？ 中国愿推动世界各国的建设和发展，比起有的自闭大国武力搅乱，更符合人类发展发需要! 有什么好炫耀 呵呵呵呵！ 正确 极大的信任呀！ 希望美国放弃一家独大的思维，与各国平等相待，和平相处，用美元收割全世界的时代迟早会过去，用武力维护全球统治的时代也终将过去。中国的思路很适合多数国家，用发展和建设带动收入与进步，高技术产品才会更有世界市场，都穷的叮珰响谁用什么高科技。从经济的角度看，帮助别人就是帮自己开拓市场。总是想自己过好日子，而见不得甚至经济武力阻止别人过好日子，能挡多久! 对中国来说不知是福还是祸，本来是件有利于两国人民的好事，但由于其地处美国后院，美国绝不会让其发展好了，一定会使用各种歪招搞破坏，万万不可掉以轻心。警惕为上！ 世界上那个国家不发展经济呀？当然一手抓草命一手抓生产的方式是没有的！ 苏联解体后，俄罗斯曾经全盘接收了美国人为他们制定的发展战略。 呵呵，路过 我还以为是湾湾国 用经济手段比美国用武力解决事情好。 又在美国后院埋上一颗炸弹，好👍 👍 被原子弹炸吓怕了，被俄罗斯揍怕了！ 房地产[喷水] 萨达姆靠美国靠死了，卡扎菲靠美国也靠死了！ 以为是台湾 小编，你再复制粘贴N遍？开了你！ 这个国家就十几万人 到底是规划还是想向中国要钱? 中国愿推动世界各国的建设和发展，比起有的自闭大国武力搅乱，更符合人类发展发需要! 收费站 免签吗？ 部署何物，1年1e 普通的生意说成人家把心都交给了你！ 几十年前，中国自己的发展战略规划也不怎样，怎么帮人家？现在已经有经验了，就可以了吧。 这个简单，搞房地产啊！ 跟贴被火星网友带走啦~ 扫黄 飞地？格林纳达县 柬埔寨二号！ 港口，海军基地，蛋蛋 哈哈，我还以为是巴西呢。 地图像台湾。小心上当受骗啊 部署核武，1年1e 然后你这只日本犬杂种变成畜生废物傻逼了！ 别变成小白脸就行 小国不需要军事规划，再交点保护费给中国就行！这样合算 一个真实的故事 跟贴被火星网友带走啦~ 几十年前，柬埔寨也曾把全局性国家发展战略通盘托付给中国，然后。。。。。。。 特么复制了4变…… 聪明，搭乘中国发展的顺风车！牛到家！弯道超车！ 干的好 这样可以相互尊重 不请钱多人傻的还能请谁？ 其实最主要目的还是算了我说借钱可能好听点 好的 新的生命开始孕育。 可惜美国的入侵只是为了更好的剥削加勒比海国家，这不符合美国一贯的自由民主平等的“王师”形象 房地产[喷水] 天天都在图上找，看也不看到哦 真的？ 聪明的小国！ 看到你前面说的都挺好，但最后三句话有一种想吐的感觉！ 在这驻军，部署远程预警雷达，必要时部署核武器 千言万语二个字.就是要钱. 国之软实力 乍一看像台湾地图！ 不会有那种事的，无论西哈老王爷还是红色高棉都是很独立自主，高棉人有自己独特悠久的历史文化，外國的势力是很难长久控制 偷换概念 你是选择性失忆？ 放屁 谁出钱？？？ 两边下注，让你们竞争 编，接着编！ 拿证据出来说话<br>职业喷子，感觉有点喷的不要脸了 美主靠了几十年了，是时候换个主子了 一帮喷子已经到场开喷了，还有一大帮在路上！ 又踏马是黑鬼 这会不会被人冠以经济侵略的头衔呢？ 一帮喷子已经到场开喷了，还有一大帮在路上！ 一个新闻连说三遍，非常用心啊！ 他们会问什么不投靠美国🇺🇸。 因为国家有钱，都是利益关系 只有我一个人发现这个国家的地图那么像台湾吗，好像把台湾地图P胖了一点点的样子，连高雄那个尾巴都那么像 当年美帝入侵该国 超级赞！👍👍👍 因为美国实在没那份儿闲心。。。 被老美二十四小时就占领了的国家！ 非常好 83年，越战失败后士气低落的美军对外重新动武的首个对象就是格林纳达！然后越打士气越高的美军依次选择巴拿马、伊拉克、索马里、南联盟、阿富汗.... 希望双赢！特别是初期，而且这是第一个（国家）这样信任中国的，希望成功！ 外交胜利 几十年前，柬埔寨也曾把全局性国家发展战略通盘托付给中国，然后。。。。。。。 感觉小编在推磨，咋这么赚钱墨迹啊 格林纳达，米帝后院啊～那边下决心靠岸啊。。。我就说，这绳子咋就越勒越紧嗫？连澳大利亚、法国、英国、印度和加拿大都凑上热闹了嗫。。。 几十年前，中国自己的发展战略规划也不怎样，怎么帮人家？现在已经有经验了，就可以了吧。 应该介绍一下该国家的人口及面积，和旅游风景，中国介入该国是一件好事，因为他离美国很近。 小编，重要的事情说三遍？？？ 终于看到反喷大军了……… 我想去 好朋友无需客套，干就完了！ 厉害了，我的国 不怕不识货，就怕货比货。 他们是正确的、中国会带来医疗、建设性和创造性发展。而中国也获取相应的报酬！当然不可能使其丧失主权和自身发展潜力......！ 过瘾吗？ 欣赏喷泉中。。。 为什么相信中国不相信美国？ 在落后面前才能体现先进。 合作共赢 然并卵，去他那里还得签证 一帮喷子已经到场开喷了，还有一大帮在路上！ ",
        "Total": 2690,
        "Link": "http://comment.war.163.com/news_junshi_bbs/D6B7UTS9000181KT.html",
        "Reply": 138
    },
    "Article": "（原标题：世界上首次！这个国家把全局性国家发展战略通盘托付给中国）你能想象有哪个国家会把全盘发展战略交给另一个国家来制定吗？现在，答案产生了。这几天，全球多家媒体都你能想象有哪个国家会把全盘发展战略交给另一个国家来制定吗？现在，答案产生了。这几天，全球多家媒体都在报道这样一件事情：美洲国家格林纳达要请中国国家开发银行为其制定一份国家发展蓝图。据俄罗斯卫星网报道，这是中国首次与拉美和加勒比海国家在全球范围内开展此类合作。小锐注意到，一般包括老挝等“近邻”在内的国家，中国与其国家发展战略都只是“对接”；像格林纳达这样、将国家全局发展战略规划通盘交给中国“制定”的情况，非常罕见。更何况，长期以来，格林纳达都是一个被默认划到“美国后院”的国家。世界上第一个！格林纳达全局性地接受采纳中国发展蓝图规划从地图上看，格林纳达只是美洲西印度群岛中的一个小国，以往甚少被国际媒体关注。▲格林纳达地理位置图（中国驻格林纳达使馆网站）但近期与中国在战略规划上的合作，让这个国家前所未有地被国际媒体“聚焦”。12月19日，香港《南华早报》大篇幅报道了格林纳达的这个新动向——中国国家开发银行在格林纳达政府的请求下，帮助他们制定了一份国家发展战略规划。格林纳达政府将“承担自己国家发展的主要责任”，而中方“应对方经济和社会发展的要求，愿意提供必要的帮助”。报道说，根据中国科学院地理科学与资源研究所官方网站12月4日公布的信息，《格林纳达国家发展战略规划》是应格林纳达政府请求，中国外交部委托国家开发银行立项，旨在为格林纳达提供战略性规划的项目，该规划近期通过了国家开发银行的终期评审。▲中国科学院地理科学与资源研究所官网截图《南华早报》称，如果格林纳达政府此番接受这项数十亿美元的发展规划，它将成为世界上第一个全局性地接受采纳中国发展蓝图规划的国家，也将增加中国在这一区域的影响力。报道说，这一“应该已经送达格林纳达政府手中”的规划，以目前格林纳达经济发展水平为基础，大部分目标在十年内都可以实现。而公开的内容显示，规划中格林纳达主岛将被划分为7个不同的区域——经济中心将建在首都圣乔治附近，中部山区将打造成提供有限人类活动的国家公园，其他五个区将分别作可再生能源开发、农业发展、水果加工、渔业发展、旅游和医疗旅游之用。▲图为国家开发银行团组赴格林纳达考察。（中国驻格林纳达使馆网站）规划文件还指出，此项规划只有在格林纳达政府采取强有力措施保护外资利益的情况下才能实现。曾长期被殖民和军事干预，格林纳达期待独立和发展如果说，地理课本上的格林纳达容易让人联想起热带沙滩和加勒比海香料。但历史书中的关于这个国家的记载则带着血腥味。除了被视作“美国后院”，格林纳达的历史曾写满了被殖民和被侵略。▲资料图片：1983年10月，美国出动“快速部署部队”，采用突然袭击手段入侵格林纳达。（图片源自网络）从1498年被哥伦布“发现”，这个小小的国家就先后被英、法殖民，独立后还曾被美国入侵，甚至有学者指出，格林纳达是近几十年来美国军事干预最严重的受害者之一。但尽管背负伤痕累累的历史，但格林纳达从没放弃过对独立和发展的追求。而交由中国制定的国家发展战略规划，也正是格林纳达期待获得快速发展的一环。事实上，自从2005年两国恢复外交关系以来，中国与格林纳达之间的关系就一直稳步发展。据《南华早报》报道，中国公司已经参与了岛上许多基础设施项目的建设，包括参与建造国家体育场、政府型住房，以及参与修复飓风造成的损害。▲图为中国向格林纳达移交新建成的国家体育场。（俄罗斯卫星网）去年9月，在参加中国驻格林纳达大使馆举办的国庆招待会上，格外长宁罗德表示，两国关系达到恢复外交关系11年以来的新高。也正如外媒形容，此次格林纳达政府邀请中国帮助规划国家发展计划，早已有迹可循。根据中国驻格林纳达大使馆经商参处公布的信息：去年8月，中国国家开发银行研究院一行访问格林纳达时，分别会见了格副总理兼外交部长、经济发展部长、2030战略规划委员会等，就格2030战略规划进行沟通，详细了解了格经济发展状况，并实地考察了格农场、酿酒、巧克力制造、肉豆蔻加工、私立高等教育等行业。报道中，格林纳达一名酒店经理还称，其实该岛上的中国游客并不多。但是，由于该国许多基建项目都有中国投资，格林纳达人普遍对中国产生了积极的印象。▲格林纳达风光“我们需要发展，为了发展我们需要投资。它可以来自中国或是任何一个国家。”这名经理说。中国驻格林纳达大使赵永琛今年12月在《人民日报》发表署名文章称，格林纳达部分官员非常希望能够搭上中国发展的快车。“帮助别的国家制定战略规划，本身就是一种软实力的体现”尽管从已知内容看，这份国家发展战略规划仅限于经济层面，但境外媒体对此的解读却显然更为复杂。例如，《南华早报》报道的标题就是《中国带着国家发展战略走进美国“后院”》。对此，中国现代国际关系研究院研究员陈凤英告诉小锐，中国应格林纳达的要求为其提供国家发展战略，其实本质上是国与国之间平等友善的帮助。她介绍说：事实上，中国也曾给一些非洲国家和东南亚国家做过类似的发展规划。“不过都不是我们主动提出的，而是对方请求的。”陈凤英补充道。她指出，因为这些发展中国家相对较小，宏观政策也相对较弱，没有能力自己进行战略的制定和规划，这样在发展过程中就会有盲目性，所以需要扶植，格林纳达的情况就是如此。在陈凤英看来，这项涉及数十亿美金的国家战略，首先意味着格林纳达承认中国的发展是成功的，并认为中国的发展经验是适合他们的。而这里所谓的“全局性接纳”，指的是格林纳达对中国根据其国情、帮助他们制定战略规划的接纳，而非照搬中国的发展模式。▲资料图片：2015年，中国-格林纳达复交10周年庆祝活动在格举行。分析两国间这一合作的深远影响时，俄罗斯卫星网报道指出，若格林纳达最终批准该规划，预计中国在该地区的威望将得到进一步提升。对此，陈凤英表示，帮助别的国家制定战略规划，本身就是一种软实力的体现，“说明中国已经具备了这样的能力。反映出中国不但硬实力在崛起，软实力也在扩大”。你能想象有哪个国家会把全盘发展战略交给另一个国家来制定吗？现在，答案产生了。这几天，全球多家媒体都在报道这样一件事情：美洲国家格林纳达要请中国国家开发银行为其制定一份国家发展蓝图。据俄罗斯卫星网报道，这是中国首次与拉美和加勒比海国家在全球范围内开展此类合作。小锐注意到，一般包括老挝等“近邻”在内的国家，中国与其国家发展战略都只是“对接”；像格林纳达这样、将国家全局发展战略规划通盘交给中国“制定”的情况，非常罕见。更何况，长期以来，格林纳达都是一个被默认划到“美国后院”的国家。世界上第一个！格林纳达全局性地接受采纳中国发展蓝图规划从地图上看，格林纳达只是美洲西印度群岛中的一个小国，以往甚少被国际媒体关注。▲格林纳达地理位置图（中国驻格林纳达使馆网站）但近期与中国在战略规划上的合作，让这个国家前所未有地被国际媒体“聚焦”。12月19日，香港《南华早报》大篇幅报道了格林纳达的这个新动向——中国国家开发银行在格林纳达政府的请求下，帮助他们制定了一份国家发展战略规划。格林纳达政府将“承担自己国家发展的主要责任”，而中方“应对方经济和社会发展的要求，愿意提供必要的帮助”。报道说，根据中国科学院地理科学与资源研究所官方网站12月4日公布的信息，《格林纳达国家发展战略规划》是应格林纳达政府请求，中国外交部委托国家开发银行立项，旨在为格林纳达提供战略性规划的项目，该规划近期通过了国家开发银行的终期评审。▲中国科学院地理科学与资源研究所官网截图《南华早报》称，如果格林纳达政府此番接受这项数十亿美元的发展规划，它将成为世界上第一个全局性地接受采纳中国发展蓝图规划的国家，也将增加中国在这一区域的影响力。报道说，这一“应该已经送达格林纳达政府手中”的规划，以目前格林纳达经济发展水平为基础，大部分目标在十年内都可以实现。而公开的内容显示，规划中格林纳达主岛将被划分为7个不同的区域——经济中心将建在首都圣乔治附近，中部山区将打造成提供有限人类活动的国家公园，其他五个区将分别作可再生能源开发、农业发展、水果加工、渔业发展、旅游和医疗旅游之用。▲图为国家开发银行团组赴格林纳达考察。（中国驻格林纳达使馆网站）规划文件还指出，此项规划只有在格林纳达政府采取强有力措施保护外资利益的情况下才能实现。曾长期被殖民和军事干预，格林纳达期待独立和发展如果说，地理课本上的格林纳达容易让人联想起热带沙滩和加勒比海香料。但历史书中的关于这个国家的记载则带着血腥味。除了被视作“美国后院”，格林纳达的历史曾写满了被殖民和被侵略。▲资料图片：1983年10月，美国出动“快速部署部队”，采用突然袭击手段入侵格林纳达。（图片源自网络）从1498年被哥伦布“发现”，这个小小的国家就先后被英、法殖民，独立后还曾被美国入侵，甚至有学者指出，格林纳达是近几十年来美国军事干预最严重的受害者之一。但尽管背负伤痕累累的历史，但格林纳达从没放弃过对独立和发展的追求。而交由中国制定的国家发展战略规划，也正是格林纳达期待获得快速发展的一环。事实上，自从2005年两国恢复外交关系以来，中国与格林纳达之间的关系就一直稳步发展。据《南华早报》报道，中国公司已经参与了岛上许多基础设施项目的建设，包括参与建造国家体育场、政府型住房，以及参与修复飓风造成的损害。▲图为中国向格林纳达移交新建成的国家体育场。（俄罗斯卫星网）去年9月，在参加中国驻格林纳达大使馆举办的国庆招待会上，格外长宁罗德表示，两国关系达到恢复外交关系11年以来的新高。也正如外媒形容，此次格林纳达政府邀请中国帮助规划国家发展计划，早已有迹可循。根据中国驻格林纳达大使馆经商参处公布的信息：去年8月，中国国家开发银行研究院一行访问格林纳达时，分别会见了格副总理兼外交部长、经济发展部长、2030战略规划委员会等，就格2030战略规划进行沟通，详细了解了格经济发展状况，并实地考察了格农场、酿酒、巧克力制造、肉豆蔻加工、私立高等教育等行业。报道中，格林纳达一名酒店经理还称，其实该岛上的中国游客并不多。但是，由于该国许多基建项目都有中国投资，格林纳达人普遍对中国产生了积极的印象。▲格林纳达风光“我们需要发展，为了发展我们需要投资。它可以来自中国或是任何一个国家。”这名经理说。中国驻格林纳达大使赵永琛今年12月在《人民日报》发表署名文章称，格林纳达部分官员非常希望能够搭上中国发展的快车。“帮助别的国家制定战略规划，本身就是一种软实力的体现”尽管从已知内容看，这份国家发展战略规划仅限于经济层面，但境外媒体对此的解读却显然更为复杂。例如，《南华早报》报道的标题就是《中国带着国家发展战略走进美国“后院”》。对此，中国现代国际关系研究院研究员陈凤英告诉小锐，中国应格林纳达的要求为其提供国家发展战略，其实本质上是国与国之间平等友善的帮助。她介绍说：事实上，中国也曾给一些非洲国家和东南亚国家做过类似的发展规划。“不过都不是我们主动提出的，而是对方请求的。”陈凤英补充道。她指出，因为这些发展中国家相对较小，宏观政策也相对较弱，没有能力自己进行战略的制定和规划，这样在发展过程中就会有盲目性，所以需要扶植，格林纳达的情况就是如此。在陈凤英看来，这项涉及数十亿美金的国家战略，首先意味着格林纳达承认中国的发展是成功的，并认为中国的发展经验是适合他们的。而这里所谓的“全局性接纳”，指的是格林纳达对中国根据其国情、帮助他们制定战略规划的接纳，而非照搬中国的发展模式。▲资料图片：2015年，中国-格林纳达复交10周年庆祝活动在格举行。分析两国间这一合作的深远影响时，俄罗斯卫星网报道指出，若格林纳达最终批准该规划，预计中国在该地区的威望将得到进一步提升。对此，陈凤英表示，帮助别的国家制定战略规划，本身就是一种软实力的体现，“说明中国已经具备了这样的能力。反映出中国不但硬实力在崛起，软实力也在扩大”。在报道这样一件事情：美洲国家格林纳达要请中国国家开发银行为其制定一份国家发展蓝图。据俄罗斯卫星网报道，这是中国首次与拉美和加勒比海国家在全球范围内开展此类合作。小锐注意到，一般包括老挝等“近邻”在内的国家，中国与其国家发展战略都只是“对接”；像格林纳达这样、将国家全局发展战略规划通盘交给中国“制定”的情况，非常罕见。更何况，长期以来，格林纳达都是一个被默认划到“美国后院”的国家。世界上第一个！格林纳达全局性地接受采纳中国发展蓝图规划从地图上看，格林纳达只是美洲西印度群岛中的一个小国，以往甚少被国际媒体关注。▲格林纳达地理位置图（中国驻格林纳达使馆网站）但近期与中国在战略规划上的合作，让这个国家前所未有地被国际媒体“聚焦”。12月19日，香港《南华早报》大篇幅报道了格林纳达的这个新动向——中国国家开发银行在格林纳达政府的请求下，帮助他们制定了一份国家发展战略规划。格林纳达政府将“承担自己国家发展的主要责任”，而中方“应对方经济和社会发展的要求，愿意提供必要的帮助”。报道说，根据中国科学院地理科学与资源研究所官方网站12月4日公布的信息，《格林纳达国家发展战略规划》是应格林纳达政府请求，中国外交部委托国家开发银行立项，旨在为格林纳达提供战略性规划的项目，该规划近期通过了国家开发银行的终期评审。▲中国科学院地理科学与资源研究所官网截图《南华早报》称，如果格林纳达政府此番接受这项数十亿美元的发展规划，它将成为世界上第一个全局性地接受采纳中国发展蓝图规划的国家，也将增加中国在这一区域的影响力。报道说，这一“应该已经送达格林纳达政府手中”的规划，以目前格林纳达经济发展水平为基础，大部分目标在十年内都可以实现。而公开的内容显示，规划中格林纳达主岛将被划分为7个不同的区域——经济中心将建在首都圣乔治附近，中部山区将打造成提供有限人类活动的国家公园，其他五个区将分别作可再生能源开发、农业发展、水果加工、渔业发展、旅游和医疗旅游之用。▲图为国家开发银行团组赴格林纳达考察。（中国驻格林纳达使馆网站）规划文件还指出，此项规划只有在格林纳达政府采取强有力措施保护外资利益的情况下才能实现。曾长期被殖民和军事干预，格林纳达期待独立和发展如果说，地理课本上的格林纳达容易让人联想起热带沙滩和加勒比海香料。但历史书中的关于这个国家的记载则带着血腥味。除了被视作“美国后院”，格林纳达的历史曾写满了被殖民和被侵略。▲资料图片：1983年10月，美国出动“快速部署部队”，采用突然袭击手段入侵格林纳达。（图片源自网络）从1498年被哥伦布“发现”，这个小小的国家就先后被英、法殖民，独立后还曾被美国入侵，甚至有学者指出，格林纳达是近几十年来美国军事干预最严重的受害者之一。但尽管背负伤痕累累的历史，但格林纳达从没放弃过对独立和发展的追求。而交由中国制定的国家发展战略规划，也正是格林纳达期待获得快速发展的一环。事实上，自从2005年两国恢复外交关系以来，中国与格林纳达之间的关系就一直稳步发展。据《南华早报》报道，中国公司已经参与了岛上许多基础设施项目的建设，包括参与建造国家体育场、政府型住房，以及参与修复飓风造成的损害。▲图为中国向格林纳达移交新建成的国家体育场。（俄罗斯卫星网）去年9月，在参加中国驻格林纳达大使馆举办的国庆招待会上，格外长宁罗德表示，两国关系达到恢复外交关系11年以来的新高。也正如外媒形容，此次格林纳达政府邀请中国帮助规划国家发展计划，早已有迹可循。根据中国驻格林纳达大使馆经商参处公布的信息：去年8月，中国国家开发银行研究院一行访问格林纳达时，分别会见了格副总理兼外交部长、经济发展部长、2030战略规划委员会等，就格2030战略规划进行沟通，详细了解了格经济发展状况，并实地考察了格农场、酿酒、巧克力制造、肉豆蔻加工、私立高等教育等行业。报道中，格林纳达一名酒店经理还称，其实该岛上的中国游客并不多。但是，由于该国许多基建项目都有中国投资，格林纳达人普遍对中国产生了积极的印象。▲格林纳达风光“我们需要发展，为了发展我们需要投资。它可以来自中国或是任何一个国家。”这名经理说。中国驻格林纳达大使赵永琛今年12月在《人民日报》发表署名文章称，格林纳达部分官员非常希望能够搭上中国发展的快车。“帮助别的国家制定战略规划，本身就是一种软实力的体现”尽管从已知内容看，这份国家发展战略规划仅限于经济层面，但境外媒体对此的解读却显然更为复杂。例如，《南华早报》报道的标题就是《中国带着国家发展战略走进美国“后院”》。对此，中国现代国际关系研究院研究员陈凤英告诉小锐，中国应格林纳达的要求为其提供国家发展战略，其实本质上是国与国之间平等友善的帮助。她介绍说：事实上，中国也曾给一些非洲国家和东南亚国家做过类似的发展规划。“不过都不是我们主动提出的，而是对方请求的。”陈凤英补充道。她指出，因为这些发展中国家相对较小，宏观政策也相对较弱，没有能力自己进行战略的制定和规划，这样在发展过程中就会有盲目性，所以需要扶植，格林纳达的情况就是如此。在陈凤英看来，这项涉及数十亿美金的国家战略，首先意味着格林纳达承认中国的发展是成功的，并认为中国的发展经验是适合他们的。而这里所谓的“全局性接纳”，指的是格林纳达对中国根据其国情、帮助他们制定战略规划的接纳，而非照搬中国的发展模式。▲资料图片：2015年，中国-格林纳达复交10周年庆祝活动在格举行。分析两国间这一合作的深远影响时，俄罗斯卫星网报道指出，若格林纳达最终批准该规划，预计中国在该地区的威望将得到进一步提升。对此，陈凤英表示，帮助别的国家制定战略规划，本身就是一种软实力的体现，“说明中国已经具备了这样的能力。反映出中国不但硬实力在崛起，软实力也在扩大”。本文来源：参考消息网责任编辑：姚文广_NN1682",
    "Title": "这个国家把全局性国家发展战略通盘托付给中国_网易军事"
}