{
    "Source": "Netease",
    "KeyWords": "王诗龄,李湘,王岳伦",
    "Title": "李湘晒一家三口温馨合照 王诗龄体贴依偎萌力十足_网易娱乐",
    "PublishTime": "12/25/201700:24:20",
    "URL": "http://ent.163.com/17/1225/00/D6F9Q52L00038FO9.html",
    "Article": "李湘一家三口网易娱乐12月25日报道12月24日晚，李湘在微博晒出一张一家三口的合照，并配文：“一家人在一起真好！”照片中。李湘头戴白色夸张羽毛帽，搭配黑边眼镜和红唇，露出酒窝，少女感十足；女儿王诗龄戴着白色帽子，张开嘴巴卖萌；老公王岳伦脸贴女儿的头上，一家三口紧紧挨在一起，对镜头自拍，画面温馨幸福。网友们纷纷表示：“一家人要一直幸福下去啊”“好美的女神！爱你么么哒！永远爱你”“大家在一起就是幸福”。本文来源：网易娱乐责任编辑：陈少杰_b6952",
    "Comment": {
        "Content": "一看就是富态的一家人哈哈 不能再胖了 暴发户气质十足 王诗龄小朋友好可爱！ 呵呵 肥婆还萌力十足，足你妈嗨 非常喜欢这一窝 三头猪体重超过一千斤 恶心 这一家以为自己是贵族？ [被黑] 李湘是不是胖的眼睛都快睁不开了 有晒幸福的功夫，不如学学韩红袁立，去帮助哪些需要帮助的人，别富的只“剩蛋”了！ 李厚霖看到这个会不会想：王岳伦你捡个破鞋还这么开心[喷水] 用自己双手和智慧去赚钱比别人施舍给我们，更有尊言。 二楼定律呀，笑死人了！ 不要整天上头条秀自己，都一把年纪岁数大的老女人了，那就因该好好回家照顾带小孩儿去哇！李湘哈哈 人家不就拍个全家福么？你们要不要脑补戏太多？？ 儿子多大了？ 猪头三一家 一家人在一起真好 人都要努力，不要只望别人的施舍。 三头猪 她老公还好，这女的真是装，太他妈装了 幸福的一家三口都胖呼呼的 一窝肥猪 一窝肥猪，还在臭美 哈哈，以为把照片PS了，就认不出这头小母猪了？ 讨厌这一家٩(๑`н´๑)۶ 过年了，要杀年猪了 我看到了李湘的粗胳膊[微笑]居然还用图片遮挡着 你对暴发户和贵族的定义有误解 有钱就是好呀！ 现在看不得李湘，土包子离婚暴发户，给孩子一个月花60多万，还炫耀。麻痹的，不帮穷人就算了，至少也别伤害穷人！ 想干李湘 本来就贵族！ 报告这些垃圾新闻。最垃圾 过节了，要杀猪。 李湘是不是胖的眼睛都快睁不开了 闺女都比妈妈胖了怎么 这一家很好啊 一看就是富态的一家人哈哈 不能再胖了 王诗龄小朋友好可爱！ 哎呀喂 我操，你咋不去呢？你不去你捐过款吗？别没事老做圣母白莲花， 粗手臂遮一遮 肥婆还萌力十足，足你妈嗨 暴发户气质十足 非常喜欢这一窝 三头猪体重超过一千斤 [被黑] 越来越像一家人了 有晒幸福的功夫，不如学学韩红袁立，去帮助哪些需要帮助的人，别富的只“剩蛋”了！ 这一家人在中国算是顶级人物吗？天天报道干什么？ 报告这些垃圾新闻。最垃圾 用自己双手和智慧去赚钱比别人施舍给我们，更有尊言。 王诗龄像极了李湘。 不要整天上头条秀自己，都一把年纪岁数大的老女人了，那就因该好好回家照顾带小孩儿去哇！李湘哈哈 一窝肥猪，还在臭美 王诗龄一点也不见瘦啊 一家人在一起真好 人都要努力，不要只望别人的施舍。 湘姐瘦了 儿子多大了？ 👍👍👍 暴发户气质十足 王诗龄越来越像爸爸了呀 有发帖的功夫，还不如学学韩红袁立？ 还是土猪样式 说不定是一家五口! 哈哈 萌翻了... 现在看不得李湘，土包子离婚暴发户，给孩子一个月花60多万，还炫耀。麻痹的，不帮穷人就算了，至少也别伤害穷人！ 幸福的一家三口都胖呼呼的 想干李湘 丑逼一家 。。。。。。。。。。。。 天啊爸爸基因强大啊 李湘的脸呀，全是玻尿酸 闺女都比妈妈胖了怎么 过节了，要杀猪。 暴发户气质十足 呵呵 哈哈哈哈 现在西方的节日也拿来庆贺？？？？ 🐷🐖🐽 恶心 哈哈，以为把照片PS了，就认不出这头小母猪了？ 好幸福 李厚霖看到这个会不会想：王岳伦你捡个破鞋还这么开心[喷水] 你受舆论引导多了吧 二楼定律呀，笑死人了！ 人家不就拍个全家福么？你们要不要脑补戏太多？？ 喜欢湘湘 猪头三一家 三头猪 她老公还好，这女的真是装，太他妈装了 一窝肥猪 李湘是不是胖的眼睛都快睁不开了 哈哈，以为把照片PS了，就认不出这头小母猪了？ 讨厌这一家٩(๑`н´๑)۶ 过年了，要杀年猪了 本来就贵族！ 我看到了李湘的粗胳膊[微笑]居然还用图片遮挡着 这一家以为自己是贵族？ 有钱就是好呀！ 你对暴发户和贵族的定义有误解 不想看到他们 晒幸福了 进来就喷。 杀猪过年 李湘是不是胖的眼睛都快睁不开了 这一家很好啊 ",
        "Reply": 73,
        "Link": "http://comment.ent.163.com/ent2_bbs/D6F9Q52L00038FO9.html",
        "Total": 1093
    }
}