{
    "PublishTime": "01/02/201800:28:00",
    "Comment": {
        "Total": 13044,
        "Link": "http://comment.news.163.com/news2_bbs/D744NOBK000187V9.html",
        "Reply": 259,
        "Content": "你是不是瞎啊，现在伊拉克好着呢 特朗普同情的是人民！称恐怖分子的是你们这些政权！ 看你的ip地址，你一定是用u形锁的大侠吧 除了美国的军事力量，伊朗政府最怕的还有伊朗人民 日本留下的种长大了知道报恩了，楼上的 像这样发展下去，最后像伊拉克，阿富汗，利比亚，叙利亚一样，大量的难民出现，各种势力出现出来你真我夺，天天打丈，到头来苦的还是老百姓 覆灭对我们没好处。中东的合作伙伴里，伊朗是很大的户头。 一位伊朗女学生的博客：<br>“让下一代人知道，我们并不只是平凡的、被感情和竞争所困扰的年轻人，为了让他们知道，我们为了能够建造一个更美好的未来而付出了一切，为了让他们知道，他们的先人曾被阿拉伯人征服、曾被蒙古人征服、却从未被专制所征服！” 民智开了，独裁就不好用了 口号：让独裁者去死。 日子好好的不过，非得起来闹腾，最后，肥了那些怂恿的人，苦了老百姓自己。。。 打倒神棍的一定的，神棍当国就是阻止民主的大石头。 当年民国时，你们怎么不这么想？ 将要毁灭一个国家和民族的10种事：1、没人性的政治。2、没思想的崇拜。3、没人文的科学。4、没道德的商业。5、没良知的知识。6、没真实的历史。7、没独立的精神。8、没自由的幸福。9、没劳动的富裕。10、没制约的权力。​​​ 那个所谓”最高精神领袖”的神根可不是选的。 说的好 想一下利比亚、伊拉克诚诺的自由在哪里？为什么总有那些帮美国说人渣， 至少伊朗神棍嘴上承认“人民有反对的权利” 日美欧在国内养的水狗这段时间明显集体高潮了！ 请把们去掉，你是你，别代表我。 美国就像渣男你不让我弄我就毁了你 经济低迷苦的不是老百姓？ 伊朗总统是一人一票选举产生的。 同意你的观点，大多数人的眼睛是雪亮的! 肯定是米国暗箱操作，大家都知道的! 你和华为傻逼讲道理？没用的 毫无疑问，背后又是美国的支持怂恿！美帝国主义是这个世界最危险的敌人！ 没有永恒的物业，只有永恒的业主 伊朗是民选国家，沙特才是! 黎明之前总是热烈的！ 伊朗突然出现的政治社会动荡让独裁者普遍感到惊愕。 没有战胜不了的对手只有战胜不了自己的决心。祝福伊朗！ 哈哈哈你这个SB估计你在里边发一个帖子减刑一分钟是吧？ 政教国家的覆灭 独才政权都得死 他们有404吗？ 你的心里只有人和狗的区别。谁是狗，谁不是狗，都是你定义的？感觉你需要条导盲犬来帮你指引道路吧。 就伊朗目前情况浏览了很多帖子，绝大多数帖子为此次抗议而欢呼，以为此次抗议乃是伊朗国民反独裁的壮举，并且会促进伊朗走向更加民主。这大错特错了！现在的伊朗是鲁哈尼代表的温和改革派在执政，但强硬保守派可没闲着，眼睛紧盯着温和改革派的一举一动，伺机东山再起。此次抗议最先的起因可能是因腐败和经济低迷，但形势会恶化成现在这个样子，死了那么多人，则有些匪夷所思了，其背后很可能有强硬保守派在助推，借此向鲁哈尼代表的温和改革派发难，为强硬保守派再执政制造氛围和条件。大多数帖子仅从表象看问题，甚至把属于强硬保守派的伊朗革命卫队的一些言行归为对民主诉求的支持，真的很悲哀！ 一楼今天上厕所拉不出也怪美国😁 但伊朗是政教合一的国家，总统并不是真正的领袖。 1978年可以让国王下台<br><br>同样可以让神棍下台！！！！！！！<br><br>人类总是在斗争中进步没有永恒的政权这是人和动物的天性！！！！！ 嗯你拉不出屎也怪美国 自己一身蛆，非赖别人嫌你脏 环球时报会死绝！ 大家齐心协力把锅甩给美国佬！😄 还要神棍批准啊 民主国家的体现，示威yx是合法的，独c国家不会有 伊朗有言論自由及游行示威的權利 华为SB将会被历史记住 这是示威吗？这是给独裁者敲丧钟！ 伊朗总统不是总神棍，总神棍一般都是躲在背后不表态。 美国太厉害了。世界上任何一个国家出事都是美国人干的。 那也比家破人亡流离失所强！ 美帝应该去推翻沙特这种，伊朗比沙特民主多了，真的。。因为反美就被易友当邪恶？沙特亲美就土豪国？ 就连军队也分两部分，国防军和革命卫队 我说了人类斗争是天性<br><br>2楼思想很单纯都象你的话现在是秦100世 伊朗是民选政府！！ 像这样发展下去，最后像伊拉克，阿富汗，利比亚，叙利亚一样，大量的难民出现，各种势力出现出来你真我夺，天天打丈，到头来苦的还是老百姓 苍天不复，美狗当诛；美狗诛，民心顺，天下平。 100% 1978年可以让国王下台<br><br>同样可以让神棍下台！！！！！！！<br><br>人类总是在斗争中进步没有永恒的政权这是人和动物的天性！！！！！ 在这里称作不明真相的，被一小撮坏分子煽动的！<br>这是在辱骂人民弱智吧！ 伊朗最高领袖__嗨没内衣 快了 打倒神棍的一定的，神棍当国就是阻止民主的大石头。 这次应该和他们真没什么关系，所以说大家都是蒙逼的 将要毁灭一个国家和民族的10种事：1、没人性的政治。2、没思想的崇拜。3、没人文的科学。4、没道德的商业。5、没良知的知识。6、没真实的历史。7、没独立的精神。8、没自由的幸福。9、没劳动的富裕。10、没制约的权力。​​​ 伊朗有希望了 因为人家没穿内衣，不好路面 洗脑不够啊！ 撸哈尼被骂有点无辜，被喷的应该是哈妹内衣 对٩(๑^o^๑)۶还有那些有桥不走非要摸石头的 丧钟为谁而鸣… 日美欧在国内养的水狗这段时间明显集体高潮了！ 精辟 赶紧把独裁干了 美国就像渣男你不让我弄我就毁了你 经济低迷苦的不是老百姓？ 没有永远的权力，国家交于人民自己管理才是最稳定的，任何人都无法颠覆 居然可以留言，很意外 傀儡而已 看一楼的名字就知道这杂种是个没有道德底线的垃圾。 冲破黎明前的黑暗! 你也愿意低迷还颠沛流离 伊朗总统是一人一票选举产生的。 那你怎么还呆在猪圈里 换谁上去？换你？首先，你得废了“国教”，否则沙特等国始终认为你的敌人。其次，你得废了伊斯兰教，否则美国始终不会相信你。第三，你得有本事把石油卖出高价，而且得完成不依靠石油出口的经济转型。你能吗？不能就做梦吧。 背后少不了美国和沙特的影响！ 这都可以有？诧异～ 伊朗突然出现的政治社会动荡让独裁者普遍感到惊愕。 很好的警示作用 数据流量都用不起了这几天，ins等社交软件也上不去 说的好 伊朗人民，我们和你在一起。 小小瑟瑟发抖 星星之火可以燎原吗？ 还要神棍批准啊 跟贴被火星网友带走啦~ 没有武器的话，独裁者是不会倒台的 听说已调转枪口 请看清一楼所在地 美霸才是制造伊郎反政府游行动乱的罪魁祸首，。伊郎人也大蠢了。怪不得战乱不断，活该！ 华为！哈哈哈…… 你的心里只有人和狗的区别。谁是狗，谁不是狗，都是你定义的？感觉你需要条导盲犬来帮你指引道路吧。 就伊朗目前情况浏览了很多帖子，绝大多数帖子为此次抗议而欢呼，以为此次抗议乃是伊朗国民反独裁的壮举，并且会促进伊朗走向更加民主。这大错特错了！现在的伊朗是鲁哈尼代表的温和改革派在执政，但强硬保守派可没闲着，眼睛紧盯着温和改革派的一举一动，伺机东山再起。此次抗议最先的起因可能是因腐败和经济低迷，但形势会恶化成现在这个样子，死了那么多人，则有些匪夷所思了，其背后很可能有强硬保守派在助推，借此向鲁哈尼代表的温和改革派发难，为强硬保守派再执政制造氛围和条件。大多数帖子仅从表象看问题，甚至把属于强硬保守派的伊朗革命卫队的一些言行归为对民主诉求的支持，真的很悲哀！ 嗯你拉不出屎也怪美国 环球时报会死绝！ 至少伊朗神棍嘴上承认“人民有反对的权利” 美狗把你和你妈怎么了？说出来听听，我们给你主持主持公道！ 收藏了. 伊朗有言論自由及游行示威的權利 这是示威吗？这是给独裁者敲丧钟！ 伊朗总统不是总神棍，总神棍一般都是躲在背后不表态。 你是不是瞎啊，现在伊拉克好着呢 你是汉奸卖国贼，现在都抵制韩国货，你还用韩国手机，你是不是中国人，你是走狗。 腐败和老百姓生活艰难是直接原因 看你的ip地址，你一定是用u形锁的大侠吧 日本留下的种长大了知道报恩了，楼上的 像这样发展下去，最后像伊拉克，阿富汗，利比亚，叙利亚一样，大量的难民出现，各种势力出现出来你真我夺，天天打丈，到头来苦的还是老百姓 美国反手就是给你洗巴掌！人家是真的一人一票选出来的！真民主！咋的？ 覆灭对我们没好处。中东的合作伙伴里，伊朗是很大的户头。 伊斯兰革命推翻的是美帝支持的王爷国 一位伊朗女学生的博客：<br>“让下一代人知道，我们并不只是平凡的、被感情和竞争所困扰的年轻人，为了让他们知道，我们为了能够建造一个更美好的未来而付出了一切，为了让他们知道，他们的先人曾被阿拉伯人征服、曾被蒙古人征服、却从未被专制所征服！” 民智开了，独裁就不好用了 橙色革命，阿拉伯之春的延续… 这还了得 然后变成国家动荡，给我们看笑话了 未开化地区 至少伊朗神棍嘴上承认“人民有反对的权利” 这是伊朗人民自己的选择 起来得到自己的权利 1978年可以让国王下台<br><br>同样可以让神棍下台！！！！！！！<br><br>人类总是在斗争中进步没有永恒的政权这是人和动物的天性！！！！！ 这点动乱，搞不垮伊政府。 想一下利比亚、伊拉克诚诺的自由在哪里？为什么总有那些帮美国说人渣， 走向正规的道路都是血腥的漫长的！ 那也是早晚挨宰的命 美国就像渣男你不让我弄我就毁了你 日美欧在国内养的水狗这段时间明显集体高潮了！ 没看见吗？它们那地方革命觉悟高 请把们去掉，你是你，别代表我。 加油呀 对，伊拉克的经济发展很快 历史的车轮 毫无疑问，背后又是美国的支持怂恿！美帝国主义是这个世界最危险的敌人！ 错，没有选择的余地，或者即使前面选择了他们，发现选错了，还不允许再选。 又一个腾讯过来的疯子。要是你孩子看到你这些回复，都会问是不是你生了他。 伊朗🇮🇷最起码还可以示威游行 不管怎样，事实就是我们都在和伊朗发生着间接关系，你无可回避。犹如你觉得地沟油无良，却要经常享用一样。 这是在配合以色列空袭？ 真相呢？ 那吃屎狗呢？ 美狗滚逼 伊朗人民真棒！ 伊朗都这么奔放了可喜可贺 那是总统，不是神棍！ 至少伊朗神棍嘴上承认“人民有反对政府的权利” 伊朗人此次示威是对低迷的经济、猖獗的腐败以及燃料与食品价格上涨的一种反应。都一个屌样 那也是早晚挨宰的命 难道是罗素69定律。 跟贴被火星网友带走啦~ 政教国家的覆灭 他们有404吗？ 知道多米诺骨牌效应吗？ 你的心里只有人和狗的区别。谁是狗，谁不是狗，都是你定义的？感觉你需要条导盲犬来帮你指引道路吧。 伊朗比其他那些神权国家有希望多了。 这话说的很危险， 鹅毛必遭天谴 穷兵黩武引起人民抗议都是西方以美国为首的国家的阴谋，伊朗政府没有问题！流氓的逻辑！ 傻逼 又是美帝的阴毛，独裁者能不能换个套路啊 哈哈哈你这个SB估计你在里边发一个帖子减刑一分钟是吧？ 只有消灭美帝世界才能和平 伊朗有言論自由及游行示威的權利 华为SB将会被历史记住 神棍是谁？ 这是示威吗？这是给独裁者敲丧钟！ 伊朗现在可是温和改革派在执政，真不知美国究竟在想些什么，难道希望强硬保守派上台？美国应该改变观念，改善与伊朗的关系，帮助伊朗发展经济，解决存在的问题，使温和改革派得到伊朗国民更多的拥护和支持，促进伊朗走向更加民主，逐步向完全民主转型。 伊朗宪法居然可以让示威游行都能算独裁啊 非洲强人墓加碑都被赶走了，还有什么不可能的？ 希望伊朗不再轮回跨入新的时代 你是不是瞎啊，现在伊拉克好着呢 你拉不來屎 伊朗人民，加油啊！ 跟贴被火星网友带走啦~ 像这样发展下去，最后像伊拉克，阿富汗，利比亚，叙利亚一样，大量的难民出现，各种势力出现出来你真我夺，天天打丈，到头来苦的还是老百姓 他妈生他出来，他也赖美国 示威是什么，不知道伊朗的别克，凯迪拉克会不会挂上横幅，车是美国车，心是伊朗心，坚决抗美到底。😂 你家的隐私给你说出来了 支持伊朗人民对控制国家的极端宗教疯子作坚决斗争，必须打碎捆缚身上的极端宗教枷锁。 “定性为反革命叛乱”——不都解决了吗？！ 有钱人的民主，你好有钱的话到美国去吧，希望你有钱你全家一直有钱 这是示威吗？这是给独裁者敲丧钟！ 宁死不吃救济粮😃 想一下利比亚、伊拉克诚诺的自由在哪里？为什么总有那些帮美国说人渣， 最终老百姓胜利走向新生活 二楼也是美国人干出来的…… 这三楼真该回小学重新读书了！ 太好了😄 醒过来了 维持现状有时候还真是刷流氓 美国就像渣男你不让我弄我就毁了你 经济低迷苦的不是老百姓？ 这是示威吗？这是给独裁者敲丧钟！ 鲁迅的血馒头😷 米国啊，你看这口锅还背得动吗？ 历史是反抗者创造的，打破旧秩序肯定有暂痛。 一楼，知道央视网吗？还有ccnv，去看看伊拉克的报道，这个你不要说也是造谣的？ 没有永恒的物业，只有永恒的业主 你也可以啊。 傻逼 那你去呗 苦不苦，看头上统治的是谁，像满清这样的政府，越忍耐，百姓过的越苦，再怎么忍耐也没用的。 星星之火可以燎原吗？ 原來導火索還是經濟。我們的百姓如此勤勞，經濟想不好都難。 八成示威被捕的人都承认收了钱 独才政权都得死 有钱能使磨推鬼，呵呵 不在乎天长地久，只在乎曾经拥有。 伊朗人民把自己卖了，将变成下一个伊拉克，利比亚，会变成难民 猪肉涨价引起的。 1978年可以让国王下台<br><br>同样可以让神棍下台！！！！！！！<br><br>人类总是在斗争中进步没有永恒的政权这是人和动物的天性！！！！！ 反对派还是有必要的 嗯你拉不出屎也怪美国 可他会吃屎 伊朗居然可以游行示威……这确实颠覆了我的三观…… 看地址 人民为啥痛恨独裁，因为独裁必然导致腐败，独裁不仅包括个人独裁也包括群体独裁，不管挂啥样的狗头！ 这帖要摊事 终于起来了 “人民万岁” 嗯乖乖跪着多好是吧？(｡•ˇ‸ˇ•｡) 这是示威吗？这是给独裁者敲丧钟！ 美国太厉害了。世界上任何一个国家出事都是美国人干的。 示威游行 很多人拿着布鞋干粮站在村口等很久了，庆幸的是，正义没有让他们等太久 这类国家大体都是这样，区别的是有的捂得住，有的捂不住 安心做猪吧 雅利安苠众被迫每天不少于五次拜阿拉伯的神，日子很好？原本自由的妇女现在被迫蒙上丧尸袍罩、完全成为一种见不得人的生育机器，日子很好？国椁家常年被国际社会制裁，日子很好？民生凋敝还要拿钱去支持国外极端势力打仗、甚至派兵到处打仗，日子很好？胬姓还要比悲催的波斯人重百倍啊！ 神棍把持的国家没有希望 像这样发展下去，最后像伊拉克，阿富汗，利比亚，叙利亚一样，大量的难民出现，各种势力出现出来你真我夺，天天打丈，到头来苦的还是老百姓 自己一身蛆，非赖别人嫌你脏 我们评论、阐述自己的观点，和拉不出屎没关系吧！ 1978年可以让国王下台<br><br>同样可以让神棍下台！！！！！！！<br><br>人类总是在斗争中进步没有永恒的政权这是人和动物的天性！！！！！ 雅利安苠众被迫每天不少于五次拜阿拉伯的神，苦的是谁？原本自由的妇女现在被迫蒙上丧尸袍罩、完全成为一种见不得人的生育机器，苦的是谁？国椁家常年被国际社会制裁，苦的是谁？民生凋敝还要拿钱去支持国外极端势力打仗、甚至派兵到处打仗，苦的是谁？ 抗议的直接原因是汽油价格突然暴涨至7000里亚尔每升，相当于多少呢，1.4元人民币每升。 支持伊朗人民 日子好好的不过，非得起来闹腾，最后，肥了那些怂恿的人，苦了老百姓自己。。。 血的教训告诉我们！内乱是国家最大的痛苦，是人民遭殃的开始，像中东一些国家就是西方国家利用了，他们的民族宗教信仰不同矛盾，颠覆国家政权！希望伊朗人民擦亮眼睛，从大局出发，使国家稳定，人民幸福！不能再出现伊拉克，利比亚，叙利亚，埃及的后后者 英国媒体好傻逼<br>绥靖就是犯罪 当年民国时，你们怎么不这么想？ 至少伊朗神棍嘴上承认“人民有反对的权利” 那个所谓”最高精神领袖”的神根可不是选的。 当然有关 环球时报？去尼玛的 看来下一个伊拉克、利比亚、叙利亚……又要出现了 黎明之前总是热烈的！ 伊朗伊斯兰革命卫队副司令称：凡是朝学生和民众开枪的警察和军人，就地处决！ 日美欧在国内养的水狗这段时间明显集体高潮了！ 美国就像渣男你不让我弄我就毁了你 哦，那得他们同意，不然就是非法的 这是谁说的？好像有道理啊！ 和鲁迅一样的人渣。笔墨看似锋利，实则颠倒黑白。真正有用的观点是解决问题，而不是讥讽暗算。 自己嘴巴脏。还嫌别人屁眼不干净 伊朗危机会不会演变为下一个利比亚… 政教合一的国家，想想都可怕 你和华为傻逼讲道理？没用的 一定是美帝的阴毛！ 我是自来水我自己能养自己 你拉不來屎 伊朗是民选国家，沙特才是! 背后有美国 一个政权不考虑如何解决国内的民生问题，只是为了维护政权的稳定，肆意践踏百姓的权力。人民早晚会起来推翻它。 德黑兰也有春天！ 伊拉克现在日子好着呢 而且有些猪还见不得别人做人 星星之火可以燎原吗？ 天空之眼，你他妈该改名：天空之猪或者天空之傻逼。 意思是就是饿死也要忍，不要出村， 你太脏了，美国不想弄你！ 跟贴被火星网友带走啦~ 新年进步，伊朗人民新年给了个大惊喜。 但问题例如在德黑兰……这帮年轻人差点被支持者游行队伍打死…… 伊朗人民觉醒了！有希望了！ 嗯你拉不出屎也怪美国 你以为伊朗和阿拉伯是同类？人家叫做精神领袖，又不是宗教领袖。别乱说了。 一楼过不去河，赖裤裆大？ 仅仅是反低迷经历？ 去看看伊朗怎么选的？毛个民主啊，一个神权国家 这是示威吗？这是给独裁者敲丧钟！ 居鲁士大帝的后人终于喊出了激动人心的口号:我们是雅利安人！我们不要阿拉伯人！我们不要伊斯兰教！ sb 安心做猪吧 特朗普同情的是人民！称恐怖分子的是你们这些政权！ 同意你的观点，大多数人的眼睛是雪亮的! 除了美国的军事力量，伊朗政府最怕的还有伊朗人民 像这样发展下去，最后像伊拉克，阿富汗，利比亚，叙利亚一样，大量的难民出现，各种势力出现出来你真我夺，天天打丈，到头来苦的还是老百姓 睁眼说瞎话 难道伊朗没有洒水车 我们评论、阐述自己的观点，和拉不出屎没关系吧！ 口号：让独裁者去死。 日子好好的不过，非得起来闹腾，最后，肥了那些怂恿的人，苦了老百姓自己。。。 伊朗人民加油铲除骑在你们脖子上的毒瘤 文明社会，从理性发贴开始。谢绝地域攻击。 不愧喉舌，轰烈壮举被“十年”二字轻描淡写 我想说你是傻逼但我不是想骂你 又把罪责归结为国外敌对势力，老套路了 那个所谓”最高精神领袖”的神棍可不是选的。 支持伊朗屁民，支持美国。 時間，有時只有時間，才能判別真偽。<br><br>你可騙眾人一時，可以騙某些人一世，卻騙不了所有人生生世世。<br><br>終有一天，真相大白。 美国就像渣男你不让我弄我就毁了你 肆无忌弹！ 挤进去，就可以做宠物猪了 民主国家的体现，示威yx是合法的，独c国家不会有 作死 听说是通货膨胀导致猪肉涨价 他称根据宪法和公民权利伊朗人完全有表达对政府的批评或举行示威的自由? 人民在行施监督政府的权力 美国笑了！ 不行，烧起来了，那我十几套房子怎么办，我的工厂怎么办。 引响不大！ 星星之火可以燎原吗？ 跟贴被火星网友带走啦~ 那些抗议的都是美国人🐶 神棍国内媒体肯定又要大肆渲染：这一切都是外部敌对势力的阴谋诡计 他们都是国外分裂势力的前车狗 这些违背社会进步的政治家，拿着爱国当他们的幌子 特朗普和鲁哈尼的各执一词，给我们诠释了了人民和政府的关系 毫无用处，死的人可惜了。鼓动的人自己是不会走上前台的。 嗯你拉不出屎也怪美国 继续震压啊！ 自己一身蛆，非赖别人嫌你脏 绞死独彩者！ 伊朗领导人真会甩祸给美国 马克 只要示威者有枪，示威就有效果 一楼今天上厕所拉不出也怪美国😁 没有战胜不了的对手只有战胜不了自己的决心。祝福伊朗！ 开枪只会激起更多人的反抗 美国太厉害了。世界上任何一个国家出事都是美国人干的。 "
    },
    "Article": "（原标题：伊朗遭“十年来最大示威”冲击美媒：对低迷经济的反应）",
    "Source": "Netease",
    "Title": "伊朗遇\"十年来最大示威\" 美媒:对低迷经济的反应_网易新闻",
    "KeyWords": "伊朗,德黑兰,鲁哈尼,示威者",
    "URL": "http://news.163.com/18/0102/02/D744NOBK000187V9.html"
}