{
    "Title": "穿衣典范！赵雅芝淡蓝风衣尽显优雅_网易娱乐",
    "URL": "http://ent.163.com/photoview/00AJ0003/646715.html",
    "Source": "Netease",
    "Comment": {
        "Total": 104,
        "Reply": 12,
        "Content": "越来越讨厌她 看到最后一张我放心了，果然有她男人在旁边 很漂亮 白素贞也老了 不老神话 白素贞也老了 看到最后一张我放心了，果然有她男人在旁边 洗得最白的小三 越来越好 很漂亮 越来越讨厌她 白素贞也老了 恶心死了，整天出来作妖，老了就是老了，修成天仙也是老了 黑着灯都一样 不老神话 气质 真酸 ",
        "Link": "http://comment.ent.163.com/ent2_bbs/PHOTJNHR000300AJ.html"
    },
    "Article": "穿衣典范！赵雅芝淡蓝风衣尽显优雅近日，赵雅芝现身香港国际机场，黑超遮面的她身着一袭淡蓝色风衣，优雅十足，一路与老公黄锦燊牵手同行，羡煞旁人！",
    "PublishTime": "12/26/201707:53:43",
    "KeyWords": "赵雅芝,"
}