{
    "URL": "http://news.163.com/17/1228/21/D6P8Q0RA0001875P.html",
    "Article": "（原标题：富二代信传言砍死妻子判死缓狱中打人可能被撤销缓刑目前已上诉）4年前，25岁的吉星鹏因听信传言怀疑妻子不忠，用菜刀、水果刀砍击捅刺数十刀，导致妻子馨馨当场死亡。鉴于该案是婚姻家庭纠纷引发的犯罪，法院没有判处吉星鹏死刑立即执行，而是缓期两年执行。但吉星鹏在缓刑期间，多次采取暴力手段攻击其他犯人，致两人轻伤。2017年11月下旬，南京中院以破坏监狱秩序罪判处吉星鹏有期徒刑三年。法制晚报·看法新闻记者获悉，目前，吉星鹏已经上诉至省院，该判决尚未生效。一旦判决生效，将报最高人民法院核准，撤销缓刑，对吉星鹏执行死刑，按照惯例一个半月后将出结果。听信传言砍死妻子时女儿刚百天据媒体报道，吉星鹏一家很早就来到南京做钢材生意，从钢材加工铺到钢材买卖，收入越来越高。吉星鹏从小生活环境优渥，在当时也被认为是“富二代”。后来，吉星鹏开始追求高中校友馨馨。2011年前后两人确定了恋爱关系。据馨馨的闺蜜在接受媒体采访时介绍，两人感情曾经有过危机，闹过一次分手，但吉星鹏极力挽回，最终二人走入婚姻殿堂。2012年5月8日，吉星鹏与馨馨（化名，女，殁年22岁）登记结婚。“男的有钱，女的漂亮”在外人眼中，吉星鹏和馨馨是一对天造地设的爱侣。然而，新婚仅仅三个月后，吉星鹏怀疑馨馨与他人有染，两人便多次产生矛盾，2013年4月24日晚，与朋友饮酒后的吉星鹏再次听朋友说起馨馨与人有染的传闻。次日早上，吉星鹏回到家中与馨馨发生争执。随后吉星鹏持菜刀、水果刀对馨馨砍击、捅刺数十刀，导致馨馨当场死亡，其伤口惨不忍睹。在吉星鹏行凶期间，其父亲拨打110报警，民警在其住处将其抓获。此时，两人的女儿刚满百天……庭上向岳父母道歉未获谅解2013年11月4日，南京中院公开审理了这起被称为“西堤国际小区杀妻案”的案件。被害人馨馨的父母作为民事诉讼部分的原告参加庭审，提出57万余元的赔偿。庭上，吉星鹏对举刀到报案的全过程多次翻供，认为自己不是故意杀人，而是故意伤害，并认为自己有自首情节。在庭审最后的陈述中，吉星鹏说：“我想给我岳父岳母道个歉，你们把养育了21年的女儿交给我，而我没能好好照顾她，她死于我手，我知道你们此刻痛苦万分，我也感同身受，毕竟她曾经是我挚爱的女人，我一辈子的妻子，但是我没办法让她活过来，所以我也不敢奢求你们原谅我。但是试想一下，我的女儿现在还不满1周岁，我愿意用余生对被害人父母尽到赡养义务，对女儿尽到抚养义务，愿意赔偿，希望法庭从轻处罚。”但是，吉星鹏的忏悔，并没有换来岳父岳母的原谅，两位老人坚持要求判吉星鹏死刑，为自己的女儿偿命。判决死刑缓刑两年被限制减刑2014年4月18日下午3点，南京中院对“西堤国际小区杀妻案”一审开庭宣判。法院审理后认为吉星鹏不构成自首。南京中院最终判处吉星鹏构成故意杀人罪，判处死刑缓期两年执行，剥夺政治权利终身，并且限制减刑。2014年8月30日，江苏省高院裁定核准该刑事判决。2014年9月25日，吉星鹏被解押至监狱服刑。在对吉星鹏的判决中，包括了“限制减刑”。这并不意味着吉星鹏不能获得减刑，但要保证最低的服刑期限。被判处死缓限制减刑的，算上缓期执行的两年时间，在判决生效后至少要服刑二十二年，且判决生效前羁押的时间不能折抵刑期。以此计算，吉星鹏最早可在2036年他50岁的时候出狱。但在死缓的两年时间里吉星鹏不得故意犯罪，否则将报请最高院核准死刑立即执行。缓刑期间多次打伤犯人吉星鹏故意杀人案宣判后，馨馨的父母并不能接受死缓的事实，他们人认为吉星鹏的行为残忍恶劣，应该被判处死刑立即执行。法律专家对此解读称，认为法院的判决是基于“慎杀少杀”的精神。可以说，法律给了吉星鹏一个机会。但令人意想不到的是，吉星鹏在服刑刚刚一年多的时候，就在监狱中闹出事来。法院判决书显示，2015年4月28日晚间，吉星鹏与同监服刑人员马某因为电视音量大小的问题发生口角。吉星鹏将一杯牛奶泼向马某面部，对马某进行殴打，在被同监室人员劝开后，吉星鹏遭受了处罚。此后，吉星鹏又三次采取暴力手段殴打其他犯人。他曾因洗澡放水的事情殴打服刑人员肖某某，因就餐时其他犯人移动餐盘而出手打人，还别的犯人在洗漱时把水溅到他身上而将对方打成轻伤二级。狱中获刑可能撤销缓刑一个半月后将出结果由于将犯人高某某打成轻伤二级，吉星鹏属于在死缓的两年缓刑时间内故意犯罪，于是，有关部门报请最高法核准，立即执行死刑。2016年12月29日，南京市人民检察院指控被告人吉星鹏犯破坏监管秩序罪，向南京中院提起公诉。而就在公诉期间，吉星鹏又将犯人丁某打伤，并用热水灼伤丁某。据媒体报道，与吉星鹏一起服刑的多名犯人作证说，吉星鹏为人偏激，行事霸道，很难沟通。因为这次开水泼人事件。2017年9月13日，南京检方又追加了一份起诉决定书。最终，南京中院依照《中华人民共和国刑法》第三百一十五条第四款的规定，判决被告人吉星鹏犯破坏监管秩序罪，判处有期徒刑三年。南京中院宣传处于12月28日回复法制晚报·看法新闻的记者称，被判死刑缓期两年执行的吉星鹏，如今有极大可能性被撤销缓刑，改为死刑立即执行。原因是他在坐牢期间五次暴力伤害其他犯人。目前，吉星鹏已上诉，该判决尚未生效。一旦判决生效，将报最高人民法院核准，撤销缓刑，对吉星鹏执行死刑，省院有个审限过程，按照惯例一个半月后能出结果。本文来源：深读责任编辑：赵亚萍_NN9005",
    "Source": "Netease",
    "PublishTime": "12/28/201721:19:11",
    "KeyWords": "缓刑,死刑,砍杀,富二代",
    "Comment": {
        "Content": "鼓掌就鼓掌，都是屌丝谁怕谁 如果当初直接判死刑立即执行，不就不会有后来这么多的屁事了，脱裤子放屁多此一举！🙄️🙄️ 都四年了这男人还没有死。这个案件当时不知道应该很轰动吧。去年看过这起案件起始和这女的一些背景情况，网上现在还有被砍的现场照片，惨不忍睹极其恐怖。女孩和我一样大…可怜那个孩子了。找老公是多么重要，说不定把命要了。 戳痛了你们那颗虚荣的小心脏，还死嘴硬，贪财女虚荣心最后都是这样的下场，这就是你们的镜子！😊 金陵能否正名在此一举 一楼，酸掉牙了 哈哈…好耍好耍 都憋吵了，看过来！看过来！经过本人仔细研究发帖记录，北美的那位高贵姑娘很有可能是凤姐。恭喜网易给了我们各位屌丝和凤姐同台竞技的机会，再次鼓掌👏🏻👏🏻👏🏻 一楼就一傻逼玩意 女孩找男人别太注重物质！三种男人不能找：趾高气扬富二代不能找；一无所有纯屌丝不能找；沉默寡言心机婊不能找！轻则自己丧命，重则全家灭门！女人找男人最关键就看三点：学历，决定了社会阶层；相貌，决定了未来小孩基因和竞争力；性格，决定了生活在一起是否和谐幸福，婚姻能否美满长久！有学历，外表，性格三样，绝对不差！物质差不多就行，房子车子都不重要，以后人人都可完拥有！ 嫁穷屌丝被杀的几率更大， 我觉得没有多少人会因为他们矮矬穷而歧视他们；而是他们酸不拉唧的言论真的很恶心！一句话就是：可怜人自有可恨之处！！再补一句，谁不爱慕虚荣？谁没有自尊心？就算故事女当事人就是为了财嫁也无可厚非！男生喜欢美女也是虚荣心体现之一！那女生爱财也是各取所需！！ 女人爱财男人爱貌，谁不是爱慕虚荣？谁不想有钱，不要吃不到葡萄说葡萄酸了 动物都知道找强者做伴侣，更何况是人类。挣钱是一个男人最基本的能力，若是没有这个能力，不用女人去选择，依照大自然的规律也会被淘汰掉。 这社会是有多冷漠啊！那美女都死掉了，还有一些奇形怪状的生物在这里喷。喷那女的那些东西，你有接触过那女的吗？你了解那女的吗？就说人家是贪财。你们的良心不会痛吗？ 强烈要求彻查判其死缓的法官！支持的顶起来—— 都别吵，楼上各位都是大富翁，就我一个是臭屌丝😄 考验南京法官时候到了[鄙视][鄙视][鄙视] 哎呦，急了[可怜][可怜][可怜] 屌丝认为漂亮的女人嫁有钱人是爱慕虚荣，是贪财，不会有好下场的。<br>认为嫁给穷人是一时脑袋发热，肯定要后悔的！<br>认为嫁给帅哥的是只看脸不看内在，绝不会有好下场的！<br>认为嫁给丑男的审美都有问题，智商都不够，绝对要离婚的！<br>其实这些屌丝的潜意识是认为美女应该嫁给他！<br>可是他没有撒泡尿照过自己，他没明白自己就是又挫又穷又老又没才的真屌丝，连嫁不出去天天被父母逼着相亲的剩女都不稀得正眼看他们一眼！ 在微博上看到没有打码的受害人照片……惨不忍睹丧心病狂 亿万富二代的现身说法 我也算富二代，家里也有个几亿吧，我周围有钱朋友是不会找爱慕虚荣女人做老婆的，因为那意味着毁灭，因为再有钱，我一天就可以花光。你们这帮想贾有钱人的女人可以，我极度鄙视你们 漂亮的姑娘嫁给穷屌丝后被杀了，又要被你们这帮喷，说姑娘眼瞎。哎～女人难啊 从骨子里透露出来的屌丝味，还极力反驳。 屌丝和有多少钱没关系是心态自卑low鸡小心眼没有格局没有情怀没有思考这种人年薪过亿也是屌丝 鼓掌鼓掌鼓掌👏👏👏 哈哈哈！ 殊不知这个天是屌丝用生命换来的 支持死刑立即执行。 因为爱情，相爱相杀，可以了吧！争你大爷 反正我是不准我儿子结婚，否则净身出户 你到底从哪里看出来那个妻子贪财啦？？难不成所有女人都不敢嫁非屌丝，嫁了就是贪财？了不起的屌丝理论！！！ 打的好，从监狱到检察院到法院的人喜笑颜开，又能挣钱了。 连个精神病鉴定都弄不到，也敢称富二代。 你们屌丝的界限是多少？我有房有车，年薪20万不到，无负债单身狗。。我也觉得这女的是看重钱。。我也是屌丝么。。如果是的话，我不是说我条件有多好哦，至少全国70%的男人都是屌丝吧？ 国内嫁给钱，国外嫁给人 胡润研究院：中国千万富豪人数121万人，亿万富豪人数7.3万人。就按中国14亿人口算，富豪占比只有0.009%，所以在中国99.991%的人都算是屌丝，还请在座各位不要再争了，因为屌丝代表了几乎所有中国人，本是同根生，相煎何太急啊 这几样都有还会要你？ 夫妻的真实关系是你弄不死我我一定弄死你 一楼自己对感情都一知半解还敢出来装逼教别人？ 贪财女找了个人渣富二代，结果悲剧了 呵呵，这个有钱的强者不错，像杀小鸡一样就把贪财女杀了，谁也阻止不了这种女人的选择权！🤷🏻‍♂️ 张口屌丝闭口屌丝，你又是从哪里看出来的别人都是屌丝？真不好意思说到你心里去了，保护好自己的性命，别再替别人操心了，呵呵～ 他在求死 那么丑的男人她都愿意嫁，说她不贪财，你们信吗？ 这女的绝对是n手整容货，玩够了找富二代接盘，结了婚富二代发现被骗，努尔杀人 无风不起浪，我相信这个女的绝对跟他戴绿帽子了 就觉得你说的有道理 HHHH 请问你的帅气的和你的暖男性格吸引到了什么(ﾟoﾟ;你不理解你的女神为什么被别的男人压在身下，就觉得你的女神瞎？呵呵，你还是保持你的帅气和暖男气质单身吧！ 打的好，从监狱到检察院到法院的人喜笑颜开，又能挣钱了。 立即执行吧 长的太丑，有钱也不自信，哎 这坐牢的人还有牛奶喝。我连矿泉水都舍不得买。走回家喝白开水。 哪里天造地设了？ 他不再犯罪，到了2037年也不会执行死刑 “男的有钱女的漂亮”就是天造地设？什么人这样的眼光？财迷！ 身手不错啊 这是什么监狱，有牛奶喝，还有电视看，晚上还能洗澡，你不特么好好呆着，还惹事，死不足惜 好好上上学，死缓二年没不出事就改判无期了，没文化太可怕 这个社会就这样，很现实的。女人要么为钱，要么为人。 女的是不是为了钱心里没点逼数吗，还天造地设一对？ 真硬 故意杀人都不判斩立决？ 求死就不会是死缓了，换成农民工试试看，骨头棒子早拿去敲鼓了 早死早超生。 和这种野兽长相的天造地设？ 这种人应该随了他的心愿，立即枪决 暴力倾向明显，还是早日枪毙吧！ 亿万富二代的现身说法 果然网易上贴只管喷，却没人注意，4年前杀人，死缓2年，这都还没执行 还没处死，中国法律真是强大。 漂亮的姑娘嫁给穷屌丝后被杀了，又要被你们这帮喷，说姑娘眼瞎。哎～女人难啊 法律不公平。这种杀人犯还不判处死刑。哈哈哈。他背后有权判有期。 NO作NO死支持枪毙 这个富二代，一长得丑，二有暴力倾向。这个女的如果不是个傻逼脑残，在结婚前就一定能察觉到，但她依然嫁了。楼上各位大神，如果这男的是个又丑又穷又有暴力倾向的屌丝，这女的会嫁吗。因为他有钱，而嫁给一个有暴力倾向的人，将自己置于危险之地，你说她贪财不贪财？当然，她也有肯定婚前没有察觉男的有暴力倾向。欢迎大家一起讨论。 连个精神病鉴定都弄不到，也敢称富二代。 说的好 动物没什么廉耻之心，怎么找都行。人能跟着学？？？那还穿衣服干嘛 监狱里看看电视，喝喝牛奶，比朝鲜日子好过 是个爷们 你到底从哪里看出来那个妻子贪财啦？？难不成所有女人都不敢嫁非屌丝，嫁了就是贪财？了不起的屌丝理论！！！ 找个人渣穷二代，满意了吧 出来估计接着杀人！ 那是关二代才能搞的，就一个卖钢铁的代理敢称富二代？！ 就是啊。那群人估计是鸡汤喝多了？ 如果他家再花点钱活动活动法官又会怎么判呢？ 。。 哎呀呀，外貌协会的就说人家贪财，这有多酸，那意思就是我没钱，我长的可以，怎么没人看上我，兄弟，就你这样，拜托以后别招惹女生好吗，看上你也不是，因为怕你说图你长的好，看不上你也不是，怕你说嫌你没钱 我靠，死缓期间还这么嚣张，这是自寻死路啊！ 就交往了一年，也有可能没有显现 南京法官 真那样你肯定眼瞎了。 。。 目测，攻击一楼的全是女的。 贪财女找了个人渣富二代，结果悲剧了 他在求死 得了吧，标题非得弄个富二代出来，什么阶层的男人都有杀妻的新闻，一个普通的刑事案件，又成了爱情观大辩论了。自己好好看看新闻，穷逼杀妻的有，中产杀妻的有，暴发户杀妻的什么样的没有 此人不可留。 哪个傻逼说的天造地设？ 如果当初直接判死刑立即执行，不就不会有后来这么多的屁事了，脱裤子放屁多此一举！🙄️🙄️ 小样作死 建议废除婚姻，好好保护妇女。 这种人连妻子都杀，从最开始就已经废了，还有什么值得原谅！他还怎么可能对自己的女儿做到扶养的义务，就别提什么岳父岳母了！只是可怜的他们的女儿！即使家里有再多的钱也买不来一家的幸福！ 早晚都是死，还不如早死早投胎 喷女的是贪财女的那位傻逼，愿你的家人男的娶又丑又肥又邋遢的女人结婚，不然就是好色之徒，你家女人嫁给又穷又矮又短的男人结婚，不然就是贪财女，不这样怎么体现是真爱呢？ 南京一向以奇判怪论闻名于全球司法界 男渣 妈的。你们这点工资怎么买的房和车的？啃老？ 所以他们才叫键盘侠。 我觉得没有多少人会因为他们矮矬穷而歧视他们；而是他们酸不拉唧的言论真的很恶心！一句话就是：可怜人自有可恨之处！！再补一句，谁不爱慕虚荣？谁没有自尊心？就算故事女当事人就是为了财嫁也无可厚非！男生喜欢美女也是虚荣心体现之一！那女生爱财也是各取所需！！ 看面相，此人就很凶残霸道 闵行区的，以后你女儿也嫁给有钱人然后被杀掉，你会对对方说哦对不起，我女儿脑子瓦特了贪钱活该死是嘛。 哈哈哈 我在121万人里的老末... 那小子一看就是个傻逼！ 请问女的哪里渣了？ 卖钢材的没文化 我想问下死缓两年怎么现在2017年了还没有执行的 动物都知道找强者做伴侣，更何况是人类。挣钱是一个男人最基本的能力，若是没有这个能力，不用女人去选择，依照大自然的规律也会被淘汰掉。 最后回复你一句，我不是东西，你是东西，你全家都是 不好意思，我的观点是我个人意见，你不用臆测我过得咋样。我不是富二代也没你说得那么落魄，我上海中环内两套房子（一套两房一套一房一共190平米左右无贷），一辆40万左右的沪牌代步车，每月工资税后8000+，我太太税后6000+，不能说是壕，也不用像你说得那样靠吃沙县度日。 南京是一个神奇的地方 这男的人渣女的贪财。不管女的出轨是真是假，背后说闲话的也不是个东西 富二代这种凶杀案都是死缓？为啥要缓？法院在等啥呢 这时候法院开始讲仁义了 肯定有问题了，这么恶裂才死缓，有人得钱了 不知悔改死刑吧。 “慎杀少年”？留着这样的“少年”祸害人间？什么奇葩法律 闵行区的，以后你女儿也嫁给有钱人然后被杀，你是不是会对对方说对不起，我女儿脑子瓦特了贪钱活该是嘛。 杀人犯还能活着 还有补充一点，哪看出女的贪财？就这男的脾气性格，再没钱女方家长会同意这门亲事？女方那么乐意嫁个暴脾气的？除了钱我是看不出男的哪里好，要么你认为他活好家伙大，那女的出轨也没道理了，除非人家活更好家伙更大 当初花了多少钱才从法院买回个死缓 强烈呼吁撤消死缓改为死刑立即执行！像这种暴力型罪犯你就是把他在监狱关押一百年也是劣根性难改、只会浪费大量的警力和国家资源。 你到底从哪里看出来那个妻子贪财啦？？难不成所有女人都不敢嫁非屌丝，嫁了就是贪财？了不起的屌丝理论！！！ 听个谣言就能回家砍死老婆 男渣女媚 你这推理成立 天擦地射 酒吧女泡上富二代，还以为能幸福一生。。。呵呵 男的这么丑。还天造地设。。无语 你们屌丝的界限是多少？我有房有车，年薪20万不到，无负债单身狗。。我也觉得这女的是看重钱。。我也是屌丝么。。如果是的话，我不是说我条件有多好哦，至少全国70%的男人都是屌丝吧？ 我作死，不会死。 胡润研究院：中国千万富豪人数121万人，亿万富豪人数7.3万人。就按中国14亿人口算，富豪占比只有0.009%，所以在中国99.991%的人都算是屌丝，还请在座各位不要再争了，因为屌丝代表了几乎所有中国人，本是同根生，相煎何太急啊 现今大陆法治就是天下最大笑话大陆 就问楼上各位直男癌！<br>前几天那个程序员是不是好色爱慕虚荣，活该死有余辜？？？ 都是老婆长的太漂亮惹的祸？ 天造地设…… 贪财女找了个人渣富二代，结果悲剧了 南京法院也快急死了，这人渣再不办精神病证，法院就要主动给申请了 真不知道在哪里看出女的贪财，难道要和你一辈子住地下室吃沙县才叫真爱才叫结婚吗？你自己是不是个东西没点逼数？ 这女的绝对是n手整容货，玩够了找富二代接盘，结了婚富二代发现被骗，努尔杀人 找强者是没有错，但是文中这男的不是强者，只是他父亲是强者。所以悲剧...明白了吗？ 婊子配狗很正常 首先必须要确认女方到底有没有出轨。可怜了孩子，出生下来就变成了孤儿，孩子长大以后，估计也不会认他外公外婆了。 如果当初直接判死刑立即执行，不就不会有后来这么多的屁事了，脱裤子放屁多此一举！🙄️🙄️ 你是富二代吗？如果你真的是富二代，57万算个锤子！你直接摔个570万（美金）过去！保证你岳母大人立马撤诉！你这几百万也买个教训、以后做事情长点猪脑！有证人没证据在法律上是站不住脚的！背死 屌丝认为漂亮的女人嫁有钱人是爱慕虚荣，是贪财，不会有好下场的。<br>认为嫁给穷人是一时脑袋发热，肯定要后悔的！<br>认为嫁给帅哥的是只看脸不看内在，绝不会有好下场的！<br>认为嫁给丑男的审美都有问题，智商都不够，绝对要离婚的！<br>其实这些屌丝的潜意识是认为美女应该嫁给他！<br>可是他没有撒泡尿照过自己，他没明白自己就是又挫又穷又老又没才的真屌丝，连嫁不出去天天被父母逼着相亲的剩女都不稀得正眼看他们一眼！ 高富帅也看网易，也来这无聊的评论？ 应该和童年成长经历有关系，不然也没那闲工夫和别人处处作对 就问楼上各位直男癌！<br>前几天那个程序员是不是好色爱慕虚荣，活该死有余辜？？？ 女孩找男人别太注重物质！三种男人不能找：趾高气扬富二代不能找；一无所有纯屌丝不能找；沉默寡言心机婊不能找！轻则自己丧命，重则全家灭门！女人找男人最关键就看三点：学历，决定了社会阶层；相貌，决定了未来小孩基因和竞争力；性格，决定了生活在一起是否和谐幸福，婚姻能否美满长久！有学历，外表，性格三样，绝对不差！物质差不多就行，房子车子都不重要，以后人人都可完拥有！ 一帮都不知道屌丝是什么概念的人，张口闭口别人都是屌丝，真是太可笑了！自己是什么东西你自己心里没点逼数啊？有点素质和修养的人，都不会张口闭口说这个屌丝那个屌丝的，当你瞧不起别人的时候，先大量一下自己算个什么东西，你嘴里眼里的屌丝不一定比你差，即使那些默默在工地搬砖，靠自己双手赚钱生活的朴实民工，也比你这种人的素质修养好，起码人家不会手高眼低，不张口喷粪去贬低别人！ 哪里都不缺你这种人 动物都知道找强者做伴侣，更何况是人类。挣钱是一个男人最基本的能力，若是没有这个能力，不用女人去选择，依照大自然的规律也会被淘汰掉。 听说那个女的有和别人的开房记录 这社会是有多冷漠啊！那美女都死掉了，还有一些奇形怪状的生物在这里喷。喷那女的那些东西，你有接触过那女的吗？你了解那女的吗？就说人家是贪财。你们的良心不会痛吗？ 我只是很好奇一楼的观点！一无所有的纯屌丝是怎么界定的？有钱的纯屌丝是不是就可以极爱？然后一楼又极力推荐女找男的标准，但第一条就根本站不住脚，学历决定社会阶层？你这是打我国淋到的脸是咋的？算了我看一楼还是直接说有钱来的直接点！ 该杀 结婚三个月，小孩白天，曾经要分手男的极力挽留，就是不是富二代一般的恋情也是会结婚，不知道你们哪里看出这个女的物质 菊花没被暴，谁会拿刀捅人呀？ 求死就不会上诉了 收了钱能不办事吗🌸🐔 速杀 精辟 作死至此，若还不执行死刑，法律是不是太宽容了 漂亮的姑娘嫁给穷屌丝后被杀了，又要被你们这帮喷，说姑娘眼瞎。哎～女人难啊 所以说婚姻门单户对很重要 亿万富二代炮轰贪财女 南京法官都搞不定伪富二代一枚鉴定完毕！ 明显存在性格缺陷。这个和他是不是富二代没关系。这属于严重性格缺陷。偏激暴力。 拉出去，呯 这楼有好多美女，我喜欢。 可怜了孩子[鄙视] 他在求死 死刑的执行变得越来越难，我觉得这是社会的退出，更是社会的悲哀 结婚三个月，小孩百天? 你确定年薪过亿也是屌丝？还有道理。。。。。 有钱也不能乱嫁啊 如果当初直接判死刑立即执行，不就不会有后来这么多的屁事了，脱裤子放屁多此一举！🙄️🙄️ 你到底从哪里看出来那个妻子贪财啦？？难不成所有女人都不敢嫁非屌丝，嫁了就是贪财？了不起的屌丝理论！！！ 枪毙吗…… 你们是没接触过亿万富翁吧。亿万富翁都很忙的好吧。哪里有时间手机啊。 😆😆😆 人渣不判死刑留着也是个祸害 连个精神病鉴定都弄不到，也敢称富二代。 那个小孩从小就失去父母 该死了 这种人渣还给什么机会 就觉得你说的有道理 监狱里面囚犯最看不起的一类人就是杀害妇女儿童的[微笑] 哈哈，天造地设 贪财女找了个人渣富二代，结果悲剧了 狗改不了吃屎！早该结果这小子，免得祸害百姓！他爹妈再富，又能怎样？也该为教育儿子的贫乏付出代价！ 请教一下，2014年4月判的死刑缓期两年执行，而2015年4月有打伤人，为什么2016年9月又上公诉，不是该在2016年4月本着犯人无悔改意识和表现直接死刑执行吗，等到9月是几个意思？问题是现在是2017年12月了还没结果，洋大人的自行车24小时能找回来，这公诉要研究讨论近两年时间，不能理解... 他在求死 举例不当。人类恰恰不像动物那样依附强者，有思想有感情，才使人类更像人。 同样是瞎，有惋惜和嘲讽两种语境。 这你就不懂了，接下来就会要求做精神鉴定了。 中国法律就神经病！有些错误就必须得以死谢罪，死缓缓几年就他妈出来了！有屁用 刚去搜索看了下真尼玛个逼的恐怖，那么漂亮的脸砍成那样，晚上不会做噩梦吗 这么恶劣的杀人犯竟然当初只判死缓，可见有钱有权能量有多大！可悲！现在这样藐视法律还不判死刑立即执行就完全没天理可言了。 这年头只要有钱，杀人也就是缓刑而已。这社会都成什么样子了。这种人就不应该给机会，要么死刑要么终身监禁。 人渣 杀猪 “多次翻供”还有自首情节？挺戏剧性的，应该立即死刑 不是精神病，连捅几十刀捅死老婆，这都可以不判死刑的？！当年小药只捅了8刀！ 呵呵呵 故意杀人判死缓？？？ 法官的眼瞎了吗？如此人渣不杀留着当爹吗？ 人面兽心 该死 谁说的天造地设？瞎？ 关系不到胃别说富二代，不是有钱可以不死吗！不是有钱啥事情都可以干的吗！不是有钱能使鬼推磨吗？南京法官要有一笔不肥的收入了！我代表中国十六亿的一员郑重的告诉你，不立即执行死刑，鬼子再来个大屠杀我们就站旁边看热闹！ 贪财女找了个人渣富二代，结果悲剧了 语文真的没学好啊，大兄弟。。我说男人都喜欢啪啪啪美女。几时成了美女都是让男人啪啪啪的了。。。[微笑] 白菜被猪拱了 死刑 世上不应该留下这样的人渣，让他去吧～～～ 我一直很不解，法律为什么总是对罪大恶极的罪犯至仁至义，对普通的民事责任人却置正威严。 立刻刑刑 狗屁，他是本性难移。可惜了，好日子不过，往死里作。 悲剧了 厉害了 这个社会怎么了真心的找不到对象，玩玩的一大堆 对于一心求死的人何必给予宽恕，直接毙了吧！ 真是艹了蛋的天造地设，当年做b奴，现在翻身做主人了，本事 你到底从哪里看出来那个妻子贪财啦？？难不成所有女人都不敢嫁非屌丝，嫁了就是贪财？了不起的屌丝理论！！！ 连个精神病鉴定都弄不到，也敢称富二代。？？ 居然长这屌样？女的眼瞎？还是因为其他原因才嫁的？ 活着的时候没少转移财产所以现在人家不稀罕赔偿拿着你的钱要你的命 是你说的美女就是让男人啪啪啪的结婚只找长相一般的不就是对美女的偏见吗？不要把话说满了缘分这东西说不准的 男的两眼无神，破掉了 关系不到胃别说富二代，不是有钱可以不死吗！不是有钱啥事情都可以干的吗！不是有钱能使鬼推磨吗？南京法官要有一笔不肥的收入了！我代表中国十六亿的一员郑重的告诉你，不立即执行死刑，鬼子再来个大屠杀我们就站旁边看热闹！ 居然只判了死缓……南京果然🐂 那个专家是不是闺女也死了？ 可怜了孩子，这么小就成了孤儿，这样的人真不该有孩子！ 就看看 既是天造地设怎么能不死呢？ 在微博上看到没有打码的受害人照片……惨不忍睹丧心病狂 他在求死 呵呵呵 呵呵呵 死不足惜啊。。 这傻逼以为已经判决了，在里面打没事，这会傻逼眼了。。 贪财女没几个好下场 给富人一条生路，仁至义尽[大笑] 又一个实则屌丝，网上风度翩翩的君子来声援女神了， 天造地设…呵呵 哪个微博 屌丝都是喷清 他哪里丑了？看文章照片五官端正，估计比你好看 杀了得了 他是真的不想活了，以死寻求解脱！ 如果当初直接判死刑立即执行，不就不会有后来这么多的屁事了，脱裤子放屁多此一举！🙄️🙄️ 女孩找男人别太注重物质！三种男人不能找：趾高气扬富二代不能找；一无所有纯屌丝不能找；沉默寡言心机婊不能找！轻则自己丧命，重则全家灭门！女人找男人最关键就看三点：学历，决定了社会阶层；相貌，决定了未来小孩基因和竞争力；性格，决定了生活在一起是否和谐幸福，婚姻能否美满长久！有学历，外表，性格三样，绝对不差！物质差不多就行，房子车子都不重要，以后人人都可完拥有！ 小编这面相你还真好意思说他们天造地设 你到底从哪里看出来那个妻子贪财啦？？难不成所有女人都不敢嫁非屌丝，嫁了就是贪财？了不起的屌丝理论！！！ 我没看到这个事件相关的资料，所以就立即处死来说，我觉得不能一杆子打死所有人，立即处死的话不会感觉太残暴吗？ 呵呵 对于一心求死的人何必给予宽恕，直接毙了吧！ 这楼的女人都讲道理倒是傻屌开口就骂 找穷屌丝都会被捧着 这货就应该毙了！ 他在求死而已，被困着感觉生不如死 南京法官，呵呵呵 贪财女找了个人渣富二代，结果悲剧了 南京的法官，难怪这样的残忍杀人，都只判死缓！ 男的有钱女的漂亮，就是一对！ 人渣 天造的圈套，地设的陷阱？ 结婚三个月，小孩白天，曾经要分手男的极力挽留，就是不是富二代一般的恋情也是会结婚，不知道你们哪里看出这个女的物质 去地狱忏悔吧 看看法官还有没有地方放票 他在求死 在下纯屌丝[大笑]各位老板香烟瓜子矿泉水要吗 对恶人就不能心慈手软，以为让恶人坐牢就能教育从善，那是专家们的单相思，他以为有些臭钱就可以胡作非为，早该杀掉，就没有后人受伤的事情了。 南京法官呵呵 为什么要缓期2年执行死刑 浙江人民发来贺电。 还把其他犯人给祸害了一遍。不判死刑感觉多几年能把整个监狱的犯人都弄死 啦啦 见过求死的还上诉？ 富二代有几个不渣的，应该考虑一下中国式自私教育 要是找一个穷屌被杀了，你咋喷？ 一般家里有婴幼儿的不会立即处死，大多死缓。 连个精神病鉴定都弄不到，也敢称富二代。 自作孽不可活 “男的有钱，女的漂亮”在外人眼中，吉星鹏和馨馨是一对天操地射的爱侣…… 事实证明富二代没官二代牛逼 说富豪不找拜金当老婆是真，但是不玩拜金是假 他醜！她漂亮！外表極其不般配！而且他還這麼殘忍有暴力傾向！如果他不是富二代她會嫁給他嗎？！這還推論不出來你是弱智嗎？誰是屌絲？就憑你這樣稱呼窮人在美國就可以告你歧視！公然歧視窮人！看看在大陸有幾個是靠自己的能力正當致富的！一些富人移民到美國，發現一下子失去了致富能力，只好出口轉內銷，把國籍留在美國，肉身又返回中國，美其名曰：外商投資。因為在中國，買通官員，吃喝嫖賭、巴結逢迎、坑蒙拐騙都是重要的致富能力，而在美國，這些“能力”成了廢物，還會帶來牢獄之災！ 屌丝认为漂亮的女人嫁有钱人是爱慕虚荣，是贪财，不会有好下场的。<br>认为嫁给穷人是一时脑袋发热，肯定要后悔的！<br>认为嫁给帅哥的是只看脸不看内在，绝不会有好下场的！<br>认为嫁给丑男的审美都有问题，智商都不够，绝对要离婚的！<br>其实这些屌丝的潜意识是认为美女应该嫁给他！<br>可是他没有撒泡尿照过自己，他没明白自己就是又挫又穷又老又没才的真屌丝，连嫁不出去天天被父母逼着相亲的剩女都不稀得正眼看他们一眼！ 在微博上看到没有打码的受害人照片……惨不忍睹丧心病狂 考验南京法官时候到了[鄙视][鄙视][鄙视] 一审时就该判死刑，你给它机会，它不珍惜！ 百度里就有，脸都砍开了，右眼都砍掉了，太tm变态了，应该拿到精神病鉴定证书啊 没有遗传。 笨啊，事情曲折有人才好做手脚捞钱💰啊。一棒子打死，没有操作空间对大家都没有好处。 ",
        "Total": 52572,
        "Link": "http://comment.news.163.com/news_shehui7_bbs/D6P8Q0RA0001875P.html",
        "Reply": 2763
    },
    "Title": "杀妻富二代狱中打人或撤死缓 夫妻曾被称天造地设_网易新闻"
}