{
    "Comment": {
        "Link": "http://comment.news.163.com/news2_bbs/D6JI96SH0001899N.html",
        "Reply": 8,
        "Content": "官要民反，民不得不反，懂不懂？ 是美国的官要叙利亚的民反，叙利亚的民不得不反吧？ 争权夺利者制造的灾难是空前的大悲剧，权力对某些人怎吗会具有那吗大的诱惑力？ 利比亚？叙利亚？ 叙利亚的悲剧纯碎是巴傻儿镇压民主革命者不愿弃权造成的，所谓颜色革命就是俄狗在为独裁专制狡辩而编造的歪理邪说。如果说反独裁反世袭的革命运动是错误的，那吗俄罗斯的十月革命和中国的近代革命都应该受到批判！这明显是在不要逼脸的胡诌冽扯。 越穷越生👎 伊拉克和叙利亚现在满满的品尝了“自由”的味道。 官要民反，民不得不反，懂不懂？ 是美国的官要叙利亚的民反，叙利亚的民不得不反吧？ 争权夺利者制造的灾难是空前的大悲剧，权力对某些人怎吗会具有那吗大的诱惑力？ 利比亚？叙利亚？ 叙利亚的悲剧纯碎是巴傻儿镇压民主革命者不愿弃权造成的，所谓颜色革命就是俄狗在为独裁专制狡辩而编造的歪理邪说。如果说反独裁反世袭的革命运动是错误的，那吗俄罗斯的十月革命和中国的近代革命都应该受到批判！这明显是在不要逼脸的胡诌冽扯。 越穷越生👎 有脸说别人 伊拉克和叙利亚现在满满的品尝了“自由”的味道。 ",
        "Total": 26
    },
    "Article": "（原标题：躲过战火躲不过寒冬!叙难民儿童失去生命仅因感冒）（来源：《自由时报》）海外网12月26日电西方传统的圣诞节刚刚结束，当人们沉浸在节日的欢乐气氛中准备迎接即将到来的新年时，不少难民却还在艰难地生活着，他们躲过了战火却抵挡不了严寒，甚至有尚未成年的儿童因感冒得不到及时治疗，而不幸离世。据台媒报道，从2011年初内战爆发至今，叙利亚大小战事不断，数以百万计的难民因而流离失所，幸运抵达难民营的儿童，却只能躲在简陋的塑胶帐篷中试图撑过寒冬，由于难民营生存资源极度贫乏，就连小小的感冒也可能令人丧命。（资料图）法新社报道称，35岁的叙利亚母亲阿卢什（KhadijaAlloush）带着5个孩子从饱受战火蹂躏的拉卡（Raqa）逃出，成功抵达距离战区50公里外的“AinIssa难民营”，然而，等待着她的却是比战事更加无情的寒冬，而她拥有的取暖资源却少得可怜。凛冬渐至，“AinIssa难民营”当地夜间低温骤降至4摄氏度，没有暖气、毯子及御寒衣物的难民们，只能挤在单薄的塑胶帐篷里抵挡寒风。由于该处医疗水平低下，就连常见的疾病也可能致命，导致这些难民们的处境更加艰难。阿卢什7岁的儿子就在染上感冒后的第二天不幸身亡，当记者问及此事时，她伤心不已，“他（儿子）咳嗽了一个晚上，还发起高烧”，阿卢什哭着说道，“没想到第二天就走了”。接受访问的同时，阿卢什不忘将其余的4个儿女拉近身旁，并祈祷，“愿上帝保佑我们度过寒冬”。据悉，“AinIssa难民营”目前共收容了超过1.7万难民，这些难民挤在2550个简陋帐篷中，生活条件极差。至少有超过一半的难民目前居住的帐篷不足以抵挡寒风，联合国的报告也证实，当地并没有足够的药物及诊疗单位，来帮助这些难民撑过当地日益凛冽的严冬。本文来源：海外网作者：张敏责任编辑：李杭_BJS4645",
    "PublishTime": "12/26/201716:09:20",
    "URL": "http://news.163.com/17/1226/16/D6JI96SH0001899N.html",
    "Title": "躲过战火躲不过寒冬!叙难民儿童失去生命仅因感冒_网易新闻",
    "KeyWords": "难民,感冒,难民营,叙利亚",
    "Source": "Netease"
}