{
    "Article": "（原标题：普京盛赞俄情报部门：智斗外国同行1年挫败60多起恐袭）参考消息网1月3日报道据美联社2017年12月20日报道称，在俄罗斯安全机构工作人员日，俄总统弗拉基米尔·普京对俄罗斯的情报工作人员致以节日的祝贺，称他们在2017年在俄罗斯挫败了60多起恐怖袭击事件。报道称，普京在克里姆林宫发表讲话，纪念苏联第一个情报机构——契卡成立100周年的纪念日。普京强调说，契卡及其苏联时代的继承者克格勃等是“我们历史不可分割的一部分”。报道称，普京曾当过16年的克格勃特工，在担任总统之前，他短暂领导过俄罗斯的国家安全机构——联邦安全局。他在演讲中说：“无论时代如何变化，选择这一艰难职业的人基本上都是真正的爱国者和国家的捍卫者。”普京称赞俄罗斯安全机构“智斗外国情报机构，有力地打击了有组织的犯罪和腐败”。这位俄罗斯领导人强调说，打击恐怖主义是俄安全机构工作的重中之重，并指出俄罗斯在叙利亚行动后将继续“坚决打击国际恐怖主义的温床”。他说：“必须加强保护俄罗斯免遭恐怖主义威胁的外部和内部安全力量，努力根除犯罪分子的金融和招募网络，打击极端分子和激进分子的企图，让他们无法对年轻人施加影响，无法传播仇恨、宗教极端主义和激进的民族主义等意识形态。”他还称赞俄罗斯情报和安全机构成功阻止了“60多起恐怖主义犯罪”，但没有提及具体细节。普京指出，俄罗斯已经准备好“与其他国家一起行动，与所有和全球威胁作斗争、准备开展联合工作和进行信息交流的人一同合作”。在2017年12月17日，普京致电美国总统唐纳德·特朗普，感谢美国中情局向俄罗斯提供情报。俄罗斯政府称美国此举帮助阻止了圣彼得堡喀山教堂爆炸案，以及可能在该市其他地区实施的恐怖袭击事件。这是俄罗斯首次公开宣称美国提供的信息帮助阻止了袭击。普京还向特朗普保证，如果俄罗斯获得了有关美国及其公民遭受恐怖主义威胁的情报，也将立即告知美方。不过，普京在俄安全机构纪念日的讲话中也强调，必须打击外国间谍，以阻止外国干涉俄罗斯内政的企图。报道称，普京没有提到具体的国家名称，只是说道：“我们有必要建立可靠的屏障，防止外国干涉我们的社会和政治生活，阻止一直试图在俄罗斯加速行动的外国秘密机构进行下一步行动。”（编译/苑欣芳）资料图片：俄联邦安全局下辖的反恐特战队。（图片来源于网络）本文来源：参考消息网责任编辑：姚文广_NN1682",
    "URL": "http://war.163.com/18/0103/09/D77F0KM4000181KT.html",
    "KeyWords": "普京,俄罗斯,恐怖主义,安全局",
    "PublishTime": "01/03/201809:37:02",
    "Title": "普京盛赞俄情报部门：1年挫败60多起恐袭_网易军事",
    "Comment": {
        "Content": "俄罗斯歌剧院人质事件，129名人质因为俄罗斯军方麻醉气体身亡 卡斯特罗一生中成功的躲过了美国的800多次暗杀。。。 以反恐名义可以强化自己家丁和暴力打手的武装建设，你也可以说“应对国际敌对势力的威胁”嘛～但是维持自己暴力铜质的金钱得你们出，干掉的主要敌人是铜质者本人的政敌或势力。------这些政敌本来是可以避免酥连乌克兰打饥荒、古拉格、“大清洗”以及KGB为所欲为的社会力量，也是避免二战时的德国在战争中走向毁灭的社会力量，也是避免波尔布特三年灭绝全国人口三分之一的社会力量。。。拥护这样的力量你得有自己随时被送去“古拉格”、“达豪”的精神准备。。。历史上曾经有一个“国会纵火案”，屡试不爽。好在世界上有着更加强大的对抗“返任磊罪”的国际力量，新纳粹的败汪不可避免，这只是时间问题。 俄罗斯92年拍了一部电影叫《契卡》，大家可以去看看。。。 卡斯特罗一生中成功的躲过了美国的800多次暗杀。。。 俄罗斯歌剧院人质事件，129名人质因为俄罗斯军方麻醉气体身亡 卡斯特罗一生中成功的躲过了美国的800多次暗杀。。。 以反恐名义可以强化自己家丁和暴力打手的武装建设，你也可以说“应对国际敌对势力的威胁”嘛～但是维持自己暴力铜质的金钱得你们出，干掉的主要敌人是铜质者本人的政敌或势力。------这些政敌本来是可以避免酥连乌克兰打饥荒、古拉格、“大清洗”以及KGB为所欲为的社会力量，也是避免二战时的德国在战争中走向毁灭的社会力量，也是避免波尔布特三年灭绝全国人口三分之一的社会力量。。。拥护这样的力量你得有自己随时被送去“古拉格”、“达豪”的精神准备。。。历史上曾经有一个“国会纵火案”，屡试不爽。好在世界上有着更加强大的对抗“返任磊罪”的国际力量，新纳粹的败汪不可避免，这只是时间问题。 卡斯特罗一生中成功的躲过了美国的800多次暗杀。。。 美国人真是太忙了，个个都是分身侠，哈哈。<br>老卡有一次喝水呛着了，好半天才缓过来，说了一句：又是美帝的阴毛，还好老子躲过去了。 俄罗斯92年拍了一部电影叫《契卡》，大家可以去看看。。。 ",
        "Link": "http://comment.war.163.com/news_junshi_bbs/D77F0KM4000181KT.html",
        "Total": 40,
        "Reply": 6
    },
    "Source": "Netease"
}