{
    "PublishTime": "12/30/201706:31:23",
    "Comment": {
        "Total": 1387,
        "Reply": 135,
        "Link": "http://comment.ent.163.com/ent2_bbs/D6SQPQDU00038FO9.html",
        "Content": "恭喜恭喜 恭喜恭喜啦 纪敏佳还有人认识吗 生孩子有多痛不用这么形容吧哪个女的不生孩子 为什么都写成刨腹，好吓人 接健康儿子 进了部队，想背靠大树好乘凉。其实也有很多约束，代言一个都不能接。 真快，都当妈妈了，恭喜 艾萌萌？ 鼻子好像妈妈 等你试一下宫口开不了，又上催产素的那种痛劲，我是一天一夜然后再剖腹，不是一般顺产的人可以体会到的， 恭喜 连续参加两次超女都没进入前三恭喜纪敏佳 整容得跟鬼一样 恭喜恭喜，感觉儿子长的很秀气除了鼻子 恭喜 如果人到中老年，就是一部西游记。悟空的压力，八戒的身材，老沙的发型，唐僧一样的絮絮叨叨.....关键是还特么的离西天越来越近了！ 唐笑？ 恭喜，不过啥时候结婚的😄 恭喜，，，， 恭喜纪敏佳 以前很正常，但是红不了，现在全身动刀子，还加入文工团，变身军官，真是会折腾 恭喜 同感 看到产房这张床心里就起毛 给你们变一个神奇的魔术:你们先点击一下我右上角的那个大拇指，点了之后就变成红色，这时，你再点一下，就会出现神奇的六个字！ 叶一茜也不错 恭喜，以前在医院孕产妇学校上课，老师就说过，九死一生形容的就是生产过程，妈妈们辛苦了。 名字不是改成了纪丹迪还是什么来？ 那个好像姓唐叫啥来着忘记了 我记得有个超女对着门口值班武警嚣张跋扈的，哪个叫啥来着？ 等于生了两次了。痛苦不敢想象。 小宝宝有脸长的有点像岳云鹏，哈哈。。。 也比你强吧，你这种人 恭喜，另外祝各位易友在2018年顺顺利利 牛萌萌 都有娃了，恭喜🎊🎉 和你长得很像，顺转剖很辛苦遭罪，祝贺你母子平安！ 唐笑？ 最惨的就是顺转破…… 超女里面比较正常的 唐笑 恭喜，，，， 顺转剖，两天一夜折腾，宫口一天开一指，催产素吊上才开到六指，娃头大，盆骨小生不了。后来剖腹生下儿子八斤多。真是怀疑人生了~~ 为什么都写成刨腹，好吓人 恭喜🎊🎉🎈🍾️ 一楼是绝对的大男子主义者～ 恭喜，，，， 真的生了,终于生了! 同感 我记得有个超女对着门口值班武警嚣张跋扈的，哪个叫啥来着？ 给你们变一个神奇的魔术:你们先点击一下我右上角的那个大拇指，点了之后就变成红色，这时，你再点一下，就会出现神奇的六个字！ 等于生了两次了。痛苦不敢想象。 我顺产生我儿女的。那时候也没有输液，那天早上生的，第二天出院了[不屑] 好多年啦 看到产房这张床心里就起毛 恭喜，，，， 鼻子好像妈妈 现在女明星怀孕还要拿出来说 恭喜恭喜，辛苦了 生个孩子大惊小怪 现在完全不是娱乐圈的人了 纪敏佳还有人认识吗 恭喜，，，， 并没有很好看，很虚，耍帅情节倒是不少。 荣县县歌《梧桐花开诗书香》唱得非常好听的妹妹当妈妈了，恭喜纪敏佳! 2017年，只要是我知道的都是生的男孩，怪哉 不明白为什么医院不准开刀 艾萌萌？ 等你试一下宫口开不了，又上催产素的那种痛劲，我是一天一夜然后再剖腹，不是一般顺产的人可以体会到的， 恭喜，，，， 反正不是她 可爱 新生命 最惨的就是顺转破…… 恭喜 等着看战狼。 这鼻子 恭喜୧(๑•̀⌄•́๑)૭，这个疼我是一点没感觉，好幸运我是那种一点不疼的，真是没感觉 我现在是看到产科两个字腿就发抖 名字不是改成了纪丹迪还是什么来？ 生孩子有多痛不用这么形容吧哪个女的不生孩子 剖腹……写刨腹…… 好丑， 超女不知亡国恨 这13长得跟男人一样还真ＴＭ有人下得去Ｄ？ 恭喜恭喜啦 超女也是厉害，培养了这么多明星 恭喜恭喜 接健康儿子 进了部队，想背靠大树好乘凉。其实也有很多约束，代言一个都不能接。 春哥？ 真快，都当妈妈了，恭喜 恭喜 连续参加两次超女都没进入前三恭喜纪敏佳 关我屌事！ 恭喜恭喜，感觉儿子长的很秀气除了鼻子 李宇春 恭喜 如果人到中老年，就是一部西游记。悟空的压力，八戒的身材，老沙的发型，唐僧一样的絮絮叨叨.....关键是还特么的离西天越来越近了！ 唐笑 恭喜 恭喜，以前在医院孕产妇学校上课，老师就说过，九死一生形容的就是生产过程，妈妈们辛苦了。 唐啥了？ 我记得有个超女对着门口值班武警嚣张跋扈的，哪个叫啥来着？ 是个人都能上网易 不是叫纪丹迪吗？ 恭喜，另外祝各位易友在2018年顺顺利利 这货有点丑 唐笑？ 超女里面比较正常的 恭喜恭喜 你生个娃也要全世界都知道？ 恭喜村姑 没进前三恭喜什么？ 难道不是剖腹？刨腹是什么鬼？ 小宝宝有脸长的有点像岳云鹏，哈哈。。。 我是武警战士胡爱国，我不是网络和很多媒体上说的是什么保安，我是一名现役的军人．<br><br>超女唐笑我知道，也看见过几次．因为早先时间她们一大批超女比赛的时候经常在导演持有合法证件时候带队下进入电视台．<br><br>(28日)下午湖南广电大楼，我和我的四名战友值班．当时唐笑已经持合法证件进入广电大楼，准备去彩排，但是由于广电大楼外有粉丝给唐笑送礼物，她又出来接礼物．<br><br>回来的时候，我们向她索要进去的合法证件时候，她说没有．<br><br>［说明电视台和和多其它地方不一样，进入必须有合法证件，除了电视台正常的工职人员外，其它证件只能一次有效］；<br><br>我:对不起,小姐,请出示出入证,<br><br>唐笑：我是超女唐笑，我来表演节目，我刚刚进去；<br><br>我:对不起,你现在在电视台外面，没有出入证这不可以进入,请出示出入证.<br><br>唐笑:走开,烦死我了，你们这些看门狗,我有急死,误了时间你们能担当的起吗?<br><br>我:请放尊重点,你有在大的事,没有出入证我们都不会让你进去的.<br><br>唐笑：我就要进去．看你们能怎么样．<br><br>我和值勤战友拉住她，因为她毕竟是女性，我们没有用强力制服她．<br><br>唐笑:拿开你的狗爪子［同时用力踢了我档一脚］<br><br>唐笑一边大骂我们是看门狗，我实在忍不了她侮辱性的语言,手抓住她的肩膀往前一推,这一推是成45度角向下推,用力气较大,一推就推的她往地上摔了一角,脸刚好撞在地上;<br><br>我们是武警，负责保卫电视台的安全．我的只服从一线领导的指示．不要说是超女唐笑，就是自己的亲爹亲妈没有能进入电视台的证件，我们都不会放他们进去．就连电视台台长每次出入都必须亮证件．这是我们的责任，也是我们必须要做的．<br><br>内卫只认证件，不认人．不论说什么多大的官，多出名的人．在我们眼睛里都是普通人，都要遵守法律，都要配合我们．唐笑太自大了，一个小名人，一个没有把社会安全放在眼里的小女人，进电视台的大牌多的是，她是第一个敢骂军人，敢闯电视台的人．<br><br>她只知道她什么超女，但我们是军人；我们没有当场击毙她已经是给她最大的照顾了，希望她能学会尊重人，遵守法律．多学学国家的安全书籍．她不知道我们守卫的电视台的重要性，电视台就是我们军旅生涯的生命，容不的出一点小的错误． 恭喜恭喜，我也刚生完宝宝一个月也是顺转剖 不认识／不关注 唐笑 唐笑 唐笑？ 一直好奇：杨幂杨颖的脑残粉会吃她的💩喝她的尿么？在线等😏😏😏 整得估计连她妈都不认识了，这虚荣心也太大了，。。。 哦哦 当时杭州赛区的时候看过，唱歌还不错，就是形象方面可能不太适合当时的包装，不然成绩应该更靠前 这个超女的名字我还记得。恭喜！ 牛萌萌 唐笑 跟我家宝宝一天出生的 顺转刨最受罪了，我就是顺转刨，真的一言难尽！恭喜纪敏佳母子平安！ 都36了，还快 恭喜晒哦 整容像鬼 唐笑 好可爱，祝贺啊！ 连续参加两次超女都没进入前三恭喜纪敏佳 谁在遥望？月亮之上[窃笑] 整容得跟鬼一样 好像叫什么笑来着[狗] 恭喜，，，， 我也是顺转剖，疼了一天一夜，宫口全开但孩子胎头一直不下来。无奈拉去剖了，我老公一边签字一边哭，老公和我妈在手术室外面哭惨了[大哭] 唐笑 不是整容了吗？ 恭喜🎉🎈 叶一茜也不错 干特么啥的…… 我也是，遭受两次折磨，再也不想生了 战狼1没法看 唐笑 我记得有个超女对着门口值班武警嚣张跋扈的，哪个叫啥来着？ 那个叫唐笑吧 恭喜，希望自己一切顺利 恭喜 和你长得很像，顺转剖很辛苦遭罪，祝贺你母子平安！ 超女里面比较正常的 😱😱😱 叫笑什么来着[狗] 恭喜，另外祝各位易友在2018年顺顺利利 同样顺转刨，同样7斤1两男孩哦 唐笑 恭喜，妈妈不容易 还曾经要出家 安心过普通人的日子吧。别再折腾了 也比你强吧，你这种人 在美国生的吧 没进就对了 恭喜，不过啥时候结婚的😄 恭喜纪敏佳 以前很正常，但是红不了，现在全身动刀子，还加入文工团，变身军官，真是会折腾 刨腹…… 剖腹产不是刨 现在叫纪丹迪了 您是第一个被我顶的[羞羞] 那个好像姓唐叫啥来着忘记了 奥奥奥 剖腹产小编呀！ 都有娃了，恭喜🎊🎉 唐笑。 "
    },
    "Title": "恭喜！超女纪敏佳宣布产子 晒合照儿子模样可爱_网易娱乐",
    "Source": "Netease",
    "KeyWords": "纪敏佳",
    "URL": "http://ent.163.com/17/1230/06/D6SQPQDU00038FO9.html",
    "Article": "网易娱乐12月30日报道29日晚，“超女”纪敏佳在微博宣布产子喜讯，并晒出与新生儿的合照，称：“看到宝宝平安健康的出生吃尽苦头啥都值了，顺转刨腹七斤一两，男孩，谢谢大家的关心，好了，我已被折腾的精疲力尽，睡啦，晚安”。照片中，初为人母的纪敏佳满脸笑意，一旁的儿子睡得十分香甜，肉嘟嘟的小模样十分可爱。在公布产子喜讯之前，纪敏佳还在微博上分享了生产的辛苦过程：“两天一夜高强度宫缩阵痛，等于，五分钟被人狠狠揍断腰一次，我可以说痛到怀疑人生。最后居然还是生不下来，宫口不开，人工破水加催产素，都无济于事，于是，最后的办法，顺转刨腹，什么罪都受完了，终于了解了什么叫女人生孩子，鬼门关上走一走。”本文来源：网易娱乐责任编辑：宋玉鑫_NK6612"
}