{
    "Title": "伊朗政府逮捕200名抗议者 临时关闭社交网络_网易新闻",
    "PublishTime": "01/01/201807:56:36",
    "URL": "http://news.163.com/18/0101/07/D724FA720001875O.html",
    "Source": "Netease",
    "KeyWords": "抗议者,社交网络,伊朗,逮捕",
    "Comment": {
        "Reply": 71,
        "Content": "这种新闻就是美狗高潮。。。哈哈。 伊朗国内用的是啥社交网络？ 跟贴被火星网友带走啦~ 学得不错…… 你还能看到什么新闻？<br>难了。<br>所有极权都这死样子。 临时性断网 扰乱社会公共次序的行为。支持直接就地正法<br>反击；你是砍杀辛亥革命烈士秋瑾的刽子手康大叔弄出来的嗜血儿 kankan 祝福伊朗人民！ 它个傻逼，跟它说不着，脑子进水很多 你就是个愚忠脑残的奴才 黎明前的黑暗他们没有证监会特挺 据最新消息，伊朗天快亮了，不久的将来，不能访问facebook的国家数量将减少到三个。 “他们永远不会失败，但却会突然崩溃”。 你们用发的华为手机发帖减刑，可以理解。 能评论吗 形势变化真快啊！一下子就30万人上街，直奔精神领袖那里去了，网络媒体时代什么都快😓 畜生跪下 并且被军警方打死了两人，可见极其恶毒。 你妈臭嗨 苏东剧变，国家未乱，数次大选，表明人民对剧变后的民主体制认可 似曾相识 真的壮士敢于直面黎明前的黑暗 树立一个外敌，拼命转移国内矛盾 逮捕200名抗议者，可以，确实有了做朋友的基础。再一看，哟呵，关闭社交网络，这是知己的节奏啊。 one个吊样 鲁哈尼表示，解决抗议者批评的这些问题并不容易,但是解决这些抗议者非常容易 反击；井底之蛙，你了解这些国家的真实？你为何不提苏东剧变后？ 哈哈哈哈 民主自由万岁！ 二楼sb，cnm! 伊朗现在搞不好就是第二个委瑞瑞拉，物价疯涨，切都是生活必需品，失业率疯了，百分之十几，拉紧裤子反美！ 微信功能和用户不输facebook。国际话语权已被美国绑架，泱泱中国难道在并不比美国差的自媒体掌控？别不承认，你骨子里已崇洋媚外！ 爬出去看了下，伊朗已经在转学路上。恭喜。希望美国可以帮一下伊朗人民。 伊朗也404了[狗] 民主了，国家也乱了，老百姓真的会过的好吗？看看伊拉克，利比亚，叙利亚。 伊朗快天亮了， 正你老木啊，那些士兵的家属也在人群里面！ 加油，成败在此一举！ 难道三楼是美国人操的后代？！网友评评理！ 扰乱社会的行为，支持直接打死。 呵呵呵呵，沙特也不民主，老百姓其实要的并不定是民主自由，老百姓要的很简单，老百姓反对的是吸血鬼，就是能生活的轻松点，伊朗这次生活必需品疯涨才造成老百姓游行反抗的，沙特不民主，但沙特老百姓幸福度排全世界前十没问题，迪拜本地人根本不用做事，迪拜所有的重活脏活绝大部分都是外国人在干！ 你们科招人素质在下降啊跟领导反省反省吧 2018是伊朗完蛋！叙利亚阿萨德滚蛋！让俄猪所花之钱打水漂！民主之春风吹走波西弯的寒风！带来山花烂漫的美利坚世界！ 新年大惊喜，末日审判快到了。 民主的做法各有千秋，毒菜的手段千篇一律！ 扰乱社会公共次序的行为。支持直接就地正法。。 这种新闻就是美狗高潮。。。哈哈。 伊朗国内用的是啥社交网络？ 不是不自由毋宁死吗？不是我们都是吃饱饭就可以的猪吗？难道伟大的沙特人也是猪，吃饱饭就不要民主自由了，😂😄😄，什么都是你们说的，😂😄 物理断网，哈哈 跟贴被火星网友带走啦~ 难道三楼是美国人操的后代？！网友评评理！ 你还能看到什么新闻？<br>难了。<br>所有极权都这死样子。 俺预测抗议示威将以失败告终。 扰乱社会公共次序的行为。支持直接就地正法<br>反击；你是砍杀辛亥革命烈士秋瑾的刽子手康大叔弄出来的嗜血儿 老朋友都一个嘴脸 骚乱暴乱也万岁吗 祝福伊朗人民！ 它个傻逼，跟它说不着，脑子进水很多 伊朗被收拾，你的日子不会变好，反而会变坏 [狗]从来不就是中国和外国！[鄙视] 据最新消息，伊朗天快亮了，不久的将来，不能访问facebook的国家数量将减少到三个。 印度，越南和日本 扰乱社会公共次序的行为。支持直接就地正法<br>反击；你是砍杀辛亥革命烈士秋瑾的刽子手康大叔弄出来的嗜血儿 你们用发的华为手机发帖减刑，可以理解。 形势变化真快啊！一下子就30万人上街，直奔精神领袖那里去了，网络媒体时代什么都快😓 畜生跪下 你妈臭嗨 微信功能和用户不输facebook。国际话语权已被美国绑架，泱泱中国难道在并不比美国差的自媒体掌控？别不承认，你骨子里已崇洋媚外！ 哪三个啊？ 下一步是美国以伊朗镇压反对派，不冥主为由攻打伊朗，中东地区玩烂了的剧本，伊拉克，叙利亚，利比亚，哈哈哈哈，镇压地区强人，强势政权，以便让恐怖分子浑水摸鱼 似曾相识 真的壮士敢于直面黎明前的黑暗 伊朗在巴列维王国时是个经济较发达的国家 同日，美国宣布声援抗议者。<br>美国要来了，伊朗遭殃了 前途光明，道路曲折，祝福伊朗人民！ 新年大惊喜，末日审判快到了。 逮捕200名抗议者，可以，确实有了做朋友的基础。再一看，哟呵，关闭社交网络，这是知己的节奏啊。 鲁哈尼表示，解决抗议者批评的这些问题并不容易,但是解决这些抗议者非常容易 祝福伊朗，又要重回以前的时代，没钱有自由了。 反击；井底之蛙，你了解这些国家的真实？你为何不提苏东剧变后？ 扰乱社会公共次序的行为。支持直接就地正法<br>反击；你是砍杀辛亥革命烈士秋瑾的刽子手康大叔弄出来的嗜血儿 民主自由万岁！ 二楼傻逼！ 苏东巨变后，就只有美国一个大国了 你这次把皮尺泰黑惨了 “他们永远不会失败，但却会突然崩溃”。 苏东剧变，国家未乱，数次大选，表明人民对剧变后的民主体制认可 革命是历史进步的火车头，是碾压一切腐朽没落的发动机，对于反动的东西，你不打他是不会自己倒掉的。只有把旧世界打个落花流水，鲜红的太阳才会照遍全球。 伊朗也404了[狗] 民主了，国家也乱了，老百姓真的会过的好吗？看看伊拉克，利比亚，叙利亚。 伊朗快天亮了， 正你老木啊，那些士兵的家属也在人群里面！ 可以 加油，成败在此一举！ 扰乱社会的行为，支持直接打死。 呵呵呵呵，沙特也不民主，老百姓其实要的并不定是民主自由，老百姓要的很简单，老百姓反对的是吸血鬼，就是能生活的轻松点，伊朗这次生活必需品疯涨才造成老百姓游行反抗的，沙特不民主，但沙特老百姓幸福度排全世界前十没问题，迪拜本地人根本不用做事，迪拜所有的重活脏活绝大部分都是外国人在干！ 你们科招人素质在下降啊跟领导反省反省吧 2018是伊朗完蛋！叙利亚阿萨德滚蛋！让俄猪所花之钱打水漂！民主之春风吹走波西弯的寒风！带来山花烂漫的美利坚世界！ 扰乱社会公共次序的行为。支持直接就地正法<br>反击；你是砍杀辛亥革命烈士秋瑾的刽子手康大叔弄出来的嗜血儿 你妈应该宫外孕你你爹本来应该被绝育的 扰乱社会公共次序的行为。支持直接就地正法。。 爬出去看了下，伊朗已经在转学路上。恭喜。希望美国可以帮一下伊朗人民。 你就是个愚忠脑残的奴才 美国和喷子又有挑事的接口了 跟贴被火星网友带走啦~ 学得不错…… 树立一个外敌，拼命转移国内矛盾 one个吊样 伊朗现在搞不好就是第二个委瑞瑞拉，物价疯涨，切都是生活必需品，失业率疯了，百分之十几，拉紧裤子反美！ 黎明前的黑暗他们没有证监会特挺 能评论吗 哈哈哈哈 kankan 并且被军警方打死了两人，可见极其恶毒。 你知道沙特是什么样子的吗？沙特所有的事情都是国王说了算的，还民主。有钱到处发的时候什么样都好说，人民生活还可以，像伊朗，现在主要是拿钱去援助国外搞运动，国内民不聊生，公务员的工资都发不出来了 临时性断网 据最新消息，伊朗天快亮了，不久的将来，不能访问facebook的国家数量将减少到三个。 民主的做法各有千秋，毒菜的手段千篇一律！ 扰乱社会的行为，支持直接打死。 ",
        "Total": 4232,
        "Link": "http://comment.news.163.com/news_guoji2_bbs/D724FA720001875O.html"
    },
    "Article": "（原标题：伊朗政府逮捕200名抗议者临时关闭社交网络）伊朗政府逮捕了200名抗议者，并临时关闭了社交网络。(图源：CNN)海外网1月1日电随着伊朗民众反政府示威愈演愈烈，部分抗议者与警方对峙以至发生冲突。有消息称，伊朗政府逮捕了200名抗议者，并临时关闭社交网络，防止抗议者继续通过社交媒体分享抗议消息。据美国有线电视新闻网(CNN)报道，伊朗反政府示威在全国范围内愈演愈烈。当地时间周六(2017年12月30日)，伊朗政府逮捕了200名抗议者，并于次日临时关闭社交网络。据悉，关闭社交网络是为了防止抗议者继续通过社交媒体分享抗议消息。自2009年伊朗爆发最大规模民众公开抗议活动以来，社交媒体一直是伊朗民众参与公共活动的重要交流平台。报道称，伊朗总统哈桑·鲁哈尼于2017年12月31日晚间对全国民众发表讲话，称伊朗是个自由的国家，民众有权就社会议题发出声音，但不应破坏公共财产，不得非法集会，制造骚乱者将面临严惩。鲁哈尼表示，解决抗议者批评的这些问题并不容易，伊朗政府需要时间，政府和人民应该互相信任谅解，通过协商解决问题。鲁哈尼还回应了美国总统特朗普支持伊朗抗议活动的言论。他表示，“这个身在美国却来同情我们的人民的人，忘记了几个月前他曾称伊朗为支持恐怖主义的国家。这个反对伊朗人的人，没有权利同情伊朗人。”当天早些时候，伊朗内政部长向抗议民众发出严厉警告，称那些引起公共混乱的抗议者们将面临法律追责，他们会为此“付出代价”。据海外网早前报道，抗议活动已经造成2人死亡。这场抗议活动于28日在伊朗第二大城市马什哈德以抨击生活费用高涨开始，但很快就转变成反政府示威。有人甚至呼叫口号，支持被1979年伊斯兰革命推翻的君主制，其他人则批评政府支持巴勒斯坦人及其他地区运动，对国内难题不闻不问。BBC报道称，这是2009年以来，伊朗公众表达不满情绪最为严重和普遍的一次。随着抗议的持续，伊朗警方开始抓捕示威者。本文来源：海外网责任编辑：谷莹_NN6577"
}