{
    "Source": "Netease",
    "PublishTime": "12/26/201709:18:36",
    "KeyWords": "欧足联,皇马,欧冠",
    "Title": "皇马连续四年封全欧最强王者 西甲前十位占四席!_网易体育",
    "Comment": {
        "Link": "http://comment.sports.163.com/sports2_bbs/D6IQP4TR00058781.html",
        "Total": 6576,
        "Content": "萨迷:拿不拿冠军无所谓，赢了皇马就行👍👍👍 八狗还没死绝 喷子管你那个 真球迷👍👍👍 虽然是皇马迷，但我想说，皇马没有裁判的帮助，别说榜首了，前5都难保！ 看来皇马圣诞红包很有效 14-15赛季，巴萨联赛、欧冠、欧超杯、世俱杯4折桂，皇马联赛亚军、欧冠止步于4强，成绩明显不如巴萨，但皇马“连续4年”应该包括那个赛季了，实在看不懂。就算是15年自然年，那15、16赛季联赛前半段、欧冠小组赛阶段，巴萨也不差于皇马。 皇马果然郑智过硬联赛第四欧冠第二欧洲第一不愧皇家风范 5个当中两个是靠干爹抢来的，没什么好吹的。而且时刻要提防马德里警犬和基佬粉乱咬人。听说最近还缺狂犬病疫苗呢，还是小心为妙 有我罗基在所有足坛现役巨星远古名宿只能从第四往后排因为我罗基是第一第二第三！因为我罗是二十年最佳球员足坛只有二十年前才有跟我罗一样的最佳球员了！以后只有每秒最佳球员、每分钟最佳球员、每小时最佳球员、每日最佳球员、每周最佳球员因为我罗基已经是历史以来足坛最佳球员！以上语录出自--银河系太阳属地月星人类足坛巨匠名宿：克屎爹地阿奴.跳水点球很多先生！ 充分暴露了巴沟的智商 欧足联积分榜，考查的是球队在欧冠或者欧联杯中的表现，考察范围是过去五个赛季的整体数据和积分。楼上好好琢磨一下吧，你把人欧足联当作是智障吗？搞懂规则再喷 这样看来，现在还是皇马巴萨拜仁的时代，以后就难说了。 你媽站街造的你吧！ 一楼说的对！皇马始终是狗！ 一楼说的非常正确，但是看看一楼的id和三楼的发言可以确定的是你俩肯定不是贵族，但是却自认为是贵族[窃笑] 才在自己主场被别人日了，还最强？王者？ 这个是拿来安慰一下皇🐕的，毕竟这几天一直抬不起头来。 没有不败的王朝贵族但社会和历史地位在那贵的还是贵贱的还是贱一个人不会因为被狗咬一口就变成狗 都成武术队了，还贵族呢！<br>我看叫跪足还差不多！！ 我隐约感觉到🐕死灰复燃的气息！ 我只听说过西罗，西罗，西罗！ 萨迷:我们赢了皇马，拿了国王杯，我们骄傲😏 一楼刚说完，就被狗咬了........而且还是被二楼反咬一口！ 没有裁判帮忙黄沟早就降级了 傻狗智障又不是一天两天 傻逼玩意，不懂积分规则张口就来 0：3哈哈 过节双方都开心很好 讲个笑话，榜首的0：3被虐跪哟，似乎0:4还有0:5也是不久之前的事情呀！ 三楼说二楼.....这智商，别人二楼只是告诉一楼言辞要注意自己的id，在三楼眼里变成咬人了，黄毛的智商真让人摸不透 欧足联这是犯了加泰法。 对，皇马球迷都是傻逼，没毛病 你是皇马球迷傻逼 狗杂，还是活的？开水不够烫吗？😂😂😂 14-15赛季，巴萨联赛、欧冠、欧超杯、世俱杯4折桂，皇马联赛亚军、欧冠止步于4强，成绩明显不如巴萨，但皇马“连续4年”应该包括那个赛季了，实在看不懂。就算是15年自然年，那15、16赛季联赛前半段、欧冠小组赛阶段，巴萨也不差于皇马。 刨去裁判因素，过去四年第一应该分别是：马竞、巴萨、马竞、尤文 一楼这个傻逼巴沟，人家说的是全年排名 嘴强王者 积分都能喷....巴🐶真的无所不能了....我承认皇马下半年确实很菜，sowhat？ 你是在说你自己？<br>看了你的id，个人认为你是在说自己 你可别扯蛋了好吧！ 讲个笑话，榜首的0：3被虐跪，似乎0:4还有0:5也是不久之前的事情呀！ 被打出屎了的最强 傻逼懂不懂加泰法巴萨巴萨巴萨巴萨这样排名才对 🐕🐕🐕 垃圾废物C罗吃狗屎垃圾皇马垃圾废物C罗吃狗屎垃圾 足球这个运动自诞生以来只出现过两个真正意义的球王，一个是高俅，已经死了，另一个是梅西。<br>所以能看到梅西踢球是你们所有人的福气，你们应该庆幸与梅西生在同一个时代。 喷子管你那个 虽然是皇马迷，但我想说，皇马没有裁判的帮助，别说榜首了，前5都难保！ 傻狗已经被皇马虐11：18：0的事情，傻狗的狗迷是不记得了。傻狗队果然是一群下贱物种。 嘴强王者 一看就是数学老师死得早的人，按欧冠和欧联的胜负和平来算积分的，胜一场多多少分，平一场多少分，负的领分，都进4强，八强积分不一样的，8强赛赢两场和一胜一平的积分不一样的。 皇马垃圾废物C罗吃狗屎垃圾废物 1楼绝对是高级黑 5个当中两个是靠干爹抢来的，没什么好吹的。而且时刻要提防马德里警犬和基佬粉乱咬人。听说最近还缺狂犬病疫苗呢，还是小心为妙 你就是个傻缺，还自称皇马球迷 0：3哈哈 欧足联积分榜，考查的是球队在欧冠或者欧联杯中的表现，考察范围是过去五个赛季的整体数据和积分。楼上好好琢磨一下吧，你把人欧足联当作是智障吗？搞懂规则再喷 别小看了曼城，17连胜可不是17场不败绝对够恐怖的 你媽站街造的你吧！ 一楼说的对！皇马始终是狗！ 煤球王有没有去监狱给替自己坐牢的亲爹送饭？？ 才在自己主场被别人日了，还最强？王者？ 这个是拿来安慰一下皇🐕的，毕竟这几天一直抬不起头来。 没有不败的王朝贵族但社会和历史地位在那贵的还是贵贱的还是贱一个人不会因为被狗咬一口就变成狗 都成武术队了，还贵族呢！<br>我看叫跪足还差不多！！ 皇马欧洲最强，巴萨西班牙最强，怎么感觉有点不对劲😂 14-15赛季，巴萨联赛、欧冠、欧超杯、世俱杯4折桂，皇马联赛亚军、欧冠止步于4强，成绩明显不如巴萨，但皇马“连续4年”应该包括那个赛季了，实在看不懂。就算是15年自然年，那15、16赛季联赛前半段、欧冠小组赛阶段，巴萨也不差于皇马。 萨迷:我们赢了皇马，拿了国王杯，我们骄傲😏 得瑟，卖J罗，卖莫拉塔，这个赛季无望 上半年不错，下半年在走下坡路 这样看来，现在还是皇马巴萨拜仁的时代，以后就难说了。 傻狗智障又不是一天两天 皇马果然郑智过硬联赛第四欧冠第二欧洲第一不愧皇家风范 超级杯的时候您可躲起来了？ 皇🐕都是小学没毕业的吗？标点符号都不会用一个！ 讲个笑话，榜首的0：3被虐跪哟，似乎0:4还有0:5也是不久之前的事情呀！ 三楼说二楼.....这智商，别人二楼只是告诉一楼言辞要注意自己的id，在三楼眼里变成咬人了，黄毛的智商真让人摸不透 对，皇马球迷都是傻逼，没毛病 你应该说得对。<br>谢谢没骂人😂😂😃 真的太不像话了，进攻效率低得可怜 你是皇马球迷傻逼 过去几牟是皇马、巴萨、拜仁的时代，他们不进欧冠决赛都算不成功。未来几年将进入巴黎、曼城、皇马、巴萨时代 皇马的故意犯规真的不高贵。 梅西还是强啊! 皇马冠军数就像我们大A股 充分暴露了巴沟的智商 一楼不赶紧打狂犬疫苗，结果得狂犬病了。哈哈哈 一楼刚说完，就被狗咬了........而且还是被二楼反咬一口！ 煞笔还在么 0：3哈哈 又疯了一个可怜 有我罗基在所有足坛现役巨星远古名宿只能从第四往后排因为我罗基是第一第二第三！因为我罗是二十年最佳球员足坛只有二十年前才有跟我罗一样的最佳球员了！以后只有每秒最佳球员、每分钟最佳球员、每小时最佳球员、每日最佳球员、每周最佳球员因为我罗基已经是历史以来足坛最佳球员！以上语录出自--银河系太阳属地月星人类足坛巨匠名宿：克屎爹地阿奴.跳水点球很多先生！ 你是在说你自己？<br>看了你的id，个人认为你是在说自己 你可别扯蛋了好吧！ 他不是说他自己，他不是狗，是蛆啊，你不识字哦 0：3哈哈 傻逼玩意，不懂积分规则张口就来 一个阿斯报一个马卡报，傻逼的不行！ 1楼为自己定位了这么一个独特的ID，在下佩服 巴萨武功不行? 0：3哈哈 联赛不球行跑去打欧冠，呵呵。 萨迷:拿不拿冠军无所谓，赢了皇马就行👍👍👍 我只听说过西罗，西罗，西罗！ 八狗还没死绝 过节双方都开心很好 四年鸡中之霸应该是一楼他妈一楼他奶一楼他老婆一楼他姥姥 真球迷👍👍👍 欧足联这是犯了加泰法。 看来皇马圣诞红包很有效 傻逼懂不懂加泰法巴萨巴萨巴萨巴萨这样排名才对 应该巴萨第一第二第三😁 狗杂，还是活的？开水不够烫吗？😂😂😂 对方换个教练就被打得没脾气的未来。。。。 你也知道你傻五个欧冠有两个是靠干爹抢过来的啊 我就是来看你们互喷的，继续。。。 充分暴露了巴沟的智商 一楼这条靠发帖赚吃屎钱的🐶 一楼这条靠发帖赚吃屎钱的🐶 刨去裁判因素，过去四年第一应该分别是：马竞、巴萨、马竞、尤文 以前陪人家看月亮的时候叫人家小甜甜 你当一楼是C罗啊，还第一第二第三......[喷水][喷水][喷水] 事情总有起起伏伏，为了喷而喷，口出秽言那就不好了。 被打出屎了的最强 刚才新闻推送说被巴萨反超 5个当中两个是靠干爹抢来的，没什么好吹的。而且时刻要提防马德里警犬和基佬粉乱咬人。听说最近还缺狂犬病疫苗呢，还是小心为妙 未来是大巴黎和曼城的... 我隐约感觉到🐕死灰复燃的气息！ 二楼是真懂啊 皇家警犬 欧足联积分排名，都是靠一场场比赛算出来的，你也能喷😂 讲个笑话，榜首的0：3被虐跪，似乎0:4还有0:5也是不久之前的事情呀！ 积分都能喷....巴🐶真的无所不能了....我承认皇马下半年确实很菜，sowhat？ 皇马果然郑智过硬联赛第四欧冠第二欧洲第一不愧皇家风范 作为巴萨球迷，我觉得应该永远尊重对手，不管对手是谁，何况，如果再来一场德比，巴萨能够保证赢？？？皮主席都说了：每一场德比，都是五五开！起码，他比我们更了解对手！ 没有裁判帮忙黄沟早就降级了 都没你懂球😏 那可不嘛，这两天黄畜又复活了，什么时候黄畜死绝，网易才会安宁，皇马球迷留 ",
        "Reply": 96
    },
    "Article": "网易体育12月26日报道：在2017年最后一场比赛中，皇马主场0比3惨败给巴萨。但在欧足联年度积分排行榜上，皇马仍然连续第四年高居第一。《阿斯报》指出，皇马仍然是欧洲范围内的NO.1。在本年度欧足联年度积分榜上，皇马以148分遥遥领先，这是皇马连续第四年成为欧洲最佳球队。巴萨和拜仁分别拿到了126分和125分，排在4-10位的分别是马竞、尤文、巴黎、塞维利亚、曼城、波尔图和多特蒙德。欧足联积分榜，考查的是球队在欧冠或者欧联杯中的表现，考察范围是过去五个赛季的整体数据和积分。由于此前两个赛季皇马都赢得了欧冠，过去两年皇马的欧足联积分都是33分。本赛季皇马欧冠积分为18分，5胜1平的热刺拿到了20分，热刺是本赛季欧冠积分最多的球队。尽管国家德比惨败，但弗洛伦蒂诺仍然给皇马这一年予以高度评价：“2017年是皇马人永远不会忘记的一年，这一年里皇马足球队拿到了史上第12个欧冠奖杯，一共赢得了五个冠军。从冠军数量上而言，这是皇马115年历史上最棒的一年。”齐达内也补充了他的看法：“我真的很开心，我们赢得了五个冠军奖杯，并且以世俱杯夺冠结束了这一年，这可能是最好的方式。外界对于我们评价非常积极，我们要在2018年继续赢下去，那是我们想要做的事情。”本文来源：网易体育作者：张琳责任编辑：朱楷正_NS4807",
    "URL": "http://sports.163.com/17/1226/09/D6IQP4TR00058781.html"
}