{
    "Article": "（原标题：英国王室“最美妯娌”首次同框争艳凯特现场给梅根上了一堂礼仪课）【英国王室“最美妯娌”首次同框争艳凯特现场给梅根上了一堂礼仪课】英国王室成员按照传统，于圣诞节当天前往教堂参加礼拜。哈里王子未婚妻、美国女星梅根·马克尔也受邀出席，嫂嫂凯特和梅根和这对皇室\"最美妯娌\"首次同框出现。按照传统礼仪，凯特及梅根均需向女王行\"屈膝礼\"表示尊敬。梅根神情不免有些紧张，下楼梯前还不时询问威廉夫妇，疑似在做最后确认。在凯特的指导和示范下，梅根虽然肢体略显僵硬，但仍顺利完成了动作。本文来源：看看新闻KNEWS责任编辑：张海桐_NN9053",
    "Source": "Netease",
    "KeyWords": "凯特,梅根,英王室",
    "Title": "英王室最美妯娌同框争艳 凯特现场给梅根上了一课_网易新闻",
    "Comment": {
        "Total": 41,
        "Content": "无知啊，凯特的世纪婚礼整个前后过程，拉动英国10个亿的综合消费，现在这种时代，你已经脱节了，英国也需要这种精神寄托，女王也受到全世界的尊敬，如果女王挂了，影响是很大的，起码苏格兰之类就没人压得住 能不能少发点这家子人煞笔新闻，屁大点事都发。这家子人对英国人本身都没多大实际用处，一家子吃饱了没事干，跟我等天朝屁民有个毛关系，整天煞笔似的没有理由地跪舔。 淡定，这都是流量决定的青少年爱做白日梦可以理解的 👌 👌 淡定，这都是流量决定的青少年爱做白日梦可以理解的 无知啊，凯特的世纪婚礼整个前后过程，拉动英国10个亿的综合消费，现在这种时代，你已经脱节了，英国也需要这种精神寄托，女王也受到全世界的尊敬，如果女王挂了，影响是很大的，起码苏格兰之类就没人压得住 👌 👌 👌 能不能少发点这家子人煞笔新闻，屁大点事都发。这家子人对英国人本身都没多大实际用处，一家子吃饱了没事干，跟我等天朝屁民有个毛关系，整天煞笔似的没有理由地跪舔。 卡米拉就是个二货，女王穿橙色，她搞个玫红压着人家，同不同框都难看。也许查尔斯就喜欢她跟自个老娘对着干的这股劲吧。 ",
        "Reply": 9,
        "Link": "http://comment.news.163.com/news2_bbs/D6M96PD30001899N.html"
    },
    "PublishTime": "12/27/201717:28:27",
    "URL": "http://news.163.com/17/1227/17/D6M96PD30001899N.html"
}