{
    "KeyWords": "定金,养老,湖北,开发商",
    "PublishTime": "01/02/201807:47:50",
    "Comment": {
        "Link": "http://comment.news.163.com/news_shehui7_bbs/D74MBV470001875P.html",
        "Content": "老百姓的钱，那个不是平时省吃俭用节约下来的？ 天草骗子横行 儿子写日记:夜深了，妈妈在打麻将，爸爸在上网……<br>爸爸检查时，很不满意地说:日记源于生活，但要高于生活！<br>孩子马上修改为:夜深了，妈妈在赌钱，爸爸在网恋……<br>爸爸更不满了，愤怒地说:看看中央电视台、官方报纸是怎样写的。一定要提倡正能量，以正面宣传为主！”<br>孩子再修改为:夜深了，妈妈在研究经济，爸爸在研究互联网+生活……<br>爸爸看后说，这还差不多，但深度不够，有待进一步提高！以后你长大了成了硕士研究生，你就知道应该这么写了：“妈妈在研究信息不对称状态下的动态博弈，爸爸在研究人工智能与情感供给侧的新兴组合。‘’<br>爸爸接着说，要是你打算成为博士，得这样写：‘’妈妈在研究复杂群体中多因素干扰及信息不对称状态下的新型囚徒困境博弈；爸爸研究的是：大数据视角下的六度空间理论在情感供给侧匹配中的创新与实践。”<br><br>两点感悟:<br>一、文化真的很可怕！<br>二、包装真的很重要！<br>以前常说“没文化真可怕”，现在才知道“有文化更可怕”~~谨以此片献给有文化的人。 现在湖北官员都不这么玩了，都是招商。比如让你回来买开发区的地，说好1000万，企业进来银行贷款2000万。然后你把地买了厂房修好了。贷款只批500万，然后工商税务环保消防都过来关心下。 骗局每天都在以纷繁复杂的多彩多姿的形象上演 这种套路早就有了，地方官员想要政绩，就跑外面招商引资，很多骗子就趁机带点钱说去投资，先整块地，盖厂房，里面什么都没有，然后给官员说，没钱了，让官员想办法让当地银行贷款，钱一到手，人就不见了。 红安革命根据地啊！ 我认识一个老板开养老院的，三年搞了1.8亿养老预付款，换几台豪车了，空手套白狼 可能老板带着小姨子跑了…… 随州还不是一样 请问人民日报，有关部门是哪个犊子？ 有关部门灵道摸了摸鼓鼓的荷包，高喊“一定要切实保护农民群众的利益！” 没娘养的狗 事情最好的结果，就是当地政府迫于舆论压力，用全国纳税人的钱帮开发商买单，这就是制度优越性。 骗子横行，自上而下！ gdp上去了，可下任怎么搞？年年挖路，年年种树？ 讲一个过去遗留下来的问题！不服来辩！英语作为美国人在中国潜心布置的殖民产业，目前已成功植入中国高考及各大高校门槛和社会求职！殊不知这里是中国的汉语社会啊！搞个外语必修…很多人都不知道自己为什么学英语，莫名其妙接受了十几年的英语教育，最后不了了之!这不是精神殖民吗？淳朴民风被搞乱，自己的语言都学好了？外语必修就是精神殖民，为了链接世界，完全可以选修嘛，放眼世界不管强与弱，哪个国家会搞外语必修？全世界的国家都知道外语必修是殖民，只有中国人还在梦里 这有什么，到大宜昌地区看，到处良田变荒地，盖起的厂房根本无人生产，套了钱就跑路 再坚持两年，就可以实现小康社会了。你就等着吧 现在不叫骗子叫经济纠纷 除了无良的开发商，当地政府有不可推卸的责任！ 大家爱过热情澎湃，钱都是自愿双手奉上给棺商们的，你现在给我说心痛不已是几个意思 就该禁止期房 这你都知道，我就在宜昌，说什么开发，可怜到处半头路，厂房没人租 看来哪都一样啊……<br>现在是拼命搞招商捞政绩，根本不管实际情况，当官的搞几年换岗跑了，可怜了老百姓来买单…… 假大空，五千年从未改变！ 主管的领导，你是升还是降了？ 这不算啥，来我大贵州县份上，到处都是圈起来的烂尾工业园。。。。 我想加盟骗子，哪有短期学习班或骗子专业三年制大学？ 哪里的套路不是这样？我们生长在同一片天下 老人家你们好！请放心，政府一定会管的 人民日报，总算报了点有营养的 红安的工业园修得很大咧前年去过一次 虽说全国都一样，但要说到湖北红安，是什么窝来着？ 我们那县城到处都是空房子和空置的工业园区，政府办公楼豪华气派，大量农田被侵占浪费 过度城镇化的弊端已经显现出来了，痛苦的还在后面 在大陆，骗得了就骗，骗不了就跑，反正糟蹋完人就能发财 这些傻逼老是被人骗來骗去，还梦幻不休，活该 现在中国到处都是这样的情况我们红安的工业园不也是这样 真的？我妈妈当时还被邻居一个奶奶劝说投资五万元，幸亏我觉得不靠谱好说歹说给拦下来了……连老人的钱也骗👎🏻 天下大同，大把城镇结合部的土地被征收然后半成品荒废的→_→ 我们这里更惨，有人没房住，有人买房不住，用来放骨灰 很中国我老家也是的又一次一群环保局的挨家挨户窜腾老百姓去告一个厂子也是尼玛醉了 天草骗子横行 这你都知道，我就在宜昌，说什么开发，可怜到处半头路，厂房没人租 这套专门是南方玩的，南方人在这方面特别精明 这个项目是谁审批的，谁监管的，通通抓监狱，判十五年。 阑尾 自上而下都是骗纸 这个房东可以不退的..你就交定金...给没有谈好.那有先交定金再谈的 这种资金应该放在政府押着，待工程完工验收，且投入使用半年后方可完全支付 不然房子卖给谁？ 小时候不懂为啥那么多半成品厂房什么的，步入社会后更不懂了 猿必须把工程搞完才对得起人民 现在湖北官员都不这么玩了，都是招商。比如让你回来买开发区的地，说好1000万，企业进来银行贷款2000万。然后你把地买了厂房修好了。贷款只批500万，然后工商税务环保消防都过来关心下。 这有什么，到大宜昌地区看，到处良田变荒地，盖起的厂房根本无人生产，套了钱就跑路 城市套路深，我想回农村 我们县城说要引进一个大型铝业公司，最后不了了之了，这个公司在其他城市也玩儿这套路，反倒是卖房的拿这些消息大吹特吹，好像联合国总部就要搬来了[狗] 智力问答:老板老婆是村长小姨子，那么请问老板和村长啥关系？ 中国有句老话:无利不起早 我们家的巨轮呢？ 这种就应该建好了再认购 那需要多少钱 钱人已经到了美国了！ 是的 温州的呀哥 举国上下骗子横行 天下大同，大把城镇结合部的土地被征收然后半成品荒废的→_→ 儿子写日记:夜深了，妈妈在打麻将，爸爸在上网……<br>爸爸检查时，很不满意地说:日记源于生活，但要高于生活！<br>孩子马上修改为:夜深了，妈妈在赌钱，爸爸在网恋……<br>爸爸更不满了，愤怒地说:看看中央电视台、官方报纸是怎样写的。一定要提倡正能量，以正面宣传为主！”<br>孩子再修改为:夜深了，妈妈在研究经济，爸爸在研究互联网+生活……<br>爸爸看后说，这还差不多，但深度不够，有待进一步提高！以后你长大了成了硕士研究生，你就知道应该这么写了：“妈妈在研究信息不对称状态下的动态博弈，爸爸在研究人工智能与情感供给侧的新兴组合。‘’<br>爸爸接着说，要是你打算成为博士，得这样写：‘’妈妈在研究复杂群体中多因素干扰及信息不对称状态下的新型囚徒困境博弈；爸爸研究的是：大数据视角下的六度空间理论在情感供给侧匹配中的创新与实践。”<br><br>两点感悟:<br>一、文化真的很可怕！<br>二、包装真的很重要！<br>以前常说“没文化真可怕”，现在才知道“有文化更可怕”~~谨以此片献给有文化的人。 太多了 你不能知道别人的算计 💊 可能老板带着小姨子跑了…… 这种套路早就有了，地方官员想要政绩，就跑外面招商引资，很多骗子就趁机带点钱说去投资，先整块地，盖厂房，里面什么都没有，然后给官员说，没钱了，让官员想办法让当地银行贷款，钱一到手，人就不见了。 中国人就这么做生意，以后谁还敢跟你玩？？？ 骗子横行，自上而下！ 延迟退，全部抓回来上班吖 因为灵道已经拿了回扣，不方便叫骗子 资金链断了，跑路了 人间发的那篇文章跟这个遥相呼应 现在不叫骗子叫经济纠纷 楼上说的属实，我家那边的地方政府就这么搞，有些投资的宁愿把初期投的钱扔了不要也不跟他们玩了 讲一个过去遗留下来的问题！不服来辩！英语作为美国人在中国潜心布置的殖民产业，目前已成功植入中国高考及各大高校门槛和社会求职！殊不知这里是中国的汉语社会啊！搞个外语必修…很多人都不知道自己为什么学英语，莫名其妙接受了十几年的英语教育，最后不了了之!这不是精神殖民吗？淳朴民风被搞乱，自己的语言都学好了？外语必修就是精神殖民，为了链接世界，完全可以选修嘛，放眼世界不管强与弱，哪个国家会搞外语必修？全世界的国家都知道外语必修是殖民，只有中国人还在梦里 不要着急政府已经知道啦 大家爱过热情澎湃，钱都是自愿双手奉上给棺商们的，你现在给我说心痛不已是几个意思 万达在许多城市不就是这么玩的？青岛的东方影都、济南的... 这种房地产预售制度最邪恶！ 过度城镇化的弊端已经显现出来了，痛苦的还在后面 人民日报，总算报了点有营养的 我想加盟骗子，哪有短期学习班或骗子专业三年制大学？ 去荷兰 为了钱他们什么干不出来，最后都移民了 呵呵 罪过呀！罪过呀！必须严肃处理肇事者。 打着养老的旗号变相开发房地产吧 唉……可怜的老人 再坚持两年，就可以实现小康社会了。你就等着吧 这你都知道，我就在宜昌，说什么开发，可怜到处半头路，厂房没人租 就该禁止期房 红安革命根据地啊！ 有关部门灵道摸了摸鼓鼓的荷包，高喊“一定要切实保护农民群众的利益！” 事情最好的结果，就是当地政府迫于舆论压力，用全国纳税人的钱帮开发商买单，这就是制度优越性。 这套路现在太多了，县镇地方招商引资，骗子打着养老基地的名号修别墅，然后再利用地方的名义在其他城市吸收老年人的资金。 原来你们宜昌也跟我们襄阳一样一样的我总以为宜昌发展比襄阳务实 是的，宜昌的环境也差了！不像以前了，都一心想着捞钱 骗子横行，自上而下！ 这些傻逼老是被人骗來骗去，还梦幻不休，活该 中国兴，靠楼市！中国败，靠楼市！ 看来哪都一样啊……<br>现在是拼命搞招商捞政绩，根本不管实际情况，当官的搞几年换岗跑了，可怜了老百姓来买单…… 假大空，五千年从未改变！ 老人家你们好！请放心，政府一定会管的 元方，应该追责吧 哪里的套路不是这样？我们生长在同一片天下 /我襄阳厂房可翘呢。<br>我自己的厂房一平能租到18左右吧。襄阳工业城市 虽说全国都一样，但要说到湖北红安，是什么窝来着？ 这些傻逼老是被人骗來骗去，还梦幻不休，活该 现在中国到处都是这样的情况我们红安的工业园不也是这样 哈哈哈哈 这有什么，到大宜昌地区看，到处良田变荒地，盖起的厂房根本无人生产，套了钱就跑路 主管的领导，你是升还是降了？ 呵呵 可能老板带着小姨子跑了…… 急坏了老人 请问人民日报，有关部门是哪个犊子？ 红安的工业园修得很大咧前年去过一次 gdp上去了，可下任怎么搞？年年挖路，年年种树？ 大骗子骗小骗子[窃笑] 没娘养的狗 这都是老郭干的好事，不然也不会进去啦 除了无良的开发商，当地政府有不可推卸的责任！ 年底了，这种事频发 。。 骗局每天都在以纷繁复杂的多彩多姿的形象上演 这不算啥，来我大贵州县份上，到处都是圈起来的烂尾工业园。。。。 严惩 大是很大现在已经停摆了。 老百姓的钱，那个不是平时省吃俭用节约下来的？ 不会是你吧？ 我认识一个老板开养老院的，三年搞了1.8亿养老预付款，换几台豪车了，空手套白狼 推到了种地 在大陆，骗得了就骗，骗不了就跑，反正糟蹋完人就能发财 又一波 黄鹤？ 你们想简单了吧，宜昌很多盖厂房的真实目的就是圈地，并不是为了租出去！ 真的？我妈妈当时还被邻居一个奶奶劝说投资五万元，幸亏我觉得不靠谱好说歹说给拦下来了……连老人的钱也骗👎🏻 这你都知道，我就在宜昌，说什么开发，可怜到处半头路，厂房没人租 圈地➕1008611 呵呵 这有什么，到大宜昌地区看，到处良田变荒地，盖起的厂房根本无人生产，套了钱就跑路 不就是欺负老人吗 高明啊！ 随州还不是一样 ",
        "Total": 1499,
        "Reply": 107
    },
    "Title": "湖北一养老公寓成烂尾工程 1000多人拿不回定金_网易新闻",
    "Article": "（原标题：养老公寓烂尾，众多老人拿不回定金）一位老人交纳定金的收款凭据。西江月太平道医养生苑烂尾工程。2014年，湖北省红安县太平桥镇通过招商引资在毛岗岭村兴建了“西江月太平道医养生苑”，开发商为湖北西江月生态旅游开发有限公司。第一期工程建成40栋徽式养老公寓，2015年4月举行了隆重的封顶工程庆典。不料，之后开发商资金链断了，该项目成了烂尾工程。截至目前，已有1000多位老人预定了床位，他们交纳定金3万、5万甚至十几万元不等，总金额达5000万元左右。数额巨大的定金至今未能拿回。交纳的定金很多是老人们平时省吃俭用节约下来的，现在财房两空，他们心痛不已。希望有关部门高度重视，切实保障人民群众的切身利益。本文来源：人民网-人民日报责任编辑：程钢_NN7377",
    "Source": "Netease",
    "URL": "http://news.163.com/18/0102/07/D74MBV470001875P.html"
}