{
    "URL": "http://news.163.com/18/0101/18/D7389EGI0001899N.html",
    "Title": "女子逆行致堵车后停车嗑瓜子 4岁儿子劝:倒吧!_网易新闻",
    "KeyWords": "堵车,电动车,儿子,逆行",
    "Article": "（原标题：女子逆行致堵车，4岁儿子懂事地劝她倒车）#endText.video-infoa{text-decoration:none;color:#000;}#endText.video-infoa:hover{color:#d34747;}#endText.video-listli{overflow:hidden;float:left;list-style:none;width:132px;height:118px;position:relative;margin:8px3px0px0px;}#entText.video-lista,#endText.video-lista:visited{text-decoration:none;color:#fff;}#endText.video-list.overlay{text-align:left;padding:0px6px;background-color:#313131;font-size:12px;width:120px;position:absolute;bottom:0px;left:0px;height:26px;line-height:26px;overflow:hidden;color:#fff;}#endText.video-list.on{border-bottom:8pxsolid#c4282b;}#endText.video-list.play{width:20px;height:20px;background:url(http://img1.cache.netease.com/video/img14/zhuzhan/play.png);position:absolute;right:12px;top:62px;opacity:0.7;color:#fff;filter:alpha(opacity=70);_background:none;_filter:progid:DXImageTransform.Microsoft.AlphaImageLoader(src=\"http://img1.cache.netease.com/video/img14/zhuzhan/play.png\");}#endText.video-lista:hover.play{opacity:1;filter:alpha(opacity=100);_filter:progid:DXImageTransform.Microsoft.AlphaImageLoader(src=\"http://img1.cache.netease.com/video/img14/zhuzhan/play.png\");}if(/(iPhone|iPad|iPod|Android|NETEASEBOBO|blackberry|bb\\d+)/ig.test(navigator.userAgent)||/safari|chrome|firefox/i.test(navigator.userAgent)&&navigator.plugins&&!navigator.plugins[\"ShockwaveFlash\"]){varstr1='<videocontrols=\"controls\"preload=\"auto\"width=\"100%\"poster=\"http://vimg3.ws.126.net/image/snapshot/2018/1/A/T/VU65EO9AT.jpg\"style=\"max-height:100%\">';varstr2='<sourcetype=\"video/mp4\"src=\"http://flv.bn.netease.com/videolib3/1801/01/RzXso2256/SD/RzXso2256-mobile.mp4\">您的浏览器暂时无法播放此视频.</video>';document.getElementById(\"FPlayer1404863609673\").parentNode.innerHTML=str1+str2;}女子逆行致堵车，4岁儿子懂事地劝她倒车（来源：original）window.NTES&&function(d){varf=function(c){varb=c.getAttribute(\"flashvars\"),a=c.getAttribute(\"repovideourl\").replace(\".flv\",\"-mobile.mp4\");h=d(c.parentNode.parentNode.parentNode),g='<embedsrc=\"http://v.163.com/swf/video/NetEaseFlvPlayerV3.swf\"flashvars=\"'+b+'\"allowfullscreen=\"true\"allowscriptaccess=\"always\"quality=\"high\"wmode=\"opaque\"width=\"100%\"height=\"100%\"type=\"application/x-shockwave-flash\"/>';if(/(iPhone|iPad|iPod|Android|NETEASEBOBO|blackberry|bb\\d+)/ig.test(navigator.userAgent)){g='<videocontrols=\"controls\"preload=\"auto\"width=\"100%\"height=\"100%\"><sourcetype=\"video/mp4\"src=\"'+a+'\">您的浏览器暂时无法播放此视频.</video>';}h.$(\".video\")[0].innerHTML=g;},e=function(b){vara=d(b.parentNode.parentNode.parentNode);a.$(\"li\").removeCss(\"on\"),b.addCss(\"on\"),a.$(\".video-title\")[0].innerHTML=\"string\"==typeofb.textContent?b.textContent:b.innerText,a.$(\".video-title\")[0].setAttribute(\"href\",b.getAttribute(\"url\")),a.$(\".video-from\")[0].innerHTML=\"（来源：\"+b.getAttribute(\"source\")+\"）\",f(b);};window.continuePlay=function(){vara,b=d(d(\".video-list.on\")[0].nextSibling);3==b.nodeType&&(b=d(b.nextSibling));if(b&&d(\".video-innerinput\")[0].checked){e(b);}},function(){vara={init:function(){if(d(\".video-listli\")[0]){d(d(\".video-listli\")[0]).addCss(\"on\"),this.eventBind();}},eventBind:function(){d(\".video-listli\").addEvent(\"click\",function(b){e(d(this)),b.preventDefault();});}};a.init();}();}(NTES);河南南阳，一女子骑车逆行，与迎面驶来的电动车发生争执，造成交通拥堵。女子淡定坐车上嗑瓜子，她4岁的儿子奶声奶气劝她倒车：“倒吧！”还使劲用手去推。本文来源：一手Video责任编辑：李杭_BJS4645",
    "Source": "Netease",
    "PublishTime": "01/01/201818:22:33",
    "Comment": {
        "Link": "http://comment.news.163.com/news2_bbs/D7389EGI0001899N.html",
        "Reply": 138,
        "Content": "傻逼年年有女人特别多女人没文化才他妈真可怕 你他妈瞎啊？ 这货是心瞎和眼睛没关系 违法的理直气壮，守法的苟且求全，是这个社会的悲哀！ 马赛克真是阻碍人类进步的绊脚石 这是畜生，不是女子 果然东北汉子,绝对牛人. 逆行还我嗑瓜子。这个素质也是无语了。不应该打马赛克。应该全国曝光 荷兰😄 不愧是华夏文明发源地，高素质人群的代表 还是“老子”说的好，归复于婴儿。 特警将她推出去。这是什么警察啊？怎么执法的？这种恶意违法交通规则的恶人，难道不应该拘留吗？难道不应该扣车扣人吗？这么放纵违法人员，警察是不是该下岗了？ 东北的直，动手了。荷兰的心眼坏动脑筋。 近朱者赤近墨者黑，会变的 这个社会不是什么法不法，是谁不要脸谁最牛逼。 大嘴巴抽一顿，她就长记性了。 这么懂事的孩子怎么会是这种人渣家长生出来的？ 在孩子面前丢人现眼！ 人丑多作怪 你这眼睛得钱治了 人之初性本善，性相近习相远<br>父母恶性乃迁，道德世由此偏 还不如吃奶的孩子懂事！ 多好的一个孩子、摊上这么一个恶心的家长 听不出来口音就不要说 我鄙视这个女人，更惋惜这个懂事的孩子错生在她的家庭。🤔 不是荷兰吗？ 这样的素质对孩子的影响力太大了！ 好心疼这个孩子！我以前混的时候，守着我大儿子基本不动手打别人，而且尽量教他宽以待人，与人为善！但是我一旦和小弟们在一起，就变成了恶魔，打人从来不手软，还让你不出伤 听到这个口音我就莫名的反感 一楼，你确定你耳朵没问题？这是东北口音？地域黑真的应该死妈！ 一楼绝对耳朵骨折了！ 孩子这么小就很懂事，让人欣慰啊 没有最丑，只有更丑。 可惜家长很傻逼，不能以身作则，这孩子以后有大事业 不如刚懂事的孩子 纵容的！<br>假如按规按法！该罚的罚，该拘的拘！该判的判，下回这女的还敢么？ 你是瞎还是聋啊？ 回去告诉你爸爸，真等不及就准备重娶吧！ 给孩子丢人。 拘留15天，下次老实的 地图炮你可以安息了 煞笔娘们，逆行还有理了，素质低下的令人发指。 听到西北大汉的口音1楼瞬间脸红了无奈之下只能开启指鹿为马神技幻想着别人也会和他一样脑残 不是这傻逼亲生的！<br>信不！ 有许多汉子司机遇到堵车时不按顺序排队等候、而是逆行加塞、加不进去就堵死了下行的路，一副痞子态度，可是没见过女子这样的、也是见识了 不愧是华夏文明发源地，高素质人群的代表 视频是反的？怎么看都不是逆行啊… 南阳满大街都是这种人。 这个社会不是什么法不法，是谁不要脸谁最牛逼。 在孩子面前丢人现眼！ 一楼耳朵是聋的，这口音妥妥的中原口音，具体哪倒是不清楚 特警？要你们干嘛用的？法律就是垃圾？来来来，老子告诉你：首先，三轮车是要驾驶证的，即便是电动车也超过了标准，无证驾驶拘留十五天不明白？其次，逆行，堵路，故意制造交通拥堵，该怎么判不明白？中国的法律让警察玩成了狗屎 不如刚懂事的孩子 服了 还不如吃奶的孩子懂事！ 孩子小时都纯真而善良！只不过大了，有的就学坏了！ 果然够荷兰 这应该是发生在日本怎么是我大中华。 电瓶车是交通毒瘤 还没孩子懂事。 一个搞地域攻击的人难道就很高尚？你难道不是炎黄子孙？你的老祖宗难道是从天上掉下来的？ 管了你们说暴力执法，不管你们又说不作为，很难办啊 违法的理直气壮，守法的苟且求全，是这个社会的悲哀！ 孩子懂事，摊上这样的妈，以后估计悬 公务员不作为是最大问题。 在一线大都市居然直到今天依然在大肆买卖电瓶车电动车，而且做的越来越接近汽车……全世界也没谁了…… 傻逼年年有女人特别多女人没文化才他妈真可怕 河南的喳喳啊 果然东北汉子,绝对牛人. 中国就是被这些畜生污染了， 何为父母？ 孩子都比她懂事 签到 河南！这孩子经历过，要学坏了，。 这孩子给她带糟蹋了 这是制度问题，别扯那些没用的。 特警将她推出去。这是什么警察啊？怎么执法的？这种恶意违法交通规则的恶人，难道不应该拘留吗？难道不应该扣车扣人吗？这么放纵违法人员，警察是不是该下岗了？ 一楼怎么听出是东北的？ 还不如一个孩子 丢脸丢到全国了。 为什么会有这种人？因为你不罚她，以扰乱交通之类的告她罚她，罚一万，拘留15天，几个人被处理以后你看看还会有这种事么？太多民众素质不到位，那么去处理啊，自己不管，然后事出了多了就一刀切 他家认为除了陕西以外的都是东北的！ 这样的纯种 不是荷兰吗？ 泼妇 这样的素质对孩子的影响力太大了！ 逆行的。那个地方修热力管道。那个女人后面是往一个小学进出的丁字路口。 好心疼这个孩子！我以前混的时候，守着我大儿子基本不动手打别人，而且尽量教他宽以待人，与人为善！但是我一旦和小弟们在一起，就变成了恶魔，打人从来不手软，还让你不出伤 警察上班途中都不敢穿警服，又该让谁下岗？ 这位先生对日你母亲的东北人有很深的成见啊[微笑] 读10遍你也许能明白二楼的意思。 当家作主！ 你说错了吧，哪里看到孩子糟蹋 荷兰是世界的荷兰 真懂事 纵容的！<br>假如按规按法！该罚的罚，该拘的拘！该判的判，下回这女的还敢么？ 你是瞎还是聋啊？ 要是光谴责有用还tm要什么法律 儿子都知道往后倒了，可想而之，他都为他的妈妈感到丢人啊 地图炮安息 满盘皆数(输) 摊上这样的家长，可怜了孩子 有救了[大笑][大笑] 潜移默化太厉害 该吃药了吧 必须脸皮厚 但愿这孩子在这样的教育下别长大了，也习惯了，不要脸了 我鄙视这个女人，更惋惜这个懂事的孩子错生在她的家庭。🤔 马赛克真是阻碍人类进步的绊脚石 我是流氓我怕让 人丑多作怪 你这眼睛得钱治了 欠揍 哎要是遇到我新闻估计就是无良少年当街暴揍母猪. 丑逼玩意！ 草弄啥来 什么口音，素质提高要几代人？ 给孩子丢人。 直接入狱 两个大人不如个4岁孩子 没有最丑，只有更丑。 违法的理直气壮，守法的苟且求全，是这个社会的悲哀！ 不如刚懂事的孩子 懂事的孩子，以后前途无量 孩子真善良 就是没安好心故意的 违法的理直气壮，守法的苟且求全，是这个社会的悲哀！ 就怕回家被暴打一顿，以后就变成他妈一样 你他妈瞎啊？ 这货是心瞎和眼睛没关系 果然东北汉子,绝对牛人. 没跑了 只要是坏事都是东北人干的，直接喷。 开车切不可意气用事，大人还不如个孩子呢 这么懂事的孩子怎么会是这种人渣家长生出来的？ 河南女人，哈哈哈，真不是地域 多好的一个孩子、摊上这么一个恶心的家长 [大笑]这就是……不说了。 不是荷兰吗？ 胡扯 一楼被东北人怎么了？说说你的故事。。。。。 没用。4楼就是那孩子的将来写照 回去告诉你爸爸，真等不及就准备重娶吧！ 这种老娘们你还真未必打得过，弄不好被倒揍 孩子这么小就很懂事，让人欣慰啊 可惜家长很傻逼，不能以身作则，这孩子以后有大事业 跟整个社会有什么关系？我周围大部分人都是有素质的～ 臭西 拘留15天，下次老实的 听到这个口音我就莫名的反感 煞笔娘们，逆行还有理了，素质低下的令人发指。 两边都觉得自己才是弱势群体，对方必须要给自己让路才对。 两边都觉得自己才是弱势群体，对方必须要给自己让路才对。 傻逼母狗一只 果然东北汉子,绝对牛人. 逆行还我嗑瓜子。这个素质也是无语了。不应该打马赛克。应该全国曝光 荷兰😄 人之初性本善，性相近习相远<br>父母恶性乃迁，道德世由此偏 大嘴巴抽一顿，她就长记性了。 傻逼中的战斗逼 唱刘大哥讲话理太偏，那地方的人…… 不是荷兰吗？ 百姓还在用拼了的办法来解决问题。为啥因为法律只是门口的狮子 听不出来口音就不要说 这不是犯法的吗？ 傻逼 两边都觉得自己才是弱势群体，对方必须要给自己让路才对。 性本善 人之初… 一楼，你确定你耳朵没问题？这是东北口音？地域黑真的应该死妈！ 一楼绝对耳朵骨折了！ 树不要皮不能活，人不要脸则无敌。 人不要脸，则无敌。 这是畜生，不是女子 她曾经也是祖国的花朵， 这女的是老人变坏了吗？ 一楼故意的吧，陕西荷兰人多 两边都觉得自己才是弱势群体，对方必须要给自己让路才对。 还是“老子”说的好，归复于婴儿。 两边都觉得自己才是弱势群体，对方必须要给自己让路才对。 听到西北大汉的口音1楼瞬间脸红了无奈之下只能开启指鹿为马神技幻想着别人也会和他一样脑残 ",
        "Total": 2486
    }
}