{
    "Article": "网易娱乐12月29日报道12月29日，陈赫微博发文：“空姐在飞机上问每一位乘客要不要看报纸，到我这直接跳过了。为什么？？？我看上去不爱阅读吗？阅读是我的生命，阅读使我快乐。”陈赫在飞机上被空姐嫌弃，孙艺洲回复：“你还是吃鸡合适。”陈赫调侃：“应该去给我拿英文版的了。”还有网友回应：“空姐下次问有没有吃鸡的乘客?，去门口排队，一会飞机开舱门准备跳下去。”本文来源：网易娱乐责任编辑：张悦_NBJS5410",
    "URL": "http://ent.163.com/17/1229/14/D6R3GUSB00038FO9.html",
    "Source": "Netease",
    "KeyWords": "孙艺洲,陈赫,吃鸡",
    "Comment": {
        "Reply": 16,
        "Link": "http://comment.ent.163.com/ent2_bbs/D6R3GUSB00038FO9.html",
        "Total": 327,
        "Content": "空姐领导已经默默的查是哪个空姐哪个航班了 看不看又有什么区别斤斤计较 沙发 鸡后面加一巴字 我有时候也会遇到这样的事情，前面有个人在发小广告，每个人都会给，一到我这儿……马德跳过了！ 我也遇到过这样的事，有次去泰国看人妖表演，表演结束后人妖下台一个个和观众互动，到我竟然跳过了！什么鬼！ 空姐跟你说话嫌恶心 空姐领导已经默默的查是哪个空姐哪个航班了 沙发 我有时候也会遇到这样的事情，前面有个人在发小广告，每个人都会给，一到我这儿……马德跳过了！ 海南航空 看你开五零红光必须跳过去 有意思 是说张子萱吗 看不看又有什么区别斤斤计较 哈哈哈哈 哈哈哈哈 鸡后面加一巴字 空姐跟你说话嫌恶心 啊q 厉害啦赤赤 我也遇到过这样的事，有次去泰国看人妖表演，表演结束后人妖下台一个个和观众互动，到我竟然跳过了！什么鬼！ 那要看你是坐的什么航空了 "
    },
    "Title": "陈赫坐飞机遭空姐\"嫌弃\" 孙艺洲：你还是适合吃鸡_网易娱乐",
    "PublishTime": "12/29/201714:25:21"
}