{
    "Article": "网曝英国歌手JessieJ2日抵达长沙网易娱乐1月2日报道网曝英国歌手JessieJ2日抵达长沙确定录制《歌手》，刚下飞机就被网友偶遇！在之前的采访中，JessieJ曾自曝和张杰相识且非常有缘，不知道此次两位歌手会不会带来合作。据悉，《歌手》将于1月12日开播。本文来源：网易娱乐责任编辑：杨明_NV5736",
    "Title": "英国歌手Jessie J抵达长沙 确定录制《歌手》_网易娱乐",
    "PublishTime": "01/02/201815:09:38",
    "Source": "Netease",
    "Comment": {
        "Content": "我以前也找这歌呢把《融雪》这个词翻译成英文一搜就找到了 人肉点唱机，没有她唱不了的歌，没有她拔不上去的高音，歌手这波操作我服 动态图可以再快点，我看得清 pricetag 求湖南台给张杰一个冠军吧不然年年都来 Gaga也不会来啊 嘉宾：JessieJ、汪峰、张韶涵、Gai（周延）、李圣杰、张天、李丰溢（李晓东） 这波应该请那个皮革one王昊 结石姐，唱的冰河世纪不错 张杰还来？脸呢 唱lostrivers试试？ 唱歌很牛 这女的在欧美圈玩不过Ladygaga泰勒这帮，在中国倒是混的风生水起啊 阿黛尔怎么没来？ 张杰求你别来了可以吗 厉害了 张杰再来歌手就忒不要脸了 估计这节目黄了都请不来 第一轮就淘汰 我去，这种大佬 呵呵，唱个我的滑板鞋听听[微笑] 吃瓜群众提议推荐摇滚相声演员于谦老师跨界上马桶台歌手跟汪疯争摇滚歌王 二楼你个魂淡 天呐，jessiej来了还给别人活路嘛…… 按规律应该是亚军 华晨宇来了么？ 我以前也找这歌呢把《融雪》这个词翻译成英文一搜就找到了 人肉点唱机，没有她唱不了的歌，没有她拔不上去的高音，歌手这波操作我服 张杰还来？脸呢 动态图可以再快点，我看得清 不喜欢老外， pricetag 求湖南台给张杰一个冠军吧不然年年都来 Gaga也不会来啊 嘉宾：JessieJ、汪峰、张韶涵、Gai（周延）、李圣杰、张天、李丰溢（李晓东） moneymoneymoney！ 太扯了 这波应该请那个皮革one王昊 天呐，jessiej来了还给别人活路嘛…… 结石姐，唱的冰河世纪不错 结石姐 吃瓜群众提议推荐摇滚相声演员于谦老师跨界上马桶台歌手跟汪疯争摇滚歌王 二楼你个魂淡 估计这节目黄了都请不来 这女的在欧美圈玩不过Ladygaga泰勒这帮，在中国倒是混的风生水起啊 硬要扯上個張傑 啊啊啊啊啊你确实？ 阿黛尔怎么没来？ 结石姐啊 moneymoneymoney！ 张杰求你别来了可以吗 这是？？ 张杰再来歌手就忒不要脸了 厉害了 结实姐 第一轮就淘汰 結石姐來唱我的祖國嗎？笑哭了。 我的妈？？？？？！！！ 呵呵，唱个我的滑板鞋听听[微笑] 按规律应该是亚军 唱歌很牛 这个顶多两期就淘汰 唱lostrivers试试？ 有钱任性 我去，这种大佬 给了他冠军还是会来的，湖南台不就那几个吗 牛！！！！！ 谁是第二名？ ",
        "Reply": 43,
        "Link": "http://comment.ent.163.com/ent2_bbs/D75FKTIL00038FO9.html",
        "Total": 566
    },
    "KeyWords": "jessie j,英国,长沙,张杰",
    "URL": "http://ent.163.com/18/0102/15/D75FKTIL00038FO9.html"
}