{
    "Title": "古特雷斯新年致辞发红色警报 还用七种语言说谢谢_网易新闻",
    "PublishTime": "01/01/201808:42:00",
    "URL": "http://news.163.com/18/0101/08/D727EVQI00018AOQ.html",
    "Source": "Netease",
    "KeyWords": "联合国,新年,古特雷斯,人权",
    "Comment": {
        "Reply": 10,
        "Content": "联合国只会扯皮浪费时间而毫无作为，使世界核疯子们大力发展核武受不到打压，是产生核灾难的主要间接原因。 就在3月揭晓 我弟弟信上帝.他认为他的存在就是在帮助上帝拯救人类.每次打完电话他都会说愿上帝保佑你,各种为我祈祷.他很乐意与我谈论信上帝的好处.并全身心投入工作和关爱家人,只因他觉得主耶稣是他学习的榜样--我不认为他们的信仰会造成交流障碍.即使我认真问他:上帝是否存在?而他总会回答:若爱存在,上帝就存在.因为上帝就是创造爱的源头上帝永远住在爱里，上帝爱世界上所有人包括想悔改的罪人想要信耶稣的可以到本地教堂买一本圣经看看每个地方都有教堂的信耶稣此生平安来世得永生有所信仰就会有所敬畏，有所敬畏就会知何事可为与何事不可为，知道了什么事可为什么事不可为，就不会干出背理天意人伦的逆天大错，遵从了天意人伦的法则就会一生安宁幸福这就是大道之法则，也就是爱的法则，神之道！ 让大鹿进入世贸是米国的大错误 小恩第七次，第二次韩战超七成。。。2018。。。 你不说我都不知道联合国换头了说明联合国的存在感在下降 遏制核武是有良知国家人民的共同责任。 世界迟早毁在这些政客手里 联合国只会扯皮浪费时间而毫无作为，使世界核疯子们大力发展核武受不到打压，是产生核灾难的主要间接原因。 让大鹿进入世贸是米国的大错误 就在3月揭晓 小时候一直以为联合国是最大的 这都是说谁呢？ 小恩第七次，第二次韩战超七成。。。2018。。。 你不说我都不知道联合国换头了说明联合国的存在感在下降 遏制核武是有良知国家人民的共同责任。 世界迟早毁在这些政客手里 我弟弟信上帝.他认为他的存在就是在帮助上帝拯救人类.每次打完电话他都会说愿上帝保佑你,各种为我祈祷.他很乐意与我谈论信上帝的好处.并全身心投入工作和关爱家人,只因他觉得主耶稣是他学习的榜样--我不认为他们的信仰会造成交流障碍.即使我认真问他:上帝是否存在?而他总会回答:若爱存在,上帝就存在.因为上帝就是创造爱的源头上帝永远住在爱里，上帝爱世界上所有人包括想悔改的罪人想要信耶稣的可以到本地教堂买一本圣经看看每个地方都有教堂的信耶稣此生平安来世得永生有所信仰就会有所敬畏，有所敬畏就会知何事可为与何事不可为，知道了什么事可为什么事不可为，就不会干出背理天意人伦的逆天大错，遵从了天意人伦的法则就会一生安宁幸福这就是大道之法则，也就是爱的法则，神之道！ ",
        "Total": 133,
        "Link": "http://comment.news.163.com/news2_bbs/D727EVQI00018AOQ.html"
    },
    "Article": "（原标题：联合国秘书长新年号召团结：世界可以变得更安全）#endText.video-infoa{text-decoration:none;color:#000;}#endText.video-infoa:hover{color:#d34747;}#endText.video-listli{overflow:hidden;float:left;list-style:none;width:132px;height:118px;position:relative;margin:8px3px0px0px;}#entText.video-lista,#endText.video-lista:visited{text-decoration:none;color:#fff;}#endText.video-list.overlay{text-align:left;padding:0px6px;background-color:#313131;font-size:12px;width:120px;position:absolute;bottom:0px;left:0px;height:26px;line-height:26px;overflow:hidden;color:#fff;}#endText.video-list.on{border-bottom:8pxsolid#c4282b;}#endText.video-list.play{width:20px;height:20px;background:url(http://img1.cache.netease.com/video/img14/zhuzhan/play.png);position:absolute;right:12px;top:62px;opacity:0.7;color:#fff;filter:alpha(opacity=70);_background:none;_filter:progid:DXImageTransform.Microsoft.AlphaImageLoader(src=\"http://img1.cache.netease.com/video/img14/zhuzhan/play.png\");}#endText.video-lista:hover.play{opacity:1;filter:alpha(opacity=100);_filter:progid:DXImageTransform.Microsoft.AlphaImageLoader(src=\"http://img1.cache.netease.com/video/img14/zhuzhan/play.png\");}if(/(iPhone|iPad|iPod|Android|NETEASEBOBO|blackberry|bb\\d+)/ig.test(navigator.userAgent)||/safari|chrome|firefox/i.test(navigator.userAgent)&&navigator.plugins&&!navigator.plugins[\"ShockwaveFlash\"]){varstr1='<videocontrols=\"controls\"preload=\"auto\"width=\"100%\"poster=\"http://vimg3.ws.126.net/image/snapshot/2018/1/R/M/VD64IC2RM.jpg\"style=\"max-height:100%\">';varstr2='<sourcetype=\"video/mp4\"src=\"http://flv.bn.netease.com/videolib3/1801/01/sGrYu2521/SD/sGrYu2521-mobile.mp4\">您的浏览器暂时无法播放此视频.</video>';document.getElementById(\"FPlayer1404863609673\").parentNode.innerHTML=str1+str2;}联合国秘书长新年致辞，七种语言说谢谢（来源：~）window.NTES&&function(d){varf=function(c){varb=c.getAttribute(\"flashvars\"),a=c.getAttribute(\"repovideourl\").replace(\".flv\",\"-mobile.mp4\");h=d(c.parentNode.parentNode.parentNode),g='<embedsrc=\"http://v.163.com/swf/video/NetEaseFlvPlayerV3.swf\"flashvars=\"'+b+'\"allowfullscreen=\"true\"allowscriptaccess=\"always\"quality=\"high\"wmode=\"opaque\"width=\"100%\"height=\"100%\"type=\"application/x-shockwave-flash\"/>';if(/(iPhone|iPad|iPod|Android|NETEASEBOBO|blackberry|bb\\d+)/ig.test(navigator.userAgent)){g='<videocontrols=\"controls\"preload=\"auto\"width=\"100%\"height=\"100%\"><sourcetype=\"video/mp4\"src=\"'+a+'\">您的浏览器暂时无法播放此视频.</video>';}h.$(\".video\")[0].innerHTML=g;},e=function(b){vara=d(b.parentNode.parentNode.parentNode);a.$(\"li\").removeCss(\"on\"),b.addCss(\"on\"),a.$(\".video-title\")[0].innerHTML=\"string\"==typeofb.textContent?b.textContent:b.innerText,a.$(\".video-title\")[0].setAttribute(\"href\",b.getAttribute(\"url\")),a.$(\".video-from\")[0].innerHTML=\"（来源：\"+b.getAttribute(\"source\")+\"）\",f(b);};window.continuePlay=function(){vara,b=d(d(\".video-list.on\")[0].nextSibling);3==b.nodeType&&(b=d(b.nextSibling));if(b&&d(\".video-innerinput\")[0].checked){e(b);}},function(){vara={init:function(){if(d(\".video-listli\")[0]){d(d(\".video-listli\")[0]).addCss(\"on\"),this.eventBind();}},eventBind:function(){d(\".video-listli\").addEvent(\"click\",function(b){e(d(this)),b.preventDefault();});}};a.init();}();}(NTES);中新网1月1日电据外媒报道，联合国秘书长古特雷斯在2018年到来之际发表视频致词，呼吁“团结”。据报道，古特雷斯表示，“一年前上任时，我呼吁2017年是和平的一年。遗憾的是，从根本上说，世界并未走向和平。2018年元旦，我不再提出呼吁。我向我们的世界发出一个警报，一个红色警报”。资料图片：联合国秘书长古特雷斯。中新社记者马德林摄古特雷斯说，“冲突已然加剧，新的危险已经出现。全球对核武器的忧虑达到了冷战以来最高程度，气候变化的速度超过了我们的行动速度，不平等正在加剧。我们看到可怕的侵犯人权行为，民族主义和仇外心理正在上升”。2018年伊始，古特雷斯号召“团结”。古特雷斯说，只要团结，世界可以变得更安全，冲突可以解决，仇恨可以克服。他促请各国领袖的新年愿望是“收窄分歧，重建互信，带领人民实现共同目标”。本文来源：中国新闻网责任编辑：谷莹_NN6577"
}