{
    "URL": "http://ent.163.com/17/1229/00/D6PIUCP500038FO9.html",
    "Article": "李念弹钢琴李念网易娱乐12月29日报道12月28日晚，李上传了一段弹钢琴的视频，并称：“收工前为你们献上一首。”照片中，李念披着时尚的卷发，穿着亮片装外套，白皙红唇，坐在钢琴前优雅的弹奏，身体还随着音乐轻轻摆动，琴声优美动听，让人陶醉。此视频曝光后，网友纷纷围观并留言称：“好好听，好有范。”“人美歌也美！”不过也有网友表示“琴键对不上音乐”，怀疑李念可能是假弹。本文来源：网易娱乐责任编辑：陈少杰_b6952",
    "Source": "Netease",
    "PublishTime": "12/29/201700:16:21",
    "KeyWords": "李念,音乐,红唇,琴键",
    "Comment": {
        "Content": "少➕了两个字 没有拉!我也是弹钢琴的!只会让你更灵活! 婊子 还玩贵妇梗？ 摆拍做个样子而已 无阔太不李念！怎么又不加阔太了 我的体育老师客串！ 阔太天天在拍戏，从没见上映过 小便：姓阔太名李念谢谢！ 估计这视频会很快被删除。 摆拍有意思么 个臭婊子 社会节奏真快! …… 海藻啊…… 还玩贵妇梗？ 阔太 该充值了，阔太！ …… 我觉得经纪人的职业得火 小篇把人家姓去掉了是何居心？ 无阔太不李念！怎么又不加阔太了 我的体育老师客串！ 小便：姓阔太名李念谢谢！ 這褆宋思明艹过的吗 估计这视频会很快被删除。 阔太天天在拍戏，从没见上映过 摆拍有意思么 少➕了两个字 没有拉!我也是弹钢琴的!只会让你更灵活! 有些东西是装不出来的…… 装模作样。 婊子 做做样子罢了 …… 阔太李念变成贵妇李念了 我只认李念一个阔太！ 很少有音乐能做到同步的.网络多多少少都会有点延迟. 這褆宋思明艹过的吗 没气质 嫁给有钱男人就是不一样 个臭婊子 这腿p的！ 穷酸味溢出了屏幕。 摆拍做个样子而已 ",
        "Total": 316,
        "Link": "http://comment.ent.163.com/ent2_bbs/D6PIUCP500038FO9.html",
        "Reply": 33
    },
    "Title": "李念弹钢琴一身贵妇范儿 音乐节奏跟指尖却对不上_网易娱乐"
}