{
    "URL": "http://news.163.com/17/1228/15/D6OK97G30001899N.html",
    "Article": "【武警部队由党中央、中央军委集中统一领导】任国强：各位记者朋友，大家下午好！欢迎大家出席本月国防部例行记者会，这也是本年度最后一次例行记者会。参加今天例行记者会的还有来自空军指挥学院的各位领导和同志们，欢迎你们！首先，我发布一条有关武警部队改革的消息。党中央决定，自2018年1月1日零时起，中国人民武装警察部队由党中央、中央军委集中统一领导，实行中央军委—武警部队—部队领导指挥体制。调整武警部队领导指挥体制，是党中央做出的重大政治决定，是完善和发展中国特色社会主义军事制度的重大创新举措，是加强党对人民解放军和其他人民武装力量的绝对领导，确保国家长治久安的重大政治设计和制度安排。本文来源：军报记者责任编辑：张海桐_NN9053",
    "Source": "Netease",
    "PublishTime": "12/28/201715:20:30",
    "KeyWords": "武警部队,中央军委,党中央,国防部",
    "Comment": {
        "Content": "好的，知道了 调整指挥体制，创新重大举措，加强绝对领导，确保长治久安。 好的，知道了 调整指挥体制，创新重大举措，加强绝对领导，确保长治久安。 ",
        "Total": 33,
        "Link": "http://comment.news.163.com/news2_bbs/D6OK97G30001899N.html",
        "Reply": 2
    },
    "Title": "国防部回应武警指挥体制改革:确保国家长治久安_网易新闻"
}