{
    "Comment": {
        "Link": "http://comment.news.163.com/news_shehui7_bbs/D6L1TQLH0001875P.html",
        "Reply": 131,
        "Content": "没骨气！去哪也饿不死！非要在这么？ 你能吃下去屎再来说吧 去上班还是当🐶？ 人可以不要面子，但不能没有尊严，如果连自己尊严都不去维护，活着或许真的没多大意思， 凭啥惩罚打工的呢你老板的产品不好卖是老板的问题这样公司马上拜拜 资本家每个毛孔里都是肮脏的鲜血。 此时，我们铁骨铮铮的工会呢？ 喷公司垃圾的喷子们住口吧，愿意受屈辱就说明这公司有值得让人留恋的地方，给你2千一月谁愿意爬，给你2万一月我相信大多数人都愿意爬，给你20万一月估计连屎都吃了。不服来辩 是人，你就站起来！ 工会你在哪儿？ 你可以在钱和尊严之间选择尊严，多的是选择钱的人，又想要钱又想要尊严的，请照照镜子看看自己算老几。 呵<br>呵<br>！<br>儿子告老子！<br>一点胜算没有！ 呵呵是嘛，那就请开始你的表演，让我知道一下你是怎么判定我对企业管理常识一点概念都没有的 站着不走爬着走、爬起来吧,给你自由 用人的地方有的是，非得在它那干吗？等它公司没人给它干，它就老实了。 一直没想通，得发多少钱工资？才能让人挑战底线？ 看看效益良好的企业，重来没有什么狼文化，都是以尊重员工关爱员工，发掘员工的潜力，充分发挥员工创造力为前提的。别和我说什么狼文化作为企业的内涵，那不过是抹杀个性，侵占职工权益的借口。相信狼文化的，就是这种愿意爬着过马路，丧失尊严和人格也要留在公司里的没什么技能和背景的员工。一个企业里都是这种人，会是高薪企业？ 一楼我这么跟你说吧，这个公司挣不到什么钱，挣到的也是不长久的快钱。因为企业文化决定了公司的发展，这个公司不会有发展的。而且我敢肯定这个公司应该是类似于卖保健品的骗子公司。 生活不易，委曲求全实在没办法 这样的公司，就是传销吧 这些员工我怀疑是不是脑残，让你爬你就爬，不给这家公司干，你还活不了了。 传销精神 妈<br>妈<br>的<br>！<br>在这社会不卖命吃个屁！<br>三座大三回来了没办法！<br>大家都懂！ 可怜之人必有可恨之处，可这不是你们践踏他人尊严的理由，玩火者死于火！ 相比起“俯卧撑”、“喊口号”、“互扇耳光”等等五花八门的“激励措施”，爬行过马路只是这些管理套路的一种。这样的激励方式想有多少就会有多少，方式五花八门。本来嘛，既然没有底线自然也就没有上限。值得注意的是，类似这样被腆着脸归类为“企业文化”的病态甚至有变态管理模式，我们在国企、民企或私企都能见到，一些管理者对这种别出心裁的管理行为津津乐道，而且总有这么一群员工有怨无悔地顺从于这样一种无底线、无尊严的管理手段，实属可怜、可悲。可笑！ 当初棒子体罚中国员工时，我们群情激奋，同样是资本家歧视员工，我们却甘意大庭广众之下丧失人格，做牛做马任人羞辱，这不是垃圾价值观又是什么？ 在这种公司，能拿2万、20万，证明员工有这个能力。去了其他公司，这么多工资也不是问题，何必在这受侮辱。 公平公正的约定，没完成任务可以选择滚蛋或者爬路，谁都没权利强留下一个要辞职的员工，别说劳动法了，谁都管不着。之所以没滚蛋，那就说明公司有他不舍得离开的理由 中国人民站起来了！。 这员工在二战年代也是汗奸。 给你点赞 自己犯的错自己承受呗！打倒美的极其走狗！田园犬们高兴不 那你怎么不去问问这些没完成任务选择爬路裸奔的，他们为什么甘愿受辱却不滚蛋呢？ 公司管理从根本上就没人权意识，还谈其他的，就是给20万，也违法，既然没有人权，这个公司领导可以被侮辱了，因为根本不懂什么叫基本人权。 自己愿意当狗，怪不得别人。 哈哈，键盘上的高端人士？对企业管理和常识都一点概念都没有的，就别来谈什么企业效率执行，你啥都不懂。 知道有这样规定的公司，立马辞职不干了。完不成业绩可以扣绩效奖什么的。但这种污辱人格的事竟然都照做？ 这种垃圾公司也值得为他卖命？ 西方的资本家没这么缺德。 一个公司，如此的漠视法驴，漠视人的尊严，肯留下的都是什么素质的人？这些人是真心爱护公司的么？显然不可能，既然如此，公司怎么可能迸发处强大的竞争力，创造良好利润，提供优厚的待遇？这显然是不可能的。所以，每月给员工二十万？有叁仟就不错了。越是尊重员工提供优厚待遇的公司，员工的素质才越高，公司的效益才越好。所以，你的结论根本就不成立，自己照照镜子，连这都想不明白的，算老几。 生活不容易啊，谁不想风风光光的活着！ 万恶的旧社会就是这么对待老百姓的 有些人就靠着这份工作或者呢，辞职可能还不上贷款，可能老婆孩子没钱吃饭，家里可能有生病的老人，都有可能，工作不是说换就换，甚至可以说有些工作想换工作是很难的，所以，人有些时候需要委曲求全，因为你已经不是为一个人而活着。[可怜]不过这公司真是操蛋公司。 他们得了一种病，离开公司我怎么活的不治之症 为了钱，一点尊严都不要了。你是不是缺心眼啊。 侵犯人权，去劳动局告他，不管就连劳动局一块告。 搞笑了，公司赚不到什么钱怎么可能会给员工发高薪，不发高薪怎么可能让员工宁愿受屈辱也不舍得滚蛋？再说进公司之前难道不知道有这个传统？知道有这个传统怎么还赖着不走？。狼文化懂吗？企业要的是效益效率执行力而不是毫无卵用的仁慈。哎，跟你们这些搬砖的底层人士扯那么多也不会懂，浪费口水 没有人性的公司， 那你就错了，既然他会把员工当狗一样。那这种老板在那些权贵面前也会像狗一样听话（毕竟这些权贵能左右他们的利益和面子，包括这些老板对员工的方式满足心理需求也是人家给的。） 你能吃下去屎再来说吧 挣钱太难了，你不当狗爬就会生存不下去了，你想不生存也不当狗，那好吧，你下岗下一秒就会有无数个人竞争当狗。 相比起“俯卧撑”、“喊口号”、“互扇耳光”等等五花八门的“激励措施”，爬行过马路只是这些管理套路的一种。这样的激励方式想有多少就会有多少，方式五花八门。本来嘛，既然没有底线自然也就没有上限。值得注意的是，类似这样被腆着脸归类为“企业文化”的病态甚至有变态管理模式，我们在国企、民企或私企都能见到，一些管理者对这种别出心裁的管理行为津津乐道，而且总有这么一群员工有怨无悔地顺从于这样一种无底线、无尊严的管理手段，实属可怜、可悲。可笑！ 这种病态，我甚至看到了都会笑 人可以不要面子，但不能没有尊严，如果连自己尊严都不去维护，活着或许真的没多大意思， 狼性文化？只有一种公司会采纳，那就是传销。他不是心灵鸡汤看多了，而是崇拜强权，崇拜金钱，根本没有规则可言。 哎呀，我原以为你能发出什么高论来，想不到还是这么本末倒置没有逻辑的言论，我来给你打打脸让你记住。效益良好的企业离不开高效率的团队，高效率的团队必定是需要有强大的执行力和紧迫感，那些工作没绩效的团队注定是一盘散沙毫无战斗力，做好了要奖励做差了要处罚这是最基本的要素。一个团队必定有一个团队做事的风格和传统，既然加入这个团队必定非常清楚这个传统，没完成任务你愿赌服输去爬路也无可厚非吧？华为、阿里、国美、海尔、京东、格力这些著名企业可全部把狼文化贯彻每一个员工的骨子里，再回过头来给你讲讲你逻辑上的错误，没有好团队就没有好效益，没有好效益就根本不存在尊重员工关爱员工激发员工这一说，你敢说有狼文化的企业里除了这么被惩罚爬地之外就没有什么可取之处？恰恰相反，这些企业对员工的关爱比同行都好。<br>呵呵，先打这么多吧，希望你脸没肿 资本家每个毛孔里都是肮脏的鲜血。 喷公司垃圾的喷子们住口吧，愿意受屈辱就说明这公司有值得让人留恋的地方，给你2千一月谁愿意爬，给你2万一月我相信大多数人都愿意爬，给你20万一月估计连屎都吃了。不服来辩 真实情况?[晕][晕][晕][晕] 我会很小心的. 商人是逐利的，人是私心的，天经地义，是人性，哪里肮脏了？难道所有的企业都关门吗？商人不是太多，而是太少了。商人越多，需要越多的员工，民众的就业机会才更多，才有选择权，才能不去这种没有尊严的公司。在商人可以堂堂正正挣钱的资笨蛇会，绝不会有这种事，因为发质公平，会被罚破产。反而是在彰显萎广针的郭家，任敏当家做主的地方，任敏反而会爬着过马路。 人家请狗的你又去应聘，应怪谁？ 可怜的娃，对现代社会是一无所知。钱既不可耻也不高尚，何况我讲的是钱么？因为资本逐利，商品才流通，你拥有各种物质、产品的成本才是最低的。因为逐利，才会开各种公司，员工才会就业，公司越多，员工日子就越好过，因为有选择。我再次把这规律跟你讲一遍，你这智商听不明白？有这种体罚和侮辱的公司存在，不过是说明我们的教育、社回、体质出了问题。多念书，你才会明白问题出在哪儿，可怜虫。 商人是逐利的，人是私心的，天经地义，是人性，哪里肮脏了？难道所有的企业都关门吗？商人不是太多，而是太少了。商人越多，需要越多的员工，民众的就业机会才更多，才有选择权，才能不去这种没有尊严的公司。在商人可以堂堂正正挣钱的资笨蛇会，绝不会有这种事，因为发质公平，会被罚破产。越是强调站起来的郭嘉，任敏反而会爬着过马路。 这种过分了 员工因未完成公司任务被罚当街下跪爬行过马路<br><br>色会煮义真美好，做人犹如做条狗，做个和尚都比你强。 你就是个SB我给你100万一个月你每天过来把公司所有人的屎都舔干净，少一个罚你再把隔壁的也舔干净，你干不干，一看你就是个没有人格尊严的贱种。 你是疯狗啊出来咬人你个傻逼去你麻痹 果断辞职 如果是你，你也得爬呗。 一直没想通，得发多少钱工资？才能让人挑战底线？ 这个傻逼公司应该曝光追究法律责任，明显侵犯人权，是大罪！这些员工更傻逼，有辱自身人格尊严的行为居然也会做，简直把自己当猪狗对待！ 一楼我这么跟你说吧，这个公司挣不到什么钱，挣到的也是不长久的快钱。因为企业文化决定了公司的发展，这个公司不会有发展的。而且我敢肯定这个公司应该是类似于卖保健品的骗子公司。 哈哈，你所说的这些企业，有一个强势的领导人，推崇的是竞争意识，可不是什么狼文化，他们也没有一个标榜自己是狼文化，也没有一个让员工去爬着过马路的。放眼世界，凡是利润高、竞争力强的大企业，都是让员工发自内心认同企业文化的，因为企业自身也尊重个人的尊严和人格，一个有才华的人绝对不会丧失尊严屈辱的待在单位里。一个企业是需要一个理念一致、团结努力的团队，这是靠相同的假肢观来取得的，而不是靠啥侮辱来取得的。连这种都逻辑不清、本末倒置的话语都讲出来，可见你是啥货色。再讲一个最简单的事实，如果爬过马路侮辱人格是所谓的狼文化，非常有效，为什么这种公司不能做大？为什么世界五百强没有一家企业是这种文化的？ 领导：我们这是丰富业余文化生活，搞的趣味活动，宗旨是发展体育运动，增强职工身体素质！ 有些公司老板明显就是用这种模式羞辱跟享受，我就不明白了，都没点自尊心了？ 利用抨击个人尊严的方式来达到管理目的的地方：监狱和国内。！利用抨击个人尊严的方式来达到管理目的的地方：监狱和国内。 可怜之人必有可恨之处，可这不是你们践踏他人尊严的理由，玩火者死于火！ 你真拿得出100万再说吧 我也是醉了，怎么不把员工人当人看，侮辱人格的公司这些人还要待在这里干什么，与其如此乞食苟活难道就不能换个主子吗？ 搞笑，不是给你20万天天吃屎，而是给你一个公平竞争的环境，别人都跟你一样努力，你却没完成任务才受辱。 垃圾公司，在这个公司上班的人都是没尊严的人，活该被人格侮辱 当初棒子体罚中国员工时，我们群情激奋，同样是资本家歧视员工，我们却甘意大庭广众之下丧失人格，做牛做马任人羞辱，这不是垃圾价值观又是什么？ 所以5楼的这种都不成立，这种公司的待遇是很低的。 在这种公司，能拿2万、20万，证明员工有这个能力。去了其他公司，这么多工资也不是问题，何必在这受侮辱。 一楼说的对，现在的大多数人，在屈辱加利益面前，的确是这个德行。 公平公正的约定，没完成任务可以选择滚蛋或者爬路，谁都没权利强留下一个要辞职的员工，别说劳动法了，谁都管不着。之所以没滚蛋，那就说明公司有他不舍得离开的理由 给你二十万，你吃一桶吃。通常这种公司就是给的钱又少又抠。但因为那些基本是刚毕业的人，所以基本没什么好选择。 可怜，可悲，可笑，可叹 当劳动法是玩的啊 是狗文化吧。你看有钱的不把员工当人看，然后员工为了生存和金钱暂时屈服忍耐。事情发展是这样的这些能屈服和忍的人爬上去后。然后把下面的也不当人看（当然在这里会有分支，形成同情线和心理扭曲两种，同情的人是自己这样过来的由事情产生道德上的同情。 商人是逐利的，人是私心的，天经地义，是人性，哪里肮脏了？难道所有的企业都关门吗？商人不是太多，而是太少了。商人越多，需要越多的员工，民众的就业机会才更多，才有选择权，才能不去这种没有尊严的公司。在商人可以堂堂正正挣钱的资笨蛇会，绝不会有这种事，因为发质公平，会被罚破产。 楼上，你不需要理这个人。一看他就是心灵鸡汤，励志书籍看多了的人。而且看的出他刚毕业甚至都没毕业。没有真正的接触过这个社会，你理他，他就越来劲。 洗脑，象安利等传销公司一样，拼命的打压别人的弱点，稍微做出点成绩来的，就出来炫耀、分享所谓的成功经验。 炒作吧 开车要礼让行人，那碰到它们，我们到底应不应该礼让？ 傻逼，天天黑这个黑那个，不是狗是什么？ 这种垃圾公司也值得为他卖命？ 利用抨击个人尊严的方式来达到管理目的的地方：监狱和国内。 这不是工人，这应该叫做奴隶；这样的病态心理为扭曲人性的工厂倒闭吧！ 你脑子里除了钱什么也没有了吗？真是个可怜虫 有些人就靠着这份工作或者呢，辞职可能还不上贷款，可能老婆孩子没钱吃饭，家里可能有生病的老人，都有可能，工作不是说换就换，甚至可以说有些工作想换工作是很难的，所以，人有些时候需要委曲求全，因为你已经不是为一个人而活着。[可怜]不过这公司真是操蛋公司。 他们得了一种病，离开公司我怎么活的不治之症 为了钱，一点尊严都不要了。你是不是缺心眼啊。 没有人不想要尊严。狗吃屎有尊严吗？没有！但不吃它饿。在国人的基本社会保障都不健全、还在为生存挣扎的的情况下谈尊严，不现实。如果有公平公正的社会环境，真正努力的人会有回报，没人愿意在这样的垃圾公司上班。问题是，国内的各行各业都这样扭曲无人性。根源在企业吗？还真不是，我们的整个社会大环境出问题了，土壤坏了，种出来的不可能有好果实。 我也是醉了，怎么不把员工人当人看，侮辱人格的公司这些人还要待在这里干什么，与其如此乞食苟活难道就不能换个主子吗？ 狼文化华为中兴都是这个逼样 难怪现在个别公司业务员死皮赖脸的在推销自己的东西，就是因为这样的垃圾公司领导和没有尊严底线的员工的结合才造就出了这些为了钱可以无尊严无底线的做法，完不成任务可以处罚但是侮辱人格那就不是处罚了，而是公司就没把你当人看，对于这样的公司你要是还去留恋只能证明你自己就是井底之蛙没有勇闯的精神一辈子只能做狗。 太过分了！ 就你那想法你还活干嘛，一点骨气都没有。你是人，不是狗，知道吗？非得在那一棵上吊死。死心眼子 没有人性的公司， 没骨气！去哪也饿不死！非要在这么？ 去上班还是当🐶？ 那还请4楼告诉大家，为什么有那么多的骗子小偷和碰瓷？至少我小时候做了错事，比如摘了邻居家的果子之类的，屁股上免不了挨几下，然后被提溜着去赔礼道歉，小朋友之间打个架也不会不问缘由的兴师动众的去要赔偿。现在呢犯错了不舍得打，更不教育，反而是千方百计的挑别人的毛病，恨不得鸡蛋里都能挑出骨头来。 人可以不要面子，但不能没有尊严，如果连自己尊严都不去维护，活着或许真的没多大意思， 万恶的旧社会就是这么对待老百姓的 知道有这样规定的公司，立马辞职不干了。完不成业绩可以扣绩效奖什么的。但这种污辱人格的事竟然都照做？ 喷公司垃圾的喷子们住口吧，愿意受屈辱就说明这公司有值得让人留恋的地方，给你2千一月谁愿意爬，给你2万一月我相信大多数人都愿意爬，给你20万一月估计连屎都吃了。不服来辩 垃圾公司和没自尊的员工。 你说反了，恰恰是资本家太少了，让员工没有选择的余地，国企太多了，垄断行业太多，权钱交易太多，导致创业不易，自然民众就业的机会就少。如果资本家多，就需要更多的员工，员工就有选择，老板就要开更高的工资。再说了，这种侮辱人格的单位，如果是锅外，早被罚破产了，正是因为法治不畅，惩处甚微，才有这种现象出现。资本家都是逐利的，就像人是私心的，这是天性也是人性，也没有什么可耻的，保障每个人合法的赚钱公平竞争才是最重要的。五十年代七十年代消灭资本家都富裕了吗？ 根据劳动法和劳动合同法，此行为属于侮辱体罚劳动者，可由公安治安执法，处警告，罚款，情节严重者可拘留，直至追究刑事责任 是人，你就站起来！ 对于这样践踏尊严的公司,老那只想说,以后最好全招女员工…… 呵<br>呵<br>！<br>儿子告老子！<br>一点胜算没有！ 狼文化华为中兴都是这个逼样 你可以在钱和尊严之间选择尊严，多的是选择钱的人，又想要钱又想要尊严的，请照照镜子看看自己算老几。 公司有问题，员工也病的不轻 传销集团恩施分公司~~~~~~~~ 工会你在哪儿？ 站着不走爬着走、爬起来吧,给你自由 这种老板还不违法？ 更像一个公益活动 他们不是人，为了钱，当狗都行。 扯你妈，华为是狼文化，这是狗文化，不沾边。 用人的地方有的是，非得在它那干吗？等它公司没人给它干，它就老实了。 我就想问问你，你还是个人吗？狗吃屎他叫狗。你叫人，人，知道吗？一点骨气都没有，完蛋玩意。 生活不易，委曲求全实在没办法 这样的公司，就是传销吧 这些员工我怀疑是不是脑残，让你爬你就爬，不给这家公司干，你还活不了了。 传销精神 妈<br>妈<br>的<br>！<br>在这社会不卖命吃个屁！<br>三座大三回来了没办法！<br>大家都懂！ 每个人心里都有杆秤，当你的付出和能力明显<br>＞你的收入时老板都得拍你马屁，当你的收入明显＞你的能力和付出时，你就要有点自知之明了，老板一句爱干干不干滚，你敢顶句嘴我就服你。 离开了就能饿死吗？ 中国人民站起来了！。 看看 这员工在二战年代也是汗奸。 你也不是个爷们，长了个爷们身。真给老爷们丢脸。 彰显中国特色 钱这个东西谁都喜欢，看是怎么挣的。要你那想法，为了钱，什么都可以不要吗： 你辩你麻痹的，智障低能儿。洗发婚纱销售这种行业多的去了，没有完成目标就是这样惩罚，一个月工资不过两千。如果你有两万一个月，你早就不干了 让你跪你就跪，让你死你还死啊。傻逼，大不了老子不侍候你了。 资本家每个毛孔里都是肮脏的鲜血。 这种垃圾公司也值得为他卖命？ 西方的资本家没这么缺德。 为了人上人真够拼的 为了钱，一点尊严都不要了。你是不是缺心眼啊。 没有人不想要尊严。狗吃屎有尊严吗？没有！但不吃它饿。在国人的基本社会保障都不健全、还在为生存挣扎的的情况下谈尊严，不现实。如果有公平公正的社会环境，真正努力的人会有回报，没人愿意在这样的垃圾公司上班。问题是，国内的各行各业都这样扭曲无人性。根源在企业吗？还真不是，我们的整个社会大环境出问题了，土壤坏了，种出来的不可能有好果实。 侵犯人权，去劳动局告他，不管就连劳动局一块告。 他就是为了钱，天天吃屎都乐意。日本名叫“缺心眼子“ 尊严不是别人给的。比如说斑马线礼让行人是机动车要做的，但是并不表示行人可以闯红灯，玩手机，嬉戏打闹。事实上是坑爹的法和毫无自律意识早就了这种矛盾局面。事实上，双方都遵守规则，对谁都是好处。就好比你年轻的时候让座，等你年老了就变成让座的对象，如果年轻的时候大家都不让座，等你年老了却要求别人让座，这不是双标是什么？ 钱这个东西谁都喜欢，看是怎么挣的。要你那想法，为了钱，什么都可以不要吗： 真的像狗一样的人生。去把这个所谓的公司老板剁了吧 估计就是摆拍吧这种事出了你还能在那上班也是厉害了 生活不容易啊，谁不想风风光光的活着！ 没人逼他爬吧，就是不爬能咋滴[狗] 丢饭碗，搞不好都欠了一屁股房贷的不敢有骨气啊😱 凭啥惩罚打工的呢你老板的产品不好卖是老板的问题这样公司马上拜拜 年薪没有一百万，这样的公司你还去上班?傻了吧 自己犯的错自己承受呗！打倒美的极其走狗！田园犬们高兴不 把公司名字暴出来，我们会记住它的 给你点赞 沒有人性的老板。 民主，法制，公平，公正，和谐，稳定，幸福，安康 自己愿意当狗，怪不得别人。 这公司不会受处罚吗？如果是学生没完成作业，采用这种办法那还了得！ ",
        "Total": 1228
    },
    "Article": "（原标题：员工未完成任务被罚当街下跪爬行过马路）#endText.video-infoa{text-decoration:none;color:#000;}#endText.video-infoa:hover{color:#d34747;}#endText.video-listli{overflow:hidden;float:left;list-style:none;width:132px;height:118px;position:relative;margin:8px3px0px0px;}#entText.video-lista,#endText.video-lista:visited{text-decoration:none;color:#fff;}#endText.video-list.overlay{text-align:left;padding:0px6px;background-color:#313131;font-size:12px;width:120px;position:absolute;bottom:0px;left:0px;height:26px;line-height:26px;overflow:hidden;color:#fff;}#endText.video-list.on{border-bottom:8pxsolid#c4282b;}#endText.video-list.play{width:20px;height:20px;background:url(http://img1.cache.netease.com/video/img14/zhuzhan/play.png);position:absolute;right:12px;top:62px;opacity:0.7;color:#fff;filter:alpha(opacity=70);_background:none;_filter:progid:DXImageTransform.Microsoft.AlphaImageLoader(src=\"http://img1.cache.netease.com/video/img14/zhuzhan/play.png\");}#endText.video-lista:hover.play{opacity:1;filter:alpha(opacity=100);_filter:progid:DXImageTransform.Microsoft.AlphaImageLoader(src=\"http://img1.cache.netease.com/video/img14/zhuzhan/play.png\");}if(/(iPhone|iPad|iPod|Android|NETEASEBOBO|blackberry|bbd+)/ig.test(navigator.userAgent)||/safari|chrome|firefox/i.test(navigator.userAgent)&&navigator.plugins&&!navigator.plugins[\"ShockwaveFlash\"]){varstr1='<videocontrols=\"controls\"preload=\"auto\"width=\"100%\"poster=\"http://vimg3.ws.126.net/image/snapshot/2017/12/P/D/VD5N81QPD.jpg\"style=\"max-height:100%\">';varstr2='<sourcetype=\"video/mp4\"src=\"http://flv.bn.netease.com/videolib3/1712/27/FhUYK5499/SD/FhUYK5499-mobile.mp4\">您的浏览器暂时无法播放此视频.</video>';document.getElementById(\"FPlayer1404863609673\").parentNode.innerHTML=str1+str2;}员工未完成任务被罚当街下跪爬行过马路（来源：网友）window.NTES&&function(d){varf=function(c){varb=c.getAttribute(\"flashvars\"),a=c.getAttribute(\"repovideourl\").replace(\".flv\",\"-mobile.mp4\");h=d(c.parentNode.parentNode.parentNode),g='<embedsrc=\"http://v.163.com/swf/video/NetEaseFlvPlayerV3.swf\"flashvars=\"'+b+'\"allowfullscreen=\"true\"allowscriptaccess=\"always\"quality=\"high\"wmode=\"opaque\"width=\"100%\"height=\"100%\"type=\"application/x-shockwave-flash\"/>';if(/(iPhone|iPad|iPod|Android|NETEASEBOBO|blackberry|bbd+)/ig.test(navigator.userAgent)){g='<videocontrols=\"controls\"preload=\"auto\"width=\"100%\"height=\"100%\"><sourcetype=\"video/mp4\"src=\"'+a+'\">您的浏览器暂时无法播放此视频.</video>';}h.$(\".video\")[0].innerHTML=g;},e=function(b){vara=d(b.parentNode.parentNode.parentNode);a.$(\"li\").removeCss(\"on\"),b.addCss(\"on\"),a.$(\".video-title\")[0].innerHTML=\"string\"==typeofb.textContent?b.textContent:b.innerText,a.$(\".video-title\")[0].setAttribute(\"href\",b.getAttribute(\"url\")),a.$(\".video-from\")[0].innerHTML=\"（来源：\"+b.getAttribute(\"source\")+\"）\",f(b);};window.continuePlay=function(){vara,b=d(d(\".video-list.on\")[0].nextSibling);3==b.nodeType&&(b=d(b.nextSibling));if(b&&d(\".video-innerinput\")[0].checked){e(b);}},function(){vara={init:function(){if(d(\".video-listli\")[0]){d(d(\".video-listli\")[0]).addCss(\"on\"),this.eventBind();}},eventBind:function(){d(\".video-listli\").addEvent(\"click\",function(b){e(d(this)),b.preventDefault();});}};a.init();}();}(NTES);我在现场客户端消息，12月25日晚，湖北恩施，几名员工由于未完成公司任务，被罚在斑马线上下跪，爬行过马路。视频可见被罚员工中还有多名女性，边上许多车辆被迫停车等待。本文来源：我在现场责任编辑：乔敬_NN6607",
    "PublishTime": "12/27/201706:01:58",
    "URL": "http://news.163.com/17/1227/06/D6L1TQLH0001875P.html",
    "Title": "员工因未完成公司任务 被罚当街下跪爬行过马路_网易新闻",
    "KeyWords": "斑马线,惩罚,员工",
    "Source": "Netease"
}