{
    "PublishTime": "01/01/201807:11:54",
    "Comment": {
        "Total": 18,
        "Link": "http://comment.news.163.com/news_guonei8_bbs/D721TEFG0001875N.html",
        "Reply": 5,
        "Content": "湾湾仔骗钱，民进党骗权 民进党作恶太多。 湾湾仔骗钱，民进党骗权 下三滥招数！ 金钢经是佛教中一部非常重要的经所以我们大家都要好妇学习实践南无阿弥陀佛这样就会功德无量 把条子贴蔡逼逼上！ "
    },
    "Article": "（原标题：民进党多处党部被“贴符”：莫作赖缺德要做真功德）民进党多处党部被“贴符”：莫作赖缺德，要做真功德。（图片来源：台湾《联合报》）中国台湾网12月31日讯据台湾《联合报》报道，民进党主导修改“劳基法”，引发基层不满，各地党部31日被贴满黄色符令。由于符上有“过劳人民在此百无禁忌”等字样，党部研判与“劳基法”修正案有关。民进党台南市党部今日上午发现，市党部门口以及骑楼被贴满黄色符令，已第一时间报警处理，调阅周边监视器，现场搜证，依法侦办中。民进党台南市党部表示，符令上有“过劳人民在此百无禁忌”等字样；而且同时间，民进党台中党部、屏东党部、南投党部等，也被发现门口被贴满符令，研判应是昨日“立法院”处理相关政策，包含“一例一休”，引发不满，而产生的抗议行为。本文来源：中国台湾网责任编辑：张宪超_NN9310",
    "Source": "Netease",
    "Title": "台民进党多处党部被\"贴符\" 或与劳基法修正案有关_网易新闻",
    "KeyWords": "民进党,党部,台湾,赖清德,蔡英文",
    "URL": "http://news.163.com/18/0101/07/D721TEFG0001875N.html"
}