{
    "Title": "云南高中生因打篮球斗殴致2死7伤 涉案人已被刑拘_网易新闻",
    "PublishTime": "01/01/201811:03:12",
    "URL": "http://news.163.com/18/0101/11/D72F4VVL0001875P.html",
    "Source": "Netease",
    "KeyWords": "打篮球,斗殴,涉案人,高中生",
    "Comment": {
        "Reply": 849,
        "Content": "姐只扶墙[窃笑] 这也不能这么说，主要是民风彪悍，以打架好勇斗狠为荣 我为自己代言———会泽 自己算半个云南人，说实话云南人简单淳朴，但是确实有点不讲理一根筋，而且有点排外，上进心差一些。 云贵川本是一家人你何必乱喷 还有湘西 一群小逼崽子做点事太冲动，主要还是家庭教育缺失！当年我们高中约架全是赤手空拳的干，点到为止，双方打得服服气气！ 云贵川在昭通人面前都是垃圾 你们把广西人民至于何地？ 跟贴被火星网友带走啦~ 打架都打出优越感来了，说句不好听的，你们打死的越多，这世道越太平 跟贴被火星网友带走啦~ 我在昆明时听出租车司机说昭通怎么怎么的。 十几二十岁以打架好勇斗狠为荣，到了三十后觉得这想法很脑残，以出人头地高人一筹为目标，但到了现在觉得这种想法一样没必要，人没必要处处和别人争，没必要活在别人的眼里，活好自己，让自己开心最重要，内心快乐，锦衣夜行又何妨？ 你以为陀螺这个名字是白叫的吗？可以钻地的。 每一个县只办一所高中就够了，其余就办高职。一个县一年最多考二百名本科，现今不是211毕业的，都是干蓝领的工作，学一门技术靠手艺吃饭。 最近看了司马懿电视剧又看了一遍三国深有感触做人要善败打架斗狠太弱智要活的比他有钱有势力这才是王道有了钱和一定的关系之后就可以不动声色的假借他人之手煽动跟他有仇的人搞死他 井底之蛙！1楼3楼就两喷子！理他们干毛！ 越穷的地方戾气越重。。。[窃笑] 我不是针对谁，我是说在座的各位都是垃圾！——镇雄人 你们说的地方都是哪里啊现在是省内互杠的节奏么 莽汉，贫穷，落后，不以为耻反为荣，想想你们父母白养你们几十年，悲哀 云南贵州的人一股匪气 你TM就是一傻逼！迟早吸雾霾吸死你！你个SB 通海县真的不穷，农民种菜一年都可以挣十几万，不夸张！ 没见过世面的山民还云贵川来泸州可以把你办成失踪人员多出山见见世面r龙包 无忧还敢去云南摇头晃脑，笑尿了 这事街球老王八吴悠来不就摆平了。跪下挨个喊爹，一场纠纷也就不了了之了。 博白，雷州，陆丰，海丰 这样的人容易让人当枪使……！ 你来我们云南，就知道了，昭通人租房子都不好租， 哎，镇雄是真乱，而且穷 快过年了，大家都消消火！有什么时候喝了酒再拼！ 强硬，球场上说话，这事打架动刀子的，脑子绝对不好 这些人渣死了就死了 领导死了，也没事。 我在这起个哄会不会被骂，东北人在昭通人面前什么水平 数巧家最牛逼 跟贴被火星网友带走啦~ 打个篮球至于吗？ 领导高度重视 以好勇斗狠为荣就是愚昧的文化 这个年纪的混混最可怕，下手不知轻重，容易出事 他们还只是孩子，不应该给他们一次机会，应该从重从严判处！ [微笑]有种放学别走！ 全人类在昭通人面前都是垃圾 都上了地狱狗的当了！ 韶山人不服 总被那么一小撮人带坏了一个地区的名声 说的地名一个个都没听过，要飞天不成？ 这地方人未开化，好勇斗狠 少年强则国强，不错不错 祝各位英雄好汉新年快乐，晚辈在此提前给他家烧纸了。 有的离婚争财产钱财也是这种结局还少吗 22楼，朋友来了有好酒，豺狼来了有猎枪 我想知道这群煞笔说的什么！ 云南是山区，球场少，不然也不会抢球场了 无忧命大！只能说 打架只服毛子，双方不许带器械，穿队服，人数要相等，喊着口号列方阵冲，倒地了就不许再打 贾乃亮老婆李小璐与PGone偷情啪啪完整版不需要费用看：（三65aj点cn）把三和点改成3. 打篮球的都没好东西，整天有打篮球的打架，就是一帮无赖流氓 跟贴被火星网友带走啦~ 蛮子，未开化 你以为陀螺这个名字是白叫的吗？可以钻地的。 以好勇斗狠为荣就是愚昧的文化 纯傻逼 有的离婚争财产钱财也是这种结局还少吗 跟贴被火星网友带走啦~ 东北人？在云南贩毒，最厉害的在泸西点了几包炸药，也没把老板弄死，你可以再来试试 贾乃亮老婆李小璐与PGone偷情啪啪完整版不需要费用看：（三65aj点cn）把三和点改成3. 马特看第一、二条评论，一头雾水，原来又被抽楼 贾乃亮老婆李小璐与PGone偷情啪啪完整版不需要费用看：（三65aj点cn）把三和点改成3. 他们还只是孩子，把恶魔扼杀在摇篮里还来得及，枪毙枪毙 中间那段九股文看得真他玛的恶心要吐！ 你怎么不来云南矿山试试？ 跟贴被火星网友带走啦~ 假东莞仔 这事街球老王八吴悠来不就摆平了。跪下挨个喊爹，一场纠纷也就不了了之了。 教育的失败。正能量太少了。 这种垃圾应该枪毙，留着也是祸害！没有必要心慈手软！ 还从来没见过报导恶性事件发生后相关部门相关领导不高度重视的，V5有希望！ 趁他们还是未成年人渣，赶紧毙了不要危害社会 青春期的小孩儿，心里住着扛把子梦 有的离婚争财产钱财也是这种结局还少吗 未成年人保护法就是保护罪犯！ 好好好，死的好 学生都知道未成年人杀人犯法不用坐牢更加不用赔命 呵呵呵 打个篮球至于吗？ 任何抛开道德与良知的好勇斗狠都是文明的缺失. 无忧还敢去云南摇头晃脑，笑尿了 你一个北京霸占了那么多资源，公平吗？ 通海回族蒙古族多，莫非？ 某地汉奸很多 老哥别闹，还是有点怕的，毕竟上来就报地址的嘴炮攻击还是有点怕的(滑稽) 有杀人的胆量。没有打入世界杯的志气。这就是民族气节的失败 他们还只是孩子，不应该给他们一次机会，应该从重从严判处！ 海南人不该死？ 贾乃亮老婆李小璐与PGone偷情啪啪完整版不需要费用看：（三65aj点cn）把三和点改成3. 孩子们还小，让他们重新投胎吧。 上海的黑帮解散了没？ 键盘侠们快快操起你们的键盘云起艺云造返去 现在都是火气大阿。忍，是离我们渐远了吗？ 打篮球打的过劲了，直接往死里打！ 少一个社会很和平 好勇斗狠没问题啊，主要是你好勇斗狠用错了地方。和你打球的人咋说都是一起玩的，抄起刀子对一起玩的人搞这些就不对了。 比野猪皮好 云南有蒙古族的人？ 因喜欢钱，挣名誉 奴才 这些年轻人真跳 你也可以来四川的矿山试试 砍个野猪皮我挺你，怕他个球！ 你在东北人面前就是小朋友 我只知道江浙沪一代工厂都是云南人，穷，出来见世面 时风日下，人心向恶。快洗牌吧 这些人渣，死不足惜，跟篮球啥关系！ 云南真给南方丢脸。 一点破事就斗狠，能好好挣钱不？ 好了，儿子白养。 戾气太重，暴力横行。 [喷水]换个地方受教育深了甚嚒事都木有了[狗][狗] 听我云南的同学说，那边民风彪悍，人特别野 那边彝族比较多。 跟贴被火星网友带走啦~ 如果判死刑，那事件会减少很多 能不能不要再“高度重视” 打架千万别动武器，坏了规矩不说，那是条不归路！ 那你们该喷不重视了 高三满18了！ 跟贴被火星网友带走啦~ 够枪毙的年纪了 现在的年轻人太冲动了想当年没有什么事是一盘象棋解决不了的手动滑稽 这个时代少年强则少女扶墙少女强则少男平躺 汉奸不丢脸 丢脸 传统的同学情谊正在消失，一点小事儿就玩命，这个校园怎么了？ 不为篮球打架也会因别的事起冲突，脾气就放在那了！ 这样狠那样狠的，算个jb？惹了大祸还不是爹妈老婆孩子给你擦屁股。 他们还只是孩子，不应该给他们一次机会，应该从重从严判处！ 马后炮，校霸横行 一个只崇尚暴力的“战斗民族”是没有希望的 要是踢足球能这样，中国足球就有救了 家庭教育是文明进化的主体。 垃圾净化也是好事别说我冷漠，这种的我绝不同情 以前我们打球也会扯皮打架，但是怎么也不会动刀子，大多是教室凳子的木撑子，现在的小孩没轻重，都是往死里弄 狠狠的惩罚，小小年纪都这么没人性，一定要重判。不学好，将来危害社会 法律会给他们机会在出来害人的 政治话语不说不行 坐等死刑 妈蛋，现在学生都这么猛了 还从来没见过报导相关部门相关领导事后不高度重视的，有希望，V5！ 现代文明进步，体育竞技代表了争斗！说明还没进化过来！ 南京大屠杀有希望 云南怎么了！ 通海回族蒙古族多，莫非？ 少年人最易冲动 人狠话不多，上来就是干 戾气太重。思维状态太有个性。 一群小逼崽子做点事太冲动，主要还是家庭教育缺失！当年我们高中约架全是赤手空拳的干，点到为止，双方打得服服气气！ 一个只崇尚暴力的“战斗民族”是没有希望的 南方人真牲性。 认了洋祖的马猎子孙做主持 赴约打架的那人想都没想到，对方竟然带着杀人动机 很强势 少年强则国强，不错不错 阿弥陀佛 这样的高中生教育失败，无脑。 所以说球场没有靓坤还是不可以的浩南和乌鸦打球发生矛盾怎么办 还有湘西 8个打一个，就要动刀 出事不报警！总是大事化小小事化了，可是结果是小事不小，出人命了！ 就该这样有血性，现在中国人被统治的太软弱了。 滇军不是盖的 估计是少数民族，你们说呢 跟贴被火星网友带走啦~ 你以为陀螺这个名字是白叫的吗？可以钻地的。 东北人全宇宙第一 以前我是贫下中农——到弱势群体——进城农民工——底端人口！这就是我的祖国！ 跟贴被火星网友带走啦~ 你被标记了 😄😄 冲动 大团体小民族大家庭小国家这是千年来的民族性说不上好坏但是没背景就很惨. 云南人打架都是不要命的那种。。东北人嘛。。。嘻嘻嘻 带节奏的来了 你被标记了 硬气个P啊，一点智商都没有。这种情况一般都是来场5分钟对抗赛，谁输了谁滚蛋。 废柴太多 冲动是魔鬼 无忧还敢去云南摇头晃脑，笑尿了 云南东北一起干广东比较好. 这事街球老王八吴悠来不就摆平了。跪下挨个喊爹，一场纠纷也就不了了之了。 最讨厌打球中抖狠打架的，打球不是打人。 遇到事千万不要冲动，冲动是魔鬼。今天这位高中生就是最好的教训。 吴悠，外号圈跪 呵呵呵 年轻不知轻重！ 少数民族比点头哈腰的多数民族强多了！ 蛮夷之地死就死了呗<br>该 死的好多死几个 东北vs云南，谁赢？ 泰山崩于前，而喂海鸥？ 直接近期！ 好像云南这样的事很多? 他们还只是孩子，不应该给他们一次机会，应该从重从严判处！ 云南人热情好客待人友善 硬气，比东北嘴炮强，去年夏天有个东北的让我等着，眼瞅着都18年了，我等的花儿都谢了，呵呵 他们还只是个孩子啊！！请千万不要轻判他们！！ 打个篮球真不至于啊 文革遗风，不错啊！ 记得以前打球不故意碰了一下，就打 对抗个鸡毛，打不完一局就去大厕所对抗了。中学6年，学校打架死了8个人。真人真事！又一次5个班在男生宿舍大院打架，保安进去控制局面，6个保安，2个住院，记得那时候有矛盾的时候上学裤兜里都随身带跳刀。现在治安好了，很少有人打架了。 西南集团军战力代表！ 打嘴仗东北赢 浪费父母的钱，不好好学习还打死人。 好几年没出过这么血性的事件了，想想当年，也是一搞就是几十个人打架，不过都是用的瓦刀一类的钝器，那个人头上都有几个口子，后来流行军刺没多久就严打了，要不真不敢想象怎么活到现在的 去找滇军，回来，不照样坐牢了！ 该！！！ 遇到东北人你们都怂了 博白，雷州，陆丰，海丰 戾气太重，暴力横行，我们真正进入了丛林社会，而不是人类社会.. 瞧这本事 云南已经赢了 哈<br>哈<br>！<br>估计又是大妈挑拨干的！<br>想占球场了！ 灭菌 打球嘛！有点动作很正常！ 就得这么弄，天下大乱，然后才能有解决办法。 不是场地多少的问题，这是个面子问题。 泸州人好客，自制老窖侍候。 少年强则少女扶墙 打球有点小动作很正常😊 滇军不是盖的 杀人的解某还是个孩子，应该无罪释放，让他跟主审法官生活在一起 高三不是未成年人了 重判，杀人偿命 你要这么说就真是无知了，拒绝脑残，脑残我会骂的，希望你不是 跟贴被火星网友带走啦~ 争强好斗有血性是好事，但要用对地方！ 他还只是个孩子，希望能从轻处罚，直接毙了就可以了。 如果这事发生在东北肯定会有人说:我们东北人要么不犯事，犯了那叫新闻 打架原始人都会。白进化了几十万年了吗？ 跟贴被火星网友带走啦~ 哪天刀子扎你身上，你就觉得不是闲事了！ 野蛮生长的地方 场地太少！ 送他们见上帝吧 就你毛病多，南方人阴阳怪气的多，说话做事跟个娘们一样 不用器械怎么办？<br>先天条件不足，对方高大强壮，明显秒杀你，没有器械别人跟你来横的，你如何应对 扎你身上，关我屁事！ 凡是打架动用器械的一定要重判！ 上海？南京？还是重庆？你们南方人遇到关东军了吗？遇到731了吗？ 无忧还敢去云南摇头晃脑，笑尿了 至于吗 没见过世面的山民还云贵川来泸州可以把你办成失踪人员多出山见见世面r龙包 高中的时候踢足球，球场上打架很正常，打就打了，过了就算，从来不会动刀子 对付你这种管闲事的人，有没有办法？ 至于吗 真是癫 不是我说，我在国外，这边很多初中没毕业就出来的农村孩子，素质确实一般，出口就骂脏话，跟这里的留学生形成巨大反差 南方人我对上海人印象不好。 中学打架很正常 ！！！ 看到高度重视，往后看不下去了 他们还只是孩子，不应该给他们一次机会，应该从重从严判处！ 打个篮球至于吗？ 娘们不娘们，不是嘴上说的，要看行动，看看抗战，都是南方人打的，这才叫血性！这才叫脊梁！ 嗯，真不是盖的，对自己人下手够狠 弯有点急差点掉坑里 这就是你们不放一枪一弹，欢迎太君进城的借口？ 没事的！他们都有一个爹！—李刚 杀人的解某还是个孩子，应该无罪释放，让他跟主审法官生活在一起 作为南方人，我能说一部分北方人素质差南方人点儿吗？比如说礼貌问题就是个典型。南方人很有礼貌，北方人太随意。。。云南人也接触过一些，感觉大多属于憨厚老实那种，你不让他做的，看的，触碰的他不会去干，见人还特别热情，不虚。相比而言，所相处的过的北方人，印象里，老实，礼貌的不多。大多随意，对别人的东西总是未经允许就看，就碰，就用，见了人，无论是不是比自己大，一来就喊名字，我行我素，自己想怎么干就怎么干，希望我来到北方所感受到的这些都是错的。 杀人的解某还是个孩子，应该无罪释放，让他跟主审法官生活在一起 打球有点小动作很正常的 死几个挺好的，多死几个就好了 好好一片新闻，开头一百字非要官腔通告各级领导的关系，恶心不 不满18岁，享有豁免权 你多事......... 杀人的解某还是个孩子，应该无罪释放，让他跟主审法官生活在一起 半大孩子打架是最没数的。 现在的学生都怎么啦 双方约好了校外解决！ 这是什么好事吗，好勇斗狠毁了自己毁了家庭。 少年强则国强，不错不错 年轻气盛 对，还只是孩子，枪毙算了长大也是祸害 哥看了后吓出一身冷汗，刚刚从云南回来，分别经过建水和通海，其中在建水还曾经停车在建水某中校园里面。现在真的庆幸没有碰到这些革命小将，否则很难全身而退呀。 一个球引发的血案[暴怒] 教育发生了什么。 姐只扶墙[窃笑] 现在的孩子比黑社会还坏。 通海县第三中学高三学生解某与高一学生朱某，在打篮球的过程中发生纠纷，解某持刀伤人，致1人当场死亡，1人在送医救治过程中死亡，7人受伤住院治疗。解某、朱某已被刑事拘留。解某杀人，朱某干嘛拘留，不是正当防卫吗？ 人多有个屁用，还不是被砍死了 这孩子们 高三有18岁了吧 一群原始动物，去非洲吧，那里和你们都是同类。我们这混得好的都靠脑子。你们这些头脑简单的蠢逼永远只配做底层。 撸班长撸班主任撸校长撸教育局长撸部长!!这孩子以一敌九，授“平西大将军”! 还有吗？ 媒体不曝出来,会刑拘吗? 杀人那个关起来天天喂原味三路奶粉，喝到病死为止[挨揍][鄙视] 南昌不是号称鬼子吗？ 握草，我要去昭通巧家搞工程了，听说比较荒凉，还很乱吗？ 跟贴被火星网友带走啦~ 打架都打出优越感来了，说句不好听的，你们打死的越多，这世道越太平 保护法孩子们都知道要你命也就几年出来了 别再搞什么高度重视成不？莫非不高度重视你们就不做事了？ 畜生始终是畜生，不分年龄。 都高中生了，没上过法制课吗？世界观真成问题。 跟贴被火星网友带走啦~ 无忧还是很走运的 每一个县只办一所高中就够了，其余就办高职。一个县一年最多考二百名本科，现今不是211毕业的，都是干蓝领的工作，学一门技术靠手艺吃饭。 火气大 20还孩子个屁，老弟坐穿吧 没有这样开玩笑的。 领导高度重视 这事街球老王八吴悠来不就摆平了。跪下挨个喊爹，一场纠纷也就不了了之了。 我们这里招工不要昭通人镇雄人更不要 宇宙的探索是离不开我的话的，只有把围绕地球公转的一切物质包括气体计算在地球体积之内才能找到地球真正的边和角，那是反引力汇聚地，是真正的真空隧道，宇宙高速路，太阳系内的动脉!把围绕太阳公转的一切物质包括气体计算在太阳体积之内才能找到恒星与恒星的边和角，那是恒星与恒星之间的真空高速隧道，找到真空隧道以近光速超光速飞行那不是个事!宇宙飞行器也不能按照飞机的二维结构原理制造，飞机是不能高速自转的，但只有高速自转才能产生真空电磁场，以近光速飞行，未来的宇宙飞行器必须按地球原理制造，八层以上结构，你看地球高速自转着前进，我们人坐在地球上有啥不适感觉吗？ 死不了有未成年不犯法 还有我怕你受不了，在广州漂泊这么多年不行还是回老家吧！ 装逼被 太暴力 赞同你！ 墙都不服想扶你。 现在的小孩子真是作 有前途，收复失地钓鱼岛指日可待。 别喷云南，这种人我们云南人也支持他们打架，砍死多少算多少，免得以后出来祸害社会 最可怕的不是成年人打架，而是这些娃娃，年轻气盛，下手没有轻重。 镇雄人不好惹啊，都是少数民族 不用读书了 领导死了，也没事。 他们还只是孩子，不应该给他们一次机会，应该从重从严判处！ 这事儿闹大。 应该像新加坡那样管的很严一点 昭通威信人路过，我们这里是革命老区，我是社会主义好青年，本硕8年上海理工毕业，目前在四川某市属的公安系统做信息分析，慢慢吵，没意思，我只是想表达昭通人范围太大，没有必要一杆子打死，也有人才，我是觉得我们威信的名声在四川泸州宜宾这一代都可以的，渣渣嘛哪里都有，多跟少而已 未成年人保护大法好👍 你有种把墙放开啊[窃笑][窃笑] 少年强则国强，不错不错 你比杀人犯还邪恶。 ",
        "Total": 10727,
        "Link": "http://comment.news.163.com/news_shehui7_bbs/D72F4VVL0001875P.html"
    },
    "Article": "（原标题：通海县四街镇四街社区发生一起致人伤亡刑事案件）2017年12月29日15时许，通海县四街镇四街社区北正街发生一起致人伤亡刑事案件，造成1人当场死亡、8人受伤。伤者中有1人在送医救治过程中死亡，其余7名伤者正在医院救治，生命体征平稳。案件发生后，通海县委、政府高度重视，第一时间全力以赴对伤者展开医疗救治，并成立案件处置工作领导小组，现场对处置工作作出全面安排部署，政法、公安、教育、卫生等部门和相关乡镇党委政府工作人员联动协作，及时开展群众疏导、社会维稳、案件侦破、善后处置等工作。经公安机关初步侦查：2017年12月29日11时许，通海县第三中学高三学生解某与高一学生朱某，在打篮球的过程中发生纠纷，经他人劝解后各自离开。15时许，双方离开学校后，在四街镇四街社区北正街路上发生冲突，解某持刀伤人，致1人当场死亡，1人在送医救治过程中死亡，7人受伤住院治疗。目前，涉案犯罪嫌疑人解某、朱某已被刑事拘留，案件正在进一步侦办中。本文来源：通海新闻网责任编辑：谷莹_NN6577"
}