{
    "Article": "",
    "KeyWords": "网易订阅、rss、新闻、资讯",
    "Source": "Netease",
    "Title": "阿曼空军NH-90直升机发生重着陆 机上一死两伤_网易订阅",
    "Comment": {
        "Link": "http://comment.war.163.com/news_junshi_bbs/D6OQK9VM051593PM.html"
    },
    "URL": "http://dy.163.com/v2/article/detail/D6OQK9VM051593PM.html",
    "PublishTime": "12/28/201717:11:27"
}