{
    "Article": "（原标题：车主带儿子刚下车，围墙突倒塌砸烂车）#endText.video-infoa{text-decoration:none;color:#000;}#endText.video-infoa:hover{color:#d34747;}#endText.video-listli{overflow:hidden;float:left;list-style:none;width:132px;height:118px;position:relative;margin:8px3px0px0px;}#entText.video-lista,#endText.video-lista:visited{text-decoration:none;color:#fff;}#endText.video-list.overlay{text-align:left;padding:0px6px;background-color:#313131;font-size:12px;width:120px;position:absolute;bottom:0px;left:0px;height:26px;line-height:26px;overflow:hidden;color:#fff;}#endText.video-list.on{border-bottom:8pxsolid#c4282b;}#endText.video-list.play{width:20px;height:20px;background:url(http://img1.cache.netease.com/video/img14/zhuzhan/play.png);position:absolute;right:12px;top:62px;opacity:0.7;color:#fff;filter:alpha(opacity=70);_background:none;_filter:progid:DXImageTransform.Microsoft.AlphaImageLoader(src=\"http://img1.cache.netease.com/video/img14/zhuzhan/play.png\");}#endText.video-lista:hover.play{opacity:1;filter:alpha(opacity=100);_filter:progid:DXImageTransform.Microsoft.AlphaImageLoader(src=\"http://img1.cache.netease.com/video/img14/zhuzhan/play.png\");}if(/(iPhone|iPad|iPod|Android|NETEASEBOBO|blackberry|bbd+)/ig.test(navigator.userAgent)||/safari|chrome|firefox/i.test(navigator.userAgent)&&navigator.plugins&&!navigator.plugins[\"ShockwaveFlash\"]){varstr1='<videocontrols=\"controls\"preload=\"auto\"width=\"100%\"poster=\"http://vimg3.ws.126.net/image/snapshot/2017/12/6/V/VD602PT6V.jpg\"style=\"max-height:100%\">';varstr2='<sourcetype=\"video/mp4\"src=\"http://flv.bn.netease.com/videolib3/1712/30/ZteRT1986/SD/ZteRT1986-mobile.mp4\">您的浏览器暂时无法播放此视频.</video>';document.getElementById(\"FPlayer1404863609673\").parentNode.innerHTML=str1+str2;}车主带儿子刚下车，围墙突倒塌砸烂车（来源：~）window.NTES&&function(d){varf=function(c){varb=c.getAttribute(\"flashvars\"),a=c.getAttribute(\"repovideourl\").replace(\".flv\",\"-mobile.mp4\");h=d(c.parentNode.parentNode.parentNode),g='<embedsrc=\"http://v.163.com/swf/video/NetEaseFlvPlayerV3.swf\"flashvars=\"'+b+'\"allowfullscreen=\"true\"allowscriptaccess=\"always\"quality=\"high\"wmode=\"opaque\"width=\"100%\"height=\"100%\"type=\"application/x-shockwave-flash\"/>';if(/(iPhone|iPad|iPod|Android|NETEASEBOBO|blackberry|bbd+)/ig.test(navigator.userAgent)){g='<videocontrols=\"controls\"preload=\"auto\"width=\"100%\"height=\"100%\"><sourcetype=\"video/mp4\"src=\"'+a+'\">您的浏览器暂时无法播放此视频.</video>';}h.$(\".video\")[0].innerHTML=g;},e=function(b){vara=d(b.parentNode.parentNode.parentNode);a.$(\"li\").removeCss(\"on\"),b.addCss(\"on\"),a.$(\".video-title\")[0].innerHTML=\"string\"==typeofb.textContent?b.textContent:b.innerText,a.$(\".video-title\")[0].setAttribute(\"href\",b.getAttribute(\"url\")),a.$(\".video-from\")[0].innerHTML=\"（来源：\"+b.getAttribute(\"source\")+\"）\",f(b);};window.continuePlay=function(){vara,b=d(d(\".video-list.on\")[0].nextSibling);3==b.nodeType&&(b=d(b.nextSibling));if(b&&d(\".video-innerinput\")[0].checked){e(b);}},function(){vara={init:function(){if(d(\".video-listli\")[0]){d(d(\".video-listli\")[0]).addCss(\"on\"),this.eventBind();}},eventBind:function(){d(\".video-listli\").addEvent(\"click\",function(b){e(d(this)),b.preventDefault();});}};a.init();}();}(NTES);12月27日，重庆。市民周先生带儿子刚下车没走多远，身后的围墙突然倒塌砸在车身内外。事后经查看发现当时一辆水泥罐车从山上冲下撞倒了围墙。本文来源：澎湃新闻责任编辑：乔敬_NN6607",
    "PublishTime": "12/30/201716:14:45",
    "URL": "http://news.163.com/17/1230/16/D6TS60MV0001875P.html",
    "Comment": {
        "Content": "人要积德行善才有好报 是福不是祸 不知道做了多少善事才能有如此回报 天佑 好福气 这就是命 还好，还好 保险公司 这种泥罐车一般开的都很猛 神安排一切! 命大，幸运。 造化大耶[暴怒][暴怒][暴怒] 真是命大。。 不知为啥，听到这口音就想笑[羞羞][羞羞] 太危险了活着不容易啊 谁赔偿？ 惊天 命大福气好 意外总是不知不觉的来临 福大命大 突然说起《我的世界》这个游戏干什么 围墙倒塌堵塞隧道入口 积德 运气不错。也挺倒霉。车没了。 这就是命 还好，还好 这种泥罐车一般开的都很猛 命大，幸运。 造化大耶[暴怒][暴怒][暴怒] 真是命大。。 太危险了活着不容易啊 谁赔偿？ 命大福气好 意外总是不知不觉的来临 福大命大 人要积德行善才有好报 赶紧烧香拜菩萨 好福气 Mongda 天佑 保险公司 神安排一切! 不知道做了多少善事才能有如此回报 我就差一点死在池塘里 宇宙的探索是离不开我的话的，只有把围绕地球公转的一切物质包括气体计算在地球体积之内才能找到地球真正的边和角，那是反引力汇聚地，是真正的真空隧道，宇宙高速路，太阳系内的动脉!把围绕太阳公转的一切物质包括气体计算在太阳体积之内才能找到恒星与恒星的边和角，那是恒星与恒星之间的真空高速隧道，找到真空隧道以近光速超光速飞行那不是个事!宇宙飞行器也不能按照飞机的二维结构原理制造，飞机是不能高速自转的，但只有高速自转才能产生真空电磁场，以近光速飞行，未来的宇宙飞行器必须按地球原理制造，八层以上结构，你看地球高速自转着前进，我们人坐在地球上有啥不适感觉吗？ 不知为啥，听到这口音就想笑[羞羞][羞羞] 免费办理信用卡vx:xjn008cs 惊天 是福不是祸 ",
        "Link": "http://comment.news.163.com/news_shehui7_bbs/D6TS60MV0001875P.html",
        "Total": 336,
        "Reply": 29
    },
    "Source": "Netease",
    "Title": "惊险！车主带儿子刚下车 旁边围墙突然倒塌砸烂车_网易新闻",
    "KeyWords": "罐车,水泥,围墙"
}