{
    "Article": "（原标题：今日头条、凤凰新闻因违规被网信办约谈，相关频道暂停更新）文|王金许雷锋网12月29日消息，刚刚，国家互联网信息办公室在官网发布消息称，针对今日头条、凤凰新闻手机客户端持续传播色情低俗信息、违规提供互联网新闻信息服务等问题，要求北京市互联网信息办公室分别约谈两家企业负责人，责令企业立即停止违法违规行为。两家企业负责人表示，将严格落实网信部门管理要求，对相关问题进行自查自纠，分别对违规问题严重的部分频道暂停内容更新。今日头条手机客户端“推荐”“热点”“社会”“图片”“问答”“财经”等6个频道自2017年12月29日18时至12月30日18时暂停更新24小时、凤凰新闻手机客户端“头条”“推荐”等2个频道自2017年12月29日18时至12月30日6时暂停更新12小时。北京市互联网信息办公室相关负责人指出，今日头条和凤凰新闻手机客户端违反国家有关互联网法律法规和管理要求，传播色情低俗信息，存在严重导向问题，对网上舆论生态造成恶劣影响。在尚未获得互联网新闻信息服务资质的情况下，今日头条手机客户端违规转载新闻信息，且“标题党”问题突出，严重干扰了网上传播秩序；凤凰新闻手机客户端违规自采和转载新闻信息，扰乱了网上传播秩序。北京市互联网信息办公室责令两家企业深入自查自纠，全面清理网上违规内容，杜绝类似情况再次发生。两家企业负责人表示，将立即落实各项管理要求，以严肃认真的态度，全面加强网站业务和人员管理，切实对社会和广大网民负责。雷锋网随即查看了今日头条客户端，发现“推荐”“热点”“社会”“图片”“问答”“财经”等6个频道内容已显示正在进行维护升级。本文来源：雷锋网责任编辑：姚立伟_NT6056",
    "URL": "http://tech.163.com/17/1229/22/D6RUFEGN00097U7R.html",
    "Source": "Netease",
    "KeyWords": "今日头条,凤凰,互联网,手机",
    "Comment": {
        "Reply": 6,
        "Link": "http://comment.tech.163.com/tech_bbs/D6RUFEGN00097U7R.html",
        "Total": 253,
        "Content": "网络环境需要净化。 造谣媒体 支持，早该治理了 今日头条一直没用过！不咋样！ 支持 网络环境需要净化。 今日头条一直没用过！不咋样！ 造谣媒体 支持，早该治理了 支持整改。 支持 "
    },
    "Title": "今日头条、凤凰新闻被网信办约谈 相关频道暂停更新_网易科技",
    "PublishTime": "12/29/201722:16:23"
}