{
    "Comment": {
        "Content": "为人民服务生的伟大死的光荣 善始善终，得成正果。 河南老乡，老英雄，一路走好 老革命同志了！ 一路走好！ 一路走好！ 为人民服务生的伟大死的光荣 老革命同志了！ 善始善终，得成正果。 河南老乡，老英雄，一路走好 致哀 老革命干部永垂不朽 ",
        "Link": "http://comment.news.163.com/news_guonei8_bbs/D77EJF0L0001875N.html",
        "Reply": 7,
        "Total": 98
    },
    "KeyWords": "刘汉生,副部长,工业部,中共",
    "PublishTime": "01/03/201809:29:50",
    "Title": "原电力工业部副部长刘汉生因病逝世 享年107岁_网易新闻",
    "Source": "Netease",
    "Article": "新华社北京1月3日电原电力工业部副部长、党组成员兼纪律检查委员会书记刘汉生同志（部长级待遇）于2017年12月17日因病医治无效在北京逝世，享年107岁。刘汉生同志病重期间和逝世后，中央有关领导同志以不同方式表示慰问和哀悼。刘汉生，1910年3月生于河南省内黄县。1926年参加革命工作，1927年6月加入中国共产党。1930年8月起先后任中共天津市委胶码行动委员会书记，中共河北省委秘书长，张家口察哈尔抗日同盟军第二师中共特派员等。1937年11月起历任中共直南特委宣传部部长兼八路军第四支队政治部主任，冀鲁豫区党委委员兼公安总局局长等。1945年10月起先后任中共辽宁省委员会委员、组织部部长，中国人民解放军铁道兵团政治部副主任等。新中国成立后先后任铁道部政治部副主任兼铁道兵团政治部主任，中共河北省委委员，中共唐山地委第一书记，地质部副部长等。“文化大革命”期间遭受严重迫害。1979年4月任电力工业部副部长、党组成员，同年10月兼任纪委书记。1990年12月离休。刘汉生是中共七大、八大代表，中共十六大、十七大、十八大、十九大特邀代表，列席中共第十二次全国代表大会，是中共第十二届中央纪律检查委员会委员。本文来源：新华社责任编辑：邵小波_NN2479",
    "URL": "http://news.163.com/18/0103/09/D77EJF0L0001875N.html"
}