{
    "Article": "（原标题：马斯克给轨交公司追加的100万美元投资，是靠卖帽子赚来的）“无聊公司”的设备澎湃新闻记者包雨朦综合报道特斯拉、SpaceX创始人埃隆·马斯克（ElonMusk）的地下交通事业，又有新的进展。据科技媒体DigitalTrend报道，当地时间1月2日，马斯克表示要给他的轨道交通公司TheBoringCompany（无聊公司）追加100万美元投资。据称，这100万美元来自前不久TheBoringCompany销售宣传帽的收入。去年10月马斯克为宣传这家地下轨道交通公司，定制了50000顶TheBoringCompany宣传帽，标价20美元，没过多久就全部售罄。“无聊公司”的帽子马斯克还表示，售出的帽子将在TheBoringCompany在洛杉矶建造的一处隧道内交付，然后购买者可以蒙着眼睛驾驶TheBoringCompany的巨大机器。TheBoringCompany是马斯克在2016年12月宣布成立的一家用于解决地面拥堵问题的轨道交通公司。当年12月的一天，马斯克被堵在路上，于是他发推文说：“堵车快把我逼疯了！我要造一台隧道挖掘机，开始挖隧道”。不到1小时，这个项目正式命名为“TheBoringCompany”，而在2小时后他再次发推：“我们真的要开始挖隧道了。在英文中，boring一词除了解释为无聊、无趣之外，还有钻洞的意思。目前，马斯克的“无聊公司”已经公布了建设第一条隧道的计划。在去年10月TheBoringCompany对外披露，已经开始建设第一条隧道，总长约152米，有望沿着405号州际公路从洛杉矶国际机场延伸到101号国道。同时，该公司还要参与竞标芝加哥高速铁路，这一铁路连接奥黑尔机场和芝加哥市中心。马斯克表示，该项目将与超级高铁类似，但隧道内不是真空的，因为短途线路不用解决空气摩擦的问题。根据马斯克的设想，他将在地面上安装汽车暂停的“托盘”，汽车停好后，托盘会下降到地底，将车子在地底隧道间快速运输，最快时速甚至到达200公里。另外，这些托盘有统一的计算机监控，透过无缝安排让托盘速度优化。在隧道中，系统将自动通过电动滑板来传输汽车，电动滑板的最快速度达到130英里/小时。马斯克曾表示，这个地下隧道网络将多达30层隧道，可传输汽车，也可以传输超级列车。本文来源：澎湃新闻责任编辑：白鑫_NT4464",
    "Title": "马斯克靠卖帽子赚100万美元投资轨交公司_网易科技",
    "PublishTime": "01/02/201820:10:50",
    "Source": "Netease",
    "Comment": {
        "Content": "看看 卖帽子，马斯克自己就是代言人，人家一看是马斯克卖的肯定狂买 ",
        "Reply": 2,
        "Link": "http://comment.tech.163.com/tech_bbs/D760SEEB00097U7R.html",
        "Total": 2
    },
    "KeyWords": "马斯克,汽车,轨道交通,隧道",
    "URL": "http://tech.163.com/18/0102/20/D760SEEB00097U7R.html"
}