{
    "Article": "陈意涵与搭档玩自拍调皮做鬼脸互动有点甜2018年1月3日，台北，刘以豪、陈意涵连袂出席某活动，爱自拍的两人分享如何拍出效果十足又具质感的好照片。即时记录每一个精彩时刻。在活动现场，陈意涵依偎在刘以豪肩头玩自拍，调皮地做鬼脸，两人以”情侣蓝“登对亮相，比心互动有点甜。",
    "URL": "http://ent.163.com/photoview/00AJ0003/647169.html",
    "KeyWords": "陈意涵,",
    "PublishTime": "01/04/201807:57:40",
    "Title": "陈意涵与搭档玩自拍调皮做鬼脸 互动有点甜_网易娱乐",
    "Comment": {
        "Content": "羡慕童颜 陈意涵下一个男友以现端倪 刘海剪了好看 小姑娘咋看都很甜，就是实际上年纪有点大了。 刘海剪了好看 手机上都是粉，粉有涂这么厚的吗？ 陈意涵下一个男友以现端倪 羡慕童颜 ",
        "Link": "http://comment.ent.163.com/ent2_bbs/PHOTJO01000300AJ.html",
        "Total": 50,
        "Reply": 5
    },
    "Source": "Netease"
}