{
    "Title": "鱼店鱼池半年内被\"下毒\"5次 监控拍到神秘身影_网易新闻",
    "URL": "http://news.163.com/17/1225/21/D6HIROR60001899N.html",
    "Source": "Netease",
    "Comment": {
        "Total": 502,
        "Reply": 34,
        "Content": "警察也要吃饭也要生活享受嘛 可能是同行搞鬼 是警察睁眼瞎 隔氧药 农村毁田，树的多了 应该给1楼一份中国眼科医院和智商检测机构 上海那么乱吗 没戏 白的比黑的黑 拍到有什么用，没人管啊没人管 黑的白的保护费没到位 jcss:你再说一遍🔫 jcss说，对不起，没证据，不管 监控蛮清楚啊 👮：把这张表填一下，回去等消息 搞养殖的真的很辛苦，操心也多 死鱼，录像和瓶子。你瞎吗？ 一招鲜 警察也要吃饭也要生活享受嘛 2楼3楼大煞笔 农村毁田，树的多了 监控蛮清楚啊 抓嫖赌能蹲守一两月！出动上百人！ 警察已经到场取证了，这是没证据还是不管？仇富仇社会。自己不正干，看别人啥都不顺眼。 拍到有什么用，没人管啊没人管 黑的白的保护费没到位 jcss说，对不起，没证据，不管 不要声张，再多装摄像头，还有机会拍到 你要是外国人，早就破案了 👮：把这张表填一下，回去等消息 一招鲜 [窃笑]1楼没瞎是2楼太耿直 搞养殖的真的很辛苦，操心也多 人吃了有问题吗 可能是同行搞鬼 是警察睁眼瞎 隔氧药 2楼3楼大煞笔 黑暗的社会[挨揍][挨揍] 应该给1楼一份中国眼科医院和智商检测机构 同行 没戏 呵呵 白的比黑的黑 上海那么乱吗 jcss:你再说一遍🔫 就是，已经开始取证了，还在这乱说，仇富仇社会的主 只有同行间才是赤裸裸的仇恨 白天不懂爷的黑 死鱼，录像和瓶子。你瞎吗？ 投毒决堤纵火杀人重罪 [惊讶][惊讶][惊讶] ",
        "Link": "http://comment.news.163.com/news2_bbs/D6HIROR60001899N.html"
    },
    "Article": "（原标题：卖鱼被五次“下毒”，监控下一个神秘身影出现）这些鱼是贾先生今天凌晨三点多才进货回来的，没想到才过了不到一个小时，鱼就出了问题。鱼到底是怎么死的呢？在贾先生安装的监控里，我们找到了答案。监控显示的时间为今天早上五点，从外观上看，很有可能是名年轻男子。视频中男子出现的时间仅有短短几分钟，在男子离开不到半个小时后，贾先生就发现鱼出了问题。让人更气愤的是，从今年七月份开始，这已经是第五次出现这种情况了。市场里只有自家的鱼池出了问题，两人就留了个心眼，在鱼池旁边，安装了3个摄像头，可是鱼还是出现了状况。贾先生说，在现场他们并没有发现粉末类药物的痕迹，对方很有可能往鱼塘里倒入了某种液体才导致了鱼的死亡。在鱼池旁边，贾先生还找到了一只疑似对方遗落的白色瓶盖。今天上午，警方已经将鱼池里的水和白色瓶盖带回检验，事情正在进一步调查当中。本文来源：都市报道责任编辑：李杭_BJS4645",
    "PublishTime": "12/25/201721:40:59",
    "KeyWords": "鱼池,违法犯罪,监控"
}