{
    "Title": "俘获男神有一手！林依晨惹雷佳音害羞吐舌_网易娱乐",
    "URL": "http://ent.163.com/photoview/00AJ0003/646893.html",
    "Source": "Netease",
    "Article": "俘获男神有一手！林依晨惹雷佳音害羞吐舌近日，林依晨出席2017国剧盛典，她身穿黑色蕾丝长裙优雅迷人，台上举止大方女神范十足，然而台下也是备受追捧的女神，不管是当红小鲜肉张彬彬还是TF老boy雷佳音都不在话下，与雷佳音热聊害得对方害羞吐舌，画面激萌，与张彬彬互相加微信，惹得张彬彬也是一脸迷弟脸。",
    "PublishTime": "12/29/201707:46:00",
    "Comment": {
        "Total": 216,
        "Content": "当年的梦中情人袁湘琴！ 林依晨还是不错的 图一那双眼睛有点恐怖！ 很喜欢她 没有胖嘟嘟的了 这裙子穿她身上，令她老了十几岁！ 老了 一股清流，自然大方 这裙子穿她身上，令她老了十几岁！ 瘦了 这裙子穿她身上，令她老了十几岁！ 同感 图一那双眼睛有点恐怖！ 湘琴[色色][色色][色色] 以前自然漂亮一点 真丑... 很喜欢她 当年的梦中情人袁湘琴！ 老了 这舌头让老子石更了 这裙子穿她身上，令她老了十几岁！ 老了 h哈哈哈哈哈 看见佳音的小舌头。。依晨笑的很开心。。。 不要整天上头条秀自己，既然已经成为人妻了，那就好好回家生小孩儿去哇！林依晨哈哈 没有胖嘟嘟的了 林依晨还是不错的 怎么都喜欢跑机场拍照啊 一股清流，自然大方 瘦了 ",
        "Reply": 20,
        "Link": "http://comment.ent.163.com/ent2_bbs/PHOTJNND000300AJ.html"
    },
    "KeyWords": "林依晨,"
}