{
    "PublishTime": "12/30/201712:02:48",
    "Comment": {
        "Total": 3077,
        "Reply": 149,
        "Link": "http://comment.ent.163.com/ent2_bbs/D6TDOM6J00038FO9.html",
        "Content": "pz 感觉是他被王菲干 傻子一个 他才不是找不自在呢，小S专门的，故意搞王和谢，主要是变相把王婆撕的一丝不挂点滴全漏，老王不是整天玩高深吗？小S就从老谢那着手让老王的隐私都曝光还外带添油加醋 好奇谢霆锋怎么受得了王菲。 确信，谢就是这样一个渣人 如果他们也生两个娃，生活磨平了一切，看他们还逍不逍遥 好奇两个人的孩子看到这样的言论会怎么想 他的两个儿子以后会不会与她的两女儿…………凑成两对？ 李亚鹏：MMP<br>窦唯：MMP 让陈冠希介入一次 一对婊子子养的，男的喜欢妈妈型，恋母情节人渣，张柏芝跟这种男板结婚，倒血霉 不为结婚的爱情都是耍流氓 老鹰捉小鸡！ 两个王八蛋，一对狗男女！ 不用带娃的两人当然幸福甜蜜自由自在啦，渣 张柏芝和谢霆锋不可能长久，个性问题。张柏芝占有欲很强，而且不懂事，作。王菲本身就是很独立的人，不会太过干涉谢霆锋，而且王菲处事比张柏芝好太多太多。 记住，你所谓的两个孩子比你思想成熟多了 兜兜转转这么多年，最爱的还是她，有些人说不上哪里好，但就是谁都替代不了 狗屎男 三姓家奴 谢霆锋纯属给他老子还债啊，老子日小姑娘，他专找老逼 没毛病呀，我跟我女友经常一起洗澡的。 你日过来他日过去的圈子 她皈依，佛可受不了。 你信不信谢霆锋要是当初跟王菲结婚了，也生两个娃，激情退去，用不了多久估计也得离婚，谢霆锋然后跟张柏芝复合，感谢老天让他找回真爱… 败火啊 幸福的一对，羡慕啊！ 渣#沈*阳恒运熵贸公司郭wen立（江西南康人）连親人他都敢騙,把小时候救过他命,2十七年前帮他实现了大城市户口的长兄騙的妻离家散...沈#阳亚洲时尚公寓1号楼501郭#外騙昆#明金#格百貨广州服#装公司等,內騙家人.. 说实话我觉得这两个人恶心，各自组建家庭，各自离婚，要干嘛去了，害了两个家庭，结果又在一起 母子恋想想都🤮了 窦靖童：MMP<br>李嫣然：MMP 谢王都是自己舒服的人、从来不管自己孩子的让人家带大的，厉害了 信。 老阴抓小🐥 好恶心 恶心 有这个可能 从小父母离异导致谢有恋母情结？ 太渣 很正常啊！别说是看，一起洗又怎样 小s找不自在 王菲就是一个大欲女，之前说好的要皈依佛门呢？ [喷水] 最恶心他们这对 王婊子 李亚鹏：MMP<br>窦唯：MMP 有陈冠希呢 让陈冠希介入一次 可怜了张柏芝自己带2个孩子。 怎么会有这么渣的人呢 我信，说到底谢就是渣男 窦靖童：MMP<br>李嫣然：MMP 你信不信谢霆锋要是当初跟王菲结婚了，也生两个娃，激情退去，用不了多久估计也得离婚，谢霆锋然后跟张柏芝复合，感谢老天让他找回真爱… 恶心你还关注，还知道的这么详细 信。 那为什么当初有跑去找张.. 对你妈头，你觉得张柏芝好，你去跟张结婚，一个被那么多同行唾弃的演员，一个被无数导演弃用的败类，别人都受不了张柏芝的胡作非为，唯独谢霆锋要忍？一个为了赚钱把未成年儿子推出来炒作的妈妈可以去死了，装什么好妈妈，张有半点好，能被那么多人唾弃？能不赡养自己妈妈，让自己妈妈去做服务员，去演三级片？ 没毛病呀，我跟我女友经常一起洗澡的。 什么节目？ 真爱没有对于错，谁会允许婚内出轨 他俩最恶心 说实话我觉得这两个人恶心，各自组建家庭，各自离婚，要干嘛去了，害了两个家庭，结果又在一起 功夫好的，自然比较难遗忘 你看看骂他俩的都是些什么人，除了水军大多一些底层人渣。张要真是个好母亲就不该婚后出轨，被原谅一次还自己作，现在也就靠孩子蹭蹭热度。以后她的孩子如果被问谢霆锋和王菲的事他顶多气愤，被问张的事他肯定无地自容 母子恋想想都了 好的呢 被骂成这样还在一起。。说不定和陈赫张子萱一样是真爱 官西：大家站好，来一起笑一个，茄子~~~~~~ 每当看到有关他们的新闻都有种是各自炒作的感觉，一点也不相信这是真的！ 张柏芝和谢霆锋不可能长久，个性问题。张柏芝占有欲很强，而且不懂事，作。王菲本身就是很独立的人，不会太过干涉谢霆锋，而且王菲处事比张柏芝好太多太多。 祝福吧 这个我真不信 好奇谢霆锋怎么受得了王菲。 祝福！ 王林：还以为你是虔诚的信徒呢，MMP 天天都节日你们都不年轻了是要节 击鼓传帽 吐你一脸 生过两孩子裸体有什么好看的 谢霆锋渣不渣不清楚，李亚鹏千真万确是人渣 脑袋有屎 知道内幕？曝点？ 婚后出轨谁了？ 我去！祝他们幸福 胸都下垂成那样.有什么好看的 兜兜转转这么多年，最爱的还是她，有些人说不上哪里好，但就是谁都替代不了 恶心 所以王菲是高手啊 李亚鹏PPM 冠西哥：当初忘记上这个女人了，mmp 可不是生三个孩子三个不同的爹真的是好啊 毛都白了好多根了。。。。 小s脸怎么肿了…… 这信息量貌似有点大 不为结婚的爱情都是耍流氓 如果他们也生两个娃，生活磨平了一切，看他们还逍不逍遥 李亚鹏：MMP<br>窦唯：MMP 霆锋：我不要紧的 口味真的很重，年龄大的女人肯定皮肤松弛的，就算身材再好，也是进入了人的衰老期，这是真爱啊。。。。。。 老鹰捉小鸡！ 窦靖童：MMP<br>李嫣然：MMP 你信不信谢霆锋要是当初跟王菲结婚了，也生两个娃，激情退去，用不了多久估计也得离婚，谢霆锋然后跟张柏芝复合，感谢老天让他找回真爱… 从小s的问题就知道她的性趣有点强。 恶心的想吐。 你日过来他日过去的圈子 小S？洪晃 她皈依，佛可受不了。 不用带娃的两人当然幸福甜蜜自由自在啦，渣 人才啊！这样的双关语都能想出来！👍 张柏芝：好久都没看了MMP 说实话我觉得这两个人恶心，各自组建家庭，各自离婚，要干嘛去了，害了两个家庭，结果又在一起 恶心的可以，奸夫淫妇 啪啪都啪了，洗澡有什么不能看的，真无聊 谢王都是自己舒服的人、从来不管自己孩子的让人家带大的，厉害了 这个新闻含精量很高，请谨慎点开 让人老脸一红 真想知道你老了有人管不 小S的脸怎么了？肿成这样 冠希哥：我没看过MMP 陈冠希：看有什么要玩儿才够MMP 哈哈哈 谢，我不是最后一个,MMP 好奇谢霆锋怎么受得了王菲。 你以为HK人叫他做忍者龟是白叫的么？ 他的两个儿子以后会不会与她的两女儿…………凑成两对？ 不过还是祝福锋菲组合 一对婊子子养的，男的喜欢妈妈型，恋母情节人渣，张柏芝跟这种男板结婚，倒血霉 舅服这层楼 為什麼小S臉腫成那樣，完全是婦女既視感啊！ 有这个可能 忍者龟不是因为张某人[疑问][疑问] 那个小S咋那么胖了。 呵呵 很正常啊！别说是看，一起洗又怎样 垃圾，有家庭不珍惜，非得找个妈 傻逼报道这些刺激辛苦带孩子的前妻 两个王八蛋，一对狗男女！ 小s总是问这种问题 老阴抓小🐥 王菲就是一个大欲女，之前说好的要皈依佛门呢？ 不是一家人不进一家门……各有各的缘分，各有各的活法！ 一对贱人 想看更多就去他们家里装个摄像头 就是这些人就好像自己和自己孩子都是垃圾堆里面抱来一样。骂的人真的你那一半对你还满意吗？还是你就是满嘴仁义道德的伪君子？ 这也没什么大不了的 张柏芝好妈妈团队赶来途中！ 什么节目 他才不是找不自在呢，小S专门的，故意搞王和谢，主要是变相把王婆撕的一丝不挂点滴全漏，老王不是整天玩高深吗？小S就从老谢那着手让老王的隐私都曝光还外带添油加醋 哈哈哈 不愧是小S 一对没人性的渣男淫妇，给你们的孩子留点尊严吧 小S这是胖的还是肿的？。。。。之前姐姐好饿的节目吗？还是新一期的？之前的没看到这个啊 小s脸怎么肿成这样 确实，4楼真是操碎了心 记住，你所谓的两个孩子比你思想成熟多了 张柏芝：MMP 窦唯忍不住回忆起那几年，每天洗澡都先运动一番的日子 谢霆锋纯属给他老子还债啊，老子日小姑娘，他专找老逼 不要晒了 李亚鹏：PPM 幸福的一对，羡慕啊！ 傻子一个 窦靖童：MMP<br>李嫣然：MMP 母子恋想想都🤮了 这是什么节目 小S胖了，没认出来 好恶心 恶心 从小父母离异导致谢有恋母情结？ 王菲也跟了别人啊，张再不对也为你生了二个孩子 pz 爱情是两个人的事情，不用让全世界来投票表决的 松下问童子，言师采药去。云深不知处，只在此山中。结合现实，遥想古人，不由得感叹：好湿好湿！淫才淫才！ 张柏芝好妈妈团队赶来途中！ 好奇两个人的孩子看到这样的言论会怎么想 恩爱！ 目测小S和成龙一样搞坏王婆和老谢呢，老王别不是真被成龙给办了后又被小S姐俩给挤走了吧？！老王也不是那姐俩的对手啊 讨厌王菲谢霆锋 狗屎男 谢霆锋还有比这更让人想吐的话语了吗？ 自己媳妇有啥不能看的。有意思。 三姓家奴 渣#沈*阳恒运熵贸公司郭wen立（江西南康人）连親人他都敢騙,把小时候救过他命,2十七年前帮他实现了大城市户口的长兄騙的妻离家散...沈#阳亚洲时尚公寓1号楼501郭#外騙昆#明金#格百貨广州服#装公司等,內騙家人.. 张柏芝好妈妈团队赶来途中！ 祝福 感觉是他被王菲干 毛都白了好多根了。。。。 败火啊 小s找不自在 太渣 "
    },
    "Title": "洗澡的时候允许王菲看？谢霆锋这信息量有点大_网易娱乐",
    "Source": "Netease",
    "KeyWords": "谢霆锋,王菲,小s",
    "URL": "http://ent.163.com/17/1230/12/D6TDOM6J00038FO9.html",
    "Article": "谢霆锋上节目爆料和王菲恩爱日常谢霆锋被小S逼问网易娱乐12月30日报道近日谢霆锋在节目中被小S套出了他和王菲之间的甜蜜琐事。节目中，小S问谢霆锋上厕所未婚妻王菲能看吗？谢霆锋甜蜜回应不习惯。但表示洗澡的时候却可以允许王菲看。随后又被问到王菲洗澡的时候谢霆锋可不可以进去看，谢霆锋回小S：“去你的。”早前，谢霆锋现身机场被追问和王菲都是怎么庆祝圣诞节，他甜蜜回答：“我们天天都是节日”。看得出来谢霆锋和王菲在一起生活得非常幸福、甜蜜。本文来源：网易娱乐责任编辑：杨明_NV5736"
}