{
    "Source": "Netease",
    "PublishTime": "12/26/201700:24:00",
    "KeyWords": "恐怖组织,俄罗斯,北约,潜艇",
    "Title": "切断海底电缆？俄：有能力但只有恐怖组织才那样做_网易新闻",
    "Comment": {
        "Link": "http://comment.news.163.com/news2_bbs/D6I4PNKK000187V9.html",
        "Total": 539,
        "Content": "别的不说，就当初的伊拉克战争就已经见识到了美国的流氓手段了 你还忘了一个国家 你就是恐怖组织，别掩饰了，二人转有意思吗？ 你不了解病菌，也就无法对抗病菌。美军后来用这些数据玩细菌战了吗？😏 二楼想多了！有些事情没有野蛮与文明之分！都是一个样！举个例：间碟大家都有，谁都派，被抓算输！ 别的不说，就说伊拉克战争，美国所谓的伊拉克拥有大规模杀伤性武器的证据到最后推翻萨达姆政权后都没能找到确切的物证就已经向世界展现了怎样的一个流氓事实了 千万别说底线，二战美国为了得到731人体实验数据，做了交易不审判，让这帮禽兽逃了！ 无知真可怕，现在是网络世界，愈是发达国家愈依赖电脑互联网，如果切断自己的电缆就意味着让自己社会瘫痪，就是为了嫁祸给普京找个开战的理由？这相当于你砍断自己的手嫁祸给小明同学，目的只是为了让你在他身上一口痰！ 意思俄罗斯有这个能力，欧美有这个能力。只有中国用长城防火墙是吧。 文明与流氓的区别是，流氓没有底线，为达目的不择手段。 俄罗斯国力还能坚持一场冷战？普京心疼自己的小金库啊 俄毛就是最大的恐怖组织 和恐怖分子有啥区别 俄罗斯有这个能力，美国和北约组织也同样有这个能力，现实中的栽赃嫁祸的事情多的是了，中外历史上有多少战争是因为一方被栽赃嫁祸而引发的。 你怎么不去太平洋投毒毒死美帝？ 俄罗斯:我们没能力建设一个国家，但有能力破坏一个国家 呵呵呵呵，这么怀念萨达母，可以下去找他啊。 美国是针对政权，不会殃及百姓，并且他的普世价值最受益的是百姓，这点来说，希望他对流氓更流氓一些，让真正的流氓从地球消失。俄罗斯相反。。。 你就是恐怖组织，别掩饰了，二人转有意思吗？ 你不了解病菌，也就无法对抗病菌。美军后来用这些数据玩细菌战了吗？😏 瞎说什么大实话 不是有南边的纳着贡吗？ 4楼好可爱，多少年没看见这样的小清新了，刚改革开放那会的人都是这么清新的 无知真可怕，现在是网络世界，愈是发达国家愈依赖电脑互联网，如果切断自己的电缆就意味着让自己社会瘫痪，就是为了嫁祸给普京找个开战的理由？这相当于你砍断自己的手嫁祸给小明同学，目的只是为了让你在他身上一口痰！ 意思俄罗斯有这个能力，欧美有这个能力。只有中国用长城防火墙是吧。 文明与流氓的区别是，流氓没有底线，为达目的不择手段。 俄罗斯国力还能坚持一场冷战？普京心疼自己的小金库啊 恐怖组织也没有核弹吧。 呵呵呵呵，这么怀念萨达母，可以下去找他啊。 和恐怖分子有啥区别 谁？其他国家？ 俄罗斯:我们没能力建设一个国家，但有能力破坏一个国家 跟贴被火星网友带走啦~ 卧槽，这跪舔姿势标准。瞬间觉得美的高大上啊。发奖金 美帝看起来要先下手为强 你还忘了一个国家 我们有方校长可以完成这个任务 这个国家不能说 你不就是恐怖主义国家？ 明白人啊 别的不说，就说伊拉克战争，美国所谓的伊拉克拥有大规模杀伤性武器的证据到最后推翻萨达姆政权后都没能找到确切的物证就已经向世界展现了怎样的一个流氓事实了 二楼想多了！有些事情没有野蛮与文明之分！都是一个样！举个例：间碟大家都有，谁都派，被抓算输！ 苏联搬空盟国西班牙国库里的黄金，美国打伊拉克也没这么穷凶极恶 千万别说底线，二战美国为了得到731人体实验数据，做了交易不审判，让这帮禽兽逃了！ 小编你这是告诉观众俄罗斯是恐怖组织吗 还是单机好玩 活流氓， 俄罗斯有这个能力，美国和北约组织也同样有这个能力，现实中的栽赃嫁祸的事情多的是了，中外历史上有多少战争是因为一方被栽赃嫁祸而引发的。 你怎么不去太平洋投毒毒死美帝？ 三楼，什么是流氓手段……苏联搬空盟国西班牙国库里的黄金～这才是流氓手段 对啊，然后请5楼大声的说出那十年困难时期的罪魁祸首 哪个 俄毛就是最大的恐怖组织 ",
        "Reply": 36
    },
    "Article": "（原标题：切断海底电缆？俄专家：我们有能力，但只有恐怖组织才会那样做）24日，北约秘书长斯托尔滕贝格主动告诉媒体，俄潜艇愈发频繁地在地中海、大西洋等水域活动，活跃程度已相当于冷战时期。北约潜艇部队司令则发出俄可能切断海底电缆的惊人警告。北约的办法是针锋相对——重建冷战后即被关闭的大西洋司令部。虽然俄罗斯强调不会进行军备竞赛，但北约的态度让外界担忧，冷战是否会在相隔30年后卷土重来？本月15日，英国国防参谋长斯图尔特·皮奇空军上将就曾警告说，俄罗斯可能切断海底电缆，严重威胁到英国和其他北约组织国家的国际贸易和网络。两年前，美国军方和情报机构也声称，俄罗斯潜艇和间谍船在靠近保障全球互联网的重要海底电缆附近积极活动。《华盛顿邮报》24日援引分析人士的话说，潜艇符合克里姆林宫以弱制强的对敌策略。要跟踪水下舰艇，俄罗斯的敌人必须投入巨大资源，这正是俄方小投入大动作的优势所在。切断大西洋海底电缆？是的，我们有能力这样做。多名俄罗斯专家都给出这样的答案。俄罗斯“续航力”潜艇员门户网站主编亚历山大·维克多罗夫说：“我们从苏联时期就研究切断海底电缆的方法。我们拥有小型潜艇可下潜到海底，破坏海底电缆通信。”俄罗斯军事专家尤里·涅特卡切夫中将告诉俄《独立报》，破坏通信线路是混合战的方法之一。美国及北约国家在1999年巴尔干战争和后来推翻伊拉克和利比亚政权的行动中都曾采用过这种方法。因此北约认为，在必要时俄罗斯也会采取类似行动。“从理论上讲，俄罗斯具有这种能力，但宣称俄罗斯准备这样做则是虚构的。”俄罗斯《国家军火库》杂志主编维克多·穆拉霍夫斯基说。俄独立军事专家伊戈尔·尼古拉丘克称，有这样的能力是因为俄罗斯是一个军事强国，但目前除了国际恐怖组织外，没有人会这样做。实际上，北约也明白俄军方不会采取这样的行动。这只是一种歇斯底里的反俄行动。“今日俄罗斯”电视台评论说，即使俄罗斯在这一领域什么也不做，西方国家仍对俄持怀疑立场。之前，俄驻英国大使馆发言人曾用“如果那么需要军费，为什么要用吓唬民众的方法来获取呢？”讽刺皮奇的虚张声势。来自北约秘书长的最新警告则遭到不少网友嘲笑。在德国《明镜》周刊网站的相关报道后，有德国网友称，“显然有人需要通过战争让人忽略家里的问题”。有网友则质疑：“美国国家安全局以及谷歌、脸书等美国公司潜入数据电缆，获得我们的隐私并收集和存储一切，怎么北约不紧张？”本文来源：环球时报-环球网。更多精彩，请登录环球网http://www.huanqiu.com作者：柳玉鹏甄翔责任编辑：韩佳鹏_NN9841",
    "URL": "http://news.163.com/17/1226/02/D6I4PNKK000187V9.html"
}