{
    "Article": "网易体育12月27日报道：著名足球装备情报网站FootyHeadlines，如今曝光了巴萨下赛季赛前热身服的谍照。这套球衣的设计理念堪称颠覆式，但视觉效果实在令人不敢恭维。这套热身服，采用了突破性的设计风格。设计师将红蓝紫三种色彩混搭，整个球衣就像是个色彩绚烂的调色板。这套热身服的设计风格，来源于巴塞罗那著名的圣家堂。圣家堂五彩缤纷的玻璃窗，给了设计师混搭色彩的灵感。但红蓝紫这三种颜色都相当绚烂，整体混杂在一起后，真有点“辣眼睛”的感觉。社交网络上的段子手，已经开始拿巴萨这套球衣开起了玩笑。有网友贴出了一张中老年女款毛衣，蓝底上缀满了无数红色大花。从视觉效果上来看，这款毛衣和巴萨新热身服的确颇为类似。还有网友开始P图，图片是浓浓的淘宝风。一名老奶奶身穿红蓝紫底色的棉衣，网友在衣服上P上了巴萨队徽和耐克商标，还在图上P上了“2018秋冬60年死忠加厚款”的字样。本文来源：网易体育作者：张琳责任编辑：冯昊天_NSJS2656",
    "Source": "Netease",
    "KeyWords": "巴萨,毛衣,混搭",
    "Title": "辣眼!巴萨下赛季热身服曝光 网友:我奶奶也有1件_网易体育",
    "Comment": {
        "Total": 1832,
        "Content": "我有，哈哈 讲真，虽然我是皇马球迷，但是特别喜欢一样真正是因为热爱足球才表现的爱足球的球迷，顶你！ 试试淘宝吧 老哥稳 讲道理还是马戏团的耍猴表演服好看 好好的楼里混进来一坨狗屎💩 我是坚定的梅西球迷。说实话，皇马的球衣真比巴萨的好看，无论是正赛还是出场还是训练。可能只是我个人感觉吧。 二楼不提醒还真没想到，白白一身还真像寿衣，黄毛们穿上挺合适 你妈的寿衣更好看 买不到了，跑遍所有巴塞罗那的专卖店和诺坎普的商店都没有了！ chunyuyi04，我已经拼了，就看你了！[大笑] 我第一套球队球服就是那个，还是普约尔的 是客场的西红柿炒鸡蛋吗？ 一日白衣，全家傻逼 我擦不是吧这回真的丑到爆 拉影的表演服最好看 兄弟你到底哪个队的球迷？ 终身脑残 别说实话，黄畜会咬你的[大笑] 巴塞罗那这球衣的设计师是我霉吧很符合我霉的时尚品味 我觉得10赛季的客场的比较好看，伊布在的那个赛季 穿过，还有一个地方被挂了一下，如果有想要的巴萨球迷，就送了，全当缘分 梅奴买得起巴萨球衣吗？ 贼他妈丑， 这个我知道，一日红蓝，终身脑残。对不对？ 二楼这么激动，难道是被耍的猴？ 是好看，然而就是穿那件喝了七喜，所以还是喜欢09那件一半火焰一半海水 媳妇怕我在广州花天酒地，我在广州都是很陌生的好不好。这里又不是西安火车站家属楼，东莞大岭山，包头太平寺，厦门集美后溪。山东胶州电器城后巷。北京清河大学城。莆田仙游24米。广西玉林小学旁车站。云南文山莲花路口。怎么会这样误会自己的老公呢？我怎么会去广州番禺南村那边呢？滴滴打车都要20多块钱好么。。 刘小虎我和你没完 能操二楼娘。。。。 八辈脑残 二楼这副嘴脸我想皇马球迷都不会站在他这边。简直丢皇马球迷的脸 我奶奶也有一件 小婊砸，在怀化哪里？揍扁你！ 终生脑残 巴萨最丑的队服永远在下个赛季... 网友众筹的寿衣没送到你家？ 一楼最后两个字说的没错！ 交出来不废话 一日红蓝 12年还是13年的那个渐变色无敌好看 皇马那身白衣裳黄毛们应该都有吧，挺好看的，晚上把头蒙上还能吓吓小孩... 心里是有多变态？ 二楼傻逼 哈哈，楼上玻璃心吧？你知道我是哪个队的球迷吗你就孝服啊？讲真你口中孝服是哪个队我还真拿捏不准。红配蓝，招人烦是老话了。孝服你是指皇马吗？不对啊肩上没黑腰上没红的也算不上孝服啊？看来你很讨厌孝服啦，祝你一辈子都穿不上孝，你爹白发人送黑发人！当然以前纯属开玩笑🤣怼怼你，大家乐呵乐呵就行了😁 你见过白色的寿衣？ 好样的 讲道理还是马戏团的耍猴表演服好看 90世界杯德国 拉影的表演服最好看 耐克滚蛋吧，足球领域简直业余 秋衣吗 买不到了，跑遍所有巴塞罗那的专卖店和诺坎普的商店都没有了！ 好看 chunyuyi04，我已经拼了，就看你了！[大笑] 我第一套球队球服就是那个，还是普约尔的 我觉得淡绿色的客场服最好看 真的丑，我是不会买的，虽然也买不到 是客场的西红柿炒鸡蛋吗？ 看我名字 迷彩 我喜欢巴萨的第三队服，浅蓝色的，巨好看，有一件，踢球舍不得穿 耐克的设计师越来越傻逼了 巴塞罗那这球衣的设计师是我霉吧很符合我霉的时尚品味 兄弟你到底哪个队的球迷？ 最先是7楼说的，不过现在还没有给我消息，我等到明天早晨7点，如果还没有消息，就是你的了！ 那个球服是比赛学校买的 我觉得10赛季的客场的比较好看，伊布在的那个赛季 好了伤疤忘了疼，打脸打到吐血了，隔两天不打，溜出来咬人了！🐶主子都被打脸了，那时候不见得叫，这种狗养了干什么@c螺！ 淘宝有 主客场都是渐变色的那个吧，确实好看。 看我的名了吗？@163是我的邮箱，把联系方式发给我，我给你寄 梅奴买得起巴萨球衣吗？ 贼他妈丑， [大笑] 有个地方叫淘宝 媳妇怕我在广州花天酒地，我在广州都是很陌生的好不好。这里又不是西安火车站家属楼，东莞大岭山，包头太平寺，厦门集美后溪。山东胶州电器城后巷。北京清河大学城。莆田仙游24米。广西玉林小学旁车站。云南文山莲花路口。怎么会这样误会自己的老公呢？我怎么会去广州番禺南村那边呢？滴滴打车都要20多块钱好么。。 刘小虎我和你没完 一直都很丑，从未被超越 八辈脑残 一日白衣，全家傻逼 巴萨就是一群小丑 就我觉得好看？ 巴萨最丑的队服永远在下个赛季... 这素质，真皇马。 88年欧洲杯荷兰队的队服最好看。 1楼的自己也有白T恤，所以1楼在说他自己全家傻逼呢 复古？ 淘宝有 西红柿炒鸡蛋的那款渐变的么？ 咱换巴萨这个吧 巴塞罗那的吗？ 我擦不是吧这回真的丑到爆 你妈的寿衣更好看 一日红蓝 姑娘，请自重，我们已经不可能了，忘了我吧！ 与大神合个影 耐克设计师真有才！ 说实话巴萨球踢的好看，但球衣丑的惊人！ 淘宝还有啊 二楼傻逼 12年还是13年的那个渐变色无敌好看 打倒巴萨人人有责 白色的确实适合做寿衣、孝服 试试淘宝吧 讲道理还是马戏团的耍猴表演服好看 我就买了那件，12到13赛季的[窃笑] 不好看 我是坚定的梅西球迷。说实话，皇马的球衣真比巴萨的好看，无论是正赛还是出场还是训练。可能只是我个人感觉吧。 二楼不提醒还真没想到，白白一身还真像寿衣，黄毛们穿上挺合适 你妈的寿衣更好看 买不到了，跑遍所有巴塞罗那的专卖店和诺坎普的商店都没有了！ 没毛病，这很萨村！ 这个我知道，一日红蓝，终身脑残。对不对？ 终身脑残 巴萨的球衣真的永远是下赛季的最丑 一日白衣，全家傻逼 用的来说还行吧 暴击一楼死狗！一楼老母暴尸街头，被野狗啃食只剩白骨！！ 斩了设计师祭旗 这次谁设计的？和巴萨有仇啊[疑问]这尼玛谁会买？ 别说实话，黄畜会咬你的[大笑] 巴塞罗那这球衣的设计师是我霉吧很符合我霉的时尚品味 确实难看 99年开始看球踢球<br>第一套是全黄前面红心的拉齐奥<br>第二套英格兰的<br>第三套我妈在大集上买的二十一套黄马球衣，就穿了一次，嫌气白色短裤透明露内内<br>第四件才是红蓝相间的巴萨球衣 02世界杯开始看球，第一套是热刺，本来叫我妈买法国队的，我妈根据“鸟”买成了热刺。第一套巴萨球衣是绿色的客场款 是的，颠覆传统的一件球衣 丑爆了 很好看，👍 毁啊 我觉得挺好看的呀 淘宝没有买不到的 好好的楼里混进来一坨狗屎💩 不爽可以球迷相互攻击啊，你攻击一个和你八辈子打不到一杆的球员只能让你那低智商一览无遗 终生脑残 能操二楼娘。。。。 小婊砸，在怀化哪里？揍扁你！ 二楼这副嘴脸我想皇马球迷都不会站在他这边。简直丢皇马球迷的脸 淘宝多。啥款都有。 这衣服能把人眼看瞎，故意弄下对手和裁判么。不好看。 反正买不起[鄙视] 一楼嘴确实欠 暴击一楼死狗！一楼老母暴尸街头，被野狗啃食只剩白骨！！ 蛮好的，因为不像传统球衣，穿出去显得休闲 网友众筹的寿衣没送到你家？ 一楼最后两个字说的没错！ 一日红蓝 作者一定不看中超。中超这身都用一年了 这衣服脏了，得洗 皇马那身白衣裳黄毛们应该都有吧，挺好看的，晚上把头蒙上还能吓吓小孩... 心里是有多变态？ 天哪，满身是血的样子 我去辣眼睛[喷水][喷水][喷水] 12年还是13年的那个渐变色无敌好看 卧槽，确实辣眼睛。。。 丑死了 哪个西红柿炒鸡蛋吗？ 讲道理还是马戏团的耍猴表演服好看 12年还是13年的那个渐变色无敌好看 他妈卖批的时候穿的三点式光屁股的衣服真的好看，看了就硬😂 淘宝多的是 淘宝 你妈的寿衣更好看 明年来一件 买不到了，跑遍所有巴塞罗那的专卖店和诺坎普的商店都没有了！ 这衣服还行啊 太丑了，高层别再瞎搞了 突然发现，黑梅西黑C罗的都是那几个号。 我奶奶也有一件 明显是训练服 你上淘宝了吗？就说买不到？ 老哥稳 哈哈，楼上玻璃心吧？你知道我是哪个队的球迷吗你就孝服啊？讲真你口中孝服是哪个队我还真拿捏不准。红配蓝，招人烦是老话了。孝服你是指皇马吗？不对啊肩上没黑腰上没红的也算不上孝服啊？看来你很讨厌孝服啦，祝你一辈子都穿不上孝，你爹白发人送黑发人！当然以前纯属开玩笑🤣怼怼你，大家乐呵乐呵就行了😁 太难看了。。。。 淘宝应该有.....呵呵 设计这个服装的肯定是专家！ 丑出新高度 ",
        "Reply": 139,
        "Link": "http://comment.sports.163.com/sports2_bbs/D6M2C28B00058781.html"
    },
    "PublishTime": "12/27/201715:28:59",
    "URL": "http://sports.163.com/17/1227/15/D6M2C28B00058781.html"
}