{
    "Title": "成都24岁男子坠亡死因不明 目击者:听到砰的一声_网易新闻",
    "URL": "http://news.163.com/17/1226/20/D6JVR5N30001899N.html",
    "KeyWords": "成都,坠亡,目击者",
    "PublishTime": "12/26/201720:06:20",
    "Article": "（原标题：成都24岁男子坠亡死因不明警方已介入调查）封面新闻讯12月26日2点过，一24岁男子从成都双流一小区顶楼坠下，经抢救无效死亡。目前，杜某某的死因警方正在进一步调查中。当天下午，一则视频在网上转发，视频中某小区顶楼，一位身着白色衬衣、深色休闲裤的男子站在顶楼平台的边缘，手持电话，好像在通话中，过了一会儿，放下了电话，突然张开双臂，身体朝下坠下……下午5点30分，双流公安官方微博@平安双流在网上对此事进行了通报：12月26日14时许，一男子从双流区西航港某小区楼顶跳下，经抢救无效死亡。经初查，确认死者为杜某某、24岁、遂宁人。目前，就杜某某的死因，警方正在进一步调查中。据西航港街道常乐社区工作人员透露，死者是附近白家大市场做粮油生意的，“目前警察正在向家属了解原因，具体情况我们也不晓得。”下午6点，封面新闻记者来到了事故现场看到，地上仍一滩血迹，周围聚集了不少人，正在议论。孙女士是一家药店的工作人员，下午1点50分，正在为顾客配药的她目击了整个过程。“当时听着外面一阵喧闹，我出门看见很多人围在一起望着楼顶，楼顶站着一位男子，现场还来了几辆警车。等我再进去工作的后，大概就最多20分钟，就听到外面尖叫，然后几秒后听到砰的一声，吓死我了”。本文来源：封面新闻责任编辑：张海桐_NN9053",
    "Comment": {
        "Content": "朋友圈传疯了 我看到的最全面最解脱的一次跳楼，毫无顾虑 听说是湖南人，偷小孩的 所以说，每个地方都有真能量的人，和负能量的人，有的人老新闻会从侧面换角度体会！有的人看事情就是一种那远死哪去的心态？吃了就好饱饭！看着个不顺眼看那个碍事的 欠了三亿 这个是欠赌债的。这小区已经连死两个了，前一个也是在这里被男友捅死的。这小区估计二手房不好卖了 我自己评价属于偶尔丑陋的吧 怎么弄能欠下这么多钱的？ 24岁欠三亿，家里在支持做粮油生意。你愿意借3亿给他？人云亦云，带点智商好吗。 我说实话你倒是死的爽快这一个小区的人都膈应...居住体验被你拉低不知多少！死了都把自私展现的淋漓尽致！ 谁叫你住温哥华这垃圾小区，人杂，三教九流放高利贷的多 赌博高利贷 开什么玩笑？开粮油店的有本事欠三亿？ 死都不怕，还怕什么呢？ 哪个小区，说出来呗 你有智商？你咋确定三亿一定要是借的？ 你是傻逼吧 一楼这种哈嘛批到处都有，见怪不怪 世界上怎么有你这样的沙壁？事不关己高高挂起，自己遇到事嗷嗷叫... 欠了赌债 …温哥华还有居住体验？各种凶杀案 这傻逼能欠三亿老子去自杀，有点智商好不好？这个时代，欠一百万，是你个人的事，欠一千万，也是，上亿，上十亿，那就不是你一个人的事了。有人会把你保护起来，因为能从银行套出那么多钱，你不能说死就死了。具体不说那么多，参考贾跃亭，欠了几十个亿，他需要自杀？搞笑！ 圣母婊嘛，自以为是 所以说，每个地方都有正能量的人，和负能量的人，有的人看新闻会从侧面换角度体会，有的人看事情就是一种那远死哪去的心态？才吃了几口好饱饭！看这个不顺眼，看那个碍事的？竟然会说拉低？ 农场里的猪看见自己的同伴被抓去宰了，心里暗喜，心想和叫你和我抢吃的..还在一边说风凉话：“真自私，叫那么大声，打扰老子睡懒觉…….”有一天轮到它了，叫得比谁声都大。 说实话温哥华的小区品质还是挺良心的 这么年轻，可惜了 中国人只分为三种人：丑陋的中国人、偶尔不丑陋的中国人，偶尔丑陋的中国人。 温哥华这小区不吉利，那年当街杀人也是这儿 一楼说错了？二楼你个大沙比 我略赞同一楼。文明自杀，从……算了，随意！ 别丢四川的脸，孩子，你在中国土地上一天你就没有没有资格这样指责它，再丑的土地也是养育你的土地，如果你有那个实力移民当我没说 难道他就是江南皮革厂的...... 我看到的最全面最解脱的一次跳楼，毫无顾虑 欠多了就是大爷了 农场里的猪看见自己的同伴被抓去宰了，心里暗喜，心想和叫你和我抢吃的..还在一边说风凉话：“真自私，叫那么大声，打扰老子睡懒觉…….”有一天轮到它了，叫得比谁声都大。 这个是欠赌债的。这小区已经连死两个了，前一个也是在这里被男友捅死的。这小区估计二手房不好卖了 我自己评价属于偶尔丑陋的吧 反正说的是打牌欠债多了 请告诉我们在哪里死是合适的 说实话温哥华的小区品质还是挺良心的 所以说，每个地方都有正能量的人，和负能量的人，有的人看新闻会从侧面换角度体会，有的人看事情就是一种那远死哪去的心态？才吃了几口好饱饭！看这个不顺眼，看那个碍事的？竟然会说拉低？ 那边风水有问题估计 请问这跟小区有啥关系？ 养你这么大，你这么走了父母怎么办？ 欠了赌债 这傻逼能欠三亿老子去自杀，有点智商好不好？这个时代，欠一百万，是你个人的事，欠一千万，也是，上亿，上十亿，那就不是你一个人的事了。有人会把你保护起来，因为能从银行套出那么多钱，你不能说死就死了。具体不说那么多，参考贾跃亭，欠了几十个亿，他需要自杀？搞笑！ ppt是啥?泡泡糖% 这也能喷 二丫，我回帖不是为了充气娃娃，特此声明[羞羞]🙌 哦也，传说中旧社会小香港高利贷拆东墙补西壁 基因决定的，人种问题 一楼说错了？二楼你个大沙比 生而为人，抱歉 我没做过好事，也没做过坏事，我算不算好人？ 打胡乱说 双流温哥华六期，那边有温哥华几个盘，我们之前也住那儿，总感觉阴森森的，后来搬走了 房价便宜买然后出租 听说是湖南人，偷小孩的 欠了三亿 不敢一个人出门了 欠高利贷是肯定的 怎么弄能欠下这么多钱的？ 本来就是嘛，你让别个楼下的商铺咋个活，要是遇到胆小的女士还不给吓得半身不遂 我说实话你倒是死的爽快这一个小区的人都膈应...居住体验被你拉低不知多少！死了都把自私展现的淋漓尽致！ 24岁欠三亿，家里在支持做粮油生意。你愿意借3亿给他？人云亦云，带点智商好吗。 谁叫你住温哥华这垃圾小区，人杂，三教九流放高利贷的多 中国人只分为三种人：丑陋的中国人、偶尔不丑陋的中国人，偶尔丑陋的中国人。 哪个小区，说出来呗 视频昨天我也看到了，也是听说欠了3亿，网络赌博 你有智商？你咋确定三亿一定要是借的？ 你是傻逼吧 才24岁！假设从21岁开始，每年玩完1亿[疑问]，也享够福了[大笑] 这跟二楼，四楼的迷信思想有关。当然，也表明此小区住户龙蛇混杂。 稍微大点的下来都是这样就是这个社会的缩影 普通人跟三亿扯不上关系，做生意的话，那也是相当规模才行 …温哥华还有居住体验？各种凶杀案 哪国人不这样？ 美女找你开房，你y不起来 业主:mmp 凡事想开点，太可惜了这么年轻。 疯传欠债 敢问阁下属于哪一类 圣母婊嘛，自以为是 世界上怎么有你这样的沙壁？事不关己高高挂起，自己遇到事嗷嗷叫... ppt？ 说得好！ 真有点，不过估计和个人感觉有关 不是他，皮革厂老板刚演完猫妖传，应该有片酬！ 我也有视频参考刺客信条信仰之跃只不过下面没草垛 我略赞同一楼。文明自杀，从……算了，随意！ 这么有本事？真能欠三亿可不是一般屁民！ 朋友圈传疯了 面前这排车和商铺才倒血霉了。。。 所以说，每个地方都有真能量的人，和负能量的人，有的人老新闻会从侧面换角度体会！有的人看事情就是一种那远死哪去的心态？吃了就好饱饭！看着个不顺眼看那个碍事的 我有视频[羞羞] 社会不行了自杀的人越来越多 是因为这位北欧男子长得太高了吗?下车一步迈出护栏了.... 我自己评价属于偶尔丑陋的吧 我说实话你倒是死的爽快这一个小区的人都膈应...居住体验被你拉低不知多少！死了都把自私展现的淋漓尽致！ 欠了三亿 赌博高利贷 跳个楼而已，少见多怪……←_← 开什么玩笑？开粮油店的有本事欠三亿？ 死都不怕，还怕什么呢？ 黄鹤？ 总是喜欢打牌嘛一般不搞大的赌博不会出现非常大的资金缺口的 那我就是偶尔丑陋的人吧。有时真的不知道自己怎么活得 为啥想不开 要自杀也去深山老林，不要挑高楼大厦，自己死了也就算了，祸害到别人真的下地狱都多滚一层刀山 世界上怎么有你这样的沙壁？事不关己高高挂起，自己遇到事嗷嗷叫... 中国人只分为三种人：丑陋的中国人、偶尔不丑陋的中国人，偶尔丑陋的中国人。 每天都有人自杀 这么年轻，可惜了 确实！下午就看到朋友圈耍爆了 ",
        "Total": 463,
        "Link": "http://comment.news.163.com/news2_bbs/D6JVR5N30001899N.html",
        "Reply": 82
    },
    "Source": "Netease"
}