{
    "PublishTime": "01/01/201818:04:38",
    "Comment": {
        "Total": 60,
        "Link": "http://comment.news.163.com/news2_bbs/D7378KJK0001899N.html",
        "Reply": 2,
        "Content": "中俄两国互信 中俄两国友谊长存。 中俄两国互信 中俄两国友谊长存。 "
    },
    "Article": "（原标题：美媒炒作：俄罗斯5万民众请愿制止中国人购买贝加尔湖畔土地）【观察者网综合报道】中俄两国合作近年来不断加深，部分西方媒体频频“挑事”。在2017年的最后一天，中俄两国元首互致新年贺电，美国媒体当天却翻起了“旧账”。“中俄关系友好气氛的背后，俄罗斯社会和民众如何真正看待中国正呈现出完全不同的画面，”美国媒体12月31日报道称，针对中企在俄罗斯贝加尔湖地区的投资，许多俄罗斯媒体和地方民众最近指责中国“入侵”贝加尔湖，在刚刚过去的2017年12月初，一份呼吁制止中国人大量购买贝加尔湖畔土地和破坏当地生态的请愿信已有5万多人签名。贝加尔湖位于在俄罗斯布里亚特共和国和伊尔库茨克州境内，据国际在线2017年12月8日报道，当时当地民众曾联名上书俄罗斯政府，要求政府规范外国人购买贝加尔湖地区土地的权利，他们担心这里会沦为“中国的一个省”。《贝加尔日报》网站：贝加尔居民害怕当地沦为“中国省份”贝加尔湖畔居民在这封联名公开信中诉说了他们的担忧：当地的特色小镇利斯特维扬卡10%的土地竟然已经不属于俄罗斯当地人了，这些土地的主人变成了中国人。照这样下去，五到十年之后，这座俄罗斯村镇将“不可避免地沦为中国的一个省份”。当地村民呼吁俄政府制定相关政策法规，规范购买和使用贝加尔湖附近土地的权利，制止中国人以建设住宅为由开设旅馆活动。利斯特维扬卡小镇（图片来源：国际在线）索菲亚·布恩托夫斯卡娅作为村民代表在信中写道：“在村房屋的栅栏上有用中文写着如何找到那些出售房屋的信息，整个利斯特维扬卡布满用中文或者韩文书写的出售麝香和其他珍稀动植物的广告。”贝加尔湖畔城镇中的中文广告信中特别强调：“一些中国人买到了我们的土地之后，运来重型机械，推平山坡，毁坏湖边的自然风光，而这些自然风光已经保存了2500万年都没人动。他们建设大型旅馆，从村这头到村那头，而且登记的是私人住宅，无需缴税。”中文卖房信息当地居民叶甫盖尼·克拉夫尔在社交网站上写道：“我们并不是反对中国人，或者大部分（来旅游）的人们。我们只是为了贝加尔湖的纯净，为了被污染环境的哪怕一丁点改善、为了贝加尔湖地区生活的鸟类、鱼类和各种野生动物。希望来到这里的是彬彬有礼的客人，而不是那些一点利益都不放过的生意人。”贝加尔湖畔@视觉中国美媒12月31日援引俄罗斯旅游界人士的话称，中国正在对俄罗斯实施大规模的经济扩张，把贝加尔湖介绍成为中国过去的领土，也成为一些中国旅游公司打广告和吸引游客的主要卖点。本文来源：观察者网责任编辑：李杭_BJS4645",
    "Source": "Netease",
    "Title": "中俄两国元首互致新年贺电时 美媒翻起了\"旧账\"_网易新闻",
    "KeyWords": "俄罗斯,贝加尔湖,美国",
    "URL": "http://news.163.com/18/0101/18/D7378KJK0001899N.html"
}