{
    "PublishTime": "12/31/201706:20:19",
    "Source": "Netease",
    "Comment": {
        "Content": "稀罕，在地幔发生地震。 Building... ",
        "Link": "http://comment.news.163.com/news_shehui7_bbs/D6VCI9D10001875P.html",
        "Total": 2,
        "Reply": 2
    },
    "Article": "中国地震台网正式测定：12月31日05时56分在西藏阿里地区改则县（北纬34.22度，东经84.81度）发生3.7级地震，震源深度6千米。本文来源：中国地震台网责任编辑：赵亚萍_NN9005",
    "URL": "http://news.163.com/17/1231/06/D6VCI9D10001875P.html",
    "Title": "西藏阿里地区改则县发生3.7级地震 震源深度6千米_网易新闻",
    "KeyWords": "自然灾害,改则县,地震,西藏"
}