{
    "URL": "http://war.163.com/photoview/4T8E0001/2287240.html",
    "Article": "英国军队盘点2017年精彩瞬间",
    "KeyWords": "英国,军队,瞬间,",
    "Source": "Netease",
    "Comment": {
        "Reply": 55,
        "Content": "夜郎自大 一支有传统的军队 图五的上等兵笑的挺甜啊 最漂亮的图片算是第八图。-----我还收存了两张米军在阿富汗的“支奴干”（也称“奇努克”）的照片：一张就这样悬在民房上机降米军特战部队的照片；另一张是“支奴干”机降驻阿富汗米军时半悬空在一块高凸巨石的悬崖边上，可能是在布置狙击手。哎呀～真是太棒了！ 我要去英国当兵！ 我要是生在美英我也去当兵，现在就是不想当爪牙 英军的服饰还是很独特的 英国法院判处英军在伊拉克滥杀无辜平民罪名成立，这个精彩瞬间被英国媒体忽略了？ 真的帅 看你名字就知道是条自作多情的狗了 没落的日不落已成为过去的传说 好图 英吉利，曾经的人类希望。 美国甚至不能算是美国人的希望，这么多战争打下来，美国人获得了什么？只是缺胳膊断腿人数在增加，死亡名单在增加。 卧槽你马迪～塔利班也成了你们祖宗了？！你这头二逼猪！ 本来就成了传说，这有什么可回避的？<br><br>当初的大英帝国英姿勃发，如正午的太阳，曾经那个为人类文明做出史诗级贡献的国家，现在已经变成落日余晖，看了也是徒添悲凉~<br><br>不过世间万物不都是这样吗，有起就有落，有兴就有亡 一直有传统的军队 自古二楼出傻逼！ 8图壮哉支奴干，美利坚出品必属精品。美利坚琳琅满目的武器库中随便拿出一件都秒他人N条街，再给你们一百年也赶不上试问你们服吧 想去英国当兵的就报名去吧！ 说啥了？什么都没说你怎么这么激动？？记住中国还是发展中国家哦！让那些发达国家多多接受难民体现自由敏住才是你们应该做滴呀！ 现在不是复兴吗，那现在是不是就是没落的大唐呢？ 佩里级护卫舰，海上贫民窟。 入侵别国，在你这只美国狗心里主子就是你骄傲。 向第八图致敬！美利坚！人类的希望！🇺🇸 自古二楼出傻逼！ 没有一个流泪的<br><br>没意思 1图的两位女中豪杰请问你们会唱歌跳舞吗？你们摸过大枪吗 只是儿子长大了，换了个形式而已！ 它的亲戚是现在的人类希望 你们谁谁，包含你不？你能赶上被秒的人吗？ 最终都会加上曾经两字，美国只是美国的希望而已，美国眼里只有私利。前不久的联合国关于是否承认耶路撒冷是以色列首都的投票，已经证明至少有125个国家认为美国不是人类的希望，而是人类战争的发动者。 摸过炮 服不服关你个华为傻逼什么事？支奴干好不好和你个黄皮肤的人有什么关系？莫非你自作多情把自己当成美国人了？美国要你吗？你得再打几百支疫苗，并且在美国宠物机构登记，才有美国人会领养你，否则你就是一条流浪犬。 每一张都很经典 兄弟可以呀，互关一波 吊打阿根廷 一个约湖南省（面积、人口）大小的国家，打下了人类最大的帝国，帝国崩溃，前殖民地国家不是复仇，而是仍抱团（英联邦）。这个国家，目前经济量世界第五，科技力量世界第二，创造发明层出不穷。二傻子，除了人口基数大，貌似威风。一人均，屁都不是。怎么有脸说人家！ 卧槽～塔利班也成你们主子了？-------是你们驯化手册上这么教你们的吗？马勒隔壁～狗粮又白瞎了。 没有一个流泪的<br><br>没意思 说的太好啦！英国已衰落！我国已崛起！英国没钱！咱有钱！ 图五的上等兵笑的挺甜啊 看你名字就知道是条自作多情的狗了 隔岸取火。 好图 英吉利，曾经的人类希望。 美国甚至不能算是美国人的希望，这么多战争打下来，美国人获得了什么？只是缺胳膊断腿人数在增加，死亡名单在增加。 8图壮哉支奴干，美利坚出品必属精品。美利坚琳琅满目的武器库中随便拿出一件都秒他人N条街，再给你们一百年也赶不上试问你们服吧 一直有传统的军队 想去英国当兵的就报名去吧！ 说啥了？什么都没说你怎么这么激动？？记住中国还是发展中国家哦！让那些发达国家多多接受难民体现自由敏住才是你们应该做滴呀！ 佩里级护卫舰，海上贫民窟。 入侵别国，在你这只美国狗心里主子就是你骄傲。 英军的服饰还是很独特的 英国已经日暮西山。 1别一口一个米帝了，你直接叫爹吧！ 最终都会加上曾经两字，美国只是美国的希望而已，美国眼里只有私利。前不久的联合国关于是否承认耶路撒冷是以色列首都的投票，已经证明至少有125个国家认为美国不是人类的希望，而是人类战争的发动者。 特别是陆军还有空军的 美国狗吃屎吃多了，美国以前支持塔利班打过俄罗斯，美国和你这只狗是不是畜生啊 服不服关你个华为傻逼什么事？支奴干好不好和你个黄皮肤的人有什么关系？莫非你自作多情把自己当成美国人了？美国要你吗？你得再打几百支疫苗，并且在美国宠物机构登记，才有美国人会领养你，否则你就是一条流浪犬。 吊打阿根廷 得你高级还不行么 现在不是复兴吗，那现在是不是就是没落的大唐呢？ 一支有传统的军队 最漂亮的图片算是第八图。-----我还收存了两张米军在阿富汗的“支奴干”（也称“奇努克”）的照片：一张就这样悬在民房上机降米军特战部队的照片；另一张是“支奴干”机降驻阿富汗米军时半悬空在一块高凸巨石的悬崖边上，可能是在布置狙击手。哎呀～真是太棒了！ 我要去英国当兵！ 所谓抱团不过是奴性难改而已，帝国再强大，他的殖民国家也是纳税机器而已。另外别在这扯什么人均了，有本事成为统治阶级。没本事老实的算你的平均数去，亏你还在这推崇英国，这点道理都不懂？所谓科技、发明、经济总量还不是为少数人服务的？不开窍的玩意！ 我要是生在美英我也去当兵，现在就是不想当爪牙 妹子不错 二战是全世界的事，不只是你美国主子一家的功劳，在你这只吃屎的畜生眼里只有主子什么都是对的 真的帅 英国法院判处英军在伊拉克滥杀无辜平民罪名成立，这个精彩瞬间被英国媒体忽略了？ 卧槽你马迪～塔利班也成了你们祖宗了？！你这头二逼猪！ 本来就成了传说，这有什么可回避的？<br><br>当初的大英帝国英姿勃发，如正午的太阳，曾经那个为人类文明做出史诗级贡献的国家，现在已经变成落日余晖，看了也是徒添悲凉~<br><br>不过世间万物不都是这样吗，有起就有落，有兴就有亡 自古二楼出傻逼！ 没落的日不落已成为过去的传说 夜郎自大 兄弟可以呀，互关一波 向第八图致敬！美利坚！人类的希望！🇺🇸 目前看真的是。 它的亲戚是现在的人类希望 这b给羡慕的 1图的两位女中豪杰请问你们会唱歌跳舞吗？你们摸过大枪吗 只是儿子长大了，换了个形式而已！ 你们谁谁，包含你不？你能赶上被秒的人吗？ 当年米帝不来中国协助抗日，为中国抗日提供战略物资，你祖上女人都可能是鬼子慰安妇！能有你这奴才杂种使用米帝发明的互联网、计算机反米吗？！你这垃圾渣滓！ 摸过炮 每一张都很经典 草拟马迪的～猪也有神经病啊？ 你主人美国以前支持塔利班打过俄罗斯，现在变脸了，说明你主人美国和你这头吃屎的狗都是畜生 特种部队好像还在里面？ 一个约湖南省（面积、人口）大小的国家，打下了人类最大的帝国，帝国崩溃，前殖民地国家不是复仇，而是仍抱团（英联邦）。这个国家，目前经济量世界第五，科技力量世界第二，创造发明层出不穷。二傻子，除了人口基数大，貌似威风。一人均，屁都不是。怎么有脸说人家！ 五音不全，差评！ ",
        "Total": 772,
        "Link": "http://comment.news.163.com/photoview_bbs/PHOT25PK800014T8.html"
    },
    "PublishTime": "12/30/201709:53:43",
    "Title": "英国军队盘点2017年精彩瞬间_网易军事"
}