{
    "Comment": {
        "Link": "http://comment.news.163.com/news2_bbs/D6L7JHG200018AOR.html",
        "Reply": 1,
        "Content": "好！ 好！ ",
        "Total": 299
    },
    "Article": "（原标题：2018年这些新规将施行：导游不得强迫购物外卖应有实体店）人民网消息，全国开征环境保护税；新版水污染防治法将施行；中小企业促进法为中小企业发展保驾护航；法官法等八部法律修改；“服役”近30年标准化法完成“大修”；公共图书馆这四类服务全免费；导游不得擅自变更行程、强迫游客购物；外卖商户应有实体店；央行调整车贷政策……2018年1月1日起，一批新规将施行，影响我们的生活。全国开征环境保护税《中华人民共和国环境保护税法》将于2018年1月1日起施行，依照该法规定征收环境保护税，不再征收排污费。环境保护税的纳税人为在中华人民共和国领域和中华人民共和国管辖的其他海域，直接向环境排放应税污染物的企业事业单位和其他生产经营者。该规定表明：不直接向环境排放应税污染物的，不缴纳环境保护税；居民个人不属于纳税人，不用缴纳环境保护税。与现行排污费制度的征收对象相衔接，环境保护税的征税对象是大气污染物、水污染物、固体废物和噪声等4类应税污染物。具体应税污染物依据税法所附《环境保护税目税额表》《应税污染物和当量值表》的规定执行。新版水污染防治法将施行十二届全国人大常委会第二十八次会议6月27日表决通过了关于修改水污染防治法的决定。修改后的法律将于2018年1月1日起施行。河长制是河湖管理工作的一项制度创新，也是我国水环境治理体系和保障国家水安全的制度创新。修改后的法律增加了河长制的相关内容。新修改的法律规定，国家对重点水污染物排放实施总量控制制度。对超过重点水污染物排放总量控制指标或者未完成水环境质量改善目标的地区，省级以上人民政府环境保护主管部门应当会同有关部门约谈该地区人民政府的主要负责人，并暂停审批新增重点水污染物排放总量的建设项目的环境影响评价文件。约谈情况应当向社会公开。中小企业促进法：为中小企业发展保驾护航2017年9月1日，经第十二届全国人大常委会第二十九次会议表决通过，新修订的《中华人民共和国中小企业促进法》(以下简称新促进法)正式颁布，并将于2018年1月1日实施。据了解，新促进法是在2003年起正式实施的《中华人民共和国中小企业促进法》的基础上进行修订。在我国，广大中小企业集中在传统产业，处于产业链的中低端，转方式、调结构任务十分艰巨。同时，受到近年来国际金融危机和国内经济下行压力影响，中小企业普遍面临劳动力成本上升、原材料价格上涨、融资成本上升、盈利水平下降等问题，生存与发展的压力不断加大。因此，原法实施10余年来在一些方面已经不能适应当前中小企业发展的实际需要。反不正当竞争法：鼓励保护市场竞争加强互联网领域规制11月4日，十二届全国人大常委会第三十次会议表决通过了新修订的《中华人民共和国反不正当竞争法》，自2018年1月1日起施行。作为社会主义市场经济法律制度中的一部重要法律，现行反不正当竞争法于1993年12月1日起施行,在促进市场公平竞争、维护交易秩序等方面发挥了重要的作用。随着时代的发展，一些妨碍公平竞争的新现象、新问题相继出现。此次修订是反不正当竞争法实施后时隔24年的首修。新修订的反不正当竞争法针对当前市场竞争中出现的新情况、新问题，进一步明确了对不正当竞争行为的规制规则,相关规定更加明确、具体、便于操作，并有一定的前瞻性，能够适应实践发展的需要，有利于鼓励和保护公平竞争，保护经营者和消费者的合法权益。“服役”近30年标准化法完成“大修”十二届全国人大常委会第三十次会议11月4日表决通过了新修订的标准化法。新的标准化法将于2018年1月1日开始施行，对于提升产品和服务质量，促进科学技术进步，提高经济社会发展水平意义重大。《中华人民共和国标准化法》颁布于1988年，已施行近30年。新修订的标准化法全文共六章45条，分为总则、标准的制定、标准的实施、监督管理、法律责任、附则。新修订的标准化法对标准的制定、实施和监督管理作了全方位、全过程的规定。法律规定，标准包括国家标准、行业标准、地方标准和团体标准、企业标准。国家标准分为强制性标准、推荐性标准，行业标准、地方标准是推荐性标准。强制性标准必须执行。国家鼓励采用推荐性标准。公共图书馆法：这四类服务全免费《中华人民共和国图书馆法》是国家层面公共文化领域的第一部专门法律，其中涉及的公共图书馆服务、建设等举措引发关注，将于2018年1月1日起施行。《公共图书馆法》的研究制定从2008年年初正式启动。今年4月，法律草案通过国务院常务会议审议，并提请全国人大常委会审议。经过二审，法律于今年11月4日经十二届全国人大常委会第三十次会议表决通过，正式颁布。此次《公共图书馆法》对公共图书馆的建设、运行、服务、管理和保障等作出了具体规定，尤其是在免费服务方面，提到了四类：分别是文献信息查询、借阅；阅览室、自习室等公共空间设施场地开放；公益性讲座、阅读推广、培训、展览；国家规定的其他免费服务项目。核安全法：“严”字当头确保绝对核安全9月1日，十二届全国人大常委会第二十九次会议通过了《中华人民共和国核安全法》。该法将于2018年1月1日起施行。发展核事业，必须保障核安全；保障核安全,必须完善核安全立法。核安全是国家安全的重要组成部分，事关国家利益和企业利益，也与公众的生命财产安全和环境公共利益休戚相关。核安全法作为国家安全法律制度体系的一个重要组成部分，对保证核安全、应对核事故、保障公众和从业人员的健康和安全、保护生态环境以及推动我国的核事业健康发展,都至关重要。作为我国首部核安全法，此次新制定的核安全法贯彻落实了总体国家安全观，建立从高从严核安全标准体系，为实现核能的持久安全和健康发展提供了坚实的法制保障。法官法、检察官法等八部法律修改第十二届全国人民代表大会常务委员会第二十九次会议决定：对《中华人民共和国法官法》《中华人民共和国检察官法》《中华人民共和国公务员法》《中华人民共和国律师法》《中华人民共和国公证法》《中华人民共和国仲裁法》《中华人民共和国行政复议法》《中华人民共和国行政处罚法》进行修改，该决定自2018年1月1日起施行。导游不得擅自变更行程、强迫游客购物11月1日，国家旅游局发布《导游管理办法》(以下简称《办法》)，《办法》对导游执业的许可、管理、保障与激励、罚则等作了明确规定，《办法》自2018年1月1日起施行。《办法》规定，导游应当携带电子导游证、佩戴导游身份标识，并开启导游执业相关应用软件。旅游者有权要求导游展示电子导游证和导游身份标识。《办法》明确，导游执业过程中不得出现擅自变更行程、诱骗或强迫消费、向游客索取小费等十一项违法违规行为，并在《办法》罚则部分对违反导游执业管理规定的行为，明确了相应的法律责任。导游在执业过程中，其人格尊严受到尊重，人身安全不受侵犯，合法权益受到保障。《办法》明确，对于旅行社和旅行者提出侮辱人格、违反其职业道德、不符合我国民族风俗习惯等要求，导游有权拒绝；旅行社要求导游接待以不合理低价组织的旅游团队或者承担接待旅游团队的相关费用的，导游有权向旅游主管部门投诉举报；鼓励景区对持有导游证从事执业活动或者与执业相关活动的导游免除门票。网络餐饮新规：外卖商户应有实体店国家食品药品监督管理总局日前发布《网络餐饮服务食品安全监督管理办法》，规定入网餐饮服务提供者应当具有实体经营门店并依法取得食品经营许可证，不得超范围经营。办法规定，网络餐饮服务第三方平台提供者需要履行建立食品安全相关制度、设置专门的食品安全管理机构、配备专职食品安全管理人员、审查登记并公示入网餐饮服务提供者的许可信息、如实记录网络订餐的订单信息、对入网餐饮服务提供者的经营行为进行抽查和监测等义务；入网餐饮服务提供者需要履行公示信息、制定和实施原料控制、严格加工过程控制、定期维护设施设备等义务。办法还对送餐人员和送餐过程提出要求。办法提出，送餐人员应当保持个人卫生，使用安全、无害的配送容器，保证配送过程食品不受污染。送餐单位要加强对送餐人员的培训和管理。据了解，办法共46条，将于2018年1月1日起施行。车辆购置税将由7.5%恢复到10%自2018年1月1日起，按照《中华人民共和国车辆购置税暂行条例》第五条规定，1.6L及以下排量汽车恢复按10%的法定税率征收车辆购置税。乘用车购置日期按照《机动车销售统一发票》或《海关关税专用缴款书》等有效凭证的开具日期确定。目前车购税的计算方式是：汽车销售发票价格1.1710%=应缴纳车辆购置税。我国将对进出口关税进行部分调整2018年1月1日起，我国将对进出口关税进行部分调整。据了解，根据国务院全面禁止进口环境危害大、群众反映强烈的固体废物的有关精神，与进口废物管理目录的调整时间相衔接，取消废镁砖、废钢渣、废矿渣等商品进口暂定税率，恢复执行最惠国税率。统筹考虑产业发展和出口情况变化，将取消钢材、绿泥石等产品的出口关税，适当降低三元复合肥、磷灰石、煤焦油、木片、硅铬铁、钢坯等产品的出口关税。新《地图审核管理规定》正式发布2018年1月1日起施11月28日，国土资源部部长姜大明签署国土资源部第77号令，发布实施新修订的《地图审核管理规定》（以下简称《规定》）。《规定》共34条，自2018年1月1日起施行。《规定》明确了国家、省、设区的市三级测绘地理信息主管部门地图审核职责的划分。国务院测绘地理信息主管部门负责全国地图审核工作的监督管理，省、自治区、直辖市人民政府测绘地理信息主管部门以及设区的市级人民政府测绘地理信息主管部门负责本行政区域地图审核工作的监督管理。《规定》对地图审核的申请与受理，以及地图审核的内容和依据进行了规范。申请地图审核，应当提交地图审核申请表、需要审核的地图最终样图或者样品、地图编制单位的测绘资质证书。央行调整车贷政策为进一步支持促进汽车消费，规范汽车贷款业务管理，中国人民银行、中国银行业监督管理委员会决定修订《汽车贷款管理办法》。修订后的《汽车贷款管理办法》自2018年1月1日起施行。央行、银监会关于调整汽车贷款有关政策的通知指出，自用传统动力汽车贷款最高发放比例为80%，商用传统动力汽车贷款最高发放比例为70%；自用新能源汽车贷款最高发放比例为85%，商用新能源汽车贷款最高发放比例为75%；二手车贷款最高发放比例为70%。BIM标准获批2018年1月1日起实行住房和城乡建设部于2017年5月4日发布第1534号公告，批准《建筑信息模型施工应用标准》为国家标准，编号为GB/T51235-2017，自2018年1月1日起实施。该《标准》是我国第一部建筑工程施工领域的BIM应用标准，填补了我国BIM技术应用标准的空白，与行业BIM技术政策相呼应。明年起增值税发票代码增至12位为进一步规范增值税发票管理，优化纳税服务，满足纳税人发票使用需要，国家税务总局近日发布公告，从2018年1月1日起调整增值税普通发票（折叠票）发票代码从现行的10位到12位。本文来源：人民网-人民日报责任编辑：何雨芳_NN5632",
    "PublishTime": "12/27/201707:41:09",
    "URL": "http://news.163.com/17/1227/07/D6L7JHG200018AOR.html",
    "Title": "2018这些新规将施行：这四类服务全免费_网易新闻",
    "KeyWords": "导游,实体店,法律,竞争法",
    "Source": "Netease"
}