{
    "Title": "贾跃亭微博给FF员工圣诞祝福 乐视供应商却很寒心_网易科技",
    "URL": "http://tech.163.com/17/1227/07/D6L8HO8T00097U7R.html",
    "KeyWords": "贾跃亭,乐视,圣诞,上市",
    "PublishTime": "12/27/201707:57:43",
    "Article": "（原标题：乐视供应商收不到贾跃亭的圣诞祝福）来莎莎年关将近，乐视控股集团创始人贾跃亭在微博晒出了圣诞祝福，但被他拖欠资金的供应商们注定无法过上圆满的节日。多次进京讨债未果后，一些供应商举步维艰，甚至有的已经破产。12月25日，贾跃亭在微博发出对法拉第未来（下称“FF”）员工的圣诞祝福“MerryChristmasallFFer！”。但在祝福和笑容的另一头，是乐视控股、乐视移动供应商的无奈和叹息。曾经8次上京讨债的老洪（化名）在接受第一财经记者采访时表示，目前乐视和他们的欠款尚无任何进展，会在春节之前再上京讨债，希望乐视“出于人道方面考虑”偿还一部分欠款，“因为我们有小公司挺不下去了，我们群里面至少有3家公司已经破产。还有很多举步维艰的，比较欠款不是小数目。”从2016年下半年乐视危机全面爆发后，这批来自浙江、海南、四川等全国各地的乐视移动供应商多次上京要债。今年7月的乐视股东大会上，供应商们还高举着“乐视欠债乐视还”的标语讨债。当时现场不完全统计，乐视还欠这些供应商约3300万元的尾款。9月，声称“尽责到底”的贾跃亭和这批供应商们达成一项协议，最终供应商们同意撤离乐视大厦。当时，老洪对第一财经记者说：“这是针对20多家供应商集体的、有时效的解决方案，但并不是现在就给钱。”老洪表示，此次的还款计划有一定的时间窗口，要到明年（2018年）左右，“因为乐视确实现在没有钱。”成都一家供应商老张（化名）还有超过300多万的乐视欠款，在26日接受第一财经采访时，他称该还款协议是“废纸一张，是零”！他认为，当时的协议就是为了骗他们离开乐视，“我们上当了”。他指出，乐视的债务对其公司影响非常大，“这个钱收不回来，（我们）要付很多供应商的钱，这个牵扯的东西太多了”。他不愿多提乐视，“现在没过多地去考虑这个事情，因为情况已经这样了。你急也没有用啊，还不如花点时间去做点其他事。”至于当时贾跃亭的钱从何而来，老洪对第一财经透露，“有非乐视的外部战略合作伙伴与老贾达成某种合作协议，拿出其投资的其他公司的股权变现，来协助乐视移动偿还部分电建商的债务。”但他并没有透露具体的还款协议。目前，乐视还欠老洪160多万，超过其年营业额的10%。他表示，与不少供应商相比，自己情况不是最差的，“因为大供应商在没有收到钱时适当中断了供应，但乐视当时还在高歌猛进，就找了其他的小公司。他们只有口头上的协议，连合同都没有就垫款做活动。”不过，他表示，仍愿意相信贾跃亭能筹到钱，最后解决债务问题，“我宁愿它（乐视）能好过来，它（乐视）死是正常的”。就算签了合同，也照样无法履行。一被乐视欠款50万左右的供应商对第一财经记者表示，他也仍在想办法借钱处理他的供应商，“我们也在外面借钱，总得先活着。我们借一部分，他们自己借一部分，一起共渡难关，把工人的工资先付一部分。”就在贾跃亭发圣诞祝福的同一天，北京证监局发布通告，责令贾跃亭于2017年12月31日前回国，切实履行公司实际控制人应尽义务，配合解决公司问题，稳妥处理公司风险，保护投资者合法权益。通告称，近期，上市公司乐视网及乐视系相关公司经营困难，贾跃亭作为乐视网实际控制人及前任董事长，在公司急需资金时未履行对上市公司提供无息借款承诺，北京证监局已对贾跃亭违反承诺的行为出具《关于贾跃亭采取责令改正行政监管措施的决定》，截至目前贾跃亭仍未履行承诺且未向北京证监局报送整改报告。不过，这些被欠债的供应商们在接受第一财经记者采访时认为，贾跃亭不会回国。老洪称，“贾跃亭90%以上可能不会回国。如果老贾能回北京是好事，我们肯定也会过去”。12月13日下午，乐视网发布公告称，全国法院被执行人信息查询系统显示，贾跃亭已四次被列入被执行人名单中。近日，贾跃亭被北京市第三中级人民法院列入失信被执行人名单中。贾跃亭未履行生效法律文书确定的义务包括，向平安证券支付初始交易额4.62亿元、利息414.98万元、违约金909.89万元、执行证书公证费人民币142.6万元、律师费256万元。而就在本周，北京法院审判信息网也挂出了飞毛腿（福建）电子有限公司和乐视控股（北京）有限公司、乐视移动智能信息技术有限公司买卖合同纠纷一审民事裁定书以及华福证券有限公司等公证债权文书执行裁定书。根据民事裁定书，飞毛腿电子向北京市第三中级人民法院申请财产保全，请求冻结乐视移动、乐视控股名下的银行存款或查封、扣押其相应价值的财产，限额人民币1.67亿元。该案的审判日期为2017年6月14日。而在华福证券的案件中，华福证券于2017年9月1日向北京市第一中级人民法院申请强制执行，申请金额为人民币2.03亿元及违约金。该法院表示，依法对被执行人贾跃亭的银行存款、房屋登记、车辆登记进行了调查，扣划被执行人贾跃亭银行存款130.94万元。同时，该法院轮候查封了贾跃亭持有的乐视网10.24亿股股份，轮候查封了贾跃亭名下位于北京市东城区东直门外大街x房产和位于北京市朝阳区双花园南里二区x房产。根据裁定书，贾跃亭应履行2.03亿元及违约金，已履行130.94万元，尚有2.02亿元及违约金未履行。而上述供应商也有选择走法律途径的，但他此前也对第一财经记者表示“你要说走法律途径，(乐视)动不动说，你起诉我们吧。一个官司得折腾两年多，两年多乐视不知道什么样了”。对上述供应商欠下巨款的主要为乐视的非上市体系乐视移动，但乐视控股旗下的上市体系乐视网日子也并不好过，根据乐视网的财报显示，第三季度净亏损10.15亿元人民币。12月15日晚，乐视网公告透露，聘任刘淑青为乐视网总经理，同时公司的法定代表人也变为刘淑青，这意味着融创系全面掌控新乐视，但乐视的未来仍充满未知。（采访对象均为化名）本文来源：第一财经责任编辑：白鑫_NT4464",
    "Comment": {
        "Content": "热评好多水军 角度刁钻，贾老板发你欠薪了吗？ 贾跃亭造一台车就能融到资，融到资就有了钱，有了钱就会还你们，给他时间就是给你自己的钱多条生路，搞倒了贾跃亭你的钱也就没了。 员工工资发放完，下一步肯定就是供应商了 二楼兄弟，这是水军 应该全球通缉这个诈骗犯！ 贾跃亭还真不是个东西，或者是个东西 因为大头是别人的，自己空手套白狼拿小份也不少了 为了这点流量，你们这些自媒体也不嫌看着烦，整天乐视一出热点你们就跟风写，跟你们老板说，都懒得点进来啦！算了，我这次给你们贡献一个点击，一个回复。 全民失信 FFer都不加s，看来假药停还是自嗨啊[微笑] 对贾跃亭有点信心，他不会欠债不还的 快播呢？ 老假还我的快播[暴怒] 他没骗啥吧上市公司高位套现不违法 他媳妇刚到米国，就封房子，好巧 凭本事借来的钱为什么要还？ 呵呵！ 乐视还在为什么不还钱 你瞎了还是聋了。 假药后台真硬，骗这么多人还能安全跑路 老贾真是人如其名啊，不愧是个演员 。居然還有水軍，這頭像，牛逼，早死早投胎 你真特么是个牛逼的人，我吃你家做的菜出问题了，我不找老板，我天天找厨师？？还要找卖菜的？？还要找运菜的？？那些我不管，我只知道你家店有问题，至于是厨师，还是运菜的还是菜本身，你店自己去解决，懂不懂！！！ 我下周回来给你们。 就没人敢过去弄死那个狗比吗？那边可以持械的！ 就一个人加啥s，其余是演员 贾总上午写ppt下午到处忽悠前半夜联系自媒体发文炒作后半夜一个人造车不眠不休你们能比吗 嘴上虽然没说，但心里还是想着乐视供应商的 其实我想笑到现在我一直觉得这就是个骗局假药停只不过是个靶子罢了乐视是假药停一个人的？你们供应商或乐视员工被乐视骗了都找假药停有什么用？他只是名义上的董事长就连最大股东都不是为何不去找其他股东和大佬说白了有些人给假药停封口费都像你攻击就完了和旁氏骗局都是一个路子不明觉厉的受害者都认为被骗只有找假药停解决我估计有些人心里早已笑开花或许花钱砸自己公司转移注意力不是没有可能的 你是东北野狗在惠州吗？老贾随时来一首《野子》让你跪下！ 贾的后台很大，你们就等死吧！ 老贾应该微博，等我造好汽车超越法拉利时候就回来给你们钱 没有整他的人大。神仙打架，殃及家臣 你们这种人，生孩子不怕没P眼儿么？ 好处自然你拿，锅我假药背，只求一家团聚，平平安安！妥妥的。 角度刁钻，贾老板发你欠薪了吗？ 快播呢？ 贾跃亭造一台车就能融到资，融到资就有了钱，有了钱就会还你们，给他时间就是给你自己的钱多条生路，搞倒了贾跃亭你的钱也就没了。 员工工资发放完，下一步肯定就是供应商了 不是吧 应该全球通缉这个诈骗犯！ 上市公司监管严重缺失… 因为大头是别人的，自己空手套白狼拿小份也不少了 呵呵！ 我下周回来给你们。 他没骗啥吧上市公司高位套现不违法 贾：想不到这帮家伙语法这么好，给看穿了。 二楼兄弟，这是水军 我對你媽牀上噴水比較有信心 去国外追债啊 。居然還有水軍，這頭像，牛逼，早死早投胎 假药后台真硬，骗这么多人还能安全跑路 哈哈，二楼神回复。 大势已去，再怎么折腾也没用 老假还我的快播[暴怒] 你瞎了还是聋了。 这种人居然没上红通 老贾应该微博，等我造好汽车超越法拉利时候就回来给你们钱 你们这种人，生孩子不怕没P眼儿么？ 好处自然你拿，锅我假药背，只求一家团聚，平平安安！妥妥的。 热评好多水军 就一骗子怎么不抓起来冻结房产啊 贾跃亭还真不是个东西，或者是个东西 就没人敢过去弄死那个狗比吗？那边可以持械的！ 为了这点流量，你们这些自媒体也不嫌看着烦，整天乐视一出热点你们就跟风写，跟你们老板说，都懒得点进来啦！算了，我这次给你们贡献一个点击，一个回复。 对贾跃亭有点信心，他不会欠债不还的 FFer都不加s，看来假药停还是自嗨啊[微笑] 贾总上午写ppt下午到处忽悠前半夜联系自媒体发文炒作后半夜一个人造车不眠不休你们能比吗 骗了那么多钱也是个人才～[窃笑] 他媳妇刚到米国，就封房子，好巧 贾跃亭这个傻逼，信用都没有了，还能做生意吗，还整天刷存在感， 乐视还在为什么不还钱 你是东北野狗在惠州吗？老贾随时来一首《野子》让你跪下！ 老贾真是人如其名啊，不愧是个演员 监管都是贪污腐败的，其实很容易发现问题的，去监管的时候饭局越好问题就越大 全民失信 你真特么是个牛逼的人，我吃你家做的菜出问题了，我不找老板，我天天找厨师？？还要找卖菜的？？还要找运菜的？？那些我不管，我只知道你家店有问题，至于是厨师，还是运菜的还是菜本身，你店自己去解决，懂不懂！！！ 洗钱洗成这样国内反应够迟钝的 就一个人加啥s，其余是演员 凭本事借来的钱为什么要还？ 老假在网易的水军这么多吗 嘴上虽然没说，但心里还是想着乐视供应商的 其实我想笑到现在我一直觉得这就是个骗局假药停只不过是个靶子罢了乐视是假药停一个人的？你们供应商或乐视员工被乐视骗了都找假药停有什么用？他只是名义上的董事长就连最大股东都不是为何不去找其他股东和大佬说白了有些人给假药停封口费都像你攻击就完了和旁氏骗局都是一个路子不明觉厉的受害者都认为被骗只有找假药停解决我估计有些人心里早已笑开花或许花钱砸自己公司转移注意力不是没有可能的 同样是一颗心，有的能装下高山和海洋，有的则能大如虚空，包容一切，有的却只能装下一己之悲欢。有大心量者，方能有大格局，有大格局者，方能成大气候。心有多大，世界就有多大，梦有多远，脚步就能迈多远。如果你的心还不够大，就用经历、痛苦与磨难去撑大它吧。 第三段最后一句，应该是“毕竟欠款不是小数目”写成了比较欠款不是小数目！把我顶上去，给小编看到 贾的后台很大，你们就等死吧！ 供应商要死了？<br>谁让你不会写PPT的<br>否则你也去融呀 这只是一般债务问题，好像目前还没发现到犯法的问题。回来应该是不会回来了，如果回来，虽然到目前还不用坐牢，但老赖名单没消除，也就应该没法正常出去了。 没有整他的人大。神仙打架，殃及家臣 ",
        "Total": 2461,
        "Link": "http://comment.tech.163.com/tech_bbs/D6L8HO8T00097U7R.html",
        "Reply": 54
    },
    "Source": "Netease"
}