{
    "Comment": {
        "Total": 886,
        "Reply": 65,
        "Link": "http://comment.sports.163.com/sports2_bbs/D75TCION00058781.html",
        "Content": "走不走 朋友，你好好读读你这句话，尤其是前两个字，然后再好好合计合计，是不是你说的道理。 你说的是美洲杯送给梅西俩亚军的桑切斯嘛？ 现在还说少了谁都行，温格真的越来越不行 与其给374一个坐地起价的机会，不如冬窗能入手就赶紧先谈判，夏窗多家一起跟374谈，热闹了。 都在等夏季免签现在谁报价谁傻逼 好比曼城想买374，那么你觉得曼城可以不经过374同意，直接砸钱给阿森纳吗？球员没脑子？如果373现在处于正常合同年限，放在市场上，多了不敢说，按照英超的泡沫价来算，六千万英镑一点也不过分，六千万镑的转会费加税后八百万英镑的年薪，曼联、曼城、切尔西，都承受得起。现在合同还剩半年的情况下，不管别的球队东窗买不买他，签字费是少不了的，对于球员来说，只剩半年了，而且又这个年纪了，肯定不愿意现在转会，到了今年夏窗成为自由人，两千万镑签字费，轻轻松松入口袋。年薪不会低于八百万镑。拭目以待吧。 已经不需要私下联系了，374现在可以正大光明谈下一份合同 大家踊跃报价 都能免签了，还跟你报个毛价呀，有意思的估计都在和桑切斯私下联系吧，这可是条大鱼 死猪不怕开水烫 当时工资那么低巴萨都不要，见过谁抢他吗？球到他脚下就丢，打硬仗没有雄起过一次，闷头带的无脑货 巴萨不要是因为msn没位置，你觉得桑切斯会愿意一直在那替补？ 拜仁不是有一阵要桑切斯么 别人都是傻子，就你聪明？如果等到374自由身，又要给签字费，薪水还要比其他俱乐部出得高，还要答应球员很多要求，来不来你家还说不准！就像阿尔维斯一样！现在有半年合同，砸个3千万就能买来，薪水按对内结构给，上场时间看表现，！多出几百万，麻烦事省一大堆！ 问题是就算你砸3000W转会费，也要看374愿不愿意去啊。现在拿转会费和夏天免费，区别还是很大的。当然也不能排除有土豪球队既不在乎冬窗转会费也有能力给374满意的薪水。 那还不是不要的？巴萨不要有谁去抢他了？价格也不高 不需要了，有J罗了，这家伙张嘴就几千万年薪，打破工资结构没必要，而且J罗相比还年轻，希望他能去曼城或者巴塞罗那吧，巴黎和皇马也不错，都比拜仁强，祝福了 周薪60w谁出的起，就算出的起，其他球员怎么看，而且他配吗 穷追猛打的是媒体自娱自乐而已……曼城绝对不会要这个刺头 374这种，在你们阿4纳是刺头，到了别队不是因为你们都是踢养老球的，他一个人非得拼命踢，当然是刺头了象吉鲁这样的法国当家中锋，都愿意在阿4纳替补混饭吃，说句难听的，压根本就没有拼劲只要自个能进几个漂亮球，根本就不在乎球队成绩怎样。。。。都是这么一帮人，374直的算另类了 374这种，在你们阿4纳是刺头，到了别队不是<br>因为你们都是踢养老球的，他一个人非得拼命踢，当然是刺头了<br>象吉鲁这样的法国当家中锋，都愿意在阿4纳替补混饭吃，说句难听的，压根本就没有拼劲<br>只要自个能进几个漂亮球，根本就不在乎球队成绩怎样。。。。<br>都是这么一帮人，374直的算另类了 看着意思就是不买人 都等着免签哪 HUAWEI就是这种智商 傻逼看球吗？人云亦云，有傻逼喊他大腿，就觉得他大腿了？看个球要跟老子比智商？ 现在这么便宜了? 就是刺头 我抬可以抬一手啊 可惜在智利他也不是老大 夏窗自由转会了啊 还有几个月就自由身了，傻子才报 圈里的人都知道374要去哪儿了，谁还自找没趣？ 再看别队球员因为受伤下场没法打比赛都哭了 夏天一个6000万一个3500万都不卖，一下子一亿都没了。你欧冠都挣不了那么多，还影响队内气氛团结。 免签再拿个签字费挺好。 看过几场，全场都能见他，凸显出其他人的打卡上班，不利于团结 温格这是在坑阿森纳的老板啊！夏季卖掉还能收6000万。 88年12月出生的，当打之年，身体素质、状态俱佳，又不刺头，免签绝对是抢手货。 不用多久，看谁抢吧，不看球的傻逼 不会那么高周薪的，但是签字费不会少于2000万 现在你来。工资5000无签字费！夏天去，工资8000，还给签字费，是你，你现在去？球员都是商品？ 踢出身价的自由球员，要么多给签字费，要么高周薪，总收入看怎么配比而已 又要抬价了.. 你说的是美洲杯送给梅西俩亚军的桑切斯嘛？ 现在还说少了谁都行，温格真的越来越不行 现在已经步入金元足球的时代，最好赚钱的还是卖人，教授要是买人的话那是真亏。 都在等夏季免签现在谁报价谁傻逼 好比曼城想买374，那么你觉得曼城可以不经过374同意，直接砸钱给阿森纳吗？球员没脑子？如果373现在处于正常合同年限，放在市场上，多了不敢说，按照英超的泡沫价来算，六千万英镑一点也不过分，六千万镑的转会费加税后八百万英镑的年薪，曼联、曼城、切尔西，都承受得起。现在合同还剩半年的情况下，不管别的球队东窗买不买他，签字费是少不了的，对于球员来说，只剩半年了，而且又这个年纪了，肯定不愿意现在转会，到了今年夏窗成为自由人，两千万镑签字费，轻轻松松入口袋。年薪不会低于八百万镑。拭目以待吧。 大家踊跃报价 圈里的人都知道374要去哪儿了，谁还自找没趣？ 还有几个月就自由身了，傻子才报 问题是就算你砸3000W转会费，也要看374愿不愿意去啊。现在拿转会费和夏天免费，区别还是很大的。当然也不能排除有土豪球队既不在乎冬窗转会费也有能力给374满意的薪水。 穷追猛打的是媒体自娱自乐而已……曼城绝对不会要这个刺头 374这种，在你们阿4纳是刺头，到了别队不是因为你们都是踢养老球的，他一个人非得拼命踢，当然是刺头了象吉鲁这样的法国当家中锋，都愿意在阿4纳替补混饭吃，说句难听的，压根本就没有拼劲只要自个能进几个漂亮球，根本就不在乎球队成绩怎样。。。。都是这么一帮人，374直的算另类了 374这种，在你们阿4纳是刺头，到了别队不是<br>因为你们都是踢养老球的，他一个人非得拼命踢，当然是刺头了<br>象吉鲁这样的法国当家中锋，都愿意在阿4纳替补混饭吃，说句难听的，压根本就没有拼劲<br>只要自个能进几个漂亮球，根本就不在乎球队成绩怎样。。。。<br>都是这么一帮人，374直的算另类了 教授，没人报价不很正常吗?强扭的瓜不甜 阿森纳主场很难赢切尔西，估计0:0或者0:1 88年12月出生的，当打之年，身体素质、状态俱佳，又不刺头，免签绝对是抢手货。 都等着免签哪 我抬可以抬一手啊 可惜在智利他也不是老大 夏窗自由转会了啊 免费了就没人竞争不给签字费？ 高层：球队表现超出预期，没必要调整阵容 现在不报，谁保证自由身会去哪 走不走 智障，是条狗给球队进球我都高兴，职业喷子，领教了，88 等半年啊 现在去就能妥妥拿一个英超冠军，懂？ 踢出身价的自由球员，要么多给签字费，要么高周薪，总收入看怎么配比而已 不需要了，有J罗了，这家伙张嘴就几千万年薪，打破工资结构没必要，而且J罗相比还年轻，希望他能去曼城或者巴塞罗那吧，巴黎和皇马也不错，都比拜仁强，祝福了 朋友，你好好读读你这句话，尤其是前两个字，然后再好好合计合计，是不是你说的道理。 与其给374一个坐地起价的机会，不如冬窗能入手就赶紧先谈判，夏窗多家一起跟374谈，热闹了。 已经不需要私下联系了，374现在可以正大光明谈下一份合同 都能免签了，还跟你报个毛价呀，有意思的估计都在和桑切斯私下联系吧，这可是条大鱼 博斯曼法案 死猪不怕开水烫 明明夏天可以签的，非得冬窗花钱？？？？？？？？？？？？？？？？？？？？ 巴萨不要是因为msn没位置，你觉得桑切斯会愿意一直在那替补？ 拜仁不是有一阵要桑切斯么 别人都是傻子，就你聪明？如果等到374自由身，又要给签字费，薪水还要比其他俱乐部出得高，还要答应球员很多要求，来不来你家还说不准！就像阿尔维斯一样！现在有半年合同，砸个3千万就能买来，薪水按对内结构给，上场时间看表现，！多出几百万，麻烦事省一大堆！ 那还不是不要的？巴萨不要有谁去抢他了？价格也不高 气死温格？呵呵哒 周薪60w谁出的起，就算出的起，其他球员怎么看，而且他配吗 哈哈哈哈一上来先签名的说别人喷子，逼脸要吗？真要那么差出6000w的都傻逼，不卖的更傻逼，只有你是正常的对吗？ 足球合同又不是NBA，球员转会合同都是需要重新签订，又不是像NBA是合同转移。不管是不是到期自由身走的，球员的合同年薪都是和球队重新签，球员不满意，球队根本买卖不了球员 看着意思就是不买人 现在你来。工资5000无签字费！夏天去，工资8000，还给签字费，是你，你现在去？球员都是商品？ 现在这么便宜了? 没人报价都是拜鬼才所赐。 曼联就不想要！ 再看别队球员因为受伤下场没法打比赛都哭了 夏天一个6000万一个3500万都不卖，一下子一亿都没了。你欧冠都挣不了那么多，还影响队内气氛团结。 免签再拿个签字费挺好。 这是想免费走人的节奏 温格这是在坑阿森纳的老板啊！夏季卖掉还能收6000万。 不会那么高周薪的，但是签字费不会少于2000万 最已阵已经成型 "
    },
    "Title": "温格透露暂无人报价桑切斯 否认有意求购路易斯_网易体育",
    "KeyWords": "桑切斯,温格,路易斯,阿森纳",
    "Article": "网易体育1月2日报道：桑切斯的去留如今是阿森纳球迷关注的焦点。在今日的赛前发布会上，温格透露并没有球队对桑切斯提出报价，而且温格相信阿森纳不会离了桑切斯就转不了。另外，温格否认求购切尔西的大卫-路易斯。29岁的桑切斯和阿森纳的合同在6个月后就到期了，他至今没有和球队续约。曼城是桑切斯渴望加盟的球队，瓜迪奥拉本来计划是在本赛季结束后免费签下桑切斯。但随着热苏斯的重伤，有媒体爆料称瓜帅有可能提前出手。“并没有任何球队和我们联系过。”温格否认曼城或者巴黎对桑切斯提出了报价。地球离了谁都照转，温格认为桑切斯就算离队，阿森纳也可以活下去。“这支球队（阿森纳）在过去曾失去了很多重要的球员，但我们每次都能做出及时的调整。”温格强调。当然，温格并没有放弃续约桑切斯和厄齐尔的念头。“你肯定想留住队内最好的球员，我希望他们留队。但是，我没必要过于恐慌。能否留队并不是我说了算的，这还取决于球员的想法。我们目前还没有失去他们，如果他们真的离开了，我们会引入新的顶级球员。”温格表示。有消息称温格要买切尔西的路易斯，后者已经被孔蒂打入冷宫。温格对此给予否认：“那些传言都是假的。”那么，冬窗会买人吗？温格回应道：“我们还在观望，我们希望做一些事情。”明日，阿森纳将坐镇主场迎战切尔西，这将是他们缩小同第四名分差的好机会。目前，切尔西排在第3位，阿森纳排在第5位，二者相差7分。科拉希纳茨因伤将确定无法出场，而厄齐尔和科斯切尔尼则还在观察中。温格表示：“厄齐尔的状态还有待观察，科斯切尔尼则有30%-70%的出场可能性。”本文来源：网易体育作者：风过乡责任编辑：郑鑫桐_BJS5086",
    "URL": "http://sports.163.com/18/0102/19/D75TCION00058781.html",
    "PublishTime": "01/02/201819:09:44",
    "Source": "Netease"
}