{
    "Article": "网易体育1月3日报道：据英国天空体育消息，阿森纳正在与20岁的希腊后卫马夫罗帕诺斯谈判，并取得了突破性进展。马夫罗帕诺斯效力于希腊超级联赛球队帕斯基安尼纳，是希腊U21国家队的一员。据悉，阿森纳希望签下他之后，将他租借给德甲球队不莱梅。上赛季，马夫罗帕诺斯就完成了自己的希超首秀，本赛季出场14次成为球队主力。北京时间1月4日凌晨，阿森纳将主场迎战切尔西。赛前的发布会上，温格也承认球队可能在冬窗签下新援：“我们会引援，但现在还很难确定，因为这不仅仅取决于我们。阿森纳欢迎所有位置的优秀球员加盟，当然这也要取决于球队的伤病情况。另外，这也和我们能否与一些球员完成续约有关。”本文来源：网易体育作者：Rosa责任编辑：冯昊天_NSJS2656",
    "URL": "http://sports.163.com/18/0103/21/D78O0VU400058781.html",
    "KeyWords": "阿森纳,希腊,切尔西,德甲",
    "PublishTime": "01/03/201821:33:45",
    "Title": "阿森纳冬窗首签接近完成!挖20岁小将 然后租出去_网易体育",
    "Comment": {
        "Content": "这很阿森纳 阿森纳没救了。 这很温格 哇塞，熟悉的配方，熟悉的味道 转会冬窗完美结束，可以下树了😂 依旧稳的一比 这个调调靠谱 这样很娜娜 这才是真正的足球经理人👍 阿森纳年年都是这个套路 好像欧洲各豪门都准备了一个多亿啊？什么库蒂尼奥之类的。没看到他们想要买29岁小将吧？ 这不是刘青云吗 为了避免出现温差签 好像欧洲各豪门都准备了一个多亿啊？什么库蒂尼奥之类的。没看到他们想要买20岁小将吧？ 熟悉的套路.. 阿森纳冬窗首签接近完成!挖20岁小将然后租出去，打开~~ks三三九！！给.十a八凯时yu乐，阿森纳冬 熟悉的套路.. 阿森纳没救了。 这很温格 争四，难 这样很娜娜 依旧稳的一比 典型的阿森纳屎的签约 先练练级，然后卖几千万磅！ 这很温格 这才是真正的足球经理人👍 👆国-产-papa-啪➕↖️片刚才，看到树林边小车里有一对男女好像被锁车里了，看样子很热，衣服都脱光了，死命挣扎，车子一晃一晃的，女的表情很难受，好像缺氧，男的在做人工呼吸，人命关天，我捡起一块砖头，就朝车玻璃砸去，男女获救了，他们想感谢，一直喊着谁谁，可我已经走远了传播正能量让世界充满爱 转会冬窗完美结束，可以下树了😂 t.寝cn/RHlCE5R（国内国外都有，删掉“寝”字 去不来梅怕是要和张抢饭碗啊[狗][狗][狗] 阿森納引援特徵：小白臉+小鮮肉+年輕+沒聽過 怎么租出去？留着怎比钱宝好用吧 这个可以。 这很阿森纳 阿森纳冬窗首签接近完成!挖20岁小将然后租出去 连③年成才，然后不续约了 不能 哇塞，熟悉的配方，熟悉的味道 先练练级，然后卖几千万磅！ 这个调调靠谱 已经租借到洛里昂锻炼一年. ",
        "Link": "http://comment.sports.163.com/sports2_bbs/D78O0VU400058781.html",
        "Total": 393,
        "Reply": 32
    },
    "Source": "Netease"
}