{
    "Source": "Netease",
    "KeyWords": "亚洲,独角兽公司,创业",
    "Title": "盘点2017亚洲新晋18家独角兽公司，15家是中国的_网易科技",
    "PublishTime": "12/25/201711:28:09",
    "URL": "http://tech.163.com/17/1225/11/D6GFPKG900097U7R.html",
    "Article": "（原标题：Thisyear’snewherdofunicorns）网易科技讯12月25日消息，在投资领域，当一个创业公司估值达到10亿美元时，人们就称它加入了独角兽俱乐部。据国外媒体TechinAsia报道，2017年，亚洲诞生了不少新独角兽——比去年多两个。根据TechinAsia的数据库，在18家突破10亿美元估值关口的创业公司中，几乎全都来自中国。只有3个新独角兽来自中国以外的国家：印尼电商公司Bukalapak、日本AI创业公司PreferredNetworks和菲律宾预制房屋公司RevolutionPrecrafted（同时也是该国迄今为止的首家独角兽公司）。“独角兽俱乐部相比由欧美公司主导的5年前已经发生了巨大的变化。如今，中国正在快速追赶美国的步伐，也已经超越欧洲。”KPMG以色列公司技术主管阿瑞克·斯佩尔（ArikSpeier）在公司的第三季度报告谈到全球风投趋势时指出。以下是2017年亚洲所有新晋独角兽的简介（按照行业领域分组）：交通出行1.蔚来蔚来的电动SUVES8蔚来是中国的新兴电动汽车公司。它获得了多家知名企业的投资，其中包括腾讯、百度、红杉资本和NIO（原名NextEV）。它也将进入自动驾驶汽车领域。该创业公司计划2020年推出全自动驾驶汽车。今年，蔚来有一连串的动作，从展示它的自动驾驶概念车Eve，到在北京成立一个兼作蔚来用户私人俱乐部的陈列室。12月，该公司还推出了ES8——对标特斯拉的ModelX。2.摩拜单车摩拜单车是中国领先的共享单车创业公司之一。得益于腾讯、红杉资本、淡马锡等投资方的支持，该公司拥有相当充裕的资金。这一点非常重要，毕竟目前正值共享单车公司们探索各自的商业模式之际——目前以结合广告和租赁费用为主。对于这家来自北京的创业公司来说，今年的主题是海外扩张。截至目前，它的共享单车已经覆盖中国以外的11个国家地区，进入全球176个城市。11月，摩拜单车将其橙色单车推向悉尼，澳大利亚由此加入该公司的业务覆盖国家行列。该公司在国内的劲敌Ofo今年也加入了十亿美元估值俱乐部。当然，并不是所有共享单车公司都像摩拜单车和Ofo那么幸运和财力雄厚。由于陷入财务困境，无力支付员工薪水和向用户退还押金，中国多家共享单车公司在今年倒闭。3.Ofo跟摩拜单车一样，共享单车领域的另一个独角兽Ofo今年也发力国际扩张。对于2018年，该公司瞄准四个国家：俄罗斯、意大利、捷克和荷兰。摩拜单车获得腾讯的投资，而Ofo则背靠阿里巴巴集团旗下的蚂蚁金服。Ofo还接入了蚂蚁金服的芝麻信用系统，由此该创业公司可让芝麻信用达到特定分数的用户能够免交100元的押金即可使用它的共享单车。腾讯信用系统仍处在测试阶段，不过广州被选定的用户11月开始能够试用免押金的摩拜单车。4.大搜车大搜车是新车和二手车的在线交易平台。该总部位于杭州的创业公司还为汽车经销商提供营销和金融管理服务。在中国，随着新车销售放缓，二手车市场越来越景气（尽管新车市场仍然比二手车市场庞大得多）。人们对于二手车的观念改变是一大驱动因素——2016年，47%的潜在买家认为二手车能够良好替代新车，较2011年的18%大幅提升。大搜车等在线平台在改变人们的观念上也扮演了重要角色，因为它们的存在，让二手车销售变得更加标准化，更加透明化。11月，大搜车从阿里巴巴那里获得3.35亿美元的投资——预示着大搜车与该电商巨头进行将展开业务整合和未来合作，其中包括联合打造一个新的汽车零售和金融平台。该创业公司的其它投资方包括蚂蚁金服、美国华平投资集团（WarburgPincus）和红杉资本。房地产5.优客工场共享办公空间在中国的大城市比比皆是。面对日益加剧的竞争，各家共享办公空间公司在想法设法地吸引更多的租户，比如提供啤酒以及其它的福利。优客工场是该市场资金实力最雄厚的公司之一。该总部位于北京的公司获得了多家科技风投公司和房地产开发商的投资，目前它在30个不同的城市拥有共享办公空间。6月，该公司在新加坡设立了首个办事处。6.RevolutionPrecrafted美国艺术家大卫·萨利（DavidSalle）设计的模块化房屋10月，RevolutionPrecrafted公司完成了B轮融资，成为菲律宾迄今为止的第一家独角兽公司。该轮融资由新加坡风投公司K2领投，K2的投资组合还包括Spotify、Palantir等多家其它的独角兽公司。该创业公司成立于2015年，致力于出售由扎哈·哈迪德（ZahaHadid）等世界知名的建筑师和设计师设计的预制房屋。RevolutionPrecrafted的预制房屋平均售价为12万美元左右，接受全球各地消费者的订购，至少90天交付。7.途家网不同于美国等西方市场的消费者，中国消费者不大愿意住在陌生人的家。对于中国的很多家庭来说，将自己的空房租出去也不是有吸引力的选项。“如果人们有孩子，那他们会选择两卧公寓；如果他们有孩子，同时跟父母一起住，那他们可能会选择三卧公寓。每个卧室都有人住，因此没有多余的空间给其他人居住——我们没有像国外一样的房屋设计。”途家网总裁庄海向TechinAsia表示。途家网被称作“中国的Airbnb”，不过它的运营模式与该美国独角兽略有不同。它的平台并没有完全依赖于私房屋主，而是充分利用中国的数以百万计的空置房产。它还为有着正规管理的本地社区提供帮助，甚至在大城市运营中介服务。10月，该公寓民宿预订平台获得了3亿美元的E轮融资，估值突破10亿美元关口。8.小猪网小猪网也涉足短租民宿预订领域。在途家网宣布加入独角兽俱乐部一个月后，获得1.2亿美元新轮融资的小猪网也正式加入。该轮融资由马云旗下的云峰基金领投。小猪网成立于2012年，创始人是陈驰。到目前为止，该公司的网站平台上共有20多万套房源，覆盖全球300多个城市。人工智能和大数据9.PreferredNetworksPreferredNetworks是一家日本AI创业公司，致力于让从机器人到无人驾驶汽车的多个领域的设备变得更加智能。在无人驾驶汽车领域，该创业公司在与汽车行业巨头丰田进行合作。8月，PreferredNetworks从该汽车厂商那里获得9260万美元的融资。该笔融资用于加速双方在移动出行相关AI的联合研究，比如物体识别和汽车信息分析。该创业公司也在与电子产品公司松下和工业机器人制造商发那科（Fanuc）展开合作。作为一家专注AI的创业公司，PreferredNetworks将要与一些科技巨头竞争。不过它的创始人兼CEO西川彻（ToruNishikawa）并没因此而感到畏惧。“我们的目标是，做到技术领先谷歌一步。”他2015年向《日经亚洲评论》表示。10.SenseTime（商汤科技）在中国，随着面部识别和图像识别技术的需求不断增加，像SenseTime这样的人工智能公司备受投资者的青睐。今年夏天，该总部位于香港的创业公司完成了规模高达4.1亿美元的B轮融资，投资方包括私募股权公司鼎晖投资和中国投资公司赛领资本。SenseTime的面部识别和图像识别技术被用于多个行业领域的应用，如金融、安保和社交媒体。微博使用SenseTime的面部识别技术来检测人脸和整理照片——以及美化照片。银行和金融科技类应用也使用该创业公司的技术来进行面部验证和鉴定。的确，随着科技巨头和创业公司纷纷推行无收银员的商店和无人商店，“笑脸支付”将会日益普及。明年，SenseTime计划上市，以及在美国设立研发中心。肯德基的“笑脸支付”订购系统，支付宝和肯德基在中国试验脸部识别支付11.寒武纪科技寒武纪科技创立于2016年3月，其名称源自“寒武纪大爆发”，致力于解决深度学习和人工智能领域的硬件低效问题。根据TechinAsia的数据库，该中国AI芯片开发商估值已经达到10亿美元，投资方包括阿里巴巴和中国科学院。目前，深度学习算法需要巨大的运算容量。不过，打造特制芯片可让人工智能少消耗计算资源。去年，寒武纪科技推出了它的第一款芯片Cambricon1A，该芯片可应用于多个行业，比如机器人、无人机和无人驾驶汽车。12.数梦工场数梦工场是一个大数据和云计算平台，其产品与芝麻信用、支付宝支付系统等阿里巴巴业务紧密整合。它还为企业提供“新零售”支持，即帮助它们整合线上线下的消费者数据来驱动销售。今年6月，数梦工场完成了1.13亿美元的A轮融资，投资者包括光大实业资本、银杏谷资本和追投的阿里巴巴。除了阿里巴巴以外，该创业公司的客户还包括吉利汽车和滴滴出行。教育13.猿辅导在中国，教育资源过度集中在大城市，因此家长们日益将在线教育视作替代选项。这一趋势对于猿辅导的业务是一大提振，该在线教育平台致力于匹配各个年龄段的学生和在线教师。家长可以给他们的孩子购买不同的辅导课程，猿辅导为从幼儿园到高中生提供英语、数学等全科的在线视频直播课程。家长们还可以筛选老师，各个老师的个人页面不仅仅详述了他们的工作经历和评分，还包括一个介绍视频。“教育是一个持续性的主题，每个中国家庭都会在这方面进行大力投资。”美国华平投资集团常务董事GordonDing接受《南华早报》采访时表示。5月，猿辅导从美国华平投资集团和腾讯获得1.2亿美元的融资，跻身独角兽行列。14.VIPKID跟猿辅导一样，VIPKID也抓住中国教育体系的可及性痛点。具体来说，该总部位于北京的创业公司致力于连接4至12岁的中国大陆学生和优质北美外教。1对1英语课程在该公司的专有在线教室进行。该公司称，截至今年8月，它拥有20多万来自32个国家的付费学生。它的月营收在7月创下新高，达到6000万美元。虽然中国市场已经有英孚教育、华尔街英语等诸多的英语教育公司，但VIPKID是少数专注于少儿英语的公司之一。VIPKID还是腾讯的投资组合公司之一，其它的投资者则包括红杉资本、经纬创投、真格基金等等。媒体15.字节跳动（今日头条的母公司）字节跳动北京总部在一个由阿里巴巴和腾讯主导的生态系统中，字节跳动作为独立实体的崛起本身已经是非凡的成就。它的估值高达200亿美元，也就是说它也算得上科技巨头。今年，该总部位于北京的创业公司进行了多笔收购，包括收购了美国视频制作应用Flipagram和广受北美青少年欢迎的视频社交网络Musical.ly。两笔收购都旨在强化字节跳动的旗舰级新闻聚合应用今日头条。今日头条以其由AI驱动的新闻推送而著称，它利用算法来决定向用户推送符合他们在应用上的阅读活动和偏好的文章。据该公司称，今日头条拥有1.2亿月活跃用户。除了给今日头条的机器学习系统带来更多的数据以外，像Musical.ly这样的收购也将帮助该创业公司走向国际。字节跳动正在瞄准数个海外市场，比如东南亚、日本、巴西和印度。16.一点资讯一点资讯也是一款新闻聚合应用。它与字节跳动的今日头条竞争，不过它的用户黏性还明显不如后者。一点资讯称，截至1月，其应用的日活跃用户量为4800万。该公司于2010年创立，创始人郑朝晖是前雅虎北京研究院院长和前百度高管。一点资讯是中国少数有“特殊管理股权”为政府持有的公司之一。电商17.Bukalapak在一个拥有Lazada、Shopee等多家财力雄厚的竞争对手的市场，印尼电商创业公司Bukalapak认为自己拥有本地优势。该公司的CEO艾哈迈德·扎吉（AchmadZaky）在TechinAsia雅加达大会举行期间表示，公司已经将目光对准印尼“甚至不使用Facebook”的二三线城市。“很多的中小企业觉得线下很难赚钱，因为运营成本太高。这是我们在解决的一个问题——我们帮助小公司变得能够利用互联网与大型商场竞争。”扎吉解释道。Bukalapak已经准备好迎接2018年，竞争对手们在过去一年里也一直在展开新轮融资。8月，阿里巴巴向Bukalapak的本地竞争对手Tokopedia注资11亿美元，并将它与Lazada关联起来——Lazada是阿里巴巴的另一家投资组合公司，是东南亚市场的大型电商公司。10月，总部位于新加坡的Sea在纽约证券交易所挂牌上市，融资8.84亿美元。Sea涉足在线游戏、电商、数字支付等领域。所以说，随着印尼电商市场竞争持续升温，筹措充裕的资金对于Bukalapak而言尤其重要。据估计，到2020年，该市场的规模可能将达到1300亿美元。11月，该创业公司完成了新轮融资，融资额没有披露，但它借此进入了独角兽俱乐部。2015年，它从印尼媒体集团EmtekGroup那里获得了B轮融资。社交媒体18.知乎类似美国问答网站Quora的知乎在中国越来越流行。在它的平台上，用户通过向专家和思想领袖付费来获得想要的知识。不同于Quora，知乎是通过提供付费在线直播来货币化它的行业专家网络，用户可以参加在线课程，以及实时与不同的发言者进行互动。今年1月，知乎完成了规模为1亿美元的D轮融资，由此跻身独角兽行列。2016年，该网站共有6500万注册用户，其中有1850万是日活跃用户。今年，该问答网站与字节跳动的今日头条之间的竞争呈现加剧。后者从知乎挖得多位行业专家，同时也在打造自有的问答平台。（乐邦）原文链接https://www.techinasia.com/2017-new-unicorns本文来源：网易科技报道责任编辑：王华春_BJS5284",
    "Comment": {
        "Content": "膜拜OFO。。。 5年后还能胜几个 这就是人口红利 不要为了喷而喷，就我了解的，其中好几家公司的技术，的确是很牛的！ 说是说独角兽，其实都跑不出BAT这个怪兽乐园。 都是忽悠 请举例说明 大多数都是互联网公司靠的都是中国网民数量世界第一。上亿的用户，在老外眼里是天文数字，但在中国，很容易达到。 膜拜OFO。。。 这就是人口红利 今日头条的盈利来源就是硬广和软文吧 都是忽悠 好支持威武有希望了 我想知道，全世界新晋的独角兽有多少个？ 风光66 信息如此发达的时代还提什么独角兽，现在大公司都已经会72变了…… 大多数都是互联网公司靠的都是中国网民数量世界第一。上亿的用户，在老外眼里是天文数字，但在中国，很容易达到。 有几家确实牛 5年后还能胜几个 国神话中的独角兽是只在履行重要使命时才出现的吉祥之物.西方的独角兽则形如白马,大概有6中形态,比较着名的有麒麟,额前有一个螺旋角,代表高贵 3月20日,东南亚知名创投媒体初创公司TechInAsia宣布获得了一笔600万美元的新一轮融资。总部位于新加坡的TechinAsia曾在2015年6月募集到一笔400万美元的C轮融资。 说是说独角兽，其实都跑不出BAT这个怪兽乐园。 不要为了喷而喷，就我了解的，其中好几家公司的技术，的确是很牛的！ 请举例说明 总部位于新加坡的TechinAsia曾在2015年6月募集到一笔400万美元的C轮融资。 膜拜OfO蔚来寒武…前两个考押金收息，一个是乐视一个是银河的儿子。 ",
        "Reply": 18,
        "Link": "http://comment.tech.163.com/tech_bbs/D6GFPKG900097U7R.html",
        "Total": 174
    }
}