{
    "Comment": {
        "Content": "小S老公心是真的大。。。 小s也能成女神的话那马路上阿猫阿狗都是女神了 那些也叫明星！！我笑了，如果你请到郑源，欢子他们，才算是二流明星，请陈奕迅，王杰，林峰，才叫明星！懂…… 这男的没把小S这煞笔神经女打死？😏 这是她老公？ 很好奇她老公做什么的 人家也就在台上做表面文章，明眼人一看都知道是为了节目效果。<br>和李小璐比起来，不说了。 防水的化妆品价格要变高了。。。。 素颜长这样就没必要化妆了，谁会把自己往丑里弄？ 一滴一滴的慢慢的累积着，然后关注你。那个人愿意微笑，很孝顺还擅长听别人心声的人。那个温暖可爱的魏晨。我喜欢过，你是过去性。我喜欢你，是现在型。 很好奇她老公做什么的 小s也能成女神的话那马路上阿猫阿狗都是女神了 素颜长这样就没必要化妆了，谁会把自己往丑里弄？ 小S说她虽然生了3个孩子，但是下面还是很紧 这是她老公？ 你老公的鸡鸡搞不定你 小S老公心是真的大。。。 这是大s 那些也叫明星！！我笑了，如果你请到郑源，欢子他们，才算是二流明星，请陈奕迅，王杰，林峰，才叫明星！懂…… 一滴一滴的慢慢的累积着，然后关注你。那个人愿意微笑，很孝顺还擅长听别人心声的人。那个温暖可爱的魏晨。我喜欢过，你是过去性。我喜欢你，是现在型。 吃软饭的 那些也叫明星！！我笑了，如果你请到郑源，欢子他们，才算是二流明星，请陈奕迅，王杰，林峰，才叫明星！懂…… 这男的没把小S这煞笔神经女打死？😏 真素颜？别忘了那排牙 防水的化妆品价格要变高了。。。。 素颜长这样就没必要化妆了，谁会把自己往丑里弄？ 素颜长这样就没必要化妆了，谁会把自己往丑里弄？ 人家也就在台上做表面文章，明眼人一看都知道是为了节目效果。<br>和李小璐比起来，不说了。 长的跟个猪一样的好意思美女，这家姐妹两都是奇葩，台湾也就这样了 ",
        "Link": "http://comment.ent.163.com/ent2_bbs/D771HEDL00038FO9.html",
        "Reply": 18,
        "Total": 1320
    },
    "KeyWords": "小s",
    "PublishTime": "01/03/201805:41:32",
    "Title": "小S工作不忘和老公约会 一脸素颜被赞真女神_网易娱乐",
    "Source": "Netease",
    "Article": "网易娱乐1月3日报道1月2日晚，小S更新微博，晒和老公共进晚餐的照片，并称：“来香港工作顺便跟老公约会！”照片中，小S戴着黑色帽子，身穿毛绒绒外套，一脸素颜，对镜自拍，对面的老公抢镜成功，露出帅气迷人的笑容，桌上放有红酒，看来夫妻二人是打算不醉不归啊。此微博曝光后，网友纷纷围观并留言称：“就服敢素颜约会的真女神。”“流言蜚语那么多，还是你们好。”“太美啦，幸福的S姐最美！”本文来源：网易娱乐责任编辑：宋玉鑫_NK6612",
    "URL": "http://ent.163.com/18/0103/05/D771HEDL00038FO9.html"
}