{
    "Article": "（原标题：媒婆走村串巷顺手牵羊4个月内盗得鸡鸭兔300多只）40多岁的来宾武宣女子黄某，原本是一个媒婆，但因做媒生意冷淡，便利用自己之前走村串巷熟门熟路的机会，干起了专门偷鸡鸭和腊肉的勾当。近日，警方将黄某抓获，发现她在短短的4个月内竟然偷鸡鸭兔子等300多只，另外还顺手牵羊偷事主家的腊肉腊肠。本文来源：广西日报责任编辑：王征_NN7526",
    "Title": "媒婆走村串巷顺手牵羊 4个月内盗得鸡鸭兔300多只_网易新闻",
    "PublishTime": "01/02/201813:38:52",
    "Source": "Netease",
    "Comment": {
        "Content": "这样的人就是犯法 这是新搞的副业吗 先奸后杀！ 实在搞不懂如今的这些贼女人 媒婆的生意不好，顺手搞点副业，无奈之举。 这样的人就是犯法 这是新搞的副业吗 媒婆也应该学玩微X陌X哦 这是走了多少村串了多少巷 先奸后杀！ 媒婆的生意不好，顺手搞点副业，无奈之举。 人身难得佛法难闻无错误传递唯一免费正法就是发菩提心放下吃素持戒慈悲平等无错误不要伤害一切不要破坏大自然不杀不堕胎不淫秽不低俗不看明星不暴露紧身不用动物成分不要结怨不破坏龙脉给鸟自由不用吃药不用打针不用动物成分药不伤害小虫不伤害害虫不伤害不卖动物成分禁止恶不造口业不发恶信息不结冤无错误的才能不老健康快乐一切自己因果自己了。 实在搞不懂如今的这些贼女人 ",
        "Reply": 8,
        "Link": "http://comment.news.163.com/news2_bbs/D75AENVS0001899N.html",
        "Total": 19
    },
    "KeyWords": "媒婆,偷鸡,生意",
    "URL": "http://news.163.com/18/0102/13/D75AENVS0001899N.html"
}