{
    "Article": "（原标题：上海吴淞口锚地一船沉没：3人获救，流缓时潜水员将下水探摸）1月3日，上海海事局工作人员正在事故现场对失踪人员进行搜救。中新社发潘洁沣摄上海海上搜救中心1月2日夜间11时39分接报，载有钢材的“长平”轮在吴淞口锚地沉没。经吴淞水上交通管理中心系统回放，该轮起锚后与锚泊散货船“鑫旺138”轮（载卷钢）曾发生碰撞。接报后，中心协调上海海事局“海巡0103”、“海巡0105”等6艘海巡艇，东海救助局“东海救204”，上海海警总队“海警31018”，附近船“骏宇28”轮前往搜救，联系打捞船“东南起3”等3艘打捞船，清污船“环生1”、“环生5”前往现场，通知东海预报中心推算落水人员漂移轨迹，播发航行警告。救助直升机已起飞前往现场搜救。截至3日凌晨0点49分，2人被附近船舶“骏宇28”轮救起，1人被“鑫旺138”轮救起。截至发稿，上海海事局“海巡0103”等10艘海巡艇、东海救助局“东海救204”、上海海警总队“海警31018”以及拖轮“海港4”在现场搜救，“环生5”等6艘清污船在现场进行清污作业。“东南起1”等3艘打捞船已现场定位沉船，待流缓时安排潜水员下水探摸。据了解，“长平”轮船上13人，获救人员为船上大副、大管轮和1名水手，载钢材5000吨，由营口至上海。本文来源：澎湃新闻责任编辑：乔敬_NN6607",
    "PublishTime": "01/03/201808:54:00",
    "URL": "http://news.163.com/18/0103/08/D77CQO8H00018AOR.html",
    "Source": "Netease",
    "Comment": {
        "Content": "基本为零，这么冷的天气，但是希望有奇迹！！！ 希望其他的船员也能平安！！！ 不整个专题吗？毕竟这么多人。 吴淞口当年抗日的时候就有很多沉船 吴淞口环境很复杂～曾经的水手 中国工薪阶层的孩子不能上大学的话，就会被送进工厂，做苦工！中国工薪阶层的孩子不能上大学的话，就会被送进工厂，做苦工！ 愿平安~~ 你眼神好找到了 自家的丑闻放在看不见的角落，美帝的一件屁事...头版滚动! 生命可贵，望一切安好 世界真奇妙，在锚地也能撞船。美舰沉的不冤。 吴淞口环境很复杂～曾经的水手 愿平安~~ 宇宙的探索是离不开我的话的，只有把围绕地球公转的一切物质包括气体计算在地球体积之内才能找到地球真正的边和角，那是反引力汇聚地，是真正的真空隧道，宇宙高速路，太阳系内的动脉!把围绕太阳公转的一切物质包括气体计算在太阳体积之内才能找到恒星与恒星的边和角，那是恒星与恒星之间的真空高速隧道，找到真空隧道以近光速超光速飞行那不是个事!宇宙飞行器也不能按照飞机的二维结构原理制造，飞机是不能高速自转的，但只有高速自转才能产生真空电磁场，以近光速飞行，未来的宇宙飞行器必须按地球原理制造，八层以上结构，你看地球高速自转着前进，我们人坐在地球上有啥不适感觉吗？ 你眼神好找到了 自家的丑闻放在看不见的角落，美帝的一件屁事...头版滚动! 生命可贵，望一切安好 世界真奇妙，在锚地也能撞船。美舰沉的不冤。 希望其他的船员也能平安！！！ 不整个专题吗？毕竟这么多人。 吴淞口当年抗日的时候就有很多沉船 基本为零，这么冷的天气，但是希望有奇迹！！！ 中国工薪阶层的孩子不能上大学的话，就会被送进工厂，做苦工！中国工薪阶层的孩子不能上大学的话，就会被送进工厂，做苦工！ 男人是最棒的 ",
        "Reply": 13,
        "Total": 92,
        "Link": "http://comment.news.163.com/news2_bbs/D77CQO8H00018AOR.html"
    },
    "Title": "上海吴淞口沉船事故：3人获救 仍有10人下落不明_网易新闻",
    "KeyWords": "吴淞口,潜水员,海警,锚地"
}