{
    "URL": "http://tech.163.com/17/1229/10/D6QNO6GB00097U7R.html",
    "Article": "网易科技讯12月29日消息，近日有消息传出，王健林曾寄予厚望的万达网络科技集团目前正面临着生存艰难的局面。昨日据澎湃新闻报道，万达网科从当天开始大规模裁员，据称要从目前的6000名员工裁至300名，即只保留职能部门，这意味着网科人员将从最高峰削减95%。《劳动合同解除通知》内容显示，公司与员工从2018年1月1日起解除劳动合同，此外，万达网科向离职员工支付1个月工资作为代通知金，支付2个月工资作为补偿金，万达网科为员工缴纳的社会保险到2017年12月为止。对此，万达网络科技集团总裁曲德君于今日在其朋友圈做出回应，称“万达网科没有倒下，万达对实体商业与新科技相结合的发展目标和决心没变，局部的调整是为了更快更好更健康的发展”。（锡安）本文来源：网易科技报道责任编辑：白鑫_NT4464",
    "Source": "Netease",
    "PublishTime": "12/29/201710:59:35",
    "KeyWords": "万达,裁员,健康,发展",
    "Comment": {
        "Content": "大好经济环境哪来的裁员，这叫优化 之前是按照商的格局布置的人员，如今转型，肯定这些人也留不住 华为今年裁员了多少人来着，我给忘记了 天空飘过5个字，那都不是事 好聚好散，企业遇到困难员工估计也会理解。 我也是飞凡员工，万达是一个不负责的企业，员工被裁后连报销不给处理。上海市劳动监察不作为不管这种事。如果要了解可以联系我13580443186. 坐看中国富豪杂耍 飞凡现在说是主要服务线下了的，项目没做好的，谁的责任 思聪玩嫩么的钱够你报销吗，我给他打个电话 先定个小目标，年底裁他1千人 傻逼，学联通啊，叫精简部门 都是水军吧，毕竟要掩饰真正的原因 觉得主要是用户的责任，就像我们的政策执行不好都是这一届人民不行 人家可能马上就去别的公司上任的啊，到时候又可能是代替你的工作 万达几乎要垮了，不过你们也资格嘲笑 2016年广州鞋厂裁人倒闭，万达现在国家打击，资金断裂，裁人很正常，希望未来一些各地区房价崩盘。有房子住就行了，还要去炒。必须崩盘。崩盘。崩盘。重要的说三遍。 这个，哎，轻资产，没有品牌和技术，现在万达不好过了吧 長白山剛被取締…… 好多人去飞凡就是为了高工资的，有几个真心为项目积极奉献过的 长白山项目不是赠送的么 房价真心不算高。高房价的地方福利真心好。现在中国最可怕的是信贷危机。一堆没钱的人不思进取还天天享受生活去贷款。现在信贷危险的很。房子这东西不可能崩盘的。跟福利比起来真心还算合理最多降点价钱。 评论区操心的人一天咋这么多呢。 企业转型，无关的员工肯定会被裁掉，没什么可喷的 这个，哎，轻资产，没有品牌和技术，现在万达不好过了吧 企业真心不愿意裁员的，肯定是经营遇到了困境才会这样。 都是水军吧，毕竟要掩饰真正的原因 努力是可能被裁的，不努力是一定被裁的 你别嘚瑟，可能下一个裁员的就是你了的吧。看来要加油了 现在的电商基本上被寡头垄断了的，这些人才还都是要回流过去了，反正优秀的人去哪都一样 飞凡这些年走的路确实不平坦，如今转型，也希望能够走出来 被裁挺好的，可以多赚几个月的钱 飞凡现在说是主要服务线下了的，项目没做好的，谁的责任 飞凡转型，这些人估计也不长待，只是想要个筹码 裁员总比让一个企业直接倒闭好多了吧 前几天还下载飞凡来着，用着挺方便的啊 觉得主要是用户的责任，就像我们的政策执行不好都是这一届人民不行 2016年广州鞋厂裁人倒闭，万达现在国家打击，资金断裂，裁人很正常，希望未来一些各地区房价崩盘。有房子住就行了，还要去炒。必须崩盘。崩盘。崩盘。重要的说三遍。 看来企业还是不能轻易的倒闭，牵涉太多人了 又年底了啊，现在好多员工也都计划离职换工作的实际了咯 如果当初就做好整个项目啊，也不会有大家的今天啊。 电商的工资起点比较高，人家即使换工作了的，也比大部分人都强，因为人家有技术 企业走了弯路，转了型，裁员也是必须的了 做电商的人，还愁找不到工作的，很多人多虑了，人才在哪都吃香 评论区操心的人一天咋这么多呢。 每个企业都是艰难的时刻，希望能尽快走出来。 都别说谁，项目没做好的，作为员工也要承担一点的责任了吧 之前是按照商的格局布置的人员，如今转型，肯定这些人也留不住 大的企业的主要经营成本就是人员了，如果不裁员只能是拖垮企业 真是搞不懂，都转型了不裁员，留着腐蚀企业啊 正常，别说这种大企业了，前几天我们公司转型还裁员了很多 大城市啥福利？ 万达招的这些人才，并不难找工作。 飞凡现在都不做电商了，还留这么多电商人才也没有什么意义了 来大家一起喝一杯，没准以后还能当同事 这给我们每个人都敲响了警钟的哟，同志们啊还是做好自己的工作吧 坐看中国富豪杂耍 唉，千不该万不该争大马那个项目啊。。 好事多磨，走弯了路，在转型回来，结局是好的就行 两家电商基本上抢占了中国的电商市场啊，经营可是真的难管理 这些人才，都在猎头手里有登记的，去下家一点都不难 看到了这个的，我也只能好好努力工作了的 马上一八年了的啊，好多行业现在都不怎么好过的呀。 没有什么啊，我就是当事人，准备出去玩溜达溜达，放松下心情 不裁员，让所有的人都去喝西北风吗 还是好好努力工作为准的吧，要不裁员的命运也会照顾你的啊 天使轮电商公司，高薪聘请，欢迎加入 房价真心不算高。高房价的地方福利真心好。现在中国最可怕的是信贷危机。一堆没钱的人不思进取还天天享受生活去贷款。现在信贷危险的很。房子这东西不可能崩盘的。跟福利比起来真心还算合理最多降点价钱。 感觉猎头又要忙起来了 局部有调整需要裁员数千人？ 大好经济环境哪来的裁员，这叫优化 华为今年裁员了多少人来着，我给忘记了 思聪玩嫩么的钱够你报销吗，我给他打个电话 很正常啊，一看就是没见过世面的人，这么大惊小怪 掂量下自己的身份，在来评论别人 好聚好散，企业遇到困难员工估计也会理解。 我是猎头的啊，这些人早就被猎头推荐到各单位了。 万达都大势已去了，该让它去就去吧，别在救了。 先定个小目标，年底裁他1千人 其实有能力的人才不会在乎这些呢，没有能力的人才怕呢 电商这个行业是不是基本饱和了啊 我就不懂了，电商一般都干什么，是淘宝客服吗 元旦准备出去玩，放松下心情，裁员什么都不是事 企业转型，无关的员工肯定会被裁掉，没什么可喷的 每个人都有下岗的危机了啊。 还不承认 社会竞争越来越大了，我得去学习了，得努力啊 天下没有不散的宴席，这次希望都能未来更好 听说以后都是机器人来工作的，连律师都是能机器人替代的 我也是飞凡员工，万达是一个不负责的企业，员工被裁后连报销不给处理。上海市劳动监察不作为不管这种事。如果要了解可以联系我13580443186. 傻逼，学联通啊，叫精简部门 你以为作为一个企业的，希望如此规模的裁员啊 人家可能马上就去别的公司上任的啊，到时候又可能是代替你的工作 现在的竞争环境也变了，以后可能会是机器人让你下岗的 你还打算在公司养老的啊，现在项目都停了，还是及时找工作为好 飞凡总部在哪啊 毕竟不是爹妈的关系了啊，公司遇到困境裁员也只能是唯一的办法了 長白山剛被取締…… 估计这种规模的裁员啊，相信以后会经常上演的 飞凡都多少年了的，大家都没有把这个项目做好的，每个人都应该有点关系吧。 铁打的公司流水的兵，裁员都是常事。 好多人去飞凡就是为了高工资的，有几个真心为项目积极奉献过的 你看吧，以后大公司裁员很快就不会成为新闻了 长白山项目不是赠送的么 我觉得中国的企业比有任性，希望企业能走出目前的艰难。 天空飘过5个字，那都不是事 上演大裁员的公司啊，会越来越多的啊。 万达几乎要垮了，不过你们也资格嘲笑 大家也都担心一下自己的饭碗去的吧 之前很看好飞凡能调整阿里京东，越多的企业加入到电商，对网友更有利 现在经济环境不好，还有心操心别人的啊，还是多操心自己吧 差不多出来混也到还的时候了，毕竟三十年河东三十年河西，老王的靠山怕是倒下了，新的大大喜欢的不是这个路子的[狗][狗] ",
        "Total": 1654,
        "Link": "http://comment.tech.163.com/tech_bbs/D6QNO6GB00097U7R.html",
        "Reply": 88
    },
    "Title": "万达网科总裁未否认裁员，称为了更快更健康发展_网易科技"
}