{
    "Article": "夜空中最亮的星历史上最壮观的流星雨事件",
    "URL": "http://tech.163.com/photoview/0AI20009/16210.html",
    "Source": "Netease",
    "KeyWords": "流星雨,",
    "Comment": {
        "Reply": 33,
        "Link": "http://comment.tech.163.com/photoview_bbs/PHOT0FQI00090AI2.html",
        "Total": 106,
        "Content": "为什么英仙座的流星雨那么多？ 我每天看到的都是霾...... 那年真是记忆犹深啊，上初中，一大早起来走在去学校的路上，虽然不是很多但依然不时划过伴我随行。自此再也无缘相见 那一次我在黑龙江也看到了，电视上说是夜间出现，没想到早上就爆发了。我一大早去倒垃圾，一分钟看到有十几次流星，中间一次大闪亮，后续持续有流星闪现，那天特别冷，-40度，硬是站在外面看了二十多分钟才回去，也感谢那次不经意的惊喜，让我今生看过一次流星雨，虽然是早上，也很庆幸了。 小时候在新疆，在暑假看8月份的英仙座流星雨是中学几年的固定活动 还清楚地记得1998年冬，12月18日早上6点起来跑操，狮子座流星雨的尾声，仍有零散的流星划过天空，然后一个极亮的火流星照亮了半个天空，至今难忘 这些年看过些流星。但都得11点以后了。最多一小时也就看了几颗。一个冷字最后回家睡觉了。 大自然太美 还清楚地记得1998年冬，12月18日早上6点起来跑操，狮子座流星雨的尾声，仍有零散的流星划过天空，然后一个极亮的火流星照亮了半个天空，至今难忘 是否能看到 夜空中最亮的星 夜空中最亮的星 那一次我在黑龙江也看到了，电视上说是夜间出现，没想到早上就爆发了。我一大早去倒垃圾，一分钟看到有十几次流星，中间一次大闪亮，后续持续有流星闪现，那天特别冷，-40度，硬是站在外面看了二十多分钟才回去，也感谢那次不经意的惊喜，让我今生看过一次流星雨，虽然是早上，也很庆幸了。 好多图没有一颗流星 我们在仙境 等不到双子座流星雨撒满天际 之前一直以为 这些年看过些流星。但都得11点以后了。最多一小时也就看了几颗。一个冷字最后回家睡觉了。 不错 再见再见再见 在全球哪个大城市都不太可能看到流星雨。那些拍片的基本上去到山上无人的地方拍的。 感谢工业文明！ 不许说有霾，建筑停工了，老百姓不用煤炉取暖了，不生火做饭了，工厂全部停工了，哪来的霾？恭喜我们伟大的国家空气达到可食用级别了。 小时候见过，叫贼星，现在好多年看不到了 好看[色色][色色] 小时候在新疆，在暑假看8月份的英仙座流星雨是中学几年的固定活动 大家有没有跟着哼起来 美[色色][色色][色色][色色] 遗憾的是现在的天空几乎看不到星星了，不知道现在的学生该怎么学习地理了，恶意揣测也许那天天气好，好多学霸估计都找不出北斗七星 城市中的亮化工程遮掩了夜空中迷人的星光。想看星星就到远离城市的农村去。 06年我刚上高中军训那会儿也见一次，真的很亮，像白天 2001年见过 那年真是记忆犹深啊，上初中，一大早起来走在去学校的路上，虽然不是很多但依然不时划过伴我随行。自此再也无缘相见 这边的观众让我看到你们的手 为什么英仙座的流星雨那么多？ 我每天看到的都是霾...... 呵呵 应该是11月18号吧，然后我就感冒入院了。我98年在沈阳上大学，在省政府旁边的辽宁中医念书。班里组织到省政府旁边的新开河没有灯光的地方看流星雨，记得是凌晨两三点到的河边，那一夜真的是冷啊，后来我就再也没这样傻了 一万次悲伤 小时满天繁星，现在看星星都难 "
    },
    "Title": "夜空中最亮的星 历史上最壮观的流星雨事件_网易科技",
    "PublishTime": "12/29/201711:30:49"
}