{
    "Article": "（原标题：作死！酷似林青霞、开奔驰的杭州女老板，因受不了男店员，竟做出这样的龌龊事！）事情还得从12月初开始说起……11月29日，杭州武林商圈某奢侈品专柜，一位运动潮流范儿的女子踏入专柜。仔细一看，还是个美女，眉宇之间还透露着点“林青霞”的味道……女子拿起包包，左看右看：“服务员，这个包里面还有吗，多少价格啊...”“哦，那个啊，就一个了。”“柜哥”不知道是不是心情不佳，抬头瞥了一眼，没好气地应付了一句，随后又低头干自己的事情。“你注意一下，瞧不起人吗？我还没遇到过这样的服务态度！”“柜哥”火气也不小，于是，你一言我一句的，女子压着怒气离开了柜台。在附近闲逛了一圈，女子越想越气愤，自己开奔驰穿名牌，也是个工厂的老板娘啊，凭什么在这受服务员的气！不知怎么地，又转回到这个专柜。女子看看那个“柜哥”还在，于是，心生一计，要好好地“报复”一下他……女子再次走进专柜内，假装不经意地挪到了之前看上的包包的位置，伸手将包包塞进了环保袋里，随后，大大方方地转头就走……“哼，店里丢了包，服务员肯定得赔钱了，这个包估计能抵过他几个月的工资了...”回去路上，女子还不由自主地为自己的“小聪明”暗自窃喜……12月1日，下城区公安分局天水派出所接到了报警：“警官，我们店里一只20000多的包包被人偷走了！”警方立案侦查、调取监控，很快便锁定了嫌疑人——张某。张某在案发前曾入住辖区内某酒店，不过，案发后，她便离开杭州，杳无音讯。蜀黍信息研判过后，发现一条重要线索——嫌疑人在宁波有过工作信息！张某很有可能去了宁波！侦查小组快马加鞭赶赴宁波开展工作。经过走访、蹲守，12月5日12点，民警在余姚某洁具厂将嫌疑人张某抓获。“我只是不甘心，想让那个服务员赔钱吃点苦头......”审讯室里，这个“女老板”交代了事情经过，对自己的盗窃事实供认不讳。听完这个理由，小编也是惊呆了....这个任性的“报复”，可是把自己都给搭上了！目前，张某已被警方刑事拘留，案件仍在进一步办理中。本文来源：FM93交通之声责任编辑：李天奕_NN7528",
    "URL": "http://news.163.com/17/1229/22/D6RV217E0001875P.html",
    "Source": "Netease",
    "KeyWords": "林青霞,包包,奔驰,杭州",
    "Comment": {
        "Reply": 9,
        "Link": "http://comment.news.163.com/news_shehui7_bbs/D6RV217E0001875P.html",
        "Total": 102,
        "Content": "明明可以靠脸吃饭还这么努力 起这么个题目啥意思？偷东西为啥把人家林青霞拉上？ 世界一线的那些顶级品牌的店,是不可以开的,都是由该品牌的总公司入驻的. 以偷报复不如包养他再甩掉他，让他一生都废了 多此一举，环保袋比那个包实用多了 明明可以靠脸吃饭还这么努力 世界一线的那些顶级品牌的店,是不可以开的,都是由该品牌的总公司入驻的. 起这么个题目啥意思？偷东西为啥把人家林青霞拉上？ 对方开口就不能买 怎么就会废了一生呢？ 结果器大活好，戒不了 当妈一样的照顾他，然后等到他60岁的时候甩了他，哈哈哈哈，想想还有点小激动呢😂 以偷报复不如包养他再甩掉他，让他一生都废了 "
    },
    "Title": "女子开奔驰酷似林青霞 盗走奢侈品店价值两万包包_网易新闻",
    "PublishTime": "12/29/201722:26:32"
}