{
    "URL": "http://news.163.com/17/1228/19/D6P41EJ00001875P.html",
    "Comment": {
        "Reply": 48,
        "Content": "得亏是让你在杭州买房，要是让你在北上广买房，你不得把姑娘强奸喽！缓解压力啊！ 都是房价惹的祸！我也差点摸了身边一个美女！房价太高就像那女孩的胸脯一样高！ 因为我爸妈让我买房，所以我就摸你胸，这逻辑没毛病 牛逼 你妈给你压力，你应该摸你妈才对啊！ 买房和耍流氓有关？ 不行可以找我。 一直以来<br>都很佩服这些咸猪手，敢作敢为，敢为天下先。<br>我也想，却一直做不到 所以男的找比自己大10岁老婆最好？ 性高峰年龄,男性性高峰年龄约在20岁左右,而女性大约在30岁左右。<br>晚上19时～22时，这是一天里男女两性最不一致的时候，这时女性的激素水平不高，而她们对性的态度也比较平淡，可男性对性常有积极的情绪，不少多情男子为了唤起女方的情绪，这时不得不大献殷勤，并表现得温存体贴。可是直到22时前后，女性体内才有较高的激素水平，并最终变得浪漫而富激情。遗憾的是，似乎女性的激素来得有点晚，这时不少男性尽管仍然想“要”，但是往往睡意蒙眬 鬼扯！男的要是真正压力大的情况下根本就硬不起来，还有心思整这些？ 我他妈压力大我怎么没去摸男的鸡鸡 精虫上脑吗？ 她妈给他压力，他应该摸他妈，强奸他妈… 干了我一直想干，但一直没胆干的事。流弊，壮士 这样的发型，熟人同事一眼就看出来了，如果微博上有自拍，也容易被人肉出来 上班坐在办公室有那么一种想法把电脑砸了走人 我也压力大，我怎么没摸 兄弟，都快要买房了，还差那几百吗？ 这都能赖上房价？ 压力大你咋不跳楼[鄙视][鄙视][鄙视] 可以用了。 杭州浙江的省会互联网大本营变态齐聚大咖辈出今天你捅我明天他捅它 买房和耍流氓有关？ 我他妈压力大我怎么没去摸男的鸡鸡 得亏是让你在杭州买房，要是让你在北上广买房，你不得把姑娘强奸喽！缓解压力啊！ 应该重开温州城，福建城！ 都是房价惹的祸！我也差点摸了身边一个美女！房价太高就像那女孩的胸脯一样高！ 因为我爸妈让我买房，所以我就摸你胸，这逻辑没毛病 公狗发情，控制不住。应予严惩！ 职场水真深我今天在在一直播房间ID：82812989，看了一档有关职场的节目，觉得说的特好.叫大牛总裁带你飞，每天中午12点开播. 牛逼 这都能赖上房价？ 这个理由充分到牵强的不理智了[微笑] 是不是因为上次摸胸手被人家打废了？😂 估计买了房子，没有钱找媳妇，也没有钱打野食。 你妈给你压力，你应该摸你妈才对啊！ 我有时也情不自禁想摸，这是病吗？ 不行可以找我。 淘宝员工？ 一直以来<br>都很佩服这些咸猪手，敢作敢为，敢为天下先。<br>我也想，却一直做不到 抓了就抓了呗，还照什么像？照就照呗，还打马赛克，真是醉了 所以男的找比自己大10岁老婆最好？ 性高峰年龄,男性性高峰年龄约在20岁左右,而女性大约在30岁左右。<br>晚上19时～22时，这是一天里男女两性最不一致的时候，这时女性的激素水平不高，而她们对性的态度也比较平淡，可男性对性常有积极的情绪，不少多情男子为了唤起女方的情绪，这时不得不大献殷勤，并表现得温存体贴。可是直到22时前后，女性体内才有较高的激素水平，并最终变得浪漫而富激情。遗憾的是，似乎女性的激素来得有点晚，这时不少男性尽管仍然想“要”，但是往往睡意蒙眬 鬼扯！男的要是真正压力大的情况下根本就硬不起来，还有心思整这些？ 房市的压力通过房事来缓解？有一定道理。最少能忘掉那几秒。嘴巴的问题也能通过七巴来解决。那个时代饿着肚子多能生呀。 兄弟，都快要买房了，还差那几百吗？ 有病吧。 她妈给他压力，他应该摸他妈，强奸他妈… 色魔。 一处宅基地只给80平方的楼房，只有傻子才会愿意！说瞎话也得有点水平呀，最少按面积给，一块3分的宅基地，200平方米，最少也得给200平方的楼房，还得给点钱！你们摔生就是颠倒黑白！ 干了我一直想干，但一直没胆干的事。流弊，壮士 上班坐在办公室有那么一种想法把电脑砸了走人 职场水真深我今天在在一直播房间ID：82812989，看了一档有关职场的节目，觉得说的特好.叫大牛总裁带你飞，每天中午12点开播. 你有老婆了 科普贴？ 我也压力大，我怎么没摸 怪不得快手和火山小视频那么多老妻少夫的 这都能赖上房价？ 压力大你咋不跳楼[鄙视][鄙视][鄙视] 呵呵，什么家庭就有什么教育 摸的人越多就越大 社会败类。 杭州浙江的省会互联网大本营变态齐聚大咖辈出今天你捅我明天他捅它 哈哈哈 最近严打害了小伙子啦 精虫上脑吗？ 这样的发型，熟人同事一眼就看出来了，如果微博上有自拍，也容易被人肉出来 可以用了。 性高峰年龄,男性性高峰年龄约在20岁左右,而女性大约在30岁左右。<br>晚上19时～22时，这是一天里男女两性最不一致的时候，这时女性的激素水平不高，而她们对性的态度也比较平淡，可男性对性常有积极的情绪，不少多情男子为了唤起女方的情绪，这时不得不大献殷勤，并表现得温存体贴。可是直到22时前后，女性体内才有较高的激素水平，并最终变得浪漫而富激情。遗憾的是，似乎女性的激素来得有点晚，这时不少男性尽管仍然想“要”，但是往往睡意蒙眬 把我摸硬了 ",
        "Total": 791,
        "Link": "http://comment.news.163.com/news_shehui7_bbs/D6P41EJ00001875P.html"
    },
    "Title": "IT男公交站台摸年轻女子胸部 称父母让买房压力大_网易新闻",
    "Source": "Netease",
    "KeyWords": "买房,猥亵,胸部",
    "PublishTime": "12/28/201719:55:52",
    "Article": "（原标题：杭州22岁IT男头脑发热摸向姑娘胸部，自称工作压力大）【杭州22岁IT男头脑发热摸向姑娘胸部，自称工作压力大】#杭州身边事#24日晚，一名小伙路过闲林高教路一公交车站时，瞅见一名相貌清秀的年轻姑娘在站台等车。姑娘一手挎着包，一手在打电话，趁着四周无人，小伙慢慢靠过去，往姑娘胸部摸了一把。目前，小伙已被警方抓获。经查，小伙22岁，在杭州某互联网公司，没有女朋友。小伙交代：因父母最近让他在杭州买房，工作压力也大，才一时“头脑发热”。本文来源：杭州日报责任编辑：赵亚萍_NN9005"
}