{
    "URL": "http://news.163.com/18/0101/19/D73DF3K70001899N.html",
    "Title": "坑爹!小伙为玩网游借3万高利贷 父母被逼还13.5万_网易新闻",
    "KeyWords": "高利贷,借钱,游戏",
    "Article": "（原标题：坑爹！90后小伙借了3万，父母又被逼还13.5万！这种套路很多，千万别上当！）因为沉迷网络游戏邗江一小伙向“好友”借高利贷写了3.5万元借条到手2.93万现在却要还13.5万还有5万被……没钱玩网络游戏90后小伙去借高利贷小方（化名）今年27岁，家住邗江某小区，家中有一套房屋被父亲租给胡某，小方和胡某由此成为微信好友。其间，小方发现，胡某经常在朋友圈中发布“专业空放，无需担保，低息即可贷款”等内容的广告。▲图片来源：视觉中国今年9月下旬，小方因玩网络游戏缺钱，又不敢向家人伸手，便想到了胡某。电话中，胡某痛快答应借钱，并说了他们公司的规矩——借款期限是1个月，如果借款1万元，一个月利息1200元，实际借款到手的只有8800元。如果逾期不还本金，每个月要按时给付1200元利息即可续借，无需任何抵押。小方觉得，这个利息，他能够承受，就约对方见面借钱。当晚7点多，两人在扬州某酒店见面，胡某拿出3份纸质材料，一份是借条，大致内容是：借款金额为两万元（本金1万元＋1万元的风险保证金），期限为1个月；第二份是汽车抵押合同；第三份是一张白纸。胡某让小方签了借条和抵押合同后，又让他在白纸上写了一张两万元的借条。小方照做后，胡某通过微信向他转账8800元。当晚，小方回到家，家人刚好给他零用钱，小方就打电话给胡某，表示现在就还钱，愿意支付共计200元的利息。胡某答应下来。小方随即通过支付宝转账了9000元给了胡某。但胡某却一直不交还借条和抵押合同等借款材料。无奈之下，小方只好同意继续向胡某借钱，胡某把8800元转账给了小方。这些钱，很快被小方用于玩网游等消费。只借到手2.9万元却被迫偿还13.5万元10月初，小方资金告急，先后两次找胡某及其同事刘某（被另案处理）借钱共计2.5万元，扣除利息及装GPS的费用后，小方实际只拿到2.05万元。其中，在第三次借款时，胡某自称，把之前的协议全撕毁，让小方把3次借款的借条打在一起。小方信以为真，当天就按照对方要求，签了一张借款期限至10月26日、本金为3.5万元的借条和一份汽车抵押合同。这时，胡某表示，为资金安全考虑，要在小方的轿车上安装GPS。小方同意了。同月25日，小方眼看借款到期，无力偿还，就到扬州一家借贷公司，准备抵押轿车借钱用于偿还胡某。然而，该公司到胡某公司审查小方借款情况时，胡某的同事解某突然拿出小方前两次签写的借款协议，称他逾期没有还款，违约了，要他立即还本金。这下，小方才意识到上当。更令小方没想到的是，当天，胡某公司的人以小方违约为由，扣押了他的轿车。后小方在解某的威逼下，保证在10月26日之前还款3.5万元，否则，将被罚款10万元。次日，小方再去商谈还款、赎车事宜时，刘某、胡某等人狮子大开口，要款13.5万元，否则，就不还轿车。小方没辙，只好把事情原委告知家人。随后，家人托人找中间人张某从中调解。很快，张某带来消息称，胡某公司认为小方违约，要他偿还共计23.5万元才能清债、赎车。方家人接受不了，请张某帮忙说情。最终，张某称，在他的多次游说下，胡某方面同意13.5万元了解此事。为防止违约金越拖越高，方家人勉强答应，并给了中间人13.5万元，这才还清债务、赎回轿车。放贷人员道出“行业内幕”为赚钱，先扣车再逼人付赎金?“写了3.5万元的借条，一共到手2.93万元，现在却要还13.5万元。”方家人给过钱后，越想越不甘心，气愤之下，到公安机关报案。几天后，胡某、解某等3人主动到公安机关投案。经查，胡某、解某等3人都是扬州某投资公司的业务员，同属于一个放贷小组，小组负责人是刘某和胡某，该小组可以单独在外接借贷业务，其中，刘某负责提供资金，胡某、解某等人负责签单、催款。归案后，胡某等人交代，他们放贷的利息远远高于国家相关规定，虽然对外宣称是不需要任何抵押，但为了能让借出的资金有保障，同时能多赚钱，他们在放贷时，基本上都会跟客户签订汽车抵押合同、约定违约金，并给客户被抵押的轿车装GPS定位系统。在催债期间，如果客户不能及时还钱，他们就会根据GPS定位系统，追踪客户的轿车，扣押成功后，随之坐地起价，以不还车相要挟，逼迫客户偿还本金并支付高额“赎车金”。截至案发时，除了小方外，胡某等人还以这种方式，在扬州敲诈4人共计9万余元。3名嫌犯归案曝出案中案中间人说和，从中骗走5万元在公安机关，当得知小方家人给了13.5万元后，胡某等3人一头雾水。他们交代，他们确实以扣车为由，逼迫小方还债，但实际上，经中间人张某说和后，他们最终同意小方一次性还8.5万元，而且最终也只收到了张某帮忙转交的8.5万元，并非方家人所说的13.5万元。既然如此，那5万元去了哪里？这个问题，只有张某才能回答。随后，警方经初查，对张某涉嫌诈骗案立案侦查。张某归案后交代，在帮方家人说情期间，他感觉这其中有利可图，遂利用中间人的身份，向方家人传达虚假消息，抬高“赎车金”，从中骗得5万元。近日，邗江区检察院经审查后认为，胡某等3人已涉嫌敲诈勒索罪，依法对3人批准逮捕。张某因涉嫌诈骗罪，目前已被公安机关取保候审。本文来源：新闻夜航责任编辑：李杭_BJS4645",
    "Source": "Netease",
    "PublishTime": "01/01/201819:53:01",
    "Comment": {
        "Link": "http://comment.news.163.com/news2_bbs/D73DF3K70001899N.html",
        "Reply": 128,
        "Content": "国家应该立法，凡是综合利息超过24%按非法经营罪论处，有暴力讨债的按黑社会论处。 这些个玩手游成瘾的人真的是一帮废物垃圾了，神仙难救 国家应该对高利贷进行大规模严打，高利贷造成民怨沸腾，高利贷祸国殃民。 这么高的利息也敢借，不会是等着曝光不用还钱吧？ 自作自受，又没人逼你借。 贷款公司房地产是中国的鸦片 骂高利贷？这个傻子27玩网游借钱？借三万玩？这个废物要来干什么 高利贷的资金你以为谁的？都是它们亲戚…[微笑] 贩毒的人都想改行放高利贷了，合法风险还小…… 高利贷什么时候合法的？ 如果你吸毒了，也供出了贩毒人，按你逻辑，你吸毒是自愿花钱吸的，贩毒的又没逼你一定要你买，明知道毒品的危害，与贩毒人无关，如果你还欠点毒品钱，警察应该帮贩毒的把钱要来，所以，吸毒的坐牢，贩毒的无罪对吧！ 最搞笑的是没见一个放高利贷的被惩治过 枪毙这些用心机的人 小伙子虽然坑爹事发生了打一顿就算了但也不能不管啊地方的小额贷还真是不能碰 啃爹的小伙是脑残智障者。没钱玩什么网游呀，缺心眼。 没熟的苹果你不要摘！ 完了 国家应该对高利贷进行大规模严打，高利贷造成民怨沸腾，高利贷祸国殃民。 没人逼你借啊，借的时候知道利息也要借，还不起了又说别人利息高。活该～ 有人比你吸毒么？煞笔 自己犯贱了去吸毒，怪别人？就是年利率百分之一千都有人借高利贷，自己傻哔怪别人 这生意的利润比特么的贩毒☠还暴利 这借高利贷的傻逼也不是什么好玩意。但是高利贷已经无法无天了，因非常手段逼债而引发的恶性事件时有耳闻，相关部门非要等出大事了才整治吗？ 27岁了，不小了，还这么脑残 天天都是这些新闻，好像放高利贷的一个都没吊事 国家还能不能管管校园贷高利贷？ 猪都没到出栏时间你就下刀子？ 谁给了高利贷合法的权利？我擦！逼死了多少人！[微笑][被黑][疑问][疲惫][喷水][狗][鄙视][挨揍][骷髅][晕][暴怒][暴怒][暴怒] 国政重点扶持项目，互联网金融线上线下 利息明着还可以，但是后边翻出来十多万就不对了，涉嫌坑人？ 枪毙这些放高利贷的人渣吧 只要超国家规定利息.利息超5万，执行死刑 国家应该对高利贷进行大规模严打，高利贷造成民怨沸腾，高利贷祸国殃民。 高利贷这么猖狂，还有没有王法了？<br><br><br>没有。 小伙是坑但是我觉得你这法律更坑 自问自答有意思吗？给我们二楼点空间好吗？ 放贷实在太嚣张了，也没人管管 向美帝学了那么多，这方面怎么不学习 国家不管啊。 这就是坑人！并非正常的借贷！ 国家政策说合法就是合法，可不要再现民国时代 高利贷，校园贷等，警力不足，所以管不了。等维和部隊吧！ 这就是法治国家？ 吸毒不犯罪，贩毒是重罪，借高利贷不犯法，但放高利贷是犯法，如果国家不控制高利贷，这国家就等着乱，因为人谁没有应急的事。 27岁啊还小伙子？脑子没发育借钱打游戏 你们知道大部分高利贷幕后金主是什么群体吗，你以为黑社会催收那么无法无天，光凭他们的话早灭绝了，屁民门，忍吧！ 多咯去了，武汉被抓了按敲诈勒索定罪的太多了，我知道的就不少！ 孩子还小不懂事，才27，以后多教育就是了。 自作自受，又没人逼你借。 贷款公司房地产是中国的鸦片 不是说不合法么？哪法律呢？ 这都能取保候审，呵呵怪不得到处有坑 第一次借款时间是9月下旬，到后来情况恶化是10月25、26号，中间一个来月时间，总共借到手2.9万元，用在玩网游等消费上，中间特别提到了网游，其他的没提，估计大头都花在了网游上，没人吐槽网游消费高吗？ 你错了，他们初衷感觉能还上，可签完合同才知道，被骗了，掉进坑里了。 最搞笑的是没见一个放高利贷的被惩治过 那基本枪毙没了。。 张某因涉嫌诈骗罪，目前已被公安机关取保候审。 放高利贷的应该统统枪毙 谁让你借了？傻逼 不知道 银行问题！与高利转贷！ 这就是法治国家？ 高利贷，校园贷等，警力不足，所以管不了。等维和部隊吧！ 贷款还是找银行贷。正规一点。10000利息1200。这利息有点高啊。说好无抵押贷款，签合同又要抵押车，就这种说话不算话你还好意思跟他借。心得多大啊 严厉打击违法犯罪行为 什么社会啊这是，高利贷猖狂到如此地步。法何在，理何在? 高利贷什么时候合法的？ 这生意的利润比特么的贩毒☠还暴利 实力坑自己的爹妈 最后这中间人张某也从中黑了5万元。。。真让人心寒啊。 国家还能不能管管校园贷高利贷？ 1万块借款实际到手8800元，每月利息1200元，一年12个月，利息就是14400元，翻了本金接近2倍，等于月利息是百分之二十多，这种放贷的垃圾绝对该杀！ 吸毒不犯罪，贩毒是重罪，借高利贷不犯法，但放高利贷是犯法，如果国家不控制高利贷，这国家就等着乱，因为人谁没有应急的事。 猪都没到出栏时间你就下刀子？ 只要超国家规定利息.利息超5万，执行死刑 想想旧社会的高利贷，狠一些的也就是九出十三归；跟现在这贷款一比，感觉旧社会的那个可以算无息贷款了 铲除社会毒瘤！ 有道 几千上万的去借马云的就是了 这些借高利贷的人为什么肯答应这么苛刻的借贷条件，因为他们压根就没有打算还钱… 高利贷这么猖狂，还有没有王法了？<br><br><br>没有。 果然 这种二货还不如直接问他妈要 呵呵!不省心的儿! 能银行贷款下来都不会去借这种 我们重庆更高，一万，22天，2000最少，多得四五千， 我有个朋友的堂哥就是他们老家那边混黑的，就是搞这个放贷，成立个金融公司，基本上你是还不清的，一直要还钱，搞光你的钱 有车还货不了？ 自问自答有意思吗？给我们二楼点空间好吗？ 不好[挨揍] 中间人的吃相太难看 谁让你吸毒了？煞笔 真的吗？！可是借的时候连2千块都没有的人为什么有自信能还上2万块的高利贷？！ 想一想黄世仁的收租子算啥？ 国家政策说合法就是合法，可不要再现民国时代 这种可以直接不还，敢催收，直接找关系办案，以敲诈勒索定性了！ 高利贷么，就是为了淘汰低智商的垃圾啊。。。就像高考是为了淘汰学习能力差的渣子一样啊😄 一抓一大把，以后扫皇少一些吧，希望抓这个勤快点，这个新闻算是标杆，房贷人员，正正经经的，早就丢饭碗了。 二楼可能就是这种放贷的 校园裸贷 喜闻乐见 高利贷，校园贷等，警力不足，所以管不了。等维和部隊吧！ 国家应该立法，凡是综合利息超过24%按非法经营罪论处，有暴力讨债的按黑社会论处。 都他妈是依依的前男友了，还打错字[鄙视] 没有买卖就没有杀害，建议借钱的也一起执行了吧，尤其是这种理由借钱的 不，我们是一个包容性很强的社会。 犯罪成本太低，其实这些都是青壮劳动力逮到就关半年以上可以无偿干很多活 这么高的利息也敢借，不会是等着曝光不用还钱吧？ 高利贷的资金你以为谁的？都是它们亲戚…[微笑] 贩毒的人都想改行放高利贷了，合法风险还小…… 只要超国家规定利息.利息超5万，执行死刑 如果你吸毒了，也供出了贩毒人，按你逻辑，你吸毒是自愿花钱吸的，贩毒的又没逼你一定要你买，明知道毒品的危害，与贩毒人无关，如果你还欠点毒品钱，警察应该帮贩毒的把钱要来，所以，吸毒的坐牢，贩毒的无罪对吧！ 为什么高利贷横行？因为后面有人！法治国家… 你是在说养马么？ 灵导：扫码支付我就管你，高利贷嘛从性质上来说是自己人 啃爹的小伙是脑残智障者。没钱玩什么网游呀，缺心眼。 没熟的苹果你不要摘！ 高利贷合法化，这才是该关心的问题吧 你见过执行的？ 国家应该对高利贷进行大规模严打，高利贷造成民怨沸腾，高利贷祸国殃民。 去死吧渣 没人逼你借啊，借的时候知道利息也要借，还不起了又说别人利息高。活该～ 我想了想那些贩毒、做假钞的，为什么不做高利贷呢，安全，暴利，你们那些都是毛毛雨 这个 说的对 国家还能不能管管校园贷高利贷？ 国家应该对高利贷进行大规模严打，高利贷造成民怨沸腾，高利贷祸国殃民。 什么意思呀？ 可以自己回复自己吗？ 天天都是这些新闻，好像放高利贷的一个都没吊事 游戏毒害了太多人 谁给了高利贷合法的权利？我擦！逼死了多少人！[微笑][被黑][疑问][疲惫][喷水][狗][鄙视][挨揍][骷髅][晕][暴怒][暴怒][暴怒] 这个应该是相对的吧，正常利息不还钱的也应枪毙，这样才公平 利息明着还可以，但是后边翻出来十多万就不对了，涉嫌坑人？ 是不是改把网络游戏禁了 这和抢劫有区别？ 这生意的利润比特么的贩毒☠还暴利 国家应该对高利贷进行大规模严打，高利贷造成民怨沸腾，高利贷祸国殃民。 高利贷这么猖狂，还有没有王法了？<br><br><br>没有。 小伙是坑但是我觉得你这法律更坑 给够了，然后起诉，这就是反套路？ 抢劫的人都想改行撸小贷了，合法风险还没有…… 社会越来越多元化。 放贷实在太嚣张了，也没人管管 国家应该对高利贷进行大规模严打，高利贷造成民怨沸腾，高利贷祸国殃民。 这就是坑人！并非正常的借贷！ 王者农药？ 国家应该对高利贷进行大规模严打，高利贷造成民怨沸腾，高利贷祸国殃民。 关键立法权没掌握在民众手里呀 刺激，哈哈～ 没后台还敢搞这个？ 都他妈27睡了，还他妈打游戏借高利贷，人算是废了。 这些个玩手游成瘾的人真的是一帮废物垃圾了，神仙难救 国政重点扶持项目，互联网金融线上线下 枪毙这些放高利贷的人渣吧 想钱，太简单啦，抓住放贷的，没收全部资产，然后在处罚金，让他家人交钱，不交，做一辈子手工活，别想出来，如果交了，出来了，在找拖问他借钱，钓鱼执法，等借了，马上又关进去，全国所有放贷的一年来几次，能创收多少钱啊。 这种孩子要打死啊 骂高利贷？这个傻子27玩网游借钱？借三万玩？这个废物要来干什么 取保候审 完了 人家只是在游戏中找到存在感和优越感而已，现实过的肯定不如意。往往一个人缺乏什么，在另一处找到了，就会沉迷，从而做出一些不符合现实衡量标准的事，他的重心在游戏里，因为游戏有他想要的东西存在。 高利贷这么猖狂，还有没有王法了？<br><br><br>没有。 枪毙这些用心机的人 小伙子虽然坑爹事发生了打一顿就算了但也不能不管啊地方的小额贷还真是不能碰 游戏里的土豪，现实里的狗B 不怕虎一样的高利贷，就怕高利贷有文化。。。。[微笑] 没熟的苹果你不要摘！ 真是不一般黑， 向美帝学了那么多，这方面怎么不学习 国家不管啊。 烧红的铁你别去碰 国家还能不能管管校园贷高利贷？ 27岁了，不小了，还这么脑残 超过法定利率，借款合同无效。 这借高利贷的傻逼也不是什么好玩意。但是高利贷已经无法无天了，因非常手段逼债而引发的恶性事件时有耳闻，相关部门非要等出大事了才整治吗？ 27岁啊还小伙子？脑子没发育借钱打游戏 养这样的儿子就是养了一个祸害，早就该死！ ",
        "Total": 1897
    }
}