{
    "Title": "韩检方将重新调查张紫妍自杀案 因量刑太低被争议_网易娱乐",
    "URL": "http://ent.163.com/17/1226/09/D6IQONK600038FO9.html",
    "Source": "Netease",
    "Comment": {
        "Total": 32,
        "Reply": 2,
        "Content": "都这么多年了，还来调查证据都销毁的差不多了吧 又是一个死了之后才知道是明星的人，不与恶势力做斗争，选择自杀，不尊重父母给予的生命，死就死了呗！死了也对，不为亲人想，吃也是浪费粮食，早死早安生吧 都这么多年了，还来调查证据都销毁的差不多了吧 又是一个死了之后才知道是明星的人，不与恶势力做斗争，选择自杀，不尊重父母给予的生命，死就死了呗！死了也对，不为亲人想，吃也是浪费粮食，早死早安生吧 ",
        "Link": "http://comment.ent.163.com/ent2_bbs/D6IQONK600038FO9.html"
    },
    "Article": "2009年女艺人张紫妍因被强迫陪酒陪睡而最终自杀网易娱乐12月26日报道?韩国检方近日宣布将重新调查2009年发生的女艺人张紫妍因被强迫陪酒陪睡而最终自杀的案件。张紫妍在2009年3月留下一封遗书曝光自己被强迫陪酒陪睡的事实后自杀身亡，当时检方对10多名涉案人士进行了调查，但最终都以无犯罪嫌疑结案，只有张紫妍生前经纪公司的老板和经纪人分别以故意伤害威胁罪与损毁名誉罪被判处了有期徒刑4个月与有期徒刑1年，不过都是缓期执行。围绕检方对此案的处理，这些年来一直有争议存在，为此韩国新一届政府出台后成立的检察院改革委员会特意将此案与其他七件有争议的案子一起列入了重新调查案件名单。来源：Mydaily本文来源：网易娱乐责任编辑：李彤_NK4455",
    "PublishTime": "12/26/201709:18:23",
    "KeyWords": "张紫妍,自杀案"
}