{
    "URL": "http://ent.163.com/17/1229/08/D6QGD8B500038FO9.html",
    "Article": "网易娱乐12月29日报道12月28日，郭京飞现身天津宣传新片，在最后一场见面会时因厅内太暗请求摄影师关闭闪光灯，说会引起眼睛不适，结果遭现场媒体与摄影回怼，现场气氛好尴尬。随后，有摄影师把此事发到网上吐槽，不料郭京飞跑到评论里道歉，诚恳的态度令粉丝感动。本文来源：网易娱乐责任编辑：胡梦瑶_NK5655",
    "Source": "Netease",
    "PublishTime": "12/29/201708:51:16",
    "KeyWords": "郭京飞,摄影师",
    "Comment": {
        "Content": "装逼 确实不舒服啊！暗地里闪光灯一直闪一直闪谁会舒服呢！ 孰是孰非大家心中自有数不红的实力派就能随便给人欺负么lowB。🙄🙄🙄 黑的时候拍照你就是手机拍闪完以后，估计跟瞎子一样，自己不知道试试吗？ 装逼 黑的时候拍照你就是手机拍闪完以后，估计跟瞎子一样，自己不知道试试吗？ 确实不舒服啊！暗地里闪光灯一直闪一直闪谁会舒服呢！ 孰是孰非大家心中自有数不红的实力派就能随便给人欺负么lowB。🙄🙄🙄 黑的时候拍照你就是手机拍闪完以后，估计跟瞎子一样，自己不知道试试吗？ ",
        "Total": 47,
        "Link": "http://comment.ent.163.com/ent2_bbs/D6QGD8B500038FO9.html",
        "Reply": 6
    },
    "Title": "要求关闪关灯被摄影师吐槽 郭京飞亲自评论道歉_网易娱乐"
}