{
    "Article": "（原标题：前一天出现在新闻联播的他第二天就落马了）2018年的新年第一虎，在陕西。1月3日上午9点，中央纪委官网发布重磅——陕西省副省长冯新柱涉嫌严重违纪，目前正接受组织审查。落马前一天出现在新闻联播冯新柱落马，有点突然。政知圈注意到，1月2日，陕西新闻联播报道，陕西省委当天召开常委会议，传达学习中央农村工作会议、全国扶贫开发工作会议精神，当时的新闻画面显示，冯新柱在其中。1月3日上午9点，中央纪委就宣布，冯新柱落马。公开资料显示，冯新柱担任陕西副省长始于2015年4月，目前排名第4，分管农村、农业、扶贫、救灾、民政、食品药品安全方面的工作。在铜川14年1960年7月出生的冯新柱，是陕西本地官员，仕途长期在铜川。公开资料显示，他1979年10月至1981年7月在西安统计学校学习，后担任陕西省乡镇企业经贸公司计财科出纳、副科长、公司经理助理等职务。1989年11月至2001年6月，他在陕西省农电管理局工作了近12年，从副处长做到了副局长。2001年6月，他开始担任铜川市副市长，后历任常务副市长、市长、市委书记等职务，在铜川任职（2001.6-2015.4）长达14年，其中担任市委书记4年（2011.1-2015.4）。“我深知，自己性格比较急躁，有时批评同志不注意方式方法，无意中伤害了一些同志的感情，在此向你们表示深深的歉意。我也深知，虽然在铜川这14年做了一些工作，但因为个人能力所限，与上级的要求和干部群众的期望还有很大的差距，铜川转型发展还有很多工作和任务没有完成。”2015年4月，当冯新柱离开铜川时曾在全市领导干部大会上讲话。曾怒斥砸店官员“带人吃饭还要赊账，不让赊账还要打砸，你是吃了豹子胆！”在担任铜川市委书记期间，冯新柱还曾在领导干部大会上怒斥官员。2014年8月23日，铜川市工商局王益分局干部赵建新因酒后滋事打人砸店。8月25日，当时的铜川市政协委员、王益区人大代表杨大军等人，因结账时要签单遭到服务员的拒绝，在交完现金离开后，又返回酒楼进行打砸。杨大军等人先后对龙凤祥酒楼、经营烟酒的商店、KTV店和煎饼店进行打砸，致使4家店铺的商品、室内物品等受到不同程度的损坏。冯新柱面对200多名领导干部，说这起事件让人十分气愤，作为公众人物，为了一点小事，酒后丧德，做出如此粗鲁举动，看似酒后滋事，实质上折射出个别干部和一些公众人物，长期以来缺乏法治观念、缺乏自律意识、漠视党纪国法，自以为手中有点小权力，就气焰嚣张，为所欲为，成为害群之马。主抓扶贫担任副省长后的冯新柱，主抓扶贫。扶贫，是目前上层主抓的大事情。冯新柱刚刚履新副省长时，面临的扶贫脱困任务很艰巨。据2015年2月央视网报道，“行政区划上陕西共有80个县，其中有50个就是贫困县。在陕西省内十市一区中，除西安市、杨凌区无国家级贫困县外，其他九市均有县区在列。”政知圈注意到，在扶贫工作中，陕西多地出现扶贫攻坚不力被集体问责的情况。2017年6月，因在“精准扶贫”中工作不力，陕西省米脂县扶贫办官员还曾被集体免职，被免职干部包括县扶贫开发办公室主任马会平，副主任3人。2017年11月，因为脱贫攻坚不力，陕西宝鸡陇县40名干部被集中问责。兼任的职务备受关注值得一提的是，副省长冯新柱还在2016年8月18日兼任杨凌示范区管委会主任。这个示范区上层也极其重视。2017年12月15日，国务院自贸试验区工作部际联席会第71期简报对杨凌自贸片区创新现代农业交流机制方面予以肯定，当地官网称“这是陕西自由贸易试验区设立以来第一个受到国务院自贸试验区工作部际联席会议肯定的创新举措。”只不过，冯新柱最终，还是辜负了期望。十九大后打虎不停步政知圈注意到，自赵乐际履新中央纪委书记后，中央纪委月月打虎，涉及中宣部、辽宁、河北和陕西等地。2017年11月21日，中央宣传部原副部长鲁炜落马；2017年11月23日，辽宁省副省长刘强落马；2017年12月12日，河北省人大常委会副主任张杰辉落马。2018年1月3日，陕西省副省长冯新柱落马。十八大以来，陕西当地也有不少老虎被打落：2014年2月，陕西省政协原副主席祝作利落马2015年11月，陕西省政协原副主席孙清云被降为正处级非领导职务2017年5月，陕西省人大常委会原副主任魏民洲落马值得一提的是，去年11月，浙江宁波原纪委书记陈章永履新中央纪委第九纪检监察室主任被媒体曝出。中央纪委共12个纪检监察室，监督检查联系地区省级领导班子及中管干部遵守和执行党章以及其他党内法规，遵守和执行党的路线方针政策和决议、国家法律法规等方面的情况。而第九室，联系的正是陕西、甘肃等地。本文来源：政知圈责任编辑：乔敬_NN6607",
    "URL": "http://news.163.com/18/0103/12/D77POGS50001875N.html",
    "KeyWords": "新闻联播,落马,陕西,中央纪委",
    "PublishTime": "01/03/201812:44:50",
    "Title": "前一天出现在陕西新闻联播的他 第二天就落马了_网易新闻",
    "Comment": {
        "Content": "打的好 大快人心， 除恶务尽 反腐败！ 棒棒的 铜川人民发来贺电 支持打老虎 老虎苍蝇一起打！ 反腐无禁区 大快人心 反腐永远在路上 坚持不懈 毫无预兆，打击腐败 大快人心，人心大快！ 反腐没有尽头 支持 支持广东反腐！ 打的好 大快人心， 支持反腐 除恶务尽 反腐败！ 坚持不懈 铜川人民发来贺电 支持打老虎 老虎苍蝇一起打！ 反腐无禁区 大快人心 支持甘肃庆阳反腐 反腐永远在路上 支持广东反腐！ 毫无预兆，打击腐败 支持反腐 大快人心，人心大快！ 反腐没有尽头 支持党中央 支持 棒棒的 ",
        "Link": "http://comment.news.163.com/news_guonei8_bbs/D77POGS50001875N.html",
        "Total": 809,
        "Reply": 21
    },
    "Source": "Netease"
}