{
    "PublishTime": "01/01/201802:23:18",
    "Comment": {
        "Total": 3987,
        "Link": "http://comment.sports.163.com/sports2_bbs/D71HD0N900058781.html",
        "Reply": 236,
        "Content": "我想问一下在腾讯直播说剁要害那个兄台在哪[疑问] 新年第一天，真的不想说别的了，祝大家新年快乐！ 又在秀智商了！<br>初盘下盘就是高水...中场受让半球还是高水...连追了6次下盘全是满水....最烦这些只会蒙大小球的傻逼！新年第一桶金！ 踢的真是一坨屎 大过节的还这么不懂事！ 这都赢不了继续无缘欧冠吧 鸟粪，憋坏了吧？ 你确实是你爹妈一把屎一把尿喂大的 惠州🐶的鸟跌就要来中超了，能不高兴吗？ 估计输惨了………哈哈… 小贝加钱宝……这尼玛右路大走廊让人随便玩😂 lulu发帖是多，但是人家不说脏话，如果鸟屎说他素质差，就好比彪子说人不贞洁一样 王巴的智商越来越接近天佑的粉丝[大笑][大笑][大笑] 还有365天就要跨年了，回想起去年跨年，仿佛就在昨天，皇马球迷在这里提前祝各队球迷朋友2019新年快乐！​​​ 阿森纳这几样，还卖桑切斯，能打欧联就很不错了。 当你实力不够时，全世界都对你不公平，权利是自己争取来的，重新认识自己吧 亏成250了吧 索然无味的比赛，破厂这种都能拿第四，那利物浦和热刺后面得有多烂 你个傻逼，哪里都有你，看你这名字就知道你是坨鸟粪 都是lulu那个阴阳怪气的臭傻逼败人品 开场时切赫被对面用屁股顶到蛋，然后我就听着解说讲了两分钟的疼痛理论。。。 一大批不得意者来我厂板块发泄！ 全是平局，曼联平，曼城平，而且都是0比0，就在大家以为阿森纳也会以0比0收场，而大量下注资金都涌向小于0.5的时候，80几分钟阿森纳进球，但是，阿森纳独赢还不行，庄还要巨亏，因为下阿森纳的太多，所以最后再给主队一个点球，所有这些都是事先设计好的。 这群后卫张那么对得起桑切斯 最后5分钟守不住，我厂到底有没有防守训练，真是输的好蠢，废物也能踢首发 哈哈哈哈，在别人枪手文章后喷点球，不知道以为裁判上完你妈没给钱呢。 西布朗防守很厉害的了，兹道不？<br>平了热刺平了利物浦平了埃弗顿平了阿四娜 。鸟粪能不能滚一边去洗地 没死人要什么点球🤔 娜婊习惯就好，瘟老死就这水平了[喷水] 这个能点球，为什么昨天曼联的就不能？ 你们都掉到第三去了还半夜这么高兴 阿森纳-扶不起的阿斗， 踢得真辣鸡，钱伯斯个户口本，厄齐尔不上中场就是一群辣鸡，话说娜娜你配得上桑切斯吗？？？ 温格真他妈SB，钱伯斯这种废物，还有伊沃比和那几个SB，，，，赶快下课吧 踢得真辣鸡，钱伯斯个户口本，厄齐尔不上中场就是一群辣鸡，话说娜娜你配得上桑切斯吗？？？ 队魂韦伯退役后，曼狗就没一场觉得裁判是公正的。老厕所主场诶，大巴没点球怎么赢呀？裁判水平不行嘛。 气死了什么破玩意 如果你叫王巴，也算是对传统的尊重[大笑][大笑][大笑] 可惜你鸟爹今年还是只能争四，鸟粪再怎么嚎哭也没用。 可喜可贺！新年第一场比赛成功逼和副班长西布朗。我娜威武！各位球迷新年快乐！哈哈😄 你是鸟粪吧 瓜狗送完温暖，娜表也不耽误，这是双喜临门啊，哈哈哈😄 龟二子快说，三天没去X你老女良，你老女良想我没[鄙视]？ 说曼联不被针对，裁判自己都不信！ 你其实姓巴，不信回家仔细问问你麻麻，记得私下问 你这明知故问吧，一楼著名鸟粪，木鸟的干儿子，我住他家隔壁，我姓王[羞羞] 这句话已经说了不少于四年了，年年都不下课。气死人 如果你叫王巴，也算是对传统的尊重[大笑][大笑][大笑] 那你想表达什么？秀智商吗？0.5大小的时候上盘既大球，太贪还怪别人？阿森纳上一场怎么赢的没仔细看过么。 阿森纳现在就80年代末期的国企！ 你确实是你爹妈一把屎一把尿喂大的 桑切斯，来曼联吧 完了，大吉鲁是真要卖走啊，温格就为了吃个回扣把国家队锋线对调 说不定唯一能赢的就是阿森纳了 要不是日本核辐射，你女良估计还在东京惹呢[狗]，你那个叫王巴的爸爸，估计现在还在辐射区吧？ 全平，哈哈 你是鸟粪吧 跟你爷后面吃屎呢，土逼曼狗 还有我说一句，全场2.75滚到0.5还去买球小球就是傻逼。 接下来就是争四了 阿森纳英超前七名的水平 昨天气的我差点把IPAD砸了 笑看赌球x😁 西布朗VS阿森纳前瞻枪手3将缺阵，呀呀快来来ks三三九！！！凯时娱娛樂～游戏人间啦，西布朗VS阿森纳前瞻枪手3将缺阵温格超弗格森 先看曼城对切尔西. 小野🐶，要不是你女良在日本拍片被辐射了，怎么会生出你这个四脚动物呢[狗]。不过你那个叫王巴的老爸也不错，给你留了个贱中基因[鄙视] 阿森纳是冠军 下半场滚球，你懂吗，大量的投注资金并不在初盘下注，而是随着比赛进行下注的。 西布朗VS阿森纳前瞻枪手3将缺阵，呀呀快来来ks三三九！！！凯时娱娛樂～游戏人间啦，西布朗VS阿森纳前瞻枪手3将缺阵温格超弗格森 曼城真的需要桑切斯，伤病太多了 论桑切斯职业还是阿森纳职业 娜娜现在第四都保不住的 374離開阿森納吧,現在的阿森納根本配不起你,現在的阿森納限制了你飛翔的高度,作為20年的槍迷真心覺得溫格是時候下課了! 垃圾废物阿森纳垃圾废物温格 智障，人如其名… 你的祖先真可能在东京，加藤鹰可能是你爷爷👴 Lulu那个傻逼麽，出来走几步？ 娜婊司马笑哈哈 没死人要什么点球🤔 曼联那也该判点球，但曼联更应该从自身找原因，打得什么玩意，如果还为这个点球耿耿于怀相信这种球迷很难正视曼联存在的问题。今晚如果拿不下爱华顿，估计穆的下课钟声很响了 这个能点球，为什么昨天曼联的就不能？ 娜婊习惯就好，瘟老死就这水平了[喷水] 今年英超悬念是娜娜和我抬哪个是第四？ 你爸爸叫王巴？木龟是你亲叔叔吧？ 还有365天就要跨年了，回想起去年跨年，仿佛就在昨天，在这里提前祝各位球迷朋友2019新年快乐！​​​ 快走吧374 踢得真辣鸡，钱伯斯个户口本，厄齐尔不上中场就是一群辣鸡，话说娜娜你配得上桑切斯吗？？？ 阿森纳只看财务报表 倭寇把你留在大陆还好，不然回本土给核辐射一下，你的智商估计😁连巴沟都不如了 伯恩茅斯应该以大局为重，不能赢了阿森纳再把温格搞下课，那样英超其他18队不会放过你的。 气死了什么破玩意 374今天该早起床找下家了<br>到曼城吧，英超冠军唾手可得甚至可以C罗一样躺冠，夏天再加盟的话变数多了 确实有这回事的,我虽然是顶曼联的,但福勒的职业素养确实令人佩服 呵呵，娜婊降级吧 傻逼鸟粪滚去曼联板块 轮流掉队 你还认识加藤鹰啊，小野🐶[鄙视]，你女良是不是被扣的很爽？不过还是不如我，你女良亲口对我说的[不屑] 今年英超悬念是娜娜和我抬哪个是第四？ 争四模式已开启 瓜狗送完温暖，娜表也不耽误，这是双喜临门啊，哈哈哈😄 全是平局，曼联平，曼城平，而且都是0比0，就在大家以为阿森纳也会以0比0收场，而大量下注资金都涌向小于0.5的时候，80几分钟阿森纳进球，但是，阿森纳独赢还不行，庄还要巨亏，因为下阿森纳的太多，所以最后再给主队一个点球，所有这些都是事先设计好的。 你个傻逼，哪里都有你，看你这名字就知道你是坨鸟粪 大腿怎么卖？？？ 第四名是我的！！！！ 解说也闲的蛋疼啊~ 不是一个裁判撒 374離開阿森納吧,現在的阿森納根本配不起你,現在的阿森納限制了你飛翔的高度,作為20年的槍迷真心覺得溫格是時候下課了! 这句话已经说了不少于四年了，年年都不下课。气死人 阿森纳啊，伤不起 娜娜现在就是前几年的利物浦不管怎么踢一看积分榜不是第五就是第六 气死人。最后来个点球。 踢得真辣鸡，钱伯斯个户口本，厄齐尔不上中场就是一群辣鸡，话说娜娜你配得上桑切斯吗？？？ 禁区没死人哪来的点球 最已阵成型.赛季末勇夺大满贯 永远争第四！ 走了374，272……和埃弗顿有什么区别……难道要年年混迹于欧联 不走也不会好到哪去，走也不会差到哪去 这场伤二个,曼城那场伤四个！ 这场球阿森纳应该赢的 伊沃比就是个垃圾，温格居然首发上他，下半场上的黑贝，存在感在哪？这两个球员赶紧清洗了比较好 不是…… 阿森纳啊。哎，客场咋就这么垃圾 第五了，冲四的阿森纳你们怕不怕 又是他！卖了他可咋办 大腿 大腿走了能争四吗 温格要不回j联赛 伤了心了，留不住啊，好歹很有职业素养，还在拼，其他那些呢，啥玩意儿，心疼枪迷 一大批不得意者来我厂板块发泄！ 阿森纳只有这个本事，是时候跟温格说再见了！ 这个反弹球技术高啊 还有365天就要跨年了，回想起去年跨年，仿佛就在昨天，皇马球迷在这里提前祝各队球迷朋友2019新年快乐！​​​ 开场时切赫被对面用屁股顶到蛋，然后我就听着解说讲了两分钟的疼痛理论。。。 遗憾 这个能点球，为什么昨天曼联的就不能？ 多特马竞尽管来啊……，英超冠军这方面……冠军是不可能拿的，瓜丢啦又辣么猛 热刺是输了吗 几个户口本真是坑，特别是威尔谢尔钱伯斯，这种坑货现在都留着也就温格搞的出来 那熟悉的位置回來了 你是不是涂国强 钱伯斯就没好事 上半场前20分钟，374在禁区前传给伊沃比多少个球？可是最后都丢了 踢得真辣鸡，钱伯斯个户口本，厄齐尔不上中场就是一群辣鸡，话说娜娜你配得上桑切斯吗？？？ 桑切斯孤独carry 就问你，374走了，你们咋办啊……娜娜 踢联赛最后1名都这么费劲，还差点输掉比赛。温格真的是会指挥。🔫手的后防和利物浦有的一拼，漏勺加低级防守失误。 Wishmymotherlandprosperity 阿森纳看着累，真心伤不起 踢的差 pptv的解说就是说相声的，后来改看新英了 瞎几把乱买了50块钱的四串一～。曼城不胜中了，摩洛哥联赛那边下半场连进两个也中了，以超的2.5大球也中了，就是尼玛我最心爱的阿森纳没中…………多进一个能死？买的也是2.5大球…………好心酸～。还说新年赚点零花钱～。看的真心气死 为什么判点球,因为阿森纳踢的根本就不配获得胜利 相信我家娜娜最终还是会回到四号台上班的，加油！ 别灰心，阿森纳后半程的发力，会让你欣慰的 马上第四了。加油 厄齐尔还是重要的 你把小猪的20W放哪了 呵呵 坑爹 vivo的广告做到英超去了 居然没输，温五在混吃等死的路上又迈出了一步。阿森纳啊阿森纳 鸟粪，憋坏了吧？ 大过节的还这么不懂事！ 光平局，踢的辣鸡 这都赢不了继续无缘欧冠吧 大腿真可怜，眼看着拿下的比赛，多少次了！带不动啊，估计得跑，真受不起这帮菜b的打击 就这样，还孤立374…心疼374，没他阿森纳现在不知道什么成绩呵呵 惠州🐶，你鸟能撑过这个赛季吗？ 惠州🐶的鸟跌就要来中超了，能不高兴吗？ 曼联球员不死在禁区里不会得点球的 阿森纳这几样，还卖桑切斯，能打欧联就很不错了。 来的时候厄齐尔超级巨星，桑切斯顶级球星，现在呢。为什么不换个教练试试……心疼娜的球迷一秒 又是这样的节奏 lulu发帖是多，但是人家不说脏话，如果鸟屎说他素质差，就好比彪子说人不贞洁一样 桑切斯还留吗？ 升了啊 换人换教练 马上就第四了 你敢说换教练，他球迷不喷死你。 阿森纳这几样，还卖桑切斯，能打欧联就很不错了。 不错 还好不买你赢，要不又输了 别怪人家374要走就这水平还是保级吧 问问博彩公司吧😄 都中了三个，不知道买个小？笨 西布朗赶紧和水晶宫碰碰 冬窗已经开了，下一个是谁？ 都是lulu那个阴阳怪气的臭傻逼败人品 13万周薪用了这么多年，赚了。博格巴29万，图雷22万，曼联板凳卢克肖13万，性价比无敌。 又是374，每进一球都扎四爷的心啊 娜婊怎么不叫了？不是漂亮足球了？ 曼狗也来啦 西布朗防守很厉害的了，兹道不？<br>平了热刺平了利物浦平了埃弗顿平了阿四娜 买球别买自己喜欢的球队 这个能点球，为什么昨天曼联的就不能？ 你们都掉到第三去了还半夜这么高兴 踢得真辣鸡，钱伯斯个户口本，厄齐尔不上中场就是一群辣鸡，话说娜娜你配得上桑切斯吗？？？ 不卖桑切斯，他就免费转会喽，阿四娜一分钱都得不到 争四的呢 什么叫第五，热刺还没有比赛呢 人家买的是串提前就买好不是滚球。 当然是阿森纳 还有他们踢的很man，横冲直撞 因为中国人看的多 可惜你鸟爹今年还是只能争四，鸟粪再怎么嚎哭也没用。 瞎几把乱买了50块钱的四串一～。曼城不胜中了，摩洛哥联赛那边下半场连进两个也中了，以超的2.5大球也中了，就是尼玛我最心爱的阿森纳没中…………多进一个能死？买的也是2.5大球…………好心酸～。还说新年赚点零花钱～。看的真心气死 鸟赛季中就滚蛋了 瓜狗送完温暖，娜表也不耽误，这是双喜临门啊，哈哈哈😄 阿森纳这几样，还卖桑切斯，能打欧联就很不错了。 可以 垃圾，就这样，还想争冠军 疯狂动物城 你是不是涂国强？ 阿森纳今年摆烂了。。。 解说讲的是顶到下腹和大腿，但我只看到他摸着蛋 排球动作都出来了。阿森纳永远别进前四了。 娜娜完蛋咯 我去看数据阿森纳丢球已经超过利物浦了 还差一名 表现太业余，那点球简直就是白送给对手的。 破厂用表现诠释了两句话：<br>1、陪太子读书，人家平我们也平就问你服不服<br>2、将熊熊一个，兵熊熊一窝。整场比赛打的都不好，像伊沃比，贝莱林连续那么多次表现那么差都不应该打首发，为啥还能打首发，因为没有合适的球员了，那为啥没合适的球员了，因为教授把钱存起来买理财了，这个赛季夏季转会居然是盈利的。 2018，新的一年已悄然来到。希望在新的一年里看到一个更好的桑切斯。 穆帅带头先送，瓜帅多少要给点面子，毕竟领先太多。萝卜吊驴才是最有意思。 命啊！ 踢的真是一坨屎 维尔贝克上来不知道干嘛的，不是传丢球就是带丢球，看的窝火🔥 因为曼狗输不起的大傻逼 最后时段我只看到374一个人还在战斗，但真心带不动，骂374的该好好想想，他不续约而已，但有出工不出力吗？有在媒体面前骂俱乐部吗？ 可怜滴大腿桑切斯等你被阿森纳卖了娜娜又得给你起外号了 温格真他妈SB，钱伯斯这种废物，还有伊沃比和那几个SB，，，，赶快下课吧 当你实力不够时，全世界都对你不公平，权利是自己争取来的，重新认识自己吧 272，374。也许就不该来。 这一轮大家都打平了 人家是客场平，不像老厕所，乌龟王八阵，勉强0:0几歪个毛。快招韦伯队魂回来。。。哈哈哈哈 索然无味的比赛，破厂这种都能拿第四，那利物浦和热刺后面得有多烂 小贝加钱宝……这尼玛右路大走廊让人随便玩😂 开场时切赫被对面用屁股顶到蛋，然后我就听着解说讲了两分钟的疼痛理论。。。 看谁的主场 感谢娜娜让我收大米 最后5分钟守不住，我厂到底有没有防守训练，真是输的好蠢，废物也能踢首发 娜是当然 。鸟粪能不能滚一边去洗地 没死人要什么点球🤔 买球别买自己喜欢的球队 这个能点球，为什么昨天曼联的就不能？ 没看，失望 你不知道娜娜把374和272早就喷出翔了？争冠的球员配不上争四的队伍 钱伯斯，一窝比，贝莱宁，娜娜这阵容，目标争四一点毛病没有 队魂韦伯退役后，曼狗就没一场觉得裁判是公正的。老厕所主场诶，大巴没点球怎么赢呀？裁判水平不行嘛。 看这场球的全过程:我TM…这踢得什么JB玩意，到了80分钟，我TM这都能进，374牛逼。90分钟…我QNMD点球？ 厉害😄 。。。 你厂和我军防守都是没有下限的 桑神转会吧 踢得真辣鸡，钱伯斯个户口本，厄齐尔不上中场就是一群辣鸡，话说娜娜你配得上桑切斯吗？？？ 桑切斯怎么这张图这么像雷震子？😂😂 5000大球也死 枪迷熬夜真是苦了自己 拉卡泽特5200万英镑？笑话！为什么总换那个韦尔贝克。什么玩意！374走吧，阿森纳真配不上你！后卫一群屎！ 曼联的比赛禁区不死人还想要点球？ 更衣室还撕逼？靠的还不是桑切斯！ 谁在第四，颤抖吧！教授和他们队伍来了！[微笑][微笑][微笑][微笑] 瞎几把乱买了50块钱的四串一～。曼城不胜中了，摩洛哥联赛那边下半场连进两个也中了，以超的2.5大球也中了，就是尼玛我最心爱的阿森纳没中…………多进一个能死？买的也是2.5大球…………好心酸～。还说新年赚点零花钱～。看的真心气死 瓜狗送完温暖，娜表也不耽误，这是双喜临门啊，哈哈哈😄 贵军好歹发了7500万磅买了牛逼的范迪克，至少有希望好吧，而且进球能力强啊，不像我厂，防守简直辣眼睛，进球也不给力 新年第一天，真的不想说别的了，祝大家新年快乐！ 温老四眼看着被罚出去，赶紧闭上了大逼嘴 这群后卫张那么对得起桑切斯 车子红军成为本轮最大赢家，红军球迷新年快乐，车子球迷留 假球 漂亮 娜娜队服看着怪怪的 新年第一天，不想骂人，呵呵，娜娜 我想问一下在腾讯直播说剁要害那个兄台在哪[疑问] 可喜可贺！新年第一场比赛成功逼和副班长西布朗。我娜威武！各位球迷新年快乐！哈哈😄 阿森纳-扶不起的阿斗， "
    },
    "Article": "网易体育1月1日报道：北京时间1月1日0时30分，英超第21轮一场焦点战里，阿森纳客场对阵西布朗维奇。科拉希纳茨和科斯切尔尼受伤退场，桑切斯射进自己创造的任意球，J-罗德里格斯点球破门追平比分，阿森纳客场1-1战平积分榜垫底的西布朗，积分超越热刺升至第五。",
    "Source": "Netease",
    "Title": "英超-桑切斯任意球破门 阿森纳1-1西布朗升至第五_网易体育",
    "KeyWords": "阿森纳,桑切斯,西布朗,英超",
    "URL": "http://sports.163.com/18/0101/02/D71HD0N900058781.html"
}