{
    "Title": "日韩慰安妇问题纠纷持续 日本考虑召回驻韩大使_网易新闻",
    "PublishTime": "12/31/201719:53:21",
    "URL": "http://news.163.com/17/1231/19/D70R30CJ0001899N.html",
    "Source": "Netease",
    "KeyWords": "慰安妇,日本,韩国",
    "Comment": {
        "Reply": 14,
        "Content": "韩国zf朝令夕改 两个都不是好鸟， 早已无所谓了，偶尔需要嘴巴叫叫 韩国是否有靠出卖自己身体来谋生的女性？？是否有此类职业和为其提供服务的场所？？这些女性是否也属于慰安妇的解释范围呢？？ 人是吃饭吃大的，不是大话吓大的。 朴槿惠不愧是皇军朴正熙的女儿，偷偷摸摸就把慰安妇的血泪送给老主子了 也就韩国政府敢一直和鬼子叫板纠结这个问题。其他政府敢这么一直和日本僵持？ 其中一个更坏。 韩国zf朝令夕改 挽尊 韩国是否有靠出卖自己身体来谋生的女性？？是否有此类职业和为其提供服务的场所？？这些女性是否也属于慰安妇的解释范围呢？？ 人是吃饭吃大的，不是大话吓大的。 这个问题需要特朗普出来调停 韩人！<br>去灭了小日本！ 两个都不是好鸟， 朴槿惠不愧是皇军朴正熙的女儿，偷偷摸摸就把慰安妇的血泪送给老主子了 也就韩国政府敢一直和鬼子叫板纠结这个问题。其他政府敢这么一直和日本僵持？ 都<br>杀<br>了<br>！ 早已无所谓了，偶尔需要嘴巴叫叫 不敢不敢 小日本要正视历史 ",
        "Total": 69,
        "Link": "http://comment.news.163.com/news2_bbs/D70R30CJ0001899N.html"
    },
    "Article": "【日韩慰安妇问题纠纷持续日本考虑召回驻韩大使】韩国媒体30日报道，日本首相安倍晋三28日召集外务省官员开会，商讨如何应对韩国近日有关慰安妇协议的各种动向。日本《读卖新闻》说，会议议题之一是日本是否召回驻韩大使长岭安政。韩国外交部说，朴槿惠政府2015年与日本达成的《韩日慰安妇协议》涉及非公开内容，且未在签订前充分听取受害者意见，给受害者及其家人和广大市民带来心灵伤害。日本敦促韩国政府履行协议，否则将危机两国关系。本文来源：新华国际作者：杨舒怡责任编辑：徐萌_NN7485"
}