{
    "Article": "律师所否认曾发律师函薛之谦网易娱乐1月2日报道1月2日，薛之谦工作室也发声明回应《认真的雪》侵权风波，并晒出大成律师事务所声明，声明中否认曾向薛之谦发律师函。本文来源：网易娱乐责任编辑：杨明_NV5736",
    "Title": "薛之谦工作室回应侵权风波 律师所否认曾发律师函_网易娱乐",
    "PublishTime": "01/02/201815:55:50",
    "Source": "Netease",
    "Comment": {
        "Content": "自导自演的，好假。 人设崩塌……我能说他以前我们公司媒体部签的吗？其实人挺礼貌低调随和的……😂 为你疯狂打call，发律师函这个梗还没过去 戏精怎么还不退出娱乐圈呢？就那么想在这个圈捞钱吗？[鄙视] 薛之谦跨年唱的那歌，搞了那么大阵仗，结果还是略尴尬，台下都没有人给他打call~~不明白什么原因在捧他，还能捧红吗 我为啥觉得这是老薛为了重出江湖，自导自演的一场戏呢。。。前两天终于在跨年晚会上露了下脸，接着就开始出来这个事。老薛最红的歌就是认真的雪，唱了十来年了，偏偏在这个时候被爆抄袭？还高调回应？让人不得不觉得这是经济公司自导自演的戏啊。。。 谦谦我要为你打胎，我要给你生猴子！ 律师函………………哈哈哈 薛之谦这是要强抢小璐的头条啊 不要碧莲的🐶！就知道演戏、撒谎！ 戏精怎么还不退出娱乐圈呢？就那么想在这个圈捞钱吗？[鄙视] 为你疯狂打call，发律师函这个梗还没过去 旋律才是歌曲核心，而几句歌词人人都可以编，好的曲子却不是人人都能创作！更何况流行歌词本身没有什么文学底蕴，中学情书水平，千篇一律！你如果旋律侵权，或者小说剧情侵权了，那可以追究，但是非要把几句歌词当歌曲核心，把一首歌的热门归功于歌词！狮子大开口告人家侵权，这我就觉得有点可笑了！ 哎我觉得工作室应该不会理吧毕竟没有大范围传播 薛之谦跨年唱的那歌，搞了那么大阵仗，结果还是略尴尬，台下都没有人给他打call~~不明白什么原因在捧他，还能捧红吗 我为啥觉得这是老薛为了重出江湖，自导自演的一场戏呢。。。前两天终于在跨年晚会上露了下脸，接着就开始出来这个事。老薛最红的歌就是认真的雪，唱了十来年了，偏偏在这个时候被爆抄袭？还高调回应？让人不得不觉得这是经济公司自导自演的戏啊。。。 已经洗白了吧 你看发给你的函所述的事实是否有出入?对方的要求是否合法?如果都是肯定的,那么你最好主动与对方取得联系,或者给予对方回函表明态度就是了.如果与事实有出入,最好回函时予以申明. 人设崩塌……我能说他以前我们公司媒体部签的吗？其实人挺礼貌低调随和的……😂 律师函………………哈哈哈 唱歌还行，人品啥的就不评价了[微笑] 这是不是洗完了。18年要大干一场，弥补17年下半年损失？呕心东西，现在他的人设是什么。比以前更惨？ 谦谦我要为你打胎，我要给你生猴子！ 自导自演的，好假。 真是墙倒众人推 啦啦啦 薛是得到我肯定为数不多的暖男歌手，rb玩的不错，认真的雪很好听，早就加入收藏，胡彦斌，汪峰也不错😊 ",
        "Reply": 19,
        "Link": "http://comment.ent.163.com/ent2_bbs/D75I9H1700038FO9.html",
        "Total": 142
    },
    "KeyWords": "薛之谦,律所,侵权,律师函",
    "URL": "http://ent.163.com/18/0102/15/D75I9H1700038FO9.html"
}