{
    "URL": "http://news.163.com/17/1231/09/D6VO6MN80001875O.html",
    "Article": "（原标题：【叙利亚局势】普京：俄仍将致力于维护叙主权完整）俄罗斯克里姆林宫30日的消息：俄罗斯总统普京在向叙利亚总统巴沙尔·阿萨德祝贺新年时再次承诺，俄罗斯将继续向叙利亚政府提供一切可能的帮助，致力于维护叙利亚的主权统一和领土完整，同时推动化解叙利亚危机的政治进程，并帮助叙利亚恢复经济发展。12月11日，普京宣布开始从叙利亚撤军，但俄罗斯驻叙利亚的赫梅米姆空军基地和塔尔图斯海军基地仍将保留，目前，俄罗斯正着手在这两处基地组建常驻部队。本文来源：央视责任编辑：李天奕_NN7528",
    "KeyWords": "普京,叙利亚,新年,俄罗斯",
    "Source": "Netease",
    "Comment": {
        "Reply": 11,
        "Content": "全都吞了，重新组建苏联不就主权完整了 还是先管好自己的事吧 政界强人 好，继续保护叙利亚 同臭相欢，，， 就那么几个孤家寡人“腥腥”相惜，偏还要拿来宣传 那是猪狗之权，邪教国家的所谓主权不同于正常国家。 把土地还给我们 就那么几个孤家寡人“腥腥”相惜，偏还要拿来宣传 乌克兰的主权完整也维护下。 全都吞了，重新组建苏联不就主权完整了 还是先管好自己的事吧 政界强人 苏联是不存在的国家。 同臭相欢，，， 就那么几个孤家寡人“腥腥”相惜，偏还要拿来宣传 那是猪狗之权，邪教国家的所谓主权不同于正常国家。 把土地还给我们 就那么几个孤家寡人“腥腥”相惜，偏还要拿来宣传 乌克兰的主权完整也维护下。 好，继续保护叙利亚 ",
        "Total": 128,
        "Link": "http://comment.news.163.com/news_guoji2_bbs/D6VO6MN80001875O.html"
    },
    "PublishTime": "12/31/201709:43:42",
    "Title": "普京向叙总统祝贺新年:仍将致力于维护叙主权完整_网易新闻"
}