{
    "Comment": {
        "Link": "http://comment.news.163.com/news_guoji2_bbs/D6VDCJRU0001875O.html",
        "Total": 2,
        "Content": "这个还能理解，没有发生性行为。那个带套的，简直搞笑 墨西哥法官一定在南京求学过 ",
        "Reply": 2
    },
    "Source": "Netease",
    "PublishTime": "12/31/201706:34:42",
    "Title": "墨西哥南部发生交通事故 致10人死亡多人受伤_网易新闻",
    "Article": "（原标题：墨西哥南部发生交通事故致１０人死亡）新华社墨西哥城12月30日电墨西哥南部格雷罗州民防部门30日发布公告说，该州29日晚发生一起交通事故，造成10人死亡、多人受伤。公告说，格雷罗州特克潘·德加莱阿纳市附近29日晚发生公路交通事故。两辆小型客车与一辆摩托车相撞，引发车辆起火燃烧，造成10人死亡、多人受伤，死者中有5名来自美国的游客。民防部门介绍说，尚不清楚事故确切原因，有关方面已展开调查。格雷罗州南部海岸是墨西哥著名的滨海旅游胜地，吸引大量国内外游客前往观光度假。本文来源：新华网责任编辑：赵亚萍_NN9005",
    "URL": "http://news.163.com/17/1231/06/D6VDCJRU0001875O.html",
    "KeyWords": "墨西哥,交通事故,格雷罗,交通安全"
}