{
    "Title": "广东出台出租汽车经营管理办法:网约车也是出租车_网易新闻",
    "URL": "http://news.163.com/17/1229/14/D6R3E0L60001875P.html",
    "Source": "Netease",
    "Article": "（原标题：广东出台出租汽车经营管理办法明年2月1日起施行）网约车也是出租车司机拿“证”才能上路12月28日，广东省人民政府官方网站公布了《广东省出租汽车经营管理办法》（以下简称《管理办法》），该办法将网约车纳入出租汽车经营范围，并明确网约车司机需具有出租汽车从业资格且完成注册方可上路行驶。该管理办法将于明年2月1日起施行。《管理办法》规定，出租汽车经营是指使用7座以下乘用车，按照乘客意愿提供的营利性客运活动，包括巡游出租汽车（以下简称巡游车）经营和网络预约出租汽车（以下简称网约车）经营。无论是巡游车还是网约车，出租汽车均应安装应急报警装置和具有行驶记录功能的车辆卫星定位装置。运营要求无论是巡游车还是网约车，均需取得各级交通运输主管部门核发的营运证；驾驶员均需取得地级以上市人民政府交通运输主管部门核发的从业资格证。巡游车驾驶员从业资格考试与网约车驾驶员从业资格考试内容相同的，考试合格成绩在有效期内可以互认。在运营出租汽车时，驾驶员需要携带营运证和从业资格证。不过，巡游车可巡游揽客、站点轮排候客，也可通过电信、互联网等方式预约提供出租汽车服务。而网约车应当通过互联网方式预约提供出租汽车服务，不得巡游揽客、站点轮排候客。收费标准出租汽车经营者应当明码标价，在出租汽车醒目位置公开运价和收费标准，并向乘客提供税务部门监制的票据。运价实行政府定价或者政府指导价的，出租汽车经营者应当执行县级以上人民政府价格主管部门制定的运价和收费标准。运价实行市场调节价的，出租汽车经营者应当按照符合国家有关规定的计程计价方式制定运价和收费标准，并向社会公示。监督投诉出租汽车经营者应自觉接受社会监督，公布服务监督电话，建立24小时服务投诉值班制度，指定部门或者人员受理投诉。出租汽车经营者收到乘客投诉后，应当在10日内处理完毕，并将处理结果告知乘客。出租汽车驾驶员不得拒载，这些情况下除外：不能控制自己行为的乘客要求乘车且无人随车监护的；乘客携带易燃、易爆、有毒等危险物品的；乘客不愿按照相应的计费标准支付车费的；乘客的要求违反有关法律、法规、规章或者交通管制规定的；法律、法规、规章规定的其他可以拒载的情形。信息安全网约车经营者应当通过其服务平台以显著方式将驾驶员、约车人和乘客等个人信息的采集和使用的目的、方式和范围进行告知。个人信息的采集不得超越提供网约车业务所必需的范围。车辆报废巡游车的报废标准按照国家机动车强制报废标准执行。网约车行驶里程达到60万公里时强制报废；行驶里程未达到60万公里但使用年限达到8年时，退出网约车经营；退出网约车经营的车辆行驶里程达到60万公里时强制报废。本文来源：金羊网责任编辑：范姜国一_NN9138",
    "PublishTime": "12/29/201714:23:44",
    "Comment": {
        "Total": 325,
        "Content": "开始限制网约车发展了，几个字概括：交份子钱了 收编之时也就是收钱之时 应安装应急报警装置和具有行驶记录功能的车辆卫星定位装置。8年60W公里强制报废，这些规定都很合理呀，有什么好喷？ 最不要脸了，哪里能赚钱，哪里就立个法 网约车的份子钱是滴滴收了 共享单车也是出租的车，咋整？每台单车也办营运证？ 硬生生给它们逼成一出租车公司 要合伙垄断一起涨价了。 相当于取消网约车 那些用屁股想问题的还管你那么多？收钱才是他们最拿手的 哈哈，新型的东西非要给它们整成个六不像，就是为了收钱跟好管理。 明升暗降 狗？ 用旧事物来类比新事物，用旧思维应对新事件，用就观念管理新发展，唉，明眼人一看都行不通，你倒好，胡球整，意思是说网约车必须要去办理运营证了，我就问从实际角度出发，你这运营证就能保证运输安全？还不是故意加大难度，增加谁会发展成本 打的费实际不贵，就是份子钱太多了。 那出租车的份子钱呢？ 一个月9000的份子钱，落谁口袋了？ 司马昭之心，路人皆知。 只关心是不是又要多交钱？要是办理这些手术不交费就是真的为民 准备收份子钱了… 好好好，最好全国一起，滴滴早该玩完了，大家重回打车难原状。 问什么问，不该问的不问，不该听的不听 贵得要死 那麼誰負責管理？是否能管理2種完全不同性質的行業收費各方面？ 万一网约车车主心血来潮型的，只做两个月，那车还是60万公里报费吗？ 那些用屁股想问题的还管你那么多？收钱才是他们最拿手的 应安装应急报警装置和具有行驶记录功能的车辆卫星定位装置。8年60W公里强制报废，这些规定都很合理呀，有什么好喷？ 不知道 最不要脸了，哪里能赚钱，哪里就立个法 网约车的份子钱是滴滴收了 共享单车也是出租的车，咋整？每台单车也办营运证？ 硬生生给它们逼成一出租车公司 要合伙垄断一起涨价了。 高额分子钱是罪魁祸首 相当于取消网约车 好好好，最好全国一起，滴滴早该玩完了，大家重回打车难原状。 明升暗降 哈哈，新型的东西非要给它们整成个六不像，就是为了收钱跟好管理。 收编之时也就是收钱之时 狗？ 用旧事物来类比新事物，用旧思维应对新事件，用就观念管理新发展，唉，明眼人一看都行不通，你倒好，胡球整，意思是说网约车必须要去办理运营证了，我就问从实际角度出发，你这运营证就能保证运输安全？还不是故意加大难度，增加谁会发展成本 打的费实际不贵，就是份子钱太多了。 有好的管理是好的哦 那出租车的份子钱呢？ 一个月9000的份子钱，落谁口袋了？ 无论是巡游车还是网约车，均需取得各级交通运输主管部门核发的营运证；驾驶员均需取得地级以上市人民政府交通运输主管部门核发的从业资格证。巡游车驾驶员从业资格考试与网约车驾驶员从业资格考试内容相同的，考试合格成绩在有效期内可以互认。在运营出租汽车时，驾驶员需要携带营运证和从业资格证。 重庆望江江边修兵工厂嘛，免费入住小区房嘛，卖商铺嘛。 司马昭之心，路人皆知。 只关心是不是又要多交钱？要是办理这些手术不交费就是真的为民 准备收份子钱了… 开始限制网约车发展了，几个字概括：交份子钱了 问什么问，不该问的不问，不该听的不听 贵得要死 ",
        "Reply": 30,
        "Link": "http://comment.news.163.com/news_shehui7_bbs/D6R3E0L60001875P.html"
    },
    "KeyWords": "网约车,营运证,驾驶员"
}