{
    "URL": "http://news.163.com/17/1226/19/D6JT9VVK000187V9.html",
    "Comment": {
        "Total": 381,
        "Reply": 29,
        "Link": "http://comment.news.163.com/news2_bbs/D6JT9VVK000187V9.html",
        "Content": "就像一个强盗再採点 这算什么事？也值得发新闻？再说，一艘护卫舰，我晕…… 不是有无害通过权吗？ 俄罗斯没心吓你，你自己却情不自禁的吓尿了。哈哈哈！笑死人了。 不是刚说英国军舰都趴窝了吗怎么出动这么快 该打了 英国也有核武，只是核弹头没毛子多，不过真打起核战来，北约会把毛子轰到灭族不可 正常，踩点呢，能偷就偷，能抢就抢 大惊小怪的 常规战英虐俄没问题 尼玛，你不是一直以侵略殖民别人为乐吗？ 毛子到处转悠 继美国、日本之后，英国又被成功吓尿 比说英语更没问题 一楼是逢俄必舔 英帝国怕它毛刷 这算什么事？也值得发新闻？再说，一艘护卫舰，我晕…… 俄罗斯没心吓你，你自己却情不自禁的吓尿了。哈哈哈！笑死人了。 不是刚说英国军舰都趴窝了吗怎么出动这么快 美国天天来踩点 两艘军舰而已，有什么可恐吓的？大英帝国这么弱不禁风？ 常规战英虐俄没问题 该打了 他是抓强盗的 那就试试呗 继美国、日本之后，英国又被成功吓尿 比说英语更没问题 毕竟是慈父嘛可惜了他爸爸绿油油的一顶帽子啊…… 就像一个强盗再採点 不是有无害通过权吗？ 正常，踩点呢，能偷就偷，能抢就抢 英国也有核武，只是核弹头没毛子多，不过真打起核战来，北约会把毛子轰到灭族不可 楼上去看看二战有多少毛子变成好毛子，那是常规战，而且还只是德国单挑盟军和加强版的毛子 常规战俄毛打的过印度吧还是个问题，尤其海军，鹅毛还有啥。就这些自媒体在那给野爹摇旗呐喊。 你真可爱，这世界上能把毛子轰到灭族的，估计除了你易友的狗嘴，还没人可以做到 该打了 大惊小怪的 楼上是什么来头？ 没多大屁事，英国人大呼小叫好像受了欺负，西方政客坏的一米 尼玛，你不是一直以侵略殖民别人为乐吗？ 流星月亮地球太阳系有发动机么？没有!他们却高速在宇宙中运行!为什么？因为他们的运行轨道本身就是太空高速时空隧道!他们的运行路线一半为去路一半为来路，周而复始地运行着!地球自转公转着，本就没有东西南北上下左右等方位!谁定的？我们的天父啊!目的只有一个，告诉人类我们天父的星座方位!所以九曲桥的方向始终对着东北方!在宇宙一切物质中，永远是子体围绕母体运动，这是恒定的!所以地球自转并围绕太阳公转!因地球是自转公转的，所以根据地球的东西南北是找不到星外文明的星座方位的!只有找到太阳的上下前后东西南北才能准确地给天父星座方位定位!我们天父星座方位在太阳系东北上方第九颗恒星那里!那里以双伴恒星为中心带动周围108颗恒星运动着! 毛子到处转悠 一楼是逢俄必舔 牛牛的军舰连反舰导弹都没 "
    },
    "Article": "（原标题：俄舰驶近英国领海遭英舰监视英国防大臣：绝不受威吓！）【环球网综合报道】香港“东网”12月26日报道称，俄军一艘护卫舰于圣诞假期驶近英国的领海，英方随即派出一艘护卫舰上前监视，并“护送”对方直至离开。英国国防大臣表示，在保护国家及国民上，英国绝不会受到威吓。俄方暂未就此作出回应。英国皇家海军26日发表声明称，英军护卫舰圣奥尔本斯号(HMSStAlbans)于23日接到命令，驶离朴茨茅斯海军基地，前往北海监视驶近的俄军新型护卫舰戈尔什科夫海军上将号(AdmiralGorshkov)。至25日圣诞节，圣奥尔本斯号仍在监视，预计于26日返回基地，等候新的任务。报道称，英国军方表示，在圣诞假期期间，俄罗斯海军的舰只频频出现在英国一带的水域。除了圣奥尔本斯号，英军巡逻舰泰恩号(HMSTyne)还于24日平安夜，接到命令前往北海及英伦海峡，监视“护送”一艘俄军的情报收集船。此外，英军还于这段时间出动直升机，监视另外两艘驶近的俄舰。对于俄军驶近英国领海，英国国防大臣表示：“在保护我们的领海上，我绝不会犹豫，也不会容忍任何形式的侵略。当保护我们的国家、国民及国家利益时，英国永不会受到威吓而退缩。”圣奥尔本斯号舰长安塞尔表示，现在急切需要保护接近英国领土、领空、领海的英国利益，英方的贸易、经济及信息网络均依赖海洋。本文来源：环球时报-环球网。更多精彩，请登录环球网http://www.huanqiu.com责任编辑：李杭_BJS4645",
    "KeyWords": "英国,海军,俄军,护卫舰",
    "Source": "Netease",
    "Title": "俄舰驶近英领海遭英舰监视 英国防大臣:绝不受威吓_网易新闻",
    "PublishTime": "12/26/201719:16:00"
}