{
    "PublishTime": "12/27/201722:13:57",
    "Source": "Netease",
    "Comment": {
        "Link": "http://comment.news.163.com/news2_bbs/D6MPHM6200018AOR.html",
        "Total": 280,
        "Reply": 19,
        "Content": "你们俩长的这么像，心理没点数吗？ 隔壁老王干的好事 这种荒唐的事只会在美国发生 缘分啊 不是一个爹！ 俩孩子都遗弃[惊讶]隔壁老王干的好事 多年到有部小说《冬天里的春天》，情节类似 于是欣喜若狂 某关员发现包养的女大学生是自己和前女友的遗腹女 呵呵 俩孩子都遗弃，资本主义水深火热 至少还能从小到大一直在一起，比很多失散的兄弟姐妹好多了 你们俩长的这么像，心理没点数吗？ 隔壁老王干的好事 跟双胞胎差不多…… 缘分啊 不是一个爹！ 小马云到底怎么回事 俩孩子都遗弃[惊讶]隔壁老王干的好事 多年到有部小说《冬天里的春天》，情节类似 应该没有关系吧...我的还有 其实不是很像只是因为你白人见得少才会这样我刚到美国的时候根本记不住人脸过了很久才行 于是欣喜若狂 幸亏没有出柜——节选自《歪掰的历史》 都是形婚的话，那就更美滋滋 说说他们父亲的故事吧 某关员发现包养的女大学生是自己和前女友的遗腹女 呵呵 这种荒唐的事只会在美国发生 俩孩子都遗弃，资本主义水深火热 至少还能从小到大一直在一起，比很多失散的兄弟姐妹好多了 "
    },
    "Article": "（原标题：做了60年老友两男子惊觉对方是自己的亲生兄弟）中国青年网消息，据香港东网报道，美国一对相识60年的至交好友，在各自通过DNA匹配寻找血亲后，竟于本年圣诞节前夕发现对方竟然是自己的亲兄弟。两人感叹世事难料，形容这是最佳的圣诞礼物及奇迹，打算一起旅行并享受退休生活。罗宾逊（AlanRobinson）与麦克法兰（WalterMacfarlane）年龄相差15个月，两人于夏威夷出生长大，最初于6年级时相遇，并一起读书踢足球。罗宾逊与麦克法兰除了有相同兴趣，更因家庭环境相似而成为挚友，前者是被领养的孩子，后者则不知道父亲是谁。麦克法兰多年来一直通过互联网寻找亲人，但却毫无音讯，于是决定转向家庭DNA匹配网站求助，寻找所有与他DNA相近的人。结果显示，麦克法兰与用户“Robi737”的DNA极为相似，这个用户的昵称让他马上想到了自己的老友罗宾逊：身为机师的罗宾逊为阿罗哈航空驾驶波音737客机，他的昵称则是“Robi”。麦克法兰随即致电罗宾逊，两人在数通电话后终于发觉他们有同一位生母。他们于上周六（23日）将发现告知所有亲友，目前仍然在为这个真相而震惊，罗宾逊说：“这事儿太不可思议了，我也不知道要甚么时候才能习惯这种感觉。”本文来源：中国青年网责任编辑：徐萌_NN7485",
    "Title": "两人一起长大变老 做60年老友才发现对方是亲兄弟_网易新闻",
    "URL": "http://news.163.com/17/1227/22/D6MPHM6200018AOR.html",
    "KeyWords": "罗宾逊,dna,至交,领养"
}