{
    "URL": "http://news.163.com/17/1228/12/D6OC3H6L0001899O.html",
    "Comment": {
        "Reply": 518,
        "Content": "对于贫寒的家庭来说9800算是巨额了 就你那个穷比地方可就别吹牛笔装的自己很有钱似的 骗子当然可恶，这个大学生也脆弱了点。 就这智商还用上大学？ 枪毙这帮骗子！ 枪毙 是什么使他们都这么壮大了才被抓住。<br><br>——一些不做为的国家柱🐛 花这种钱，你们的良心不会痛吗？ 你不光是个穷比还非常的没有见识！大庆穷地方？大庆经济最高的时候你们一个青海都不敌一个大庆市吧 你先问一下贪污贫困户抚恤金的村长 天上不会掉馅饼，切记 别想当初了，现在大庆啥样儿？石油都绝户了吧？[微笑][微笑] 判太轻，不杀不足以平民愤 诈骗，碰瓷，放高利贷。敲诈。拐卖全部死刑 诈骗的太多，上当的也是可气 在范银贵、徐玉玉、蔡淑妍被骗案案发前，中国的电信诈骗犯基本没有被重判的。直到后来升级到弄出了人命，这些电信诈骗犯才开始被重判。这背后的原因你懂得的。 家庭条件不好！来钱不容易的家庭当然想不开这不像自己花了做生意赔了丢了都比被骗心里上要好受！无缘无故被骗走学费还是个家庭条件不好的当然想不开！ 9800就自杀了？ 对于一个小姑娘家想想这么多钱九千八百元。贫困家庭一个很大的数字。想不开第一1时候没人安慰及撑腰。受到的巨大的惊压也可能导致无路可走。最终还是走了？？？我能理解。可恶的骗子。不得好死。 骗取贫苦人家血汗钱，这就是报应！ 现在电信诈骗太多了，应该杀几个以儆效尤 人渣过盛、支持枪毙，无期太轻。 在范银贵、徐玉玉、蔡淑妍被篇案，中国的电信诈骗犯基本没有被重判的。直到后来升级到弄出了人命，这些电信诈骗犯才开始被重判。这背后的原因你懂得的。 妹紙，9800元就是你的人生价值吗？ 被骗后只要不自杀的，那骗子就没事！ 那你觉得应该多少 你别他吗吹牛逼行吗骗术高明的照样骗死你别以为自己多高明 花这种钱良心何安啊，晚上睡得着觉？ 为什么不枪毙 死人才给报道和重视… 中国的骗子让你防不胜防 不死人是没人管的 那女孩现在已经变着怨气很重的鬼！今晚就来找你！ 应该死刑 支持，监狱里好好改造他吧，最好别减刑。 “只生一个好，来羊老”的骗局，害了多少家😂，煮饭该怎么判 再傻的骗术都有人信，也怪不得骗子越来越多了[晕] 老婆饼和老婆有关系吗？ 觉得该判死刑的点右上↗ 杀人偿命欠债还钱，天经地义 这些狗篮子东西 为了一万块钱值得嘛？这么年轻让我操舒服了我给你 对的一个贫困大学生9000多就是一年的生活费啊，对于贫困地区就是一年的收入。这还不够？无期徒刑判的好，最好别减刑。把牢底坐穿。 网易大神可都是月入几万几十万的， 电信诈骗和电信有关系吗 阁下代表了一批暴民… 碰点自己人生的挫折就这么容易的自杀。 傻逼东西，大庆就产你这种杂种串子？就你兜兜里那俩钢镚也好意思出来丢人？回家吃你妈奶去吧。 百度(毛卑零），就明白大幂幂为什么会火，不知道被多少个名导给潜了，那里真的是黑，去瞧瞧 半个月前才给中山，领上人生灯饰，骗2万血汗钱，真想拿刀去砍他们，这社会怎么了，祝骗子早日出门给车撞死 这种人有良心？ 在范银贵、徐玉玉、蔡淑妍被骗案案发前，中国的电信诈骗犯基本没有被重判的。直到后来升级到弄出了人命，这些电信诈骗犯才开始被重判。这背后的原因你懂得的。 诈死他 花这种钱，你们的良心不会痛吗？ 电信诈骗和网贷都是当今社会的毒瘤 有关 怎么就能自杀呢国家怎么教育的这点事情都不能承受真他妈悲哀 一楼这种傻逼就不应该搭理他，把它培养成一个大傻逼 现在还是很多啊 没有良心 百度(毛卑零），就明白大幂幂为什么会火，不知道被多少个名导给潜了，那里真的是黑，去瞧瞧 在范银贵、徐玉玉、蔡淑妍被篇案，中国的电信诈骗犯基本没有被重判的。直到后来升级到弄出了人命，这些电信诈骗犯才开始被重判。这背后的原因你懂得的。 有良心的干不了这行！ 背后原因是法冶的笑话，骗了一万钱，立法至于让罪犯牢底坐穿吗？骗子只是求财，从来不要命。 9800就自杀了？ 你撕逼撕的真认真啊，这数据是百度查的吧？ 我不是放你放出来了么？狗杂种？ 电信杂碎骗子 楼上这个山驴炮真是笑死人山炮你继续表演吧吹的9800都是小钱你可真是牛笔啊 電信詐騙？怎一個貪字了得。 哈哈，说得好像人家真的会心疼一样。笑贫不笑娼，不管黑猫白猫？ 这些傻逼，重判才对 应该在大学课堂普及防诈骗知识！ 看你那个物质的啥比样在高原生活久了大脑缺氧都开始啥比了 那你觉得应该多少 为什么没有联通诈骗？ 就你那个无知的啥比样还和大庆比大庆别的地方比不了就你青海还在这狂看你在一楼三楼说的屁话！自己去查查你个山驴炮大庆连续20多年全国纳税第一名你都不知道吧 比你牛逼大了，你个傻逼没见过钱吧？ 我尼玛 非得出人命，否则谁会管？ 俩傻逼开始一唱一和了？真是物以类聚，傻逼找傻逼啊。 这几个只是运气不好而已 不出人命谁愿意费那功夫 法盲吗，诈骗最高无期 骗子真TMD坑爹 百度(毛卑零），就明白大幂幂为什么会火，不知道被多少个名导给潜了，那里真的是黑，去瞧瞧 为啥非要出人命才重视，是想养肥了再杀吗 背后原因是法冶的笑话，骗了一万钱，立法至于让罪犯牢底坐穿吗？骗子只是求财，从来不要命。 有些犯罪应该禁止减刑 太轻了，抗诉 支持，监狱里好好改造他吧，最好别减刑。 用的起联通不换号的谁要我掏钱我和他玩命 楼上穷比开始装比了越穷越装啊人家被骗自杀你还借机装比抬高自己有钱呢就看不惯你这种煞笔 在范银贵、徐玉玉、蔡淑妍被骗案案发前，中国的电信诈骗犯基本没有被重判的。直到后来升级到弄出了人命，这些电信诈骗犯才开始被重判。这背后的原因你懂得的。 现在看出来诈骗案不是不能破，就看能不能死人。 为什么不毙几个？ 觉得该判死刑的点右上↗ 有良心赚不到这钱 别对我回复和一楼那个狂妄的二逼说去 早该管了，国家都在干什么？！天天这个胜利那个胜利 不管你是那里人，也许你觉得9800不多，但是可能对于别人就是全部，少在这里抖机灵，你在那里你都是一个傻逼！ 说实话，我就被他们骗过，没错，就是文中说的这种骗法，就是这个爸爸去哪儿。还冒充什么北京市朝阳区中级法院一个狗屁主任给我打威胁电话。最后我用我这二十年来学到的所有脏话给他过了一遍，就没再烦过我了[微笑] 电信诈骗和电信有关系吗 问题来了，个人信息是怎么泄漏的？ 这个社会不该反思吗？为什么会骗子满街跑呢？<br>骗子骗到钱财，吃香喝辣盖高楼！成为一个村的榜样了吧?<br>而受骗者去报案得到的往往是金额小不能立案或是回家等就没有下文！<br>有很多人是因为自己被骗子骗后报警之后才选择加入骗子印行列的！ 骗学生的钱，真不是个东西 如果大学生没有自杀，只是单纯的报警，这些该死的诈骗犯可能还在享受美好人生，为什么只有影响大了，坏人才会能被绳之以法 甘蔗农药残留严重超标 …… 坏人做了坏事还吃上皇粮 如果大学生没有意思啊，只是单纯的报警，这些该死的诈骗犯可能还在享受美好人生，为什么只有影响大了，坏人才会能被绳之以法 支持严惩。但为什么非得出人命，一个案子才能被重视和严惩。应该是只要你诈骗了，人数多或金额大，就应该严惩。 有人死了之后才高度重视，其实这种电信诈骗案件只要肯花精力，肯定可以破 我们村里一家人大半辈子打工赚的36万被电信诈骗了，破不了案。 我遇到过座机的诈骗电话。 你想多了，只是刚开始死几个人才会重视，以后死多了就会有一套流程下来麻木掉，比如矿山死人少吗 这一次居然没有台湾师傅，都毕业了？ 迟到的正义。为什么总是死人了，造成严重后果了，有关部门才能有所作为呢 该坡开凶手的心脏看看是不是黑的 百度(毛卑零），就明白大幂幂为什么会火，不知道被多少个名导给潜了，那里真的是黑，去瞧瞧 因为影响征集啊 9800就自杀了？ 改称通讯诈骗，通讯诈骗比较合适。 对于一个小姑娘家想想这么多钱九千八百元。贫困家庭一个很大的数字。想不开第一1时候没人安慰及撑腰。受到的巨大的惊压也可能导致无路可走。最终还是走了？？？我能理解。可恶的骗子。不得好死。 预祝这种人监狱里渣菊花比碗大 我有个朋友,跟这作者差不多,也是爱编故事去年走的,走的时候并不安详,尸体在太平间抽搐了三天,火化的时候烧得滋滋响,嘴里还在嚎叫,烧了几个钟头才烧完,烧完以后上了灵车,出门就翻车了,骨灰洒了一地,还被风吹走了不少,刚想把剩下的扫起来,迎面来了一辆洒水车,唉…… 假恶斗控制变异人心，唯物唯欲，灌输谎言善恶颠倒，看不清真相，邪魔乱中华，抛弃邪恶有未来。 心疼！多么无助啊！…… 百度(毛卑零），就明白大幂幂为什么会火，不知道被多少个名导给潜了，那里真的是黑，去瞧瞧 有，信息都是电信泄漏的 不要骗人了 我提议：<br>凡是强奸犯，统统割掉小鸡鸡！<br>凡是诈骗犯，统统割掉大舌头！<br>凡是偷窃犯，统统剁掉手指头！<br>凡是人贩子，统统挖掉眼珠子！ 慢慢就出来了。都不是死缓 花这种钱，你们的良心不会痛吗？ 为啥能判这么重，真是不理解，就是因为死了人？ 我大学刚毕业的时候也被骗了三四万，报了案，警察就做了笔录，反正意思是我这种网络诈骗，基本就是要不回来了，我当时确实也没报太大的希望，不敢告诉父母，不敢告诉别人，没想到，警察觉得我这是新型诈骗案件，居然透露给了广播电视台，别说征得我的同意了，就叫通知都没有通知一声，所以电台打电话给我的时候，我以为是公安局领导良心发现，来了解案情，谁知道是电台直播，还好问了我两句，我觉得不对，就问到底怎么回事，然后电台把我的电话挂了，自此之后，我对警察只有一个印象。。。。其实，我主要是想说，三四万对于当时的我来说，也是很大一笔钱了，我也特别绝望，但是远远上升不到让我放弃生命的程度。。。9800跟钱多钱少无关，就是心理承受能力太差。。。。 诈骗不得好死 这样的就应该让他到地下改造。 这些骗子真的恶心！！！ 良心？国人现在有多少人还知道良心这东西的。 不能减刑！ 一般都是联通和移动电信因为cdma有鉴权无法搞伪基站所以诈骗短信一般全都是联通或移动的锅 电信诈骗本来受害人就有严重过失！ 电信诈骗和电信有关系吗 良心在哪里？ 医托、诈骗，比贩毒还严重，死刑 在范银贵、徐玉玉、蔡淑妍被篇案，中国的电信诈骗犯基本没有被重判的。直到后来升级到弄出了人命，这些电信诈骗犯才开始被重判。这背后的原因你懂得的。 案子破了，人也抓了，可是钱呢？钱去哪里了？？ 看吧，以后骗子肯定不敢骗学生钱了 没有，和移动有关系[窃笑][窃笑][窃笑] 养100只鳄鱼，凡是判死刑的，直接扔进去。 个人觉得判无期比判死刑更好。死刑马上一了百了，而无期对这样兔崽子来说，至少要坐20年的牢吧，现在他们差不多20多岁，20年后回到社会没有任何技能资金和机会，连老婆都没有，因此在他们的余生里，生活就意味着煎熬。 确实该判无期不判重点这些杂种不知道怎么回事 不死人，永远没人重视 已经造成命案，就应该判他死刑。否则难平民愤。 关键时刻监控都是坏的，是掩盖办案人员的犯罪行为。我儿子被人谋杀现场多处都有监控，烟台海阳市公安局的办案人员说，周围监控都不好用，不是没有主机就是坏了，案件在没有定性就将现场破坏，出假证，破坏被害人尸体，案发五天后我们早到公安局，在这五天内没有任何人告诉我们我儿子死亡，车辆和三部手机，工作包等都在现场，更加不能理的是在一起干活的多人也没有告诉我们，烟台海阳公安局办案人员，掩盖了整个案件真相，明是谋杀刑事案件却一直在治安大队处理，治安大队领导也说没有抓人的权利，但是也不移交刑警大队，治安大队也没有立刑事案件的权利，三年后给我们不立案通知书，我们有足够证据证明是谋杀案，凶手被后有重要人物在保护，案发时将凶手送望医院，而被害人一个小时后才被发现，没有得到及时救治，反而没有通知我们家人，直接往殡仪馆，在殡仪馆被害人多次遭到破坏。我们要求权威部门做尸检，但已是第五个年头了他们扣压尸体，不还给我们还不做尸检，我们要见一次还要经过海阳公安局同意，从精神上杀害我们俩位失独老人。 有关系也没关系 应该重判一批诈骗犯，打击他们的嚣张气焰。 是什么使他们都这么壮大了才被抓住。<br><br>——一些不做为的国家柱🐛 大庆人有些底气是正常，尤其是油田的，那个收入拿到东南沿海也是比较高的，何况在整体都不景气的东北地区，基本就是一个小王国，油田想对外招聘，他们职工都去游行示威，强烈要求安排他们子女继续接班。流水不腐户枢不蠹，东北是恰恰相反，正是因为东北很多大国企都是家族接班式的管理方式，导致缺少高学历高技术的人才，管理层也是捞完就跑，所以导致经济没活力，不创新不进取，越发展越慢，现在还能自视甚高的说西北西南两句，再过十年估计连西北西南也赶不上了... 枪毙 不是假号业务泛滥，怎么会得逞。。。 诈骗犯泛滥，台湾人民要负责很大一部分 调查一下，你是讨厌小偷还是讨厌骗子？点赞讨厌小偷。 不看网易不知厉害，不看评论不知国情 花这种钱，你们的良心不会痛吗？ 法盲 流星月亮地球太阳系有发动机么？没有!他们却高速在宇宙中运行!为什么？因为他们的运行轨道本身就是太空高速时空隧道!他们的运行路线一半为去路一半为来路，周而复始地运行着!地球自转公转着，本就没有东西南北上下左右等方位!谁定的？我们的天父啊!目的只有一个，告诉人类我们天父的星座方位!所以九曲桥的方向始终对着东北方!在宇宙一切物质中，永远是子体围绕母体运动，这是恒定的!所以地球自转并围绕太阳公转!因地球是自转公转的，所以根据地球的东西南北是找不到星外文明的星座方位的!只有找到太阳的上下前后东西南北才能准确地给天父星座方位定位!我们天父星座方位在太阳系东北上方第九颗恒星那里!那里以双伴恒星为中心带动周围108颗恒星运动着! 你说这话就像是何不食肉糜，你有没有尝过二十年来身上没多少钱的滋味，吃是问题，穿是问题，节俭度日，当拿这些钱可以有一个未来的时候，在这些人看不甚至比性命还重要，心理有了希望，突然钱被骗走，希望破灭，身心俱疲。你没有极端穷困的经历，动不动就是别人可恨，我想是这类贫困的人没有了希望看不到未来，才走上了绝路。犯罪份子极其可恶，骗走的钱，就有可能是别人的救命钱，有可能是别人的希望，这样的案子还少吗？ 上帝死了，谁的心会痛。 电话号码怎么泄露出去的？ 东北大战西北，有趣 监管不力，渎职罪有没有。 就应该判刑 应该去骗马云王思聪，骗小老百姓该死 9800就自杀了？ 对于一个小姑娘家想想这么多钱九千八百元。贫困家庭一个很大的数字。想不开第一1时候没人安慰及撑腰。受到的巨大的惊压也可能导致无路可走。最终还是走了？？？我能理解。可恶的骗子。不得好死。 不严惩不足以平民愤 只要人人都献出一点爱，世界将变成美好的人间[色色] 骗一百万就判无期？ 现在电信诈骗太多了，应该杀几个以儆效尤 为什么不是死刑~ 主要还是太穷了，贪官有钱但是不好骗，哈哈😄 那你觉得应该多少 主要是死人了 骗子太可恶了 对于学生来说，9800已经是很大一笔金额了。<br>这个案件让我想起一个电影《巨额来电》，诈骗集团头目的妹妹被别的诈骗团伙的人骗了一个学期的学费和生活费，然后自杀了。<br>唉～希望人与人之间多一点真诚，少点伤害 年底了骗子开始活动了，大家提高警惕 电信是电子通信简称，这么说就是电话诈骗，跟电信集团没关系 穷逼地方 现在诈骗的人太多，一定都要防守他们，可恶的骗子 又一个徐玉玉事件，这些骗子该杀 无期，还应该严格控制减刑 虽然认为骗人者应该不得好死，但现在的大学生真的是两耳不闻窗外事吗？电台、电视、报纸、网络都经常报道骗子的手法，理论上都应该略知一二吧？ 提高自己智商啊，说是诈骗，但也跟自己智商有关系。 那应该就是太穷了 无关 你认为这些人有良心？ 有没有技术手段能杜绝这种事情，不过貌似会涉及隐私 判太轻，不杀不足以平民愤 支持 哎，不死人不重视。 支持 电信诈骗和电信有关系吗 应该判死刑 这个社会有些犯罪要用重典了，不杀不能制止社会风气的转变，骗子、拐卖、吸毒都要判重刑才能起到警示、遏制作用，片子实在太多了，人心变坏了。 没用只能治标不能治本，只需拿出短信微信关键词追踪搜索的资源就能完全杜绝这种诈骗案了。 赞成这种意见。 应该判死刑！ 无期徒刑从法律里抹去吧，改成终身监禁不得减刑，不然可钻的空子太多了 我大电信表示不服，为什么就不能叫移动诈骗或联通诈骗？ 应该再来一次严打吧 9800就自杀了？ 花这种钱，你们的良心不会痛吗？ 跟贴被火星网友带走啦~ 这种人没有心 为什么不杀 现在没有下限的人多了去 诈骗犯罪也用重典，死刑；偷东西，断指。 又是电信诈骗惹的祸 凭什么判无期，诈骗金额有多少判多少呀 哥们儿，那是因为你还活着，所以算不上大案。。。。😖 骗子太多了，得死刑，否则抓不完的。 右上不是举报么 对于一个小姑娘家想想这么多钱九千八百元。贫困家庭一个很大的数字。想不开第一1时候没人安慰及撑腰。受到的巨大的惊压也可能导致无路可走。最终还是走了？？？我能理解。可恶的骗子。不得好死。 这个公安应该被纪检处理，太不负责任了。应该调离岗位。 防微杜渐 什么学校教出来的这么蠢的东西居然还考上了大学。早点死了免得以后丢人现眼。 现在电信诈骗太多了，应该杀几个以儆效尤 为啥就不能对没造成人命的诈骗团伙这么深抓呢？非要产生重大后果才亡羊补牢呢？这样可以表彰立功人员是么？ 应该杀一敬百 骗子最该死 被骗几千元，一般报案屁用没有，报案然后就是等通知，然后就没有然后了 不造作罪恶，怎么会招来如此恶果。即便今世没做恶事，那么前世定做了恶事。因果报应，无始无终。 无期变有期非常不合理.该多少年就多少年有能耐你就慢慢减刑 无期不得减刑 判轻了！ 就应该严惩，什么样的犯罪活动多了，就表示国家打击力度弱了，问题多了…… 有。他们监管不严。 9800元能在四线城市买一个平方 如今这个社会，没钱才心痛 这种人不会有良心！留着也是祸害。 法律太宽，应全部判死刑。看他们还敢骗人。枪毙，，，， 你如果跳的话，肯定破的了，因为可以立功啊。你不跳，抓住成本太高，又不算政绩为什么要抓 老婆饼和老婆有关系吗？ 电信诈骗真正是社会一大公害，必须严厉惩处。 觉得该判死刑的点右上↗ 中国对于有些事判刑太轻了，像造有毒有害食品，贩卖儿童和各种诈骗 自求多福，提高自身防范意识最重要，不希望再看到此种惨剧 不得减刑。 应该判电信公司联带责任，实际电信运营商也经常诈骗，和偷盗话费 电信诈骗和电信有关系吗 诈骗罪可以判那么重吗？ 800元在四线城市能买一个平方 诈骗的死刑，倒卖信息的死刑，犯罪成本高一点，难道就没威慑力？ 好，最好不得假释，让这些人渣牢底坐穿 错了，关到死比直接杀了更恐怖。 一群人渣，人性呢？ 对于这样的的诈骗犯就应该这样判、越重越好、免得以后再出来危害社会 骗子太厉害 直接死刑，枪毙！无期那就别减刑。 为什么叫电信诈骗而不叫联通诈骗或者移动诈骗？ 个人信息、隐私大量被泄露甚至公开倒卖，其实就是监管不力。。在这种情况下手机实名制，只会让不法分子的诈骗更精准定位~~~！ 值得收藏 为什么不判决死刑啊，难道要等他们出来后继续重操旧业 花这种钱，你们的良心不会痛吗？ 这事要是当地法院判电信担责并开一张巨额罚款，我保证不出一个月，那地方就没电信诈骗这个词了。 说成电讯好一点 让我想起了苏乞儿的一句话，国泰民安，百姓安居乐业有谁愿意去当乞丐？不过现在这个道德缺失的社会，即使是百万富翁也有到超市行窃的癖好。。。 有个诈骗电话说让我投资黄金期货，可以找投资10万，还跟我称兄道弟，我实在不想听下去了，就跟他说你先替我买10的货吧，赚钱了咱俩平分，后来骗子就不给我打电话了[窃笑] 9800元在四线城市能买一个平方 良心能让人过上好生活 兄弟右上是举报，右下才是点赞 我感觉无期都算轻的 个人信息泄露早就存在，基本上都是轻轻地处罚一下 拿菜刀砍人，和菜刀有关？？？ 9800就自杀了？ 电信诈骗9800元,银行应该赋予汇款用户取回的能力，能做个交易担保，了解对方银行卡账号账户资金来源。这种诈骗都是电信和银行付出的责任太少造成的。 监狱的基友已经备好了肥皂就等你们来捡了。 咋骗犯罪的危害比起贩毒有过之而无不及，对诈骗犯，应该和贩毒同等对待，骗1000元就死刑。 但是没死啊出来确实社会脱节了 难道只有付出生命的代价案件才会被重视吗？ 这种人对整个社会没价值，只是蛆虫，只是从别人身上吸血，最好的办法就是直接取了器官移植给需要的人。结束。 改判无期的不应该是那些贩卖学生信息的内部人员吗？为何问题不从源头解决呢 应该叫火箭军给他们排炮轰平灭种，鸡犬不留 骗子死全家 这就是中国电信用户少的原因。。。 判20年，其实跟死刑差不多了，一辈子都废了。出来五六十了都。 恭喜**中奖然后交保证金这是上个世纪的骗术啊竟然还有人中招而且还是大学生。。。<br>骗纸虽然可恨但有些人确实没脑子。。 判的轻了。 诈骗致人死亡的该按杀人判死刑 无期好像20年然后可以减刑？ 死的都是善良厚道的好孩子，这些诈骗犯太没有人性了！ 一切皆有因果。 人渣，活该，千万不要减刑。 太昌狂了，再不枪毙要乱套了 觉得该判死刑的点右上↗ 现在的大学生也太弱势了 电信诈骗和电信有关系吗 人渣过盛、支持枪毙，无期太轻。 抓完莆田人，电信诈骗少百分之50，剩下百分之40是台湾,百分之10是其它省 没听说过一分钱憋倒英雄汉吗？ 是的。1⃣️分逼死英雄汉。我在部队时候听说过。一连长回家探亲刚好老婆要生了。真不巧去医院1时间要产了。要交费钱不够。连长等到拿钱到医院时候老婆死在产房门囗。就火了大约拔枪打伤一个医生或者护士。然而大概是部队弄走了。上军事法庭。什么人道主义救死扶伤一句🈳️话。钱不是万能的。但是沒钱是万万不能的。 法院依法从严处罚，对主犯顶格量刑。 以利用国营单位．集体或公物犯罪的都不承担责任．如果以利用个人名义或私有单位和工具的将以罚款·没收等处罚 ",
        "Total": 9986,
        "Link": "http://comment.news.163.com/news2_bbs/D6OC3H6L0001899O.html"
    },
    "Title": "女大学生遭电信诈骗后跳海自杀身亡 主犯被判无期_网易新闻",
    "Source": "Netease",
    "KeyWords": "电信诈骗,犯罪,诈骗罪,主犯",
    "PublishTime": "12/28/201712:57:34",
    "Article": "（原标题：女大学生遭电信诈骗自杀身亡案一审宣判:主犯被判无期）#endText.video-infoa{text-decoration:none;color:#000;}#endText.video-infoa:hover{color:#d34747;}#endText.video-listli{overflow:hidden;float:left;list-style:none;width:132px;height:118px;position:relative;margin:8px3px0px0px;}#entText.video-lista,#endText.video-lista:visited{text-decoration:none;color:#fff;}#endText.video-list.overlay{text-align:left;padding:0px6px;background-color:#313131;font-size:12px;width:120px;position:absolute;bottom:0px;left:0px;height:26px;line-height:26px;overflow:hidden;color:#fff;}#endText.video-list.on{border-bottom:8pxsolid#c4282b;}#endText.video-list.play{width:20px;height:20px;background:url(http://img1.cache.netease.com/video/img14/zhuzhan/play.png);position:absolute;right:12px;top:62px;opacity:0.7;color:#fff;filter:alpha(opacity=70);_background:none;_filter:progid:DXImageTransform.Microsoft.AlphaImageLoader(src=\"http://img1.cache.netease.com/video/img14/zhuzhan/play.png\");}#endText.video-lista:hover.play{opacity:1;filter:alpha(opacity=100);_filter:progid:DXImageTransform.Microsoft.AlphaImageLoader(src=\"http://img1.cache.netease.com/video/img14/zhuzhan/play.png\");}if(/(iPhone|iPad|iPod|Android|NETEASEBOBO|blackberry|bb\\d+)/ig.test(navigator.userAgent)||/safari|chrome|firefox/i.test(navigator.userAgent)&&navigator.plugins&&!navigator.plugins[\"ShockwaveFlash\"]){varstr1='<videocontrols=\"controls\"preload=\"auto\"width=\"100%\"poster=\"http://vimg3.ws.126.net/image/snapshot/2017/12/3/U/VA5RB443U.jpg\"style=\"max-height:100%\">';varstr2='<sourcetype=\"video/mp4\"src=\"http://flv.bn.netease.com/videolib3/1712/28/SpUAF2639/SD/SpUAF2639-mobile.mp4\">您的浏览器暂时无法播放此视频.</video>';document.getElementById(\"FPlayer1404863609673\").parentNode.innerHTML=str1+str2;}3D：准女大学生遭电信诈骗跳海自杀主犯被判无期（来源：original）window.NTES&&function(d){varf=function(c){varb=c.getAttribute(\"flashvars\"),a=c.getAttribute(\"repovideourl\").replace(\".flv\",\"-mobile.mp4\");h=d(c.parentNode.parentNode.parentNode),g='<embedsrc=\"http://v.163.com/swf/video/NetEaseFlvPlayerV3.swf\"flashvars=\"'+b+'\"allowfullscreen=\"true\"allowscriptaccess=\"always\"quality=\"high\"wmode=\"opaque\"width=\"100%\"height=\"100%\"type=\"application/x-shockwave-flash\"/>';if(/(iPhone|iPad|iPod|Android|NETEASEBOBO|blackberry|bb\\d+)/ig.test(navigator.userAgent)){g='<videocontrols=\"controls\"preload=\"auto\"width=\"100%\"height=\"100%\"><sourcetype=\"video/mp4\"src=\"'+a+'\">您的浏览器暂时无法播放此视频.</video>';}h.$(\".video\")[0].innerHTML=g;},e=function(b){vara=d(b.parentNode.parentNode.parentNode);a.$(\"li\").removeCss(\"on\"),b.addCss(\"on\"),a.$(\".video-title\")[0].innerHTML=\"string\"==typeofb.textContent?b.textContent:b.innerText,a.$(\".video-title\")[0].setAttribute(\"href\",b.getAttribute(\"url\")),a.$(\".video-from\")[0].innerHTML=\"（来源：\"+b.getAttribute(\"source\")+\"）\",f(b);};window.continuePlay=function(){vara,b=d(d(\".video-list.on\")[0].nextSibling);3==b.nodeType&&(b=d(b.nextSibling));if(b&&d(\".video-innerinput\")[0].checked){e(b);}},function(){vara={init:function(){if(d(\".video-listli\")[0]){d(d(\".video-listli\")[0]).addCss(\"on\"),this.eventBind();}},eventBind:function(){d(\".video-listli\").addEvent(\"click\",function(b){e(d(this)),b.preventDefault();});}};a.init();}();}(NTES);12月28日上午，广东省揭阳市中级人民法院对被告人陈明慧等七人电信网络诈骗案一审公开宣判，以诈骗罪判处被告人陈明慧无期徒刑，剥夺政治权利终身，并处没收个人全部财产；以诈骗罪分别判处被告人范治杰、高学忠、叶奇锋十五年至十三年不等有期徒刑并处罚金；以诈骗罪、危险驾驶罪，数罪并罚，判处被告人熊运江有期徒刑十一年并处罚金；以掩饰、隐瞒犯罪所得罪分别判处被告人林诗雅有期徒刑三年、被告人陈李亿有期徒刑一年四个月并处罚金；责令各被告人共同向被害人退赔诈骗款项。法院经审理查明，2013年8月至2014年3月间，陈明慧多次雇用唐晓晖（已判刑）冒充“爸爸去哪儿”等综艺节目向手机用户发送虚假中奖诈骗信息共计73万余条。2016年6月至8月间，陈明慧招募、纠集范治杰、高学忠、叶奇锋、熊运江等人结成犯罪团伙，通过群发“淘宝”、“奔跑吧兄弟”等虚假中奖信息，诱导接到信息的“中奖者”登录“钓鱼网站”填写个人信息领奖，并冒充客服人员以兑奖为由诱骗“中奖者”缴纳“保证金”，而后，又冒充法院工作人员、律师以“中奖者”未按要求缴纳“保证金”或领取奖品构成违约，要对“中奖者”起诉或已经起诉，继续缴纳手续费方可撤诉并获得奖品为由进行恐吓、利诱，再次对“中奖者”实施诈骗，骗取多人财物共计人民币104.1万余元。其中，即将就读大学的学生蔡淑妍被骗取学费和生活费9800元后跳海自杀死亡。法院还查明，林诗雅明知叶奇锋等人从事违法犯罪活动，仍违规给其代办销售点终端机具（POS机），为其套现赃款提供了便利条件。陈李亿明知他人从事违法犯罪活动，仍出售多张银行卡给他人用于实施诈骗。另外，熊运江在海口市酒后驾驶被交警查获。法院认为，在诈骗共同犯罪中，陈明慧、范治杰、高学忠、叶奇锋、熊运江，以非法占有为目的，结成电信诈骗犯罪团伙，利用通信工具、网络手段针对不特定多数人实施诈骗，并造成一名在校学生自杀身亡，诈骗数额特别巨大，情节特别严重，其行为均已构成诈骗罪。熊运江还在道路上醉酒驾驶机动车，其行为又构成危险驾驶罪，依法应予数罪并罚。林诗雅明知他人实施犯罪，仍多次提供销售点终端机具（POS机）协助转移犯罪所得，陈李亿明知他人实施犯罪，仍提供多个银行账户用于他人转移犯罪所得，其行为均已构成掩饰、隐瞒犯罪所得罪。根据各被告人的犯罪事实、性质、情节和对于社会的危害程度，法庭遂作出上述判决。广东检察机关批捕女大学生被电信诈骗自杀身亡案7犯罪嫌疑人揭阳女大学生被骗万元学费后自杀身亡据最高检网站消息，8日，广东省揭阳市惠来县人民检察院对备受关注的女大学生蔡某被电信诈骗自杀身亡案的犯罪嫌疑人陈明慧、熊运江等7人，依法作出批准逮捕的决定。8月19日，刚刚高中毕业考上大学的惠来县学生蔡某(女，19岁)被电信诈骗9800元。8月28日，蔡某留下遗书后离家出走，8月29日，公安机关在海边发现其尸体。案发后，广东省揭阳市、惠来县两级检察机关高度重视，立即启动重大敏感案件快速反应机制，指派惠来县侦查监督部门派员介入该案，及时了解案件的进展情况，加强与公安机关的密切配合与工作衔接。9月3日至14日，公安机关先后将犯罪嫌疑人陈明慧、熊运江等7人抓获归案。目前，该案正在进一步侦查中。（文章来源：中新网）本文来源：人民日报责任编辑：范姜国一_NN9138"
}