{
    "Article": "（原标题：日本考虑追加订购几十架F35战机平衡美日贸易）【环球网军事报道】据俄罗斯卫星新闻网12月31日报道，《每日新闻》透露，日本防卫省正考虑从美国额外购入F-35A战机。此前，在美国总统唐纳德·特朗普访日后，日本政府同意采购42架F-35战机。该报指出，日本计划从美方购入数量如此庞大的武器装备与防止美方就日美贸易平衡问题施压不无关系。因为美国对日贸易赤字的问题，特朗普经常责备日方。此前，特朗普称，如果日本从美国购买新式武器，就能击落来袭的导弹。本文来源：环球时报-环球网。更多精彩，请登录环球网http://www.huanqiu.com责任编辑：李曦_NN2587",
    "Title": "日本考虑追加订购几十架F-35战机 平衡美日贸易_网易军事",
    "PublishTime": "01/01/201810:16:53",
    "Source": "Netease",
    "Comment": {
        "Content": "咋肿屎包💩。 越贫瘠的地方的人越愚昧无知. 我代表我不信你们，整天不是手机就是地域，有用？能说明什么？你们说的真的对老百姓提高生活水平一点用都没有！懂不？ 这不变向说明日本出口不错嘛，安倍经济学果然名不虚传 越愚昧无知的越贫困，两者相互相成的。 我们和米国的贸易逆差也可以通过订购f35来弥补么？ 最远到过遵义 放心回家吃你的地沟油去吧作蛆你光荣 贵州人傻钱少，靠着京广沪送钱大批量建设人工景点坑骗国内游客，贵州人习性为好吃懒做，最好不要干活有人送钱给他，小钱看不上眼，大钱又赚不到，特别是黔东南州山民，诸如什么女人外卖丈夫把风，免考勤打字引导员职业成了香喷喷抢手行当，大部分贵州人主动废除角币致使物价追平或超过国内一线城市，还在国内哭诉自己钱少。 短距起飞的35B能够在小型跑道上起飞降落，明显提升西南岛屿制空能力，就近起飞拦截。 人家窝帐篷跟你有尻你老娘的关系？ 抵制日本，去复印店准没错，我就没看到那个复印店的打印机上面没日文，还是日本淘汰下来的2手货。 是啊！他们一会儿抵韩，一会儿抵日，一会儿抵美，只要某国让他们心里不会舒服，马上就来一波轰轰烈烈的民间抵制，不附合他们立马被骂为汉奸。国家层面上的事本应由国家层面去解决，却要对屁民进行道德绑架。 岛国的算盘太精了。F35A就在岛国三菱重工组装制造。增加F35A订单还能给自己增加技术积累和就业机会。 一头驴被主子整天打骂还不给吃饱，旁边的人可怜它要把它解救出来，这头驴又撂撅子又踢人又咬人对解救它的气愤无比，因为他任准了前面的主子就是它的饭碗！ 完了，这回中国的空军要被对方秒杀了。 你母亲帮蛾狗慰安能生是你这只犬沾忝也值。 人民日报说的有用，可惜买不到啊 花点钱让毛子卄婊子们的美国爹！值 他是少年管教所的三好学生 他们也就混在这二手网站中蹦几下了！脸都不要了能不恶心吗？ 邪恶的大厦在风雨中倾斜！ 花我们的钱养一帮狗砸碎整天黑别人？！ 别人混恶心，你混二手网站感觉有了自豪感，就特码这么无耻，没下限 国内的小便，不是天天在说，美国的F35没人订货了吗？还说好几个国家，天天要求退订！这是咋回事？ 你出过省没有？！ 小日本正在为后事做准备，投资2000亿在海底修个大泡泡藏身。再地震一次日本岛就会从地球上消失了。哈哈哈！ 没有捅过你母亲的蛾狗多。 呵呵，我看他是精神病院跑出来的二百五 小日本美名其阅，订购F35。其实是为美国爹送大钱。 你自己都被代表了，还能代表老百姓？ 花我们的钱养一帮狗砸碎整天黑别人？！ 你还是在卫生间里等着吧，等你的领导大号完了兢兢业业的给舔干净，你当然能品尝出其中没消化完的海参大虾还有拉菲！ 是的，签2000多亿岂不是送更多？哈哈 你们真搞笑，哪个地方都有穷有富，整天地域喷你们觉得老百姓会信你们不？ 川普刚当选就指责洛马公司卖得太贵，吓得洛马老总立马跑去跟他商量，结果宣布大幅降价薄利多销，川普英明！ 和这个龙战天说什么都没用，你当它是条疯狗吠两声，不理就行 滚回你的狗笼里去吧！少丢人现眼 精辟 改革开放，起于1978止于2012。 我们买不了武器，只好买了一大批客机来平衡贸易！ 抵韩时，你拿着三星是不是不敢发言，抵日时你开日本车是不是心虚害怕，抵美时是不是不敢进肯德基？我不知道这是爱国还是制造恐惧，但我知道，当越来越多的东西被抵制，意味着自由在一点点失去，总有一天，会回归到只能做允许你做的一点点事。没有思想，没有自由，不敢出声，唯唯诺诺，兢兢战战。这是你们想要的嘛？你们以为自己威武有胆，实际上除了他们要求的，其他的你们一声不敢吱。 你地理每次考试得几分？ 说的好，什么时候起事呀！报个姓名地址，我等好追随。否则不要天天瞎bb! 还在监狱吃屎💩？ 我顶楼上两位。。。 环球转俄罗斯新闻网，不服不行~ 没有网易里的美狗多 在美国总统唐纳德·特朗普访日后，日本政府才同意采购42架F-35战机？果然是混球屎爆！ 婊子们真应该去看看你们美国几万人窝在帐篷里 2楼你应该问他啥时候出狱。 我华孝敬饿几千亿美金高价买石油才是大手笔 就你这种货能列举什么啊？都吃上动物油了你还他妈的有脸说你是吃素的 港货啊！！你也吃啊 猪奴！含着，别说话。呵呵 那还隐个毛的身，不要把美军的智商拉到和你一样的高度 你们回家吃假油毒油去吧 我们不也要采购三千亿美刀吗？哈哈哈，谁才是爹？ 汶歌后，中国几代人，都是听着日本歌曲长大的。。。。当然也包括你。<br><br>有邓丽君翻唱的日本歌曲，也有谭咏麟，张国荣，周华健，王菲，任贤齐，张学友，李克勤，莫文蔚，刘若英等人翻唱的大量的日本歌曲。。<br><br>原来的我，毎一步，相见不如怀念，千千阕歌，伤心太平洋，我只在乎你，《后来》，容易受伤的女人，有谁共鸣，遥远的她，《花》，四季歌，忘不了你，花心，《北国之春》，对你爱不完，好大一棵树，《让我欢喜让我忧》，跟往事干杯，让一切随风，再见我的爱人，女人的华尔滋，情已逝，风继续吹，飘雪，《我的亲爱》，又见炊烟，漫步人生路，冬恋，红日，一路上有你，每天爱你多一些，春风，雨丝情愁，星，祈祷，川流不息，跟着我飞翔，情愿一个人，哀愁的吉他，雨中的恋人们，一支小雨伞，漫漫前路，盛夏的果实，《流水年华》，泪光闪闪、等等等等。。日本是战后领导亚洲流行文化的国家，没有之一。 我们养活了他们，反过来，他们要我们喊他们妈妈、母亲！上哪说理去？ 你家主人 婊子，你要是说中国的油不安全我信！可要说地沟油的鼻祖！婊子，你想把你小日本爹撇开？婊子，你如此恶心是你妈教的？ 其实他们应该在京东买,说不定还能打个六折. 那些吃过中国油的人应该知道里面掺的什么东西都有！！各种油，好多化学物品，还有带毒的！！你们是垃圾你们是蛆！！全世界人民表扬你地沟油的鼻祖，最垃圾的人 食品监测局，90%产假10斤有8斤假油，还有黄曲霉素1000倍超标，自己搜视频，真他妈一群垃圾 婊子！既然如此你是怎么有脸乱咬一通的？检验的是官方！通报的也是官方！抓人的也还是官方！！婊子！你是怎么有脸污蔑中国把地沟油发杨光大的呢 地沟由的鼻祖一群垃圾还有垃圾他爹，吃了那么毒没生蛆啊？？？咋没死完<br><br>你回家看看你能吃上纯真的油？不掺假的油？里面有多毒你知道吗？一群垃圾正在自生自灭，你们毒害自己骂着别人你知道错不？？人的异类<br><br>告诉你我说的良心话，你只会骂人骂好人死你全家 赤裸裸你妹的武装到牙齿！还平衡什么贸易！ 有什么用嘛！！你们害人别拉我咬我有用吗 婊子！知道地沟油的祖是谁吗？是你的小日本爹！婊子 新乡老狗！来来来，伤心太平洋也是日本歌曲了！婊子 说是平衡贸易，其实就是千方百计地扩充军备。如果真是平衡贸易，为啥只买军火而不买民生用品？比如进口美国产的汽车 地沟由的鼻祖一群垃圾还有垃圾他爹，吃了那么毒没生蛆啊？？？咋没死完<br><br>你也仔细调查一下你加的油绝不是纯油！你知道是怎么搞出来的吗？产假有毒<br><br>你会死得很早我可没诅咒你 地沟由的鼻祖一群垃圾还有垃圾他爹，吃了那么毒没生蛆啊？？？咋没死完<br><br>你以为你现在吃的是安全油你真能扯淡！！祝你早死绝对事实 一头驴被主子整天打骂还不给吃饱，旁边的人可怜它要把它解救出来，这头驴又撂撅子又踢人又咬人对解救它的气愤无比，因为他任准了前面的主子就是它的饭碗！ 我是不知道，原来什么花生油大豆油芝麻油都产假，还有毒，现在非常明白，你们不能觉悟不能反省反而骂好人这就是你恶魔的错<br><br>你们生蛆吃蛆我不见怪，你们死完活该，干嘛啦住我 邪恶的大厦在风雨中倾斜！ 楼上，你在哪吃的地沟油？啥味啊？ 你地理每次考试得几分？ 中国从不缺汉奸狗 日本都辐射了你多多关心你老家吧哈！😄 沧哥，求两句诗。一句有苏字，一句有音字。 婊子！像你这种狗哪来的优越感啊？婊子 食品监测局，90%产假10斤有8斤假油，还有黄曲霉素1000倍超标，自己搜视频 我是不知道，原来什么花生油大豆油芝麻油都产假，还有毒，现在非常明白，你们不能觉悟不能反省反而骂好人这就是你恶魔的错<br><br>你们生蛆吃蛆我不见怪，你们死完活该，干嘛啦住我？？你也是受害者要么传承者明知道还骂好人！！这就是蛆的表现 你出过省没有？！ 伤心太平洋也是日本歌曲了！新乡老狗 知道动物油是什么吗？都吃动物油了你他妈的有脸说你吃素？你是哪来的蠢狗？ 你就去舔地沟油不用舔回家吃地沟油去吧别扯淡了 小日本美名其阅，订购F35。其实是为美国爹送大钱。 那你咬我是我的错？？回家吃蛆去吧 婊子！我对你妈那对木瓜奶没兴趣 傻逼中国鸡地沟油吃死你臭婊子 那我到要问问！婊子，你是怎么知道花生油啊什么油的里边有毒啊？婊子，是谁告诉你的？是美国啊还是日本狗？ 花我们的钱养一帮狗砸碎整天黑别人？！ 都没见过火车。。。 不愧称作蛆，你家屎很多吗 有报道称：F-35制造商洛克希德·马丁近日在官网曝光了F-35的一种所谓“野兽模式”（beastmode）的武器挂载能力。据称：有别于只有4枚空对空飞弹的“隐身模式”（StealthMode），其“野兽模式”挂载能力，除了可以挂载高达14枚的AIM-120先进中程空对空导弹之外，还可以再加外挂2枚AIM-9X「响尾蛇」短程空对空导弹。------这一身的刺，搞得就像F-15似滴～真特么猛啊，这东西真不是吹的！ 你们这些傻逼天天把主子放在嘴边，当奴才当习惯了吧，在哪都没有网易这么多脑残 现在为啥没有了呢？ 婊子！想改口啊？制造使用地沟油在中国罪名可不轻！抓住可是要判刑坐牢的！婊子！你眼瞎了是吗？ 定一百加也没用，美国让它咬谁它就得咬谁 猪奴！含着，别说话。呵呵 啥都不知道简直是蛆 楼上你在哪吃的地沟油啊？ 没兴趣遛你这种蠢货！你关注食品卫生这没错！你错就错在把小日本发明制造的地沟油硬声声的载脏在中国头上！打你这种货是让你长记性 我是不知道，原来什么花生油大豆油芝麻油都产假，还有毒，现在非常明白，你们不能觉悟不能反省反而骂好人这就是你恶魔的错 和这个龙战天说什么都没用，你当它是条疯狗吠两声，不理就行 地沟由的鼻祖一群垃圾还有垃圾他爹，吃了那么毒没生蛆啊？？？咋没死完<br><br>你回家看看你能吃上纯真的油？不掺假的油？里面有多毒你知道吗？一群垃圾正在自生自灭，你们毒害自己骂着别人你知道错不？？人的异类 婊子！你的眼又瞎了！地沟油的最先制造使用的是你小日本爹 这么垃圾的飞机只有在外边可以用，不要靠近中国 抵韩时，你拿着三星是不是不敢发言，抵日时你开日本车是不是心虚害怕，抵美时是不是不敢进肯德基？我不知道这是爱国还是制造恐惧，但我知道，当越来越多的东西被抵制，意味着自由在一点点失去，总有一天，会回归到只能做允许你做的一点点事。没有思想，没有自由，不敢出声，唯唯诺诺，兢兢战战。这是你们想要的嘛？你们以为自己威武有胆，实际上除了他们要求的，其他的你们一声不敢吱。 你有钱买不到。人家乐不得的呢！2B你只能花大价钱买些破烂。你这是高端黑！ 改革开放，起于1978止于2012。 那是不是美国花钱养了你们这种狗啊？你们就那么不要脸？ 那么视频又是美国日本狗发给你看了是吗？ 日本汽车不错，电子不错捆绑美国军用品很不错日本经济又好，你不要想偏了，日本军事本身都牛 多不多反正是可以让你吃个饱 婊子！你是要替你小日本爹舔屎喽是吗？婊子 婊子！我们都有食品安全法！倒是你们这种目无法律的婊子这倒不好说了 地沟由的鼻祖一群垃圾还有垃圾他爹，吃了那么毒没生蛆啊？？？咋没死完<br><br>你回家看看你能吃上纯真的油？不掺假的油？里面有多毒你知道吗？一群垃圾正在自生自灭<br><br>你也是自生自灭的货，总有一天轮到你 地沟由的鼻祖一群垃圾还有垃圾他爹，吃了那么毒没生蛆啊？？？咋没死完<br><br>你回家看看你能吃上纯真的油？不掺假的油？里面有多毒你知道吗？一群垃圾正在自生自灭，你们毒害自己骂着别人你知道错不？？人的异类<br><br>告诉你我说的良心话，你只会骂人骂好人死你全家 汉奸狗都是染色体被倭人污染了的 你就是蛆生活得好垃圾恶毒我对你的评价地沟油的使用者和制造者！垃圾<br><br>祝贺你自生自灭人的异类<br><br>那些叫兽不出来解决中国食品安全，真是腐败透顶，当前最好的一个词垃圾的制造者和使用者 你就是蛆生活得好垃圾恶毒我对你的评价地沟油的使用者和制造者！垃圾<br><br>祝贺你自生自灭人的异类<br><br>那些叫兽不出来解决中国食品安全，真是腐败透顶 你就是蛆生活得好垃圾恶毒我对你的评价地沟油的使用者和制造者！垃圾<br><br>祝贺你自生自灭人的异类<br><br>那些叫兽不出来解决中国食品安全，真是腐败透顶，一群垃圾一坑垃圾天天坑 婊子们是不敢卖！别说卖了，美国婊子们连资料都胆颤心惊！生怕被中国人知道！不过美国婊子养的狗们口中舔的宇宙神鸡连不是隐身的苏35都怕！见到苏35都灰溜溜的逃命！可笑吧？老旧的s200都能把婊子狗们吹嘘的宇宙神鸡f35打成一团火球！这样的垃圾也能让婊子狗们舔得不亦乐乎！婊子狗们太不要脸了 日本计划从美方购入数量如此庞大的武器装备与防止美方就日美贸易平衡问题施压不无关系。因为美国对日贸易赤字的问题，特朗普经常责备日方。 来网易就是为了喷，说别的没用的 70年代的这些事情，都是我亲身经历过的，历历在目。碎布拼接的花书包，我背过，打着补丁的衣服我穿过；当年最好的服装，就是现在军训时穿的军装，都是干部子女才能够穿得起的。<br><br>我排队买过杂粮面，买过碎煤（回家再团成煤球），以及成车的冬存菜。豆腐、糖、肉、蛋、奶，新鲜蔬菜及水果，都是清一色的奢侈品，过年才能够吃上一点所谓的点心与水果罐头。<br><br>寒冬腊月，家里的窗户上没有一块玻璃，贴的都是窗户纸，小时候，大街上拖儿带女要饭的屡见不鲜，一直到1993年才废除了粮票。如有一句谎言，天打五雷轰。（此一时期为猫佐当家，是认珉逐步走向饥寒交迫的30年）。<br><br>70年代末以前，没有中国的参与，西方照样飞速发展；中国不再与西方为敌了，西方才给中国敞开了市场，给中国输入了科技与资金。<br><br>贡献最大的就是日本，日本几十年如一日，提供巨额的无息与低息贷款，提供技术援助，帮助中国把工厂建立起来，没有日本的技术援助，就没有中国最现代化的宝钢，没有日本的技术援助，就没有中国的现代电子工业。<br><br>美日欧还给中国敞开市场，把中国逐步纳入了西方主导的世界经济体系，让中国出口产品，换取外汇，这才解决了吃饭穿衣的问题。（此一时期为改革开放时期，是认珉逐步走向丰衣足食的30年）。<br><br>如果西方对中国关闭市场，断绝科技输入，中国立刻就会陷入困境，甚至绝境。西方离开中国照样飞速发展，但是中国离不开西方，否则立刻倒退。<br><br>传统电视，液晶电视，全自动滚筒洗衣机，录音机，录像机，CD机，影碟机，微波炉，BB机，模拟手机，数字手机，智能手机，传真机，复印机，磁盘，硬盘，数码相机DV机，以及电脑互联网，B超，X光机，CT扫描机，核磁共振仪，DNA识别系统，试管婴儿，心脏支架搭桥，微创手术，等等医疗技术及器械，，，没有西方科技源源不断的输入进来。你以为，中国能够制造出来？？<br><br>没有谷歌，你以为会有摆渡？没有优步，你以为会有滴滴？没有GPS，你以为会有北斗导航？没有西方的原创科技，你以为会有中国琳琅满目质优价廉的山寨产品？以此类推……<br><br>中国离西方有多遥远，中国贫困化的程度就有多深。<br>中国与西方有多接近，中国现代化的程度就有多高。<br><br>邓曾经有略偏于朴素的观察总结：即亚洲国家里，偏重美国发展模式，及与美国保持良好关系的国家地区，大都走向繁荣发达富裕；而固守成规，或沿袭苏联模式的，竞相堕落向贫困、内乱和封闭。（联合早报） 日美同盟，亚洲指日可待 人一旦不知耻不知道别人在笑话他，哈，可以当局座了 这有什么敢不敢的？我就搞不明白了，这个对哪国印象好印象坏，完全属于个人的事情，与上面有什么关系？上面还说你们要遵守社会公德呢，怎么你们还成天的随地扔垃圾？我基本上没买过什么日韩的东西，主要是看不上日韩，但是我确实买过欧美的东西，另外就是国产的。记得当年三星那么牛的时候，三星的手机我都没用过，我是一直把摩托罗拉买到破产，然后换的苹果，现在则是国产神机，华、米之类的，哈哈哈。哦，有一个是日本的，车是日本的丰田，太尼玛恶心，配置真心差，连个倒车雷达都没有，要不是为了皮实，我不会买这个丰田的SUV车。 F35上了直升机航母，它就又成立亚洲海军老大了。 是谁见到苏35就灰溜溜的滚蛋了啊？婊子们的美国爹都说婊子们口中舔的美国爹的鸡对苏35竟然没优势！婊子！你的脸可就要被你的美国爹打得啪啪啪响了！你还不要脸的在这里丢人现眼？ 我看到的是若再买几十架F35将横扫中俄。 你，耳麦是不是觉得小日本可以一瞬间灭了中国所有远距离打击力量<br>你以为现在是100年前吗<br>就小日本那点战略纵深够东风快递打的吗 小日本的野心，昭然若揭！ 川普骨子里是个商人。利益得失看得很清楚。 看到了几个不知耻的人！ 川普刚当选就指责洛马公司卖得太贵，吓得洛马老总立马跑去跟他商量，结果宣布大幅降价薄利多销，川普英明！ 你等妖孽就等着下地狱吧！ 上面说不许抵制他们敢吗？ 是啊！他们一会儿抵韩，一会儿抵日，一会儿抵美，只要某国让他们心里不会舒服，马上就来一波轰轰烈烈的民间抵制，不附合他们立马被骂为汉奸。国家层面上的事本应由国家层面去解决，却要对屁民进行道德绑架。 一头驴被主子整天打骂还不给吃饱，旁边的人可怜它要把它解救出来，这头驴又撂撅子又踢人又咬人对解救它的气愤无比，因为他任准了前面的主子就是它的饭碗！ 地沟油的垃圾们出来！知道你们被甩在什么坑里了吗？？ 好了，好了，继续，发。 邪恶的大厦在风雨中倾斜！ 那几架飞机就可以横扫中俄，没有能对抗的东东嘛！东北人就是四肢发达头脑简单的傻逼，吹牛逼那是杠杠滴，呵呵，再给你一万年你也是狗改不了吃屎的货。 他是少年管教所的三好学生 人民日报说的有用，可惜买不到啊 我最喜欢做的事情，就是看看网易坛子上，每当有一点日韩澳等跳梁小丑被迫给美爹送保护费的新闻时，全球的轮子和运运们那种感觉抓住了救命稻草一般的自嗨感……。 黑日本还是黑美国F35重要---------大啥。 别人混恶心，你混二手网站感觉有了自豪感，就特码这么无耻，没下限 呵呵，最起码工办实事，现在这边建设的如火如荼，生活水平大大提高，你觉得你们能做到这些？顺便说一下。我是山东潍坊人，在这边是焊工！你们真的让人恶心 你出过省没有？！ 愿意用我就买不愿意就不买那个上面要求你必须买啊你们都是傻逼吗傻逼喷子 婊子们太可怜了！ 这回答满分！ 小日本美名其阅，订购F35。其实是为美国爹送大钱。 贱种！含着！立场坚定！ 日本买飞机跟比萨斜塔有什么关系？你喷乱了吧？ 可怜的是你们这种胯下狗！ 含着！不怕牺牲！ 请你不要侮辱了驴子和畜生！驴子和畜生不会干出卖杀戮亲人同胞！ 地沟由的鼻祖一群垃圾都甩到坑里去了，人家骂你蛆你的激烈反应呵呵呵呵 婊子！含着你美爹你很高兴是吧？ 2楼日本省确实没去过 买买买！ 楼上你这样骂领导的子女是不对滴 哈哈哈，那是因为你爹买的美债还不够多，应该扣光你的狗粮用来买美债，那样几万美国人就不用窝在帐篷里了。。。。 说的好，什么时候起事呀！报个姓名地址，我等好追随。否则不要天天瞎bb! 我最烦这类一谈到什么事情就总是张口闭口的主子、奴才的言论，这都是清朝宫廷剧看多了吧？自己心里深深的羡慕这个主子奴才的东西才会如此，关键是这帮人还把这个与皿煮等联系在一起说，这就扎心了，太违和了！要是你们非要把上下层级关系认定为主子与奴才关系，那么全球你给我找出来个没有主子的地方行吗？美英的管家，这是奴才不是？你在美欧上班，BOSS是你主子？你既然生活在社会上，就应该明白个最浅显的道理：社会是分层级的！你个底层民众，非要想着过上上层的生活，可以！但是你得自己去努力！想着不付出就获得最高的社会地位，你得离开地球去找这个机会才行，至少在地球上我看不到哪里有这个机会，另外友情提醒一下，你们如果真找到了不付出就能得到回报的好地方，记得告诉我下，我也想过上这种好日子。 日本没有脱离美欧日本不是尔等懦弱！200年甩了你十万八千里 呵呵他那几架破飞机掀不起浪来现在不是100年前了 二楼这鬼子还真坚挺 地沟由的鼻祖一群垃圾都甩到坑里去了 抵韩时，你拿着三星是不是不敢发言，抵日时你开日本车是不是心虚害怕，抵美时是不是不敢进肯德基？我不知道这是爱国还是制造恐惧，但我知道，当越来越多的东西被抵制，意味着自由在一点点失去，总有一天，会回归到只能做允许你做的一点点事。没有思想，没有自由，不敢出声，唯唯诺诺，兢兢战战。这是你们想要的嘛？你们以为自己威武有胆，实际上除了他们要求的，其他的你们一声不敢吱。 你有钱买不到。人家乐不得的呢！2B你只能花大价钱买些破烂。你这是高端黑！ 日美联合绝不是尔等想象的垃圾 原谅他，他是贵州羊艾农场的服刑人员，工作就是做完劳动配件以后上网引导网民舆论导向，点赞越高，算得工分越高，工分在农场可以换肉食，你就原谅他吧，他其实也挺可怜的[可怜] 混球谎言报虽然这么说，但其实是替主子买不到F35心里发酸，呵呵。F35再怎么不济也比Su35强百倍吧！大家心里都明白的。 抵制不抵制是我的自由，从来没人强迫我！ 我在这二手网站上混就是让这些狗连这二手的网站上都混不下去！婊子们让我恶心我就让婊子们更恶心！ 只要多买点s200，那这种垃圾就是一架架火烧鸡了！可笑像毋媒人等等的这种婊子们一见就要舔的美国爹的先进无敌的神机竟被老旧的s200揍了！婊子们这下没鸡舔了 它们都没脸 多行善事？留着跟你这种婊子的美国爹说去吧！别仗着狗多就为所欲为！小心日后断子绝孙 买武器没啥用的，导弹雷达解决不了，别的都不消谈 在恶心的美国婊子养的狗的眼里谁都不能代表老百姓！就他们这种婊子能！ 多行不义必自毙 这飞机那么多国家订怎么还这么贵？ 日本的心神不是盖压一切吗，怎么不见提起呢？看来美国人说的是对的，所谓的日本心神五代机，只是想压美国的出售价格罢了。现在美国同意出售F-35给日本，心神消失了。记得当初你们这帮人，不是极力的替日本鼓吹这个心神吗？现在请继续你们的表演。 无视日本国民的感受，会带来灾难性的后果。<br><br>鸠山的下台与安倍的上台，完全是日本国民，不安情绪的强烈反应。<br><br>80年前；日本的科技与工业实力，能够支撑起，当年的航空母舰，成批量建造。<br><br>80年后；日本的科技与工业实力，同样能够支撑起，现代的航空母舰，成批量建造。<br><br>日本造与不造，不是日本说了算；而是邻国说了算。<br><br>如果，邻国无节制扩张海军，朝核问题、东海问题以及南海问题，不断的升级与恶化，那就怪不得日本复活当年的联合舰队了。<br><br>亚洲海军，高科技工业制造装备能力，日本是当之无愧的第一。<br><br>今天的日本，是高度文明发达的日本，不是昨天罪恶的军国日本。<br><br>跟今天的日本为敌，全世界都不会帮你的。<br><br>亚洲海军军备竞赛一旦开启，后果不堪设想；海军舰队，就是不折不扣的吞金怪兽。必将重创亚太经济，中日韩自贸区，以及亚太经济圈的建设，都将沦为海市蜃楼。<br><br>台湾要造的两栖攻击舰，实为F-35B上舰，打造的预制舰，印度在扩建航母战斗群，韩国也推出了航母建造计划，日本在酝酿下一级的准航母建造标准，并且都在编列巨额军备预算，这不是开玩笑。一战前的欧洲，就是这种局面。<br><br>当年的苏联经济，就是这样崩盘的。崩盘时，船台上还有两艘未建成的航空母舰。<br><br>国际几十年的各种调查，一直公认日本是和平主义国家的典范 婊子，你这样说就是打你们这种婊子的脸了啊！不是吹嘘美国婊子们钱多吗？不是吹嘘美国子们福利高吗？敢情是离了中国那婊子们的美国爹就得死了啊？ 中國海峽兩岸人民的轉型正義要從,必須重審二戰甲級戰犯日本天蝗與二戰甲級戰犯岡村寧次等人開始!!由於沒有正確合法審判二戰甲級戰犯日本天蝗與二戰甲級戰犯岡村寧次,才會造成今天台灣與中國的價值錯亂與亞洲今天還是處於二戰狀態!!<br>同時還要追究日本蝗民蔣介石(日本名石岡一郎)無罪放走二戰甲級戰犯岡村寧次等數百名人犯的罪責!!<br>曹士澂檔案,日本蝗民蔣介石(日本名石岡一郎)與曹士澂放走235萬二戰日本軍民人犯回日本!!<br>使得中國人民在二戰勝利後,卻毫無收穫與賠償!!<br>日本蝗民蔣介石(日本名石岡一郎)搶劫了中國國庫黃金與故宮國寶,逃到台灣還重金雇用大量二戰日本甲級戰犯如岡村寧次等為軍事顧問並組織白團地下組織,來保護他的安全,完全違反國際法!!<br>也證明了日本蝗民蔣介石(日本名石岡一郎)只是日本蝗軍的先遣部隊,逐步蠶食中國的漢奸,日本陸軍士官學校畢業的中國人都是日本蝗軍的先遣部隊與漢奸如何應欽,湯恩伯,閻錫山等....!!!<br><br>台灣228受難者可以獲得賠償,為何中國二戰受難者沒有得賠呢??這都是兩岸日本蝗蟲在搞鬼!!<br>由於沒有正確的二戰轉型正義,日本蝗蟲現在居然要台灣人民吃日本核污染食品!!慘!!<br>日本311大地震與大海嘯,台灣人民捐了40多億台幣給日本人;日本人回報給台灣人民是要台灣人民吃日本核污染食品!!!幹!!幹!!幹!!<br>日本人就是一群雜碎!!尤其是目前日本統治階層都還是一群二戰甲級戰犯的後代在掌握權力!!!這都是因為沒有正確的二戰轉型正義與正確的合法審判與嚴懲二戰甲級戰犯!!<br><br>日本蝗蟲現在居然要台灣人民吃日本核污染食品,就是對台灣人民發動另一場侵略戰爭!!!日本蝗蟲也正計畫另一場對中國的侵略戰爭!!<br>中國與台灣兩岸人民,必須對日本發動一次復仇戰爭,完成轉型正義並佔領日本,消滅日本蝗室,將日本分裂成5-7國,重新定義亞洲新秩序,一切才會正常!! 那些腦殘不知自己也是受害者。 看來武統機會來了,自己打自己總比沒事幹好,<br>[神經病的一推,你讓它獨立它還不願意呢] 这回婊子狗们不哭买不起菜加不起油了啊？都改成笑别人穷了啊？ 日本在疯狂军备，大清危 一楼就是传说中的黔之驴？ 贵州人傻钱少，靠着京广沪送钱大批量建设人工景点坑骗国内游客，贵州人习性为好吃懒做，最好不要干活有人送钱给他，小钱看不上眼，大钱又赚不到，特别是黔东南州山民，诸如什么女人外卖丈夫把风，免考勤打字引导员职业成了香喷喷抢手行当，大部分贵州人主动废除角币致使物价追平或超过国内一线城市，还在国内哭诉自己钱少。 人家窝帐篷跟你有尻你老娘的关系？ 一群日杂吠得欢 婊子！你是怎么有脸说别人的？ 讲得太好！ 当然有，几万美国人不窝在帐篷里，都去照顾他老娘生意该多好! 婊子们无中生有的捏造事实吹捧美国爹爹然后再感恩戴德的叩拜美国爹爹！毋媒人老婊子？你给我滚出来 技不如人死不承认韬光养晦悔不当初 是的，签2000多亿岂不是送更多 完了，这回中国的空军要被对方秒杀了。 就凭那破烂货？ 对爱国狗市民们团结起来杀它们全家！ 小日本快给中国人当狗吧!别再听美国叫唉了 他是少年管教所的三好学生 毋媒人老婊子！你以为你妈能生你这种不要脸的婊子她就觉得很高尚是吗？婊子 你倒是想当 那就让他们住厕所去！反正他们也好这口 果然，4楼这个地方留着很多帽子的子孙 国内的小便，不是天天在说，美国的F35没人订货了吗？还说好几个国家，天天要求退订！这是咋回事？ 日本考虑追加订购战机小心飞机✈️摔下来 你老娘叫什么禽兽尻了竟然产下你和一楼这等不知羞耻的人渣。 你出过省没有？！ 2018，战争前奏 你解放驴干嘛？它还能卡拉ok要不去美国旅游?就算去了美国还不是拉磨，可以住海湖山庄的卧室与床破共枕吗？ 放心好了，就算日本列岛沉没，日本人也不是没有去处，很有可能，大部分将移民中国。 呵呵，我看他是精神病院跑出来的二百五 小日本美名其阅，订购F35。其实是为美国爹送大钱。 外债呀.人家不还.. F35这种隐身接近F117，载弹接近F15，可维护性优于F16，机动性不在F16之下的万用战机，日本买得多是好事，装上巡航导弹，让输饿明白敢动日韩自己也残，这才能维护和平。 中國海峽兩岸人民的轉型正義要從,必須重審二戰甲級戰犯日本天蝗與二戰甲級戰犯岡村寧次等人開始!!由於沒有正確合法審判二戰甲級戰犯日本天蝗與二戰甲級戰犯岡村寧次,才會造成今天台灣與中國的價值錯亂與亞洲今天還是處於二戰狀態!!<br>同時還要追究日本蝗民蔣介石(日本名石岡一郎)無罪放走二戰甲級戰犯岡村寧次等數百名人犯的罪責!!<br>曹士澂檔案,日本蝗民蔣介石(日本名石岡一郎)與曹士澂放走235萬二戰日本軍民人犯回日本!!<br>使得中國人民在二戰勝利後,卻毫無收穫與賠償!!<br>日本蝗民蔣介石(日本名石岡一郎)搶劫了中國國庫黃金與故宮國寶,逃到台灣還重金雇用大量二戰日本甲級戰犯如岡村寧次等為軍事顧問並組織白團地下組織,來保護他的安全,完全違反國際法!!<br>也證明了日本蝗民蔣介石(日本名石岡一郎)只是日本蝗軍的先遣部隊,逐步蠶食中國的漢奸,日本陸軍士官學校畢業的中國人都是日本蝗軍的先遣部隊與漢奸如何應欽,湯恩伯,閻錫山等....!!!<br><br>台灣228受難者可以獲得賠償,為何中國二戰受難者沒有得賠呢??這都是兩岸日本蝗蟲在搞鬼!!<br>由於沒有正確的二戰轉型正義,日本蝗蟲現在居然要台灣人民吃日本核污染食品!!慘!!<br>日本311大地震與大海嘯,台灣人民捐了40多億台幣給日本人;日本人回報給台灣人民是要台灣人民吃日本核污染食品!!!幹!!幹!!幹!!<br>日本人就是一群雜碎!!尤其是目前日本統治階層都還是一群二戰甲級戰犯的後代在掌握權力!!!這都是因為沒有正確的二戰轉型正義與正確的合法審判與嚴懲二戰甲級戰犯!!<br><br>日本蝗蟲現在居然要台灣人民吃日本核污染食品,就是對台灣人民發動另一場侵略戰爭!!!日本蝗蟲也正計畫另一場對中國的侵略戰爭!!<br>中國與台灣兩岸人民,必須對日本發動一次復仇戰爭,完成轉型正義並佔領日本,消滅日本蝗室,將日本分裂成5-7國,重新定義亞洲新秩序,一切才會正常!! 那吃屎的民族要是来中国就让他们住厕所去 是啊，你栓在那里也很久了。 我们和米国的贸易逆差也可以通过订购f35来弥补么？ 毋媒人婊子！你没忘了你们这种婊子吹嘘你美国婊子爹的护照时的样子吧？婊子 是的，签2000多亿岂不是送更多？哈哈 是的，签2000多亿岂不是送更多？ 婊子！你真他妈的有脸了啊？像你这种狗是怎么有脸活着的？婊子，你还真的不知道什么是羞耻了是吗？毋媒人老婊子 驴子什么时候被狗狗交配的也狗性滴 美其名曰 可见不能给美国婊子借钱 美国就是世界上最大的军火贩子 婊子！滚回你妈生你的去方去吧！别丢人现眼 你用美国婊子的电脑系统发言，你连婊子都不如。 中国也一样，老美嫌中国人赚的顺差太多心里不平衡，中国最近没办法开始从美国进口原油。 婊子！像你们这种婊子狗倒不是人渣了？婊子！你真他妈的不要脸了是吗？毋媒人老婊子 抵韩时，你拿着三星是不是不敢发言，抵日时你开日本车是不是心虚害怕，抵美时是不是不敢进肯德基？我不知道这是爱国还是制造恐惧，但我知道，当越来越多的东西被抵制，意味着自由在一点点失去，总有一天，会回归到只能做允许你做的一点点事。没有思想，没有自由，不敢出声，唯唯诺诺，兢兢战战。这是你们想要的嘛？你们以为自己威武有胆，实际上除了他们要求的，其他的你们一声不敢吱。 怎么不说说这破鞋一样的网易天天转发环球时报的报道啊？几手了啊？ 一头驴被主子整天打骂还不给吃饱，旁边的人可怜它要把它解救出来，这头驴又撂撅子又踢人又咬人对解救它的气愤无比，因为他任准了前面的主子就是它的饭碗！ 去尼玛的，自以为看透事态的煞笔弱智喷子！一个国家的国民只要自己个体的自由，不要国家整体的利益变成一盘散沙就对了！？草泥马的带风向的弱智蠢猪！ 我就喜欢用婊子！！我就要把婊子用烂了！你就很如婊子！婊子！不过你眼瞎了！婊子 环球转俄罗斯新闻网，不服不行~ 呵呵，走出来吧，抑郁太久会死去的。 其实驴也是没办法，缺乏独立的生活能力，松了套就没法生活了。 火烧鸡充其量只不过就是一个垃圾而已！ 那是以前，现在早转到监狱，终生监禁了。每天只能发帖赚狗粮吃了。 婊子都是贫困地区来的。 含着！别说话！ 武運长久？看来是日本狗喽？ 自由灯塔通过反倾销调查，安全名义抵制的公司多了去了，你再BB小心灯塔抽你B脸 真他妈的可笑！像你这种狗也只能玩玩这种下三烂的手段了 若乱必杀福州那叫什么专抽湛江越南偷渡犬李连生这条婊子狗 准备有多久就坐多久，你能咋的 福州的那个叫什么专抽湛江越南偷渡犬李连生的婊子以前苦苦的哀求我去艹他的妈！我嫌他的妈太脏了！这婊子恨死我了 日本人民热爱战争，别自欺欺人了 一条狗也有脸说什么驴？真他妈的是婊子生的 含着，别说话！ 那叫你妈一起含着! 福州的那个叫什么专抽湛江越南偷渡犬李连生的婊子以前苦苦的哀求我去艹他的妈！我嫌他的妈太脏了！这婊子恨死我了 婊子！你是不是吃多了？要喷？ 一头驴被主子整天打骂还不给吃饱，旁边的人可怜它要把它解救出来，这头驴又撂撅子又踢人又咬人对解救它的气愤无比，因为他任准了前面的主子就是它的饭碗！ 你母亲帮蛾狗慰安能生是你这只犬沾忝也值。 看看你妈的样！还真是 花点钱让毛子卄婊子们的美国爹！值 他是少年管教所的三好学生 福州的那个叫什么专抽湛江越南偷渡犬李连生的婊子以前苦苦的哀求我去艹他的妈！我嫌他的妈太脏了！这婊子恨死我了 一架火烧机，一架连s200都能打中的垃圾！一架连隐身蒙皮都能掉的破烂货竟还有一条狗叫唤着先进？还他妈的划算？舔得够不要脸的啊？ 起事哪有这么容易，现在能广开民智就不错了，至少楼主他比你这种强多了 福州的那个叫什么专抽湛江越南偷渡犬李连生的婊子以前苦苦的哀求我去艹他的妈！我嫌他的妈太脏了！这婊子恨死我了！这婊子就像疯狗一样见我就咬 那些婊子现在不叫唤买不起菜加不起油了！改口人穷了？ 改明儿这些战机飞到华盛顿上空进行空战时，美国佬才会猛抽口凉气。 你出过省没有？！ 其实我们这些水货，当时觉得川普在报复，现在才看明白，他砍价的目标是要拿着F35到处去贩卖，用高技术武器巩固盟国之间的关系，并且提高盟国的军事实力减轻美国的压力，价格高了无法达成目标，不是说，F35降价反而赚得更多，太厉害了这家伙，服到不行不行的 不管像普鸡就像中国小李上拍下压这种婊子们怎么舔都改变不了这种垃圾连s200都可以打中他的事实！ 当年从亚洲国家抢了多少钱？？ 跟你有关系？！ 小日本美名其阅，订购F35。其实是为美国爹送大钱。 新年祝美国养的婊子狗死全家！ 白痴 福州的那个叫什么专抽湛江越南偷渡犬李连生的婊子以前苦苦的哀求我去艹他的妈！我嫌他的妈太脏了！这婊子恨死我了 哈哈哈！你家有人喝过真茅台酒吗？喝得起吗？贵州人现在喝酒首先茅台酒。你不妒忌吗？哈哈哈！ 尽给美爹送干货，看来吹，唱不灵了！ 不是我白痴有艹不艹！真的是福州的这个叫什么专抽湛江越南偷渡犬李连生这婊子的妈太脏了 没有网易里的美狗多 到时候嚷嚷日本要走军国主义路线<br>你们应该高兴<br>敌人又订了几十架有致命缺陷的东西 跟你又有什么关系？ 小日本正在为后事做准备，投资2000亿在海底修个大泡泡藏身。再地震一次日本岛就会从地球上消失了。哈哈哈！ 含着，别说话！ 民智？只不过是忽悠一些蠢货罢了！还开民智？就凭你们这种货还智？ 日本犬国来的畜生都是废物傻逼。，别人说日本犬，你们这些日本犬废物就出来吃中国人的大便！ 川普刚当选就指责洛马公司卖得太贵，吓得洛马老总立马跑去跟他商量，结果宣布大幅降价薄利多销，川普英明！ 滚回你的狗笼里去吧！少丢人现眼 含着！别说话！排除万难，立场坚定！ 中美贸易也出现同样的问题，美国就是不卖高科技产品。 福州的那个叫什么专抽湛江越南偷渡犬李连生的婊子以前苦苦的哀求我去艹他的妈！我嫌他的妈太脏了！这婊子恨死我了 军事强国是买不来的，把钱投入购买而不是自研上，咳，本子飞机产业彻底被老美锁死了 奥巴马也说要抵制中国的龙门架！ 民智？上海的那条狗太可笑了！就凭你们这种狗还有智？ 打赢一次，日本就是战胜国了。。。 2楼你应该问他啥时候出狱。 抵韩时，你拿着三星是不是不敢发言，抵日时你开日本车是不是心虚害怕，抵美时是不是不敢进肯德基？我不知道这是爱国还是制造恐惧，但我知道，当越来越多的东西被抵制，意味着自由在一点点失去，总有一天，会回归到只能做允许你做的一点点事。没有思想，没有自由，不敢出声，唯唯诺诺，兢兢战战。这是你们想要的嘛？你们以为自己威武有胆，实际上除了他们要求的，其他的你们一声不敢吱。 婊子！滚过来给我舔舔吧！婊子，你总不能只舔你美国爹吧？ 写阿Q的死了，演阿Q的也死了。而真正的阿Q们却都还活着。阿Q虽终身未娶，却子孙不绝，血脉连绵。 没有捅过你母亲的蛾狗多。 说的好，什么时候起事呀！报个姓名地址，我等好追随。否则不要天天瞎bb! 婊子！你来含我的我都嫌脏！ 若乱必杀福州那叫什么专抽湛江越南偷渡犬李连生这条婊子狗 自由？什么是自由？那个叫什么听风看雨吕布那条狗敢把中国字典里的自由的含义说来听听？哪一条叫唤要自由的婊子敢把中国字典里的自由的含义说来听听？敢吗？婊子们 敢情这条狗天天挨打受骂受尽了屈辱是吗？ 含着！别说话！ 福州的那个叫什么专抽湛江越南偷渡犬李连生的婊子以前苦苦的哀求我去艹他的妈！我嫌他的妈太脏了！这婊子恨死我了 我华孝敬饿几千亿美金高价买石油才是大手笔 小日本美名其阅，订购F35。其实是为美国爹送大钱。 咋肿屎包💩。 这不变向说明日本出口不错嘛，安倍经济学果然名不虚传 这个买卖日本很划算，美日贸易美国是逆差，日本用赚的钱买先进战机来平衡贸易还增强了军力，难道等到特朗普政府出台对日贸易反制政策吗？这个结果也许可能是安倍政府努力运作的结果，呵呵说是迫于美国压力，不过这个观点得看老美到底想卖给日本多少f35，当然数量多了老美也会留心眼可以给的都是猴版。 最远到过遵义 精辟 听说真飞机问题很多质量很差。楼下的说吧 说得太对了，你敢在媒体批评一下乡长不？ 抵制日本，去复印店准没错，我就没看到那个复印店的打印机上面没日文，还是日本淘汰下来的2手货。 短距起飞的35B能够在小型跑道上起飞降落，明显提升西南岛屿制空能力，就近起飞拦截。 补交保护费 岛国的算盘太精了。F35A就在岛国三菱重工组装制造。增加F35A订单还能给自己增加技术积累和就业机会。 一头驴被主子整天打骂还不给吃饱，旁边的人可怜它要把它解救出来，这头驴又撂撅子又踢人又咬人对解救它的气愤无比，因为他任准了前面的主子就是它的饭碗！ 抵韩时，你拿着三星是不是不敢发言，抵日时你开日本车是不是心虚害怕，抵美时是不是不敢进肯德基？我不知道这是爱国还是制造恐惧，但我知道，当越来越多的东西被抵制，意味着自由在一点点失去，总有一天，会回归到只能做允许你做的一点点事。没有思想，没有自由，不敢出声，唯唯诺诺，兢兢战战。这是你们想要的嘛？你们以为自己威武有胆，实际上除了他们要求的，其他的你们一声不敢吱。 他是少年管教所的三好学生 太好！ 你地理每次考试得几分？ 还在监狱吃屎💩？ 花我们的钱养一帮狗砸碎整天黑别人？！ 在美国总统唐纳德·特朗普访日后，日本政府才同意采购42架F-35战机？果然是混球屎爆！ 你出过省没有？！ 小日本正在为后事做准备，投资2000亿在海底修个大泡泡藏身。再地震一次日本岛就会从地球上消失了。哈哈哈！ ",
        "Reply": 341,
        "Link": "http://comment.war.163.com/news_junshi_bbs/D72CG63K000181KT.html",
        "Total": 6567
    },
    "KeyWords": "日本,战机,美国,特朗普",
    "URL": "http://war.163.com/18/0101/10/D72CG63K000181KT.html"
}