{
    "Article": "（原标题：朝韩板门店通电话20分钟今或再联络）【环球网报道】韩联社1月3日报道称，韩国统一部3日表示，朝方当天下午3点30分拨打板门店直通电话与韩方通话20分钟。据悉，朝韩双方只进行了通信线路测试等技术性沟通，没有讨论韩方提出的9日召开韩朝高级别会谈的提议。统一部官员就此表示，朝方有可能在今日内再次打来电话。朝鲜当天早些时候宣布3点30分起恢复2016年2月起切断至今的板门店联络渠道。本文来源：环球时报-环球网。更多精彩，请登录环球网http://www.huanqiu.com作者：魏悦责任编辑：李杭_BJS4645",
    "URL": "http://news.163.com/18/0103/17/D788H8SM000187V9.html",
    "KeyWords": "联络,板门店,朝方,朝鲜",
    "PublishTime": "01/03/201816:58:00",
    "Title": "韩统一部:朝韩板门店通电话20分钟 今日或再联络_网易新闻",
    "Comment": {
        "Content": "",
        "Link": "http://comment.news.163.com/news2_bbs/D788H8SM000187V9.html",
        "Total": 1,
        "Reply": 1
    },
    "Source": "Netease"
}