{
    "Article": "（原标题：特朗普又现奇葩言论：天太冷我们要善用全球变暖）美国总统特朗普（图源：CNN）海外网12月29日电美国总统特朗普一直以其“有话直说”的风格而独树一帜。日前他发布的一条推特再次引发热议。由于最近美国东部太过寒冷，特朗普竟称“或许我们的国家可以好好利用一下全球变暖”。他的这一奇葩发言也被专家批评是“一种无知的误解”。据美国有线电视新闻网29日报道，当地时间28日晚8点，特朗普发推称：“美国东部可能将经历有记录以来最为寒冷的新年夜。或许我们可以对全球变暖稍加利用。在防范全球变暖的问题上花费了数万亿美元的不是其他国家，正是美国。暖和起来吧！”特朗普此言一出，立刻受到了各大媒体以及专家学者的批评。CNN表示，美国总统似乎不明白，或是选择忽略了一个事实，那就是“天气”和“气候”并不是一回事。据美国国家航空航天局（NASA）介绍，“天气”指的是在较短一段时间内的气候条件，而“气候”则是相对较长时间里所表现出的大气环境。因此，在特定的一天，一周或是一个月内天气寒冷，并不能够对气候以及全球是否变暖起到什么指示作用，“天气”等同于“气候”的逻辑并不成立。英国《卫报》也引用新南威尔士大学气候学家马修·英格兰的话称，特朗普的评论“是对地球气候运作方式的一种无知的误解”。“没有人说在全球变暖的情况下，冬天就会消失，但是冬天确实已经变得暖和多了。”马修说。这已不是特朗普的“奇葩言论”首次受到外媒的关注。据海外网早前报道，12月23日，美国《纽约时报》揭露了此前美国总统特朗普在移民政策上的抱怨和歧视性言论。报道称，6月，在白宫召开的有关移民问题的会议上，特朗普对“贫困国”出身者的签证发放量太多感到十分愤怒，并发表了一番针对移民的歧视性言论。例如，海地取得美国签证的人“全都有艾滋”，甚至说尼日利亚人都住在茅屋内。不过，白宫已否认了这项传闻。而在11月27日，美国总统特朗普于白宫椭圆形办公室出席慰问纳瓦霍人老兵活动，他当着一批曾参与二战的原住民退役士兵“嘲讽”民主党麻省参议员沃伦是印第安公主“宝嘉康蒂”，也被外界批评是种族歧视。本文来源：海外网责任编辑：李天奕_NN7528",
    "PublishTime": "12/29/201716:15:05",
    "URL": "http://news.163.com/17/1229/16/D6R9PSU10001899N.html",
    "Comment": {
        "Content": "奇怪。这种花边搞来做啥？川普最近最重要的一篇，题目是“抓个正着”！ 我跟岳父的想法一样，也想此刻变暖 天气太冷了，我们要撸起袖子加油干，出出汗就暖和 呵呵，河南+华为，也好意思出来评论！ 买不起房买不起车买不起干净的食物不敢生孩子！ 川普是四川人的骄傲！ 川普说的很多话都是暗示 说得挺好啊，可能实在的人都会这么<br>想。关键是，全球变暖这个词本来就是个意淫概念，从宇宙发展和能量消耗的最终走向看，冷才是永恒的主题。如果还有额外变暖这个功能，那岂不是奇迹和福音？ 买卖人，没做过买卖的人永远一头雾水？ 没毛病啊？ 全球变暖是个伪话题 澳洲经历了最冷的夏天。<br>白左全球气候变暖 有时候川普也挺可爱的接地气儿，总比那些岸然道眉的正人君子强吧。 弱智脑残不懂科学与自然气候 特朗普这种话在低智商民众那里很有市场,全球舆论权掌握在这些人手里,真的很恐怖 这真是商人头脑 总有弱智试图挑战科学.... 高见 那恐龙时代为啥就是比现在暖和许多呢？难道排放也超标了？<br>不管变冷还是变暖，气候变化根本就不是人类能够影响或者干预的。 作为公众人物，川川少说两句吧。<br>此时媒体：川普连说都难得说，消极怠工，碌碌无为 说明你岳父也可以当美国总统 变暖了？比恐龙时代如何 特总统说老子说什么你们都要黑老子不Care 全球气候变暖并不是全球各地温度就都升高，决定气候的有多种因素。极地气温升高，冰川融化，洋流，气流，季风都会产生变化，会产生人类没遇到过的各种极端气候，比如风暴更大，洪水更频繁。你也知道恐龙时代气候与现在不同，那会根本就没人啊！人类不需要适应当时的气候。农业严重依靠气候，如果气候产生变化会对农业产生巨大影响，农作物会大量减产，为了适应变化的新气候，需要巨大成本改变农业结构，海岸线变化会对沿海城市的生存产生巨大威胁。气候应当是长期观察总结所得，并不是个人体验某年气温偏高或偏低就可以概括 这就是民主的美国民选的“二球总统”，好玩吧！ 川普也就是调侃一下而己，有必要上纲上线吗 天热怎么办 海外网，把原文发下吧 我觉得这句话没毛病啊。 川普这点不错，敢说实话 选了个白痴当总统美国人真让地球人笑话 无知、可耻，真是一个危险的信号,美国总统竟然有这种言论,下台吧 这个观点认可，就像说汽车尾气能污染环境是瞎说，其实是油品不好汽车尾气才污染环境。 支持特朗普，支持美利坚，人类的希望 局座的雾霾反导理论过时了！ 冬天不冷还叫什么冬天 全球气候变暖是不是骗局？<br>商周时期，陕西是有大象活动遗迹<br>至商周以来，不断南移<br>从陕西到了云南<br>但是大象是热带动物 要是能总结出川普语录和川普文选都学习一下该多好 支持 不是一般人 希望气候专家解读而不是政客。 特朗普也是白左了，这文章里他承认气候变暖的 美国出了个好总统 之前黑希拉里，如今黑特朗普。 没毛病 奇怪。这种花边搞来做啥？川普最近最重要的一篇，题目是“抓个正着”！ 买不起房买不起车买不起干净的食物不敢生孩子！ 横空出世，莽昆仑，阅尽人间春色。<br>飞起玉龙三百万，搅得周天寒彻。<br>夏日消溶，江河横溢，人或为鱼鳖。<br>千秋功罪，谁人曾与评说？<br><br>而今我谓昆仑，不要这高，不要这多雪。<br>安得倚天抽宝剑，把汝裁为三截？<br>一截遗欧，一截赠美，一截还东国。<br>太平世界，环球同此凉热。 天气太冷了，我们要撸起袖子加油干，出出汗就暖和 呵呵，河南+华为，也好意思出来评论！ 横空出世，莽昆仑，阅尽人间春色。<br>飞起玉龙三百万，搅得周天寒彻。<br>夏日消溶，江河横溢，人或为鱼鳖。<br>千秋功罪，谁人曾与评说？<br><br>而今我谓昆仑，不要这高，不要这多雪。<br>安得倚天抽宝剑，把汝裁为三截？<br>一截遗欧，一截赠美，一截还东国。<br>太平世界，环球同此凉热。 川普迎合了屌丝的思维 川普是四川人的骄傲！ 无知、可耻，真是一个危险的信号,美国总统竟然有这种言论,下台吧 我跟岳父的想法一样，也想此刻变暖 横空出世，莽昆仑，阅尽人间春色。<br>飞起玉龙三百万，搅得周天寒彻。<br>夏日消溶，江河横溢，人或为鱼鳖。<br>千秋功罪，谁人曾与评说？<br><br>而今我谓昆仑，不要这高，不要这多雪。<br>安得倚天抽宝剑，把汝裁为三截？<br>一截遗欧，一截赠美，一截还东国。<br>太平世界，环球同此凉热。 买卖人，没做过买卖的人永远一头雾水？ 说得挺好啊，可能实在的人都会这么<br>想。关键是，全球变暖这个词本来就是个意淫概念，从宇宙发展和能量消耗的最终走向看，冷才是永恒的主题。如果还有额外变暖这个功能，那岂不是奇迹和福音？ 山火就是他放的 美国欠錢！話語權的聲音小了一点並非放棄話語權也非和平共处----長時期和平演变才能改變美国人的思维 澳洲经历了最冷的夏天。<br>白左全球气候变暖 有时候川普也挺可爱的接地气儿，总比那些岸然道眉的正人君子强吧。 他的意思就是利用天热时把热量收集起来，冬天再释放出来。 特皇大帝😍 白左们连最起码的幽默都丧失了，连鼓吹变性男自由出入女厕所，都可以一本正经引经据典的胡说八道 白左们连最起码的幽默都丧失了，连鼓吹变性男随便出入女厕所，都可以一本正经引经据典的胡说八道，，，， 你牛🐮逼 横空出世，莽昆仑，阅尽人间春色。<br>飞起玉龙三百万，搅得周天寒彻。<br>夏日消溶，江河横溢，人或为鱼鳖。<br>千秋功罪，谁人曾与评说？<br><br>而今我谓昆仑，不要这高，不要这多雪。<br>安得倚天抽宝剑，把汝裁为三截？<br>一截遗欧，一截赠美，一截还东国。<br>太平世界，环球同此凉热。 特朗普这种话在低智商民众那里很有市场,全球舆论权掌握在这些人手里,真的很恐怖 这真是商人头脑 总有弱智试图挑战科学.... 作为公众人物，川川少说两句吧。<br>此时媒体：川普连说都难得说，消极怠工，碌碌无为 说明你岳父也可以当美国总统 变暖了？比恐龙时代如何 老天，你基本是弱智吧 全球气候变暖并不是全球各地温度就都升高，决定气候的有多种因素。极地气温升高，冰川融化，洋流，气流，季风都会产生变化，会产生人类没遇到过的各种极端气候，比如风暴更大，洪水更频繁。你也知道恐龙时代气候与现在不同，那会根本就没人啊！人类不需要适应当时的气候。农业严重依靠气候，如果气候产生变化会对农业产生巨大影响，农作物会大量减产，为了适应变化的新气候，需要巨大成本改变农业结构，海岸线变化会对沿海城市的生存产生巨大威胁。气候应当是长期观察总结所得，并不是个人体验某年气温偏高或偏低就可以概括 特朗普：凛冬已至 这就是民主的美国民选的“二球总统”，好玩吧！ 说的好歹是人话！ 天热怎么办 我觉得这句话没毛病啊。 我准备申请个专利热带区每个人一把扇子向冷地方扇风 选了个白痴当总统美国人真让地球人笑话 这个观点认可，就像说汽车尾气能污染环境是瞎说，其实是油品不好汽车尾气才污染环境。 横空出世，莽昆仑，阅尽人间春色。<br>飞起玉龙三百万，搅得周天寒彻。<br>夏日消溶，江河横溢，人或为鱼鳖。<br>千秋功罪，谁人曾与评说？<br><br>而今我谓昆仑，不要这高，不要这多雪。<br>安得倚天抽宝剑，把汝裁为三截？<br>一截遗欧，一截赠美，一截还东国。<br>太平世界，环球同此凉热。 特总统说老子说什么你们都要黑老子不Care 全球气候变暖是不是骗局？<br>商周时期，陕西是有大象活动遗迹<br>至商周以来，不断南移<br>从陕西到了云南<br>但是大象是热带动物 要是能总结出川普语录和川普文选都学习一下该多好 全球变暖影响洋流和季风带，懂？ 横空出世，莽昆仑，阅尽人间春色。<br>飞起玉龙三百万，搅得周天寒彻。<br>夏日消溶，江河横溢，人或为鱼鳖。<br>千秋功罪，谁人曾与评说？<br><br>而今我谓昆仑，不要这高，不要这多雪。<br>安得倚天抽宝剑，把汝裁为三截？<br>一截遗欧，一截赠美，一截还东国。<br>太平世界，环球同此凉热。 希望气候专家解读而不是政客。 横空出世，莽昆仑，阅尽人间春色。<br>飞起玉龙三百万，搅得周天寒彻。<br>夏日消溶，江河横溢，人或为鱼鳖。<br>千秋功罪，谁人曾与评说？<br><br>而今我谓昆仑，不要这高，不要这多雪。<br>安得倚天抽宝剑，把汝裁为三截？<br>一截遗欧，一截赠美，一截还东国。<br>太平世界，环球同此凉热。 特朗普也是白左了，这文章里他承认气候变暖的 真服了 从你的发言可以看出，你这傻逼是个文科小学生 弱智脑残不懂科学与自然气候 我也这么觉得 真是搞笑 美国出了个好总统 川普说的很多话都是暗示 不是一般人 咋利用？愿闻其详 特朗普也是白左了，这文章里他承认气候变暖的 我跟岳父的想法一样，也想此刻变暖 特朗普很聪明，是一个伟大的领袖 呵呵这算是奇葩言论？不知道关于气候变暖是好是坏一直没定论的？ 全球变暖是个伪话题 澳洲经历了最冷的夏天。<br>白左全球气候变暖 独树一帜 消及怠工，碌碌无为，那可是要滚蛋的！ 美国梦 好新闻 SB 全球变暖是科学界的共识，而且全球变暖可能会导致局地过冷 好新闻 那恐龙时代为啥就是比现在暖和许多呢？难道排放也超标了？<br>不管变冷还是变暖，气候变化根本就不是人类能够影响或者干预的。 作为公众人物，川川少说两句吧。<br>此时媒体：川普连说都难得说，消极怠工，碌碌无为 一点都不高冷 什么玩意！ 全球气候变暖并不是全球各地温度就都升高，决定气候的有多种因素。极地气温升高，冰川融化，洋流，气流，季风都会产生变化，会产生人类没遇到过的各种极端气候，比如风暴更大，洪水更频繁。你也知道恐龙时代气候与现在不同，那会根本就没人啊！人类不需要适应当时的气候。农业严重依靠气候，如果气候产生变化会对农业产生巨大影响，农作物会大量减产，为了适应变化的新气候，需要巨大成本改变农业结构，海岸线变化会对沿海城市的生存产生巨大威胁。气候应当是长期观察总结所得，并不是个人体验某年气温偏高或偏低就可以概括 这就是民主的美国民选的“二球总统”，好玩吧！ 川普也就是调侃一下而己，有必要上纲上线吗 海外网，把原文发下吧 特朗普要变废为宝 没毛病 这话只在冬天说 支持特朗普，支持美利坚，人类的希望 特朗普虽然是总统，他的权力有限。首先，他无权任命或者撤销州长以及县市长；他更无权提拔亲信担任议会及大法官、检察官。总统的权力是受限制的。200多年前，国父们在制定法规时，就考虑到了一切问题。华盛顿说，虽然总统不一定是坏人，但要把他当坏人防范，才不至于让他危害人民...... 6666这个理论真的牛逼 变暖和了 川谱想法倒蛮天真的 局座的雾霾反导理论过时了！ 你还在乡下耕田 支持 禽兽，他儿子才12岁 这货真的是总统？ 哈哈，还总统 看样子这老头已进入老年人的思唯状况了。 哈哈，越来越喜欢tump 总算找到一个智商一样的领袖了…… 特郎普就喜欢😊全球变暖(｡･ω･｡)！俺老公🐔也喜欢😍！👍👍👍👍😜😝😓😃 12 川普话有点多， 之前黑希拉里，如今黑特朗普。 美国总统没有秘书吗？没有人帮忙把关吗？觉悟这么低，怎么当上总统的？ 最好地球平均温度再升5度，这样我大南昌就可以享受沙滩和大海的美景了，想想都觉得兴奋！ 人类制造气体特别是温室气体对地球气候的改变，到底有多大，是个疑问。假设地球很冷很冷，一些火山可能喷不出来，所以，观察全球火山变化，可能间接获得全球气候是冷了还是热了的变化情况。地球自身的调控能力，应该超出人类，进一步讲，就算人类不幸地发生三次世界大战，发动了全球核战，人类灭亡，自然环境造成严重破坏，但是，我相信，地球会在不长的时间内自愈，且跟三次世界大战之前的环境差不多，而且，生命会重新开始进化。不要太抬高人类的能力了，人类和他们直接影响到的物质的总质量有多大，占地球总质量有多少百分比，这个百分比可以忽略不计。 人类制造气体特别是温室气体对地球气候的改变，到底有多大，是个疑问。假设地球很冷很冷，一些火山可能喷不出来，所以，观察全球火山变化，可能间接获得全球气候的冷了还是热了的变化情况。地球自身的调控能力，应该超出人类，进一步讲，就算人类不幸地发生三次世界大战，发动了全球核战，地球人类灭亡，自然环境造成严重破坏，但是，我相信，地球会在不长的时间内自愈，且跟三次世界大战之前的环境差不多，而且，生命会重新开始进化。不要太抬高人类的能力了，人类和他们直接影响到的物质的总质量有多大，占地球总质量有多少百分比，这个百分比可以忽略不计。 您肯定认为地球是平的，对吧？ 宇宙的探索是离不开我的话的，只有把围绕地球公转的一切物质包括气体计算在地球体积之内才能找到地球真正的边和角，那是反引力汇聚地，是真正的真空隧道，宇宙高速路，太阳系内的动脉!把围绕太阳公转的一切物质包括气体计算在太阳体积之内才能找到恒星与恒星的边和角，那是恒星与恒星之间的真空高速隧道，找到真空隧道以近光速超光速飞行那不是个事!宇宙飞行器也不能按照飞机的二维结构原理制造，飞机是不能高速自转的，但只有高速自转才能产生真空电磁场，以近光速飞行，未来的宇宙飞行器必须按地球原理制造，八层以上结构，你看地球高速自转着前进，我们人坐在地球上有啥不适感觉吗？ 川普这点不错，敢说实话 伟大的特朗普，他就是人类的指路明灯，他的语言就是人类的圣旨！ 特爷爷真睿智，是人类有史以来最伟大的科学家！！！ 观察全球火山变化，也是一个间接证据，看看全球气候变化的方向。 右倾主义盛行的社会必定越来越多的傻逼推崇他，跟二战前希特勒差不多，悲哀 高见 没毛病啊？ 冬天不冷还叫什么冬天 典型的喷子上台 怎么利用呢？！川普 ",
        "Link": "http://comment.news.163.com/news2_bbs/D6R9PSU10001899N.html",
        "Total": 1586,
        "Reply": 109
    },
    "Source": "Netease",
    "Title": "特朗普:美国东部太过寒冷 我们要好好利用全球变暖_网易新闻",
    "KeyWords": "特朗普,全球变暖,美国,总统"
}