{
    "Source": "Netease",
    "PublishTime": "12/25/201720:57:00",
    "KeyWords": "中国工程院,童志鹏,院士,两弹一星",
    "Title": "中国工程院院士童志鹏病逝 曾让\"两弹一星\"变厉害_网易新闻",
    "Comment": {
        "Link": "http://comment.news.163.com/news2_bbs/D6HGSI88000187VE.html",
        "Total": 578,
        "Content": "走好！ 走好 中华优秀儿女，走好！ 无良院士 童老一路走好！ 谢谢您 如果可以，我更希望听到你们的安好，科研好消息，戏子的丧事消息，而不是科学家去世，戏子分手失恋的新闻。 应该多介绍下事迹，别两句话完事。 一路走好祖国不会忘记你 童老走好，祖国谢谢您！ 事了拂衣去，身藏功与名。 童老您一路走好！ 国宝啊就这么走了，可惜 都是新中国的功臣啊！如果没有这些两弹一星，我想现在我们恐怕就被米国吞并侵略了吧！ 一代大师 感谢你为国家做出的贡献，有了你们无私的奉献才有今天的新中国 国之栋梁 童老一路走好！！！ 感恩，怀念! 都是好人！ 这个<br>厉害了，致敬 老先生走好！ 致敬 这才是偶像栋梁，学习的榜样。不是那些球星，戏子，歌手 国之栋梁，谢谢！一路走好！ 敬礼童老一路走好 国之栋梁，一路走好！ 向呕心沥血为了共和国的老人鞠躬！ 童老千古 一路走好 走好！ 走好 童老一路走好！！！ 中华优秀儿女，走好！ 无良院士 童老一路走好！ 当然可以呀,统称为两院院士..科学院是注重研究的,工程院是注重工程实践的,极端点的认识可以是,一个重理论,一个重实践,其实科学院和工程院的合作还是很多的. 谢谢您 同感 应该多介绍下事迹，别两句话完事。 一路走好祖国不会忘记你 匠师 老先生走好！ 童老走好，祖国谢谢您！ 事了拂衣去，身藏功与名。 童老您一路走好！ 都是新中国的功臣啊！如果没有这些两弹一星，我想现在我们恐怕就被米国吞并侵略了吧！ 敬礼童老一路走好 一代大师 感谢你为国家做出的贡献，有了你们无私的奉献才有今天的新中国 国之栋梁 如果可以，我更希望听到你们的安好，科研好消息，戏子的丧事消息，而不是科学家去世，戏子分手失恋的新闻。 国之栋梁 国宝啊就这么走了，可惜 感恩，怀念! 都是好人！ 这个<br>厉害了，致敬 又走了一位业内的大家，可惜。 致敬 这才是偶像栋梁，学习的榜样。不是那些球星，戏子，歌手 其实科学院和工程院的合作还是很多的,工程院是注重工程实践的当然可以呀,一个重理论,极端点的认识可以是.科学院是注重研究的.,统称为两院院士,一个重实践 国之栋梁，谢谢！一路走好！ 童老走好！ 国之栋梁，一路走好！ 向呕心沥血为了共和国的老人鞠躬！ 童老千古 一路走好 ",
        "Reply": 37
    },
    "Article": "（原标题：致敬！那个为“两弹一星”装上“电子心”的老院士走了……）中国工程院院士童志鹏资料图@新华视点12月25日消息，12月19日，我国综合电子信息系统的开拓者和奠基人、电子信息工程专家、中国工程院院士童志鹏病逝，享年93岁。他为“两弹一星”装上“电子心”，曾在国内率先提出综合电子信息系统、平流层信息系统等前瞻性概念。“苍龙日暮还行雨，老树春深更著花。”转发致敬！国家脊梁！本文来源：新华视点责任编辑：徐萌_NN7485",
    "URL": "http://news.163.com/17/1225/21/D6HGSI88000187VE.html"
}