{
    "Article": "（原标题：联合国秘书长新年号召团结：世界可以变得更安全）中新网1月1日消息，据外媒报道，联合国秘书长古特雷斯在2018年到来之际发表视频致词，呼吁“团结”。联合国秘书长古特雷斯东方IC资料图据报道，古特雷斯表示，“一年前上任时，我呼吁2017年是和平的一年。遗憾的是，从根本上说，世界并未走向和平。2018年元旦，我不再提出呼吁。我向我们的世界发出一个警报一个红色警报”。古特雷斯说，“冲突已然加剧，新的危险已经出现。全球对核武器的忧虑达到了冷战以来最高程度，气候变化的速度超过了我们的行动速度，不平等正在加剧。我们看到可怕的侵犯人权行为，民族主义和仇外心理正在上升”。2018年伊始，古特雷斯号召“团结”。古特雷斯说，只要团结，世界可以变得更安全，冲突可以解决，仇恨可以克服。他促请各国领袖的新年愿望是“收窄分歧，重建互信，带领人民实现共同目标”。本文来源：中国新闻网责任编辑：李曦_NN2587",
    "Title": "联合国秘书长发红警:核武忧虑达冷战以来最高程度_网易军事",
    "PublishTime": "01/01/201810:18:36",
    "Source": "Netease",
    "Comment": {
        "Content": "胖哥说按钮就在他桌上。。。 你直接说人类四不像就行了，打那么多字你不觉得辛苦吗？ 不要炒作什么核武忧虑，这只会给某些少数流氓以错觉，让他们以为核武真是解决问题的一个方法！ 明白人 没有美帝帮你祖宗，这里早就被苏核平了！你这烂玩意也就不会出生了。 朝有生化武器朝脱北士兵体内有炭疽抗体 为神马不让老子直接看外媒。 谁在扩散核技术？ 贵州魔鬼！ 冲突已然加剧，新的危险已经出现。全球对核武器的忧虑达到了冷战以来最高程度，气候变化的速度超过了我们的行动速度，不平等正在加剧。我们看到可怕的侵犯人权行为，民族主义和仇外心理正在上升 没有美帝帮你祖宗，这里早就被苏核平了！ 直走，左转，再左转，有栋豪华的大楼就是啊 反正都不是什么好鸟，核爆这个虚伪世界，支持打响核大战，干脆一了百了。 没有美国，你真的只能当奴隶 有头人渣说了，它们的祖国是苏联 既然你们那么自负，不如继续自负下去，反正需要谁的命来填坑的话，一定是那些装睡的！ 3楼，孝子贤孙呐，快把你媳妇奉献出来让你额爷爷享用去！ 首先你要能看懂英文，不是鄙视你，你看了恐怕也是白看。 现在这年代还有你这种傻逼，真是服了 脑残 99年曹县弃核已经启动，炸毁核电站凉水塔，换取重油发电站，可美国人中途撕毁协议，日韩也不遵守供油承诺，最后曹县核武成功了！该怨谁？？？ 你倒是说出团伙是谁啊，这样美帝才好精准打击。。。 我知道人渣是谁 你不想活自己悄悄去卧轨，干嘛要殃及我们和平百姓，再说你是孙悟空没有亲人啊？ 跟贴被火星网友带走啦~ 把第一个制造和第一个使用核武器的国家核平了再说，否则没地方说理去。 驴跑出来了 它是驴，二楼你又高抬它了。 古特雷斯说，“冲突已然加剧，新的危险已经出现。全球对核武器的忧虑达到了冷战以来最高程度，气候变化的速度超过了我们的行动速度，不平等正在加剧。我们看到可怕的侵犯人权行为，民族主义和仇外心理正在上升”。 该怨我们自己，不去管他们，半岛早统一了。 核武一旦爆发大不了换个世界去生活，这个有什么！ 贵州看来还很落后很封闭啊。 贫困落后的地方.必然很封闭. 强烈支持核战，消灭世界上所有的大小流氓！ 谁告诉你的？勃涅日涅夫？柯西金在北京机场冷笑。你快去床破哪里领美刀。 美帝不亡，核战随时都有可能发生。 万一美国那天炸死了你，就可惜了一个孝子贤孙似的黄奴。 核战吧！拥有万亿资产的能拿钱保命不？ 居然用‘之’而且还没用对，真是蠢货 蠢驴 那为什么还不敢让人民直接看外媒。 是这个理，今天制裁这个明天出兵那个搅得世界一片黑暗一团黑雾！美国才是人类最凶残的敌人。 我们人类自诩是最高级最智慧的动物，然而，人类的最真实面貌却是这样的：<br>人类是最高级的动物，人类是最低级的动物；人类是最智慧的动物，人类是最愚蠢的动物；人类是最善良的动物，人类是最凶残的动物；人类是最有爱心的动物，人类是最没人性的动物；人类是最能毁灭其它动物的动物，人类是最能毁灭自己的动物；人类是最能创造享受天堂的动物，人类是最能制造堕落去地狱的动物；——这就是我们人类。21世纪的人类何去何从，命运就掌握在人类自己的手中 蠢货杀之不可惜！ 支持美利坚~打击黑暗无耻罪恶反人类利益团伙儿~~！ 你做好光荣的准备了？ 胖哥说按钮就在他桌上。。。 傻狗，为什么你苏俄祖宗不待见你，想明白没？ 婊子们有脸说你们这种贱狗的美国爹拿核武来威胁过中国几次啊？婊子们 翻译软件可以帮忙 该吃吃该喝喝，最后再听听美妙的声音催眠。 吴毛蠢货多，根本不了解历史，多去了解一下毛子打算外科手术式核打击的时候谁出来帮中国了 该怨我们自己，不去管他们，半岛早统一了。 没有美帝帮你祖宗，这里早就被苏核平了！你这烂玩意也就不会出生了。 朝有生化武器朝脱北士兵体内有炭疽抗体 为神马不让老子直接看外媒。 谁在扩散核技术？ 地沟油的鼻祖 红色警戒4：捡垃圾 冲突已然加剧，新的危险已经出现。全球对核武器的忧虑达到了冷战以来最高程度，气候变化的速度超过了我们的行动速度，不平等正在加剧。我们看到可怕的侵犯人权行为，民族主义和仇外心理正在上升 美俄首先要把核武器降下来，降到与中国持平，世界就安全了！ 最有可能先用核武的是美俄 没有美帝帮你祖宗，这里早就被苏核平了！ 朝鲜战争，美国准备对中国用核武器 他话中绝望。神曲响彻大地已不远。 那为什么还不敢让人民直接看外媒。 有头人渣说了，它们的祖国是苏联 说的好像你这条傻狗姓曌一样 3楼，孝子贤孙呐，快把你媳妇奉献出来让你额爷爷享用去！ 首先你要能看懂英文，不是鄙视你，你看了恐怕也是白看。 你倒是说出团伙是谁啊，这样美帝才好精准打击。。。 他话中绝望。圣曲响彻大地已不远。 99年曹县弃核已经启动，炸毁核电站凉水塔，换取重油发电站，可美国人中途撕毁协议，日韩也不遵守供油承诺，最后曹县核武成功了！该怨谁？？？ 美苏都对中国进行过核恐吓哦！都不是好玩意滴！😄 唯一解决的办法-----联合国迁址月球。。。。。。 我知道人渣是谁 导弹井已经打开，核弹警报已经拉响。。。红色警戒 那就说说你那婊子一样的美国爹拿核武来威胁中国的事吧！婊子！ 你们吃地沟油吃多了整天发疯整天夜郎自大 傻狗，为什么你美爸不待见你，想明白没？ 现代战争已经突破人与距离的方式，对抗只能是平民伤亡具增，核力量已经不是唯一，但是核战后将是一片长期无人区，美国做为核大国，不仅是核安全还存在贫铀弹，美国到处爆发局部战争，今天美日在朝鲜、台湾，英国在南海挑起事端，一旦中美开战世界大战将开启，成为不可预控局面，第三帝国会抄美国的本部的底，而美国大多数核心武器将被引爆，美国玩了，中俄德将无法全面打击第三帝国能力。美国已经本身处在核爆炸边缘地带，美国人民必须反美国政府，美国的亡的代价将是灭族，特郎普的商业头脑不利于国家，能用钱解决的事不是事。 没有美帝帮1楼祖宗，他奶就要去日本维权了。 他话中绝望。神曲响彻大地已不远。 强烈支持核战，消灭世界上所有的大小流氓！ 它是驴，二楼你又高抬它了。 贵州魔鬼！ 古特雷斯说，“冲突已然加剧，新的危险已经出现。全球对核武器的忧虑达到了冷战以来最高程度，气候变化的速度超过了我们的行动速度，不平等正在加剧。我们看到可怕的侵犯人权行为，民族主义和仇外心理正在上升”。 这么多核弹，谁都不敢扔，核弹快成“纸老虎”了😸 傻狗，为什么你美爸不待见你，想明白没？ 支持以美利坚为首的正义联盟彻底铲除俄罗斯以及其它一切反人类的邪恶势力。 杞人忧天 谁告诉你的？勃涅日涅夫？柯西金在北京机场冷笑。你快去床破哪里领美刀。 他话中绝望。神曲响彻大地已不远。 美帝不亡，核战随时都有可能发生。 不对吧！他们不应该往美国跑不应该买美国国债呀！这么为美国你们高兴才对啊！怎么还喷呢？ 没事就扔几颗黑旦玩玩。 支持美利坚~打击黑暗无耻罪恶反人类利益团伙儿~~！ 居然用‘之’而且还没用对，真是蠢货 直走，左转，再左转，有栋豪华的大楼就是啊 他话中绝望。神曲响彻大地已不远。 红警2，强迫症者的福音… 蠢货杀之不可惜！ 你们吃地沟油吃多了整天发疯整天夜郎自大 支持美国 盛世文定<br>乱世需武<br>世界不太平的当今<br>第一第二次世界大战的武器走向或许到现在还是问题 你直接说人类四不像就行了，打那么多字你不觉得辛苦吗？ 不要炒作什么核武忧虑，这只会给某些少数流氓以错觉，让他们以为核武真是解决问题的一个方法！ 世界的每一次前进，都伴随着战争，没有战争就没有动力，就没有刺激，也就不会出现大批牛逼人物 网易的评论里都是人身攻击吗？没有带营养的评论吗？ 美国武器走向有问题 明白人 没有美帝帮你祖宗，这里早就被苏核平了！你这烂玩意也就不会出生了。 核战吧！拥有万亿资产的能拿钱保命不？ 美帝通过手段让毛子这个出头鸟经济倒退，达到关键目的，现在拖累玩全球经济，自己经济好起来了，爽歪歪，下一步就是爆兵准备一次大型作战了，伊朗朝不保夕。 为神马不让老子直接看外媒。 贵州魔鬼！ 红警2苏联盟军尤里 现在世界是走向和平或战争，主要要看美国的意思，其他国家已经没有实力左右。 “仇外心理”，说的是特朗普和北棒两只小斗牛 总觉得这个秘书长大众脸。木有存在感。名字也记不住 反正都不是什么好鸟，核爆这个虚伪世界，支持打响核大战，干脆一了百了。 没有美国，你真的只能当奴隶 既然你们那么自负，不如继续自负下去，反正需要谁的命来填坑的话，一定是那些装睡的！ （多做好事，必有好报）美攻朝中收台战略对冲平衡（加快发展繁重工作替代性智能机器，不用延迟退休）公司上市后业绩异常下降，依法赔偿遏制骗钱（当务之急大小限减持和再融资要挂钩分红或回购，违则重罚，促进长期良好经营，缓解套现压力）尽快开征股指期货的印花税，才能降低杠杆及高频风险，限制其乱影响股市（基金只有盈利才收管理费，真正为投资者服务）连续2天涨跌停就限仓交易，共同受益，利国利民！ 现在这年代还有你这种傻逼，真是服了 又装逼了，你的普通话语音能识别么？ 是这个理，今天制裁这个明天出兵那个搅得世界一片黑暗一团黑雾！美国才是人类最凶残的敌人。 美苏都想过核，不要拉偏架.不然有嫌疑 核能变武能，世界最糟的科技。 一楼说的不对。但是二楼，美帝没理由帮中国怼苏联 你不想活自己悄悄去卧轨，干嘛要殃及我们和平百姓，再说你是孙悟空没有亲人啊？ 墨表哥表示如果有来生再不做美国的邻居了。 把第一个制造和第一个使用核武器的国家核平了再说，否则没地方说理去。 麻烦事 驴跑出来了 核武一旦爆发大不了换个世界去生活，这个有什么！ 小样，来广州搬个砖就表示自己高大上了？ 贫困落后的地方.必然很封闭. 废话有点多哟 很简单，你移民就可以看了。 希望2018年是和平年，不是毁灭年。 美帝不亡，核战随时都有可能发生。 含着，别说话！ 红警2里的两种任务我都打通关了 蠢驴 脑残 我们人类自诩是最高级最智慧的动物，然而，人类的最真实面貌却是这样的：<br>人类是最高级的动物，人类是最低级的动物；人类是最智慧的动物，人类是最愚蠢的动物；人类是最善良的动物，人类是最凶残的动物；人类是最有爱心的动物，人类是最没人性的动物；人类是最能毁灭其它动物的动物，人类是最能毁灭自己的动物；人类是最能创造享受天堂的动物，人类是最能制造堕落去地狱的动物；——这就是我们人类。21世纪的人类何去何从，命运就掌握在人类自己的手中 支持美利坚~打击黑暗无耻罪恶反人类利益团伙儿~~！ 万一美国那天炸死了你，就可惜了一个孝子贤孙似的黄奴。 你做好光荣的准备了？ 一旦宫喘足矣实现，美帝就灭亡了 ",
        "Reply": 103,
        "Link": "http://comment.war.163.com/news_junshi_bbs/D72CJ9T1000181KT.html",
        "Total": 2324
    },
    "KeyWords": "联合国,冷战,核武",
    "URL": "http://war.163.com/18/0101/10/D72CJ9T1000181KT.html"
}