{
    "URL": "http://war.163.com/photoview/4T8E0001/2287181.html",
    "Article": "天降死神！美媒曝光AC-130机上作战画面AC-130已成为炮艇机的代名词，这是全球现役唯一一种搭载105毫米重型机载火炮的攻击机。这种自越战时期开始进入美空军服役的机型，到2018年时这种诞生于越战的独特机种将服役整50年，至今仍活跃在打击IS极端组织的最前线。近日，有媒体记者登上AC-130参观，发回了很多难得的炮艇机内部画面。",
    "KeyWords": "炮艇机,机载火炮,AC-130,",
    "Source": "Netease",
    "Comment": {
        "Reply": 219,
        "Content": "如果敌方正在召开誓师大会，那感觉该有多爽啊！ 顶你 军事板块好热闹 二战，美国实力最强，贡献最大，二战结速后，为什么美国的版图，没有扩大一寸哪？？你不觉得奇怪吗？？？美国搞十来艘重型航母，全球到处跑的，军费每年就烧5、6千亿美元，但是美国的版图却没有扩大一寸，你不觉得奇怪吗？？？鹅裸死军队一出手，那可就是要攻城略地开疆扩土的。。美国军队一出手，就是死一堆人，花一堆钱，最后一寸土地也没有捞到，你不觉得奇怪吗？？是谁在维护世界和平？？你装傻可以，全世界可不傻。。200多个小国弱国，最不怕的就是美国的航母靠岸。最怕的就是鹅裸死的军靴落地。 美国能力越大责任越大，维护世界和平，是历史赋予美国的责任。美国成为这个世界的警察，是历史形成的客观现实，容不得你们这些跳梁小丑污蔑!<br><br>是美国不遗余力的，维护世界和平、促进国际贸易发展，才避免了第三次世界大战的爆发。是美国遏制苏联，才让我们有了改革开放的机遇。感恩美国，是每一个爱国者的基本道德底线。 你两个就在那奇怪吧。这智商，还用手机拍？你会用手机吗？ 幕后黑手怂恿日本侵华，等中日两败俱伤，再来个渔翁得利，傻子以为遇到了救世主 3楼是个逗逼 中国造这类机型干嘛？ 不得不说，历史有时有点残酷的相似。我想中国人应该比日本人要更懂得学习历史，从中吸取经验教训。但现在的中国和当年的日本一样二逼热血青年多，以为自己在保卫一个神一样的朝代，以为亚洲是大中华圈，但这个朝代只会把你当炮灰，分担责任每人有份，升官发财没你的份，人民共和国的人民只是羊头。 髦佐最害怕的就是阳光下的事实，以及他们阳光下的罪恶。他们最害怕的就是阳光之下无所遁形。所以他们就拼命的掩盖历史，尘封历史，扭曲历史。瞪眼说瞎话，亩产十万，就是他们的本色出演。 这才是支持威武绝对有希望 美国能力越大责任越大，维护世界和平，是历史赋予美国的责任。美国成为这个世界的警察，是历史形成的客观现实，容不得你们这些跳梁小丑污蔑!<br><br>是美国不遗余力的，维护世界和平、促进国际贸易发展，才避免了第三次世界大战的爆发。是美国遏制苏联，才让我们有了改革开放的机遇。感恩美国，是每一个爱国者的基本道德底线。 战争机器。美国的手上沾满了鲜血。。。。 傻逼，它都能在你头顶上了，说明空军、防空导弹、高射炮等防空力量已经全灭了……乖乖投降是正道…… 人家说的起码都是干货，你说一句有用的了吗？ 一楼呀！人家那是低成本打击型武器，对高端也有呀！但是当人家给你用上低成本了，你也该哭了。 正义美军，横扫邪恶✌ 这飞机明显就是在堆料，其实没啥技术含量，就是运输机加强对地火控能力和地面监控系统，也就是以大欺小的时候才用的上，要是没有护航，歼八都能怼死它......... 只看表面，你的大脑发育在小学时代就停止了吗？ 这么清新的图片我怎么就山寨不起来呢？气死我了！ 他脑洞大 如果美国人，跟你的思维一样猥琐，按诸葛亮的隆中对干，就可以了。。二战根本就不介入欧亚战事，直接挥军南下，拿下整个幅员辽阔，资源遍地的中南美洲，易如反掌，坐看苏联与中国在地图上消失。<br><br>然后说服英国，与德国签订希特勒求之不得的和平协议，退出战争。。无论南美还是美国，都是资源遍地。。无论加拿大，还是澳大利亚，也都是资源遍地。。以英美澳加新为一方（当之无愧的魏国），与欧洲德国，亚洲日本，3家平分天下多好。这不就是3国演义吗。<br><br>跨大西洋远征德国，跨太平洋远征日本，劳师远征，死伤惨重不说；还要无偿的支援苏中与德日对抗。。最后劳民伤财死伤惨重，击败了德日挽救了苏中，还不落好。。战后，还要跟苏中继续冷战。。这不是瞎折腾吗？何苦呢。<br><br>美英真这么干了，你哭都没地方哭去，跟满清人来了留辫子一样，你现在肯定说的是日语。 美日现在都是你的敌人，看你多二逼 天降正义[窃笑] 没有技术量？好啊，叫二楼的主子这样的飞机造一架看看，就别说装大炮了，连俄罗斯都没有办法解决的问题 真是强国自信，中国现在有这种同级别机型吗 前提是护航机队能保证它的安全 大哥，105毫米火炮，火炮里算是小口径的了，更何况都服役50年了，你觉得现在的中俄没有能力做到吗？ 为什么我们的就那么模糊？谁来科普一下？ 然而，美军出动的时候，害怕没有制空权？911的当天，美军全球警戒的时候，除了铁杆盟友，哪国的战机还敢上天？哪怕在自己的国土内，不通报美军，哪国的军机敢起飞？ 没有米帝支援中国抗战，没有米帝在太平洋歼灭鬼子联合舰队、舰载机以及占领他国和岛屿的日军精锐师团，你祖上等着再做50年小鬼子八嘎“马路大”吧！还轮得上你今天使用米帝发明的计算机、互联网在这骂米帝吗？！在中国，谁最恨米帝？鬼子汉奸皇协军啊。你什么猪狗东西？！ 你聪明，聪明都知道会用手机拍照 美利坚 好多粪爹就是被这玩意儿打得灰飞烟灭的。 现在饿毛子在中国代理的孝子贤孙已经害怕到不敢让人民说话的地步了 在国内一般的什么军事区用手机拍拍都抓你，尼玛的蛆美国军事基地随便你拍，奇怪啊，这是为什么？ 这些你怎么知道的?难道你是传说中的砖家 70年代的这些事情，都是我亲身经历过的，历历在目。碎布拼接的花书包，我背过，打着补丁的衣服我穿过；当年最好的服装，就是现在军训时穿的军装，都是干部子女才能够穿得起的。<br><br>我排队买过杂粮面，买过碎煤（回家再团成煤球），以及成车的冬存菜。豆腐、糖、肉、蛋、奶，新鲜蔬菜及水果，都是清一色的奢侈品，过年才能够吃上一点所谓的点心与水果罐头。<br><br>寒冬腊月，家里的窗户上没有一块玻璃，贴的都是窗户纸，小时候，大街上拖儿带女要饭的屡见不鲜，一直到1993年才废除了粮票。如有一句谎言，天打五雷轰。（此一时期为猫佐当家，是认珉逐步走向饥寒交迫的30年）。<br><br>70年代末以前，没有中国的参与，西方照样飞速发展；中国不再与西方为敌了，西方才给中国敞开了市场，给中国输入了科技与资金。<br><br>贡献最大的就是日本，日本几十年如一日，提供巨额的无息与低息贷款，提供技术援助，帮助中国把工厂建立起来，没有日本的技术援助，就没有中国最现代化的宝钢，没有日本的技术援助，就没有中国的现代电子工业。<br><br>美日欧还给中国敞开市场，把中国逐步纳入了西方主导的世界经济体系，让中国出口产品，换取外汇，这才解决了吃饭穿衣的问题。（此一时期为改革开放时期，是认珉逐步走向丰衣足食的30年）。<br><br>如果西方对中国关闭市场，断绝科技输入，中国立刻就会陷入困境，甚至绝境。西方离开中国照样飞速发展，但是中国离不开西方，否则立刻倒退。<br><br>传统电视，液晶电视，全自动滚筒洗衣机，录音机，录像机，CD机，影碟机，微波炉，BB机，模拟手机，数字手机，智能手机，传真机，复印机，磁盘，硬盘，数码相机DV机，以及电脑互联网，B超，X光机，CT扫描机，核磁共振仪，DNA识别系统，试管婴儿，心脏支架搭桥，微创手术，等等医疗技术及器械，，，没有西方科技源源不断的输入进来。你以为，中国能够制造出来？？<br><br>没有谷歌，你以为会有摆渡？没有优步，你以为会有滴滴？没有GPS，你以为会有北斗导航？没有西方的原创科技，你以为会有中国琳琅满目质优价廉的山寨产品？以此类推……<br><br>中国离西方有多遥远，中国贫困化的程度就有多深。<br>中国与西方有多接近，中国现代化的程度就有多高。<br><br>邓曾经有略偏于朴素的观察总结：即亚洲国家里，偏重美国发展模式，及与美国保持良好关系的国家地区，大都走向繁荣发达富裕；而固守成规，或沿袭苏联模式的，竞相堕落向贫困、内乱和封闭。（联合早报） 放心，众泰皮尺部马上来了 你不应该呆在日本呀，你应该在俄罗斯，天天跪在屎大淋面前孝衷！ 什么马赛克？应该是素描！几个线条就好了，屁民知道这么多干嘛？ 看来贡D要亡了 看到了这样清晰的图片，大清朝也能造了。 美国能力越大责任越大，维护世界和平是历史赋予美国的责任。美国成为这个世界的警察是历史形成的客观现实，容不得你们这些跳梁小丑污蔑!<br><br>世界贸易的繁荣，赋予了每个国家，发挥自己地区优势的平等机遇，强国再也不必靠掠夺和扩张，来增强实力。好不夸张的讲，是美国不遗余力的维护世界和平、促进国际贸易发展，才避免了第三次世界大战的爆发。<br><br>是美国遏制苏联，才让我们有了改革开放的机遇。感恩美国，是每一个爱国者的基本道德底线。仇美的人，应该以汉奸论处就对了。 这玩意？在中俄面前就是靶机，有来无回。 二楼说这话是多不要脸！唐朝在强也只是区域性大国和美国比？美国是世界性超级大国前无古人后无来者！史上第一国星条旗遍布全球驻军170个国家亚欧非大洋洲美洲重要海道都是美军控制天空陆地海洋外太空陆海空天四个一体化！ 有59就足够了 实话实说。 舱内拍的如此清晰不怕泄密吗不是应该马赛克吗 二战，美国实力最强，贡献最大，二战结速后，为什么美国的版图，没有扩大一寸哪？？你不觉得奇怪吗？<br><br>美国搞十来艘重型航母，全球到处跑的，军费每年就烧5、6千亿美元，但是美国的版图却没有扩大一寸，你不觉得奇怪吗？<br><br>鹅裸死军队一出手，那可就是要攻城略地开疆扩土的。。美国军队一出手，就是死一堆人，花一堆钱，最后一寸土地也没有捞到，你不觉得奇怪吗？<br><br>是谁在维护世界和平？？你装傻可以，全世界可不傻。。200多个小国弱国，最不怕的就是美国的航母靠岸。最怕的就是鹅裸死的军靴落地。<br><br>墨西哥人，心里那个恨啊，你美国为什么不在殖民时代，把墨西哥全拿走？？现在剩下的墨西哥人公投入美，美国也不要，真是气死墨西哥人了。你敢到墨西哥瞎比比，美国侵略吞并墨西哥领土试试？？小心墨西哥人揍死你。<br><br>波多黎各人痛苦啊，公投入美，美也不要，夏威夷人真是幸福死了，波多黎各人眼馋夏威夷人啊。。太平洋诸多岛国，都是排队的要公投入美啊。<br><br>美国驻军可都是请来的，波兰望眼欲穿了大半个世纪，这才终于热泪盈眶的请来美军啊。。你敢到波兰瞎比比美国驻军试试？？小心波兰人揍死你。<br><br>没有美国驻军，就没有工业发达，经济繁荣的南韩。。南越人那个恨啊，那个眼馋啊，你美国为什么就从南越撤军了哪？<br><br>美国驻军一旦撤离韩国，南韩必将重蹈，美丽富饶的南越，被野蛮灭国的厄运。<br><br>98年印尼爆发的，针对华人的大屠杀，惨!惨!!惨!!!惨！！！！<br>全世界都在打嘴炮，唯一派出军舰，武装干涉印尼内政的就是美国。<br>星条旗迎风飘扬，自由的旗帜永不落！！！面对美军武装营救，印尼华人热泪盈眶。<br><br><br>二战后，这个世界如果没有了美利坚。<br>和平，繁荣，发展，都将沦为泡影。<br>和平，繁荣，发展，就是美国向全世界提供的免费产品。<br>谁敢威胁和平，繁荣，发展，美国就敢弄死它。<br>什么苏联，傻大木，卡炸飞，塌俐班，爸傻儿，等等，都不在话下。<br><br>星条旗迎风飘扬，自由的旗帜永不落！！！ 你觉得他会只派个炮艇过来那不是他傻就是你傻喽 二战后美国杀死几千万人 如果敌方正在召开誓师大会，那感觉该有多爽啊！ 顶你 只看表面，你的大脑发育在小学时代就停止了吗？ 真感情呀 二战，美国实力最强，贡献最大，二战结速后，为什么美国的版图，没有扩大一寸哪？？你不觉得奇怪吗？？？美国搞十来艘重型航母，全球到处跑的，军费每年就烧5、6千亿美元，但是美国的版图却没有扩大一寸，你不觉得奇怪吗？？？鹅裸死军队一出手，那可就是要攻城略地开疆扩土的。。美国军队一出手，就是死一堆人，花一堆钱，最后一寸土地也没有捞到，你不觉得奇怪吗？？是谁在维护世界和平？？你装傻可以，全世界可不傻。。200多个小国弱国，最不怕的就是美国的航母靠岸。最怕的就是鹅裸死的军靴落地。 和苏联？想多了，都是小国，朝鲜越南伊拉克利比亚叙利亚古巴老挝 卧槽你居然说出这种话，你爸妈真的白养你了，你到底了没了解过那个事件啊智障，心里没点b数吗，网易真是个奇葩的地方 二战后坏人这么多？也是，苏联土匪快两亿，亚洲害人虫快20亿，美帝太心慈手软了。 谈什么收台湾先收了再说,敢不敢,,人家运输机都开到你面前了,连子弹都放,靠撞?还没撞得赢 说美国打击IS有人信吗？说俄罗斯不反恐有人信吗？ 是枚地对空都能让它下来 你每天食屎6百吨有科技含量？ 然后呢，还不是让阿登爆了两座地标，世界最强国家又能如何，还不是会有金融危机。最富裕的国家又如何，在旧金山还不是满大街的乞丐。十几个航母战斗群又如何，收台湾的时候我真不信他敢拦一下。月有阴晴圆缺，人有生老病死，你这么无脑捧老美，我真没看懂你是敌是友 使命召唤4第一次玩到AC130视角，直接惊艳了 髦佐最害怕的就是阳光下的事实，以及他们阳光下的罪恶。他们最害怕的就是阳光之下无所遁形。所以他们就拼命的掩盖历史，尘封历史，扭曲历史。瞪眼说瞎话，亩产十万，就是他们的本色出演。 你这头猪连拳贵稀屎都吃不到，着能吃自己排泄物。-------拳贵骑在你身上，看把你这头猪给自豪滴～要不然你这头猪就是骑在百姓身上？ 因为这玩意就没什么科技含量，便携式防空导弹就可以干掉。。。 这才是支持威武绝对有希望 美国能力越大责任越大，维护世界和平，是历史赋予美国的责任。美国成为这个世界的警察，是历史形成的客观现实，容不得你们这些跳梁小丑污蔑!<br><br>是美国不遗余力的，维护世界和平、促进国际贸易发展，才避免了第三次世界大战的爆发。是美国遏制苏联，才让我们有了改革开放的机遇。感恩美国，是每一个爱国者的基本道德底线。 中国的确应该改装运-9为AY-9炮艇机，用于中印边境巡逻！ 战争机器。美国的手上沾满了鲜血。。。。 大缅甸帝国的强5要就算了，惹不起…… 干掉一架这样的飞机应该比干掉一架非隐身的战斗机困难得多，本身挂空空导弹，有空战能力，电子战能力更是非隐身战斗机不能比的。<br>制空权基本被夺取时出动，偶尔出现的零星战斗机几发导弹，热焰弹多的是，干扰能力更是强，基本打不着。 地面目标的恶梦 美国人的东西很有现代感觉 是啊，我也特别喜欢那种疯狂扫射的感觉 正义美军，横扫邪恶✌ 这飞机明显就是在堆料，其实没啥技术含量，就是运输机加强对地火控能力和地面监控系统，也就是以大欺小的时候才用的上，要是没有护航，歼八都能怼死它......... 美帝就让你看你也造不出来！ 两个瞎子要打中美帝战机也是不容易。 一样觉得 现在恐怖份子很牛逼了，叙利亚战场上15拿着FN打A10已经不是新闻了 我们现在有没有侵入他国的可能，要这种大面积地面攻击的武器不是浪费钱吗 牛逼 这玩意儿到中俄面前的时候，中俄早就没有防空的能力了 如果美国人，跟你的思维一样猥琐，按诸葛亮的隆中对干，就可以了。。二战根本就不介入欧亚战事，直接挥军南下，拿下整个幅员辽阔，资源遍地的中南美洲，易如反掌，坐看苏联与中国在地图上消失。<br><br>然后说服英国，与德国签订希特勒求之不得的和平协议，退出战争。。无论南美还是美国，都是资源遍地。。无论加拿大，还是澳大利亚，也都是资源遍地。。以英美澳加新为一方（当之无愧的魏国），与欧洲德国，亚洲日本，3家平分天下多好。这不就是3国演义吗。<br><br>跨大西洋远征德国，跨太平洋远征日本，劳师远征，死伤惨重不说；还要无偿的支援苏中与德日对抗。。最后劳民伤财死伤惨重，击败了德日挽救了苏中，还不落好。。战后，还要跟苏中继续冷战。。这不是瞎折腾吗？何苦呢。<br><br>美英真这么干了，你哭都没地方哭去，跟满清人来了留辫子一样，你现在肯定说的是日语。 美日现在都是你的敌人，看你多二逼 你以为装鸵鸟美日就和你友好了，真是滑稽 二楼说这话是多不要脸！唐朝在强也只是区域性大国和美国比？美国是世界性超级大国前无古人后无来者！史上第一国星条旗遍布全球驻军170个国家亚欧非大洋洲美洲重要海道都是美军控制天空陆地海洋外太空陆海空天四个一体化！ 真是强国自信，中国现在有这种同级别机型吗 美国打IS？叙利亚人民最有发言权。 三楼说的那屁话我差点信了，真的就差一点点，还好多看书 找个幕后黑手当恩人，美国没有一天不把中国当敌人 二战后美国杀死几千万人 因为二战之前美国已经抢了够大地方了。美国除了建国13洲以外，哪块土地不是强取豪夺来的？<br>除了夏威夷，太平洋上的现属美国的岛屿都是二战后美帝的战利品。包括北马里亚纳群岛，关岛，威克岛等等。二战以后，美国版图扩大的可不止一寸。 不怕泄密吗 这技术前无古人后无来者 没有米帝支援中国抗战，没有米帝在太平洋歼灭鬼子联合舰队、舰载机以及占领他国和岛屿的日军精锐师团，你祖上等着再做50年小鬼子八嘎“马路大”吧！还轮得上你今天使用米帝发明的计算机、互联网在这骂米帝吗？！在中国，谁最恨米帝？鬼子汉奸皇协军啊。你什么猪狗东西？！ 干死狗日的 幕后黑手怂恿日本侵华，等中日两败俱伤，再来个渔翁得利，傻子以为遇到了救世主 666 现在饿毛子在中国代理的孝子贤孙已经害怕到不敢让人民说话的地步了 在国内一般的什么军事区用手机拍拍都抓你，尼玛的蛆美国军事基地随便你拍，奇怪啊，这是为什么？ 你留着自己吃吧，就算你满脑子满肚子都是粪，也不要出来恶心人。 这种炮艇必须得有绝对制空权才能使用，否则就是个标靶。这玩意打一些没有高端防空武器的恐怖疯子可以。 这黄铜弹壳值钱啊！ 美国杂种该吃屎了 灭绝师太 你不应该呆在日本呀，你应该在俄罗斯，天天跪在屎大淋面前孝衷！ 唐朝是区域性大国是受历史的局限，唐朝时要是有飞机航母，你看看能不能横扫全球！ 3楼是个逗逼 你是不是傻？ 神tm运输机，好好查查那段事件，网易什么白痴都能出来对国家指指点点吗，好好读书，别让人家一眼就看出来是白痴，好歹要两眼嘛 这玩意？在中俄面前就是靶机，有来无回。 真的 s400到底有没有用，巴傻儿最有发言权。 你聪明，聪明都知道会用手机拍照 真正的力量就一个－－－－人心所向 舱内拍的如此清晰不怕泄密吗不是应该马赛克吗 二战，美国实力最强，贡献最大，二战结速后，为什么美国的版图，没有扩大一寸哪？？你不觉得奇怪吗？<br><br>美国搞十来艘重型航母，全球到处跑的，军费每年就烧5、6千亿美元，但是美国的版图却没有扩大一寸，你不觉得奇怪吗？<br><br>鹅裸死军队一出手，那可就是要攻城略地开疆扩土的。。美国军队一出手，就是死一堆人，花一堆钱，最后一寸土地也没有捞到，你不觉得奇怪吗？<br><br>是谁在维护世界和平？？你装傻可以，全世界可不傻。。200多个小国弱国，最不怕的就是美国的航母靠岸。最怕的就是鹅裸死的军靴落地。<br><br>墨西哥人，心里那个恨啊，你美国为什么不在殖民时代，把墨西哥全拿走？？现在剩下的墨西哥人公投入美，美国也不要，真是气死墨西哥人了。你敢到墨西哥瞎比比，美国侵略吞并墨西哥领土试试？？小心墨西哥人揍死你。<br><br>波多黎各人痛苦啊，公投入美，美也不要，夏威夷人真是幸福死了，波多黎各人眼馋夏威夷人啊。。太平洋诸多岛国，都是排队的要公投入美啊。<br><br>美国驻军可都是请来的，波兰望眼欲穿了大半个世纪，这才终于热泪盈眶的请来美军啊。。你敢到波兰瞎比比美国驻军试试？？小心波兰人揍死你。<br><br>没有美国驻军，就没有工业发达，经济繁荣的南韩。。南越人那个恨啊，那个眼馋啊，你美国为什么就从南越撤军了哪？<br><br>美国驻军一旦撤离韩国，南韩必将重蹈，美丽富饶的南越，被野蛮灭国的厄运。<br><br>98年印尼爆发的，针对华人的大屠杀，惨!惨!!惨!!!惨！！！！<br>全世界都在打嘴炮，唯一派出军舰，武装干涉印尼内政的就是美国。<br>星条旗迎风飘扬，自由的旗帜永不落！！！面对美军武装营救，印尼华人热泪盈眶。<br><br><br>二战后，这个世界如果没有了美利坚。<br>和平，繁荣，发展，都将沦为泡影。<br>和平，繁荣，发展，就是美国向全世界提供的免费产品。<br>谁敢威胁和平，繁荣，发展，美国就敢弄死它。<br>什么苏联，傻大木，卡炸飞，塌俐班，爸傻儿，等等，都不在话下。<br><br>星条旗迎风飘扬，自由的旗帜永不落！！！ 你觉得他会只派个炮艇过来那不是他傻就是你傻喽 二战后美国杀死几千万人 只看表面，你的大脑发育在小学时代就停止了吗？ 就是这么自信！J-20在几公里外飞给你看一下就号称宇宙无敌。 美人希 二战，美国实力最强，贡献最大，二战结速后，为什么美国的版图，没有扩大一寸哪？？你不觉得奇怪吗？？？美国搞十来艘重型航母，全球到处跑的，军费每年就烧5、6千亿美元，但是美国的版图却没有扩大一寸，你不觉得奇怪吗？？？鹅裸死军队一出手，那可就是要攻城略地开疆扩土的。。美国军队一出手，就是死一堆人，花一堆钱，最后一寸土地也没有捞到，你不觉得奇怪吗？？是谁在维护世界和平？？你装傻可以，全世界可不傻。。200多个小国弱国，最不怕的就是美国的航母靠岸。最怕的就是鹅裸死的军靴落地。 开玩笑！敌方炮艇己升空！谁不怕！还玩个毛啊 中国军工整几架出来: 不懂幽默了吧 没有制空权他是不会出来的......出来也是夜间出来，有预警机和战机提供支援！ 就是！俺们模样全啥盆子等着这一天呢！😄 遇到它挖战壕也没用。 这玩意？在中俄面前就是靶机，有来无回。 中国造这类机型干嘛？ 傻逼二楼 宇宙的探索是离不开我的话的，只有把围绕地球公转的一切物质包括气体计算在地球体积之内才能找到地球真正的边和角，那是反引力汇聚地，是真正的真空隧道，宇宙高速路，太阳系内的动脉!把围绕太阳公转的一切物质包括气体计算在太阳体积之内才能找到恒星与恒星的边和角，那是恒星与恒星之间的真空高速隧道，找到真空隧道以近光速超光速飞行那不是个事!宇宙飞行器也不能按照飞机的二维结构原理制造，飞机是不能高速自转的，但只有高速自转才能产生真空电磁场，以近光速飞行，未来的宇宙飞行器必须按地球原理制造，八层以上结构，你看地球高速自转着前进，我们人坐在地球上有啥不适感觉吗？ 人家说的起码都是干货，你说一句有用的了吗？ 空中炮艇以升空！ 中国又不侵略没有空军的小国，要这个傻大个干嘛，这飞机可能一架歼7都能击落10架. 彭玉华是谁呀？😄 彭宇化是谁呀？ 战地里面大家都爱抢这玩意，不过大靶子没别的固定翼护着挂得也快 不好意思，你比一楼汉奸和三楼走狗还要low逼，智商不够只会喷粪，屎吃多了回家漱口，速滚不送！ 这么清新的图片我怎么就山寨不起来呢？气死我了！ 不好意思，你比一楼汉奸和三楼走狗还要low逼，智商不够只会喷粪，屎吃多了回家漱口，速滚不送！ 就是！俺们模样全啥盆子等着这一天呢！😄 二楼说这话是多不要脸！唐朝在强也只是区域性大国和美国比？美国是世界性超级大国前无古人后无来者！史上第一国星条旗遍布全球驻军170个国家亚欧非大洋洲美洲重要海道都是美军控制天空陆地海洋外太空陆海空天四个一体化！ 如果美国人，跟你的思维一样猥琐，按诸葛亮的隆中对干，就可以了。。二战根本就不介入欧亚战事，直接挥军南下，拿下整个幅员辽阔，资源遍地的中南美洲，易如反掌，坐看苏联与中国在地图上消失。<br><br>然后说服英国，与德国签订希特勒求之不得的和平协议，退出战争。。无论南美还是美国，都是资源遍地。。无论加拿大，还是澳大利亚，也都是资源遍地。。以英美澳加新为一方（当之无愧的魏国），与欧洲德国，亚洲日本，3家平分天下多好。这不就是3国演义吗。<br><br>跨大西洋远征德国，跨太平洋远征日本，劳师远征，死伤惨重不说；还要无偿的支援苏中与德日对抗。。最后劳民伤财死伤惨重，击败了德日挽救了苏中，还不落好。。战后，还要跟苏中继续冷战。。这不是瞎折腾吗？何苦呢。<br><br>美英真这么干了，你哭都没地方哭去，跟满清人来了留辫子一样，你现在肯定说的是日语。 美日现在都是你的敌人，看你多二逼 天降正义[窃笑] 为啥人家都是高清无码? 真是强国自信，中国现在有这种同级别机型吗 感觉操作这个玩意和无人机差不多，像打游戏一样哒哒哒哒一阵低下全死了. 为什么我们的就那么模糊？谁来科普一下？ 斩邪恶利剑 这飞机就是大国欺负小国的，即使没有制空权只要有单兵的防空导弹就能干它吧！ 你觉得喷子们二笔不？ 这个武器操作手不应该发工资，反而要给军队钱，按网吧费用结 这就是你做狗跪舔的理由？ 塔利班份子还在交火。一句敌方空中炮艇已升空。吓得枪都丢了 幕后黑手怂恿日本侵华，等中日两败俱伤，再来个渔翁得利，傻子以为遇到了救世主 2007年的图片。 呵呵，就这种认知水平还有必要说吗？对你也一样。 网上看过很多高清视频，130机舱内部开炮时噪音很小，并且没有硝烟，但是弹壳还是退出来了，这是什么原理？ 你们说，这种武器在跟中国的战争中，能用上吗？ 掌握制空权的任性 多做好事，必有好报）加快发展繁重工作替代性智能机器（不用延迟退休）公司上市后业绩异常下降，依法赔偿遏制骗钱（当务之急大小限减持和再融资要挂钩分红或回购，违则重罚，促进长期良好经营，缓解套现压力）尽快开征股指期货的印花税，才能降低杠杆及高频风险，限制其乱影响股市（基金只有盈利才收管理费，真正为投资者服务）连续2天涨跌停就限仓交易，共同受益，利国利民！ 要把反美进行到底，请领导们不要怂。 放心，众泰皮尺部马上来了 当天空中出现130和疣猪的时候，就代表人家已获得绝对制空权。 一楼呀！人家那是低成本打击型武器，对高端也有呀！但是当人家给你用上低成本了，你也该哭了。 你说点大学的 这玩意？在中俄面前就是靶机，有来无回。 没有空优，这货就是个靶机 这货是夜里才出来的，歼-7是昼间战机，夜里去能找得到目标吗？2 舱内拍的如此清晰不怕泄密吗不是应该马赛克吗 你真是非正常人类。中国没有，其他国家也没有。这是全球现役唯一一种搭载105毫米重型机载火炮的攻击机。越战时候的。你觉得很神吗？ 泄露军事机密啊 确实是优良的作战飞机。 你觉得他会只派个炮艇过来那不是他傻就是你傻喽 红旗十防空导弹第一波，激光+导弹摧毁卫星第二波，东风21D第三波，歼20第四波，巡航导弹第5波.本土防御加拒止作战+攻击航母+摧毁关岛+冲绳的导弹基地、机场、雷达<br>2楼三板斧是打小国才这样用的. 我方空中炮艇已升空 都是高清的 军事板块好热闹 风水轮流转 美国能力越大责任越大，维护世界和平，是历史赋予美国的责任。美国成为这个世界的警察，是历史形成的客观现实，容不得你们这些跳梁小丑污蔑!<br><br>是美国不遗余力的，维护世界和平、促进国际贸易发展，才避免了第三次世界大战的爆发。是美国遏制苏联，才让我们有了改革开放的机遇。感恩美国，是每一个爱国者的基本道德底线。 N年后，伊拉克人突然间流行津津乐道伊军的神勇，什么虎贲之师啦，抗恐名将、抗恐虎将、抗恐猛将啦，什么伊拉克抗恐第一恐怖军啦，令IS胆寒军啦，每战必捷军啦，然后提克里特大捷啦，摩苏尔大捷啦……反正是虽然一直败退，但却全是大捷……然后平时根本不练兵不习武，只喜欢泡妞跳舞喝咖啡，在兵营外忙着赶场子会名媛没事了就骑头大马做横刀立马状，在兵营内不是拿着千把年前的兵书吟诵称奇，就是挥毫泼墨写各种字体的“精忠报国”装裱好挂的到处都是、战前不认认真真备战，火力不知如何配置，兵种不知如何协同，进攻与撤离的交替波次如何安排，却把精力都放在如何写一篇惊天地泣鬼神青史留名的“与家书”“与妻书”的帅哥，穿上酷爆的全套美式装备，戴上黑超，站在美式突击车上，手扶美式机抢，望上远方眼露杀气做奋勇杀敌状，精心拍下的赠佳人照片令粉丝们夜不成寐，“军神！军神！”地叫整晚，然后有人问既然这么牛掰，为什么一触即溃，丢盔弃甲，望风而逃只会对着步话机哀求：“看在谠国的面子上，救兄弟一把！！”？回答说，呃呃呃，都是因为库尔德武装背后捅我刀子……把库尔德人气得直叫唤：“槽！！我的主力一直在IS占领区跟他玩命，老子要是背后捅你刀子的话，敢情你是一直拿背对着沦陷区的啊你！！ 中国造这类机型干嘛？ 不得不说，历史有时有点残酷的相似。我想中国人应该比日本人要更懂得学习历史，从中吸取经验教训。但现在的中国和当年的日本一样二逼热血青年多，以为自己在保卫一个神一样的朝代，以为亚洲是大中华圈，但这个朝代只会把你当炮灰，分担责任每人有份，升官发财没你的份，人民共和国的人民只是羊头。 空中炮艇 难道你又多了个美爹？？？？？？？为什么网易上面这么多以攻击自己的祖国为目的的人呢！！！！你美爹那里只是有钱人的世界，像你这种sb，你美爹拒收啊！ F22第一波，F35第二波，然后才是这玩意，打游击队好用得很，玩过使命召唤都知道 怎样污蔑怎样洗地也改变不来趁火打劫保存实力摘苹果的事实 霸气 真厉害呀!!!!!! 维护正义的武力，必须要强大!美人希 中国又不侵略没有空军的小国，要这个傻大个干嘛，这飞机可能一架歼7都能击落10架. 壮哉美利坚！ 无敌了 在COD中可简单体验下！ 这玩意？在中俄面前就是靶机，有来无回。 真帅 中国也该有一个。高空支援作为不对称作战非常好用，尤其是在对付丛林作战时 空中炮艇一般只能打击相对弱小的目标··如果有对方有地对空导弹···吓死他也不敢往过飞·· 开放以后，这边越来越好了。以后会更好，即便红小冰上台也阻止不了这个趋势，所以老美不会有机会派130来的。 美国空军真是玩出花样了作战理念强度与时俱增 二楼说这话是多不要脸！唐朝在强也只是区域性大国和美国比？美国是世界性超级大国前无古人后无来者！史上第一国星条旗遍布全球驻军170个国家亚欧非大洋洲美洲重要海道都是美军控制天空陆地海洋外太空陆海空天四个一体化！ 真是强国自信，中国现在有这种同级别机型吗 前提是护航机队能保证它的安全 反人类武器。 脑残东西， 或者是防空被干完的国家，你说漏了 这算啥，咱有纳米生化包子雷，还有无线制导平流层手榴弹，美帝敢来定是有去无回! 配着摇滚乐，嚼着口香糖，用加特林把流氓轰成渣 美国能力越大责任越大，维护世界和平，是历史赋予美国的责任。美国成为这个世界的警察，是历史形成的客观现实，容不得你们这些跳梁小丑污蔑!<br><br>是美国不遗余力的，维护世界和平、促进国际贸易发展，才避免了第三次世界大战的爆发。是美国遏制苏联，才让我们有了改革开放的机遇。感恩美国，是每一个爱国者的基本道德底线。 泄你妹,就也打打没防空的国家. 可以拿来当壁纸 驻军170个国家？麻烦列出来 一眼望去评论里美狗日杂占大多数,都是一些唯恐天下不乱的渣渣,说得中国这么不堪,还呆这干嘛?滚美日去吧. 打那些破坦克才巴适。 所以说是最垃圾的飞机，没有什么大惊小怪的，也不值得学习，更不值得推广 看来贡D要亡了 傻逼，它都能在你头顶上了，说明空军、防空导弹、高射炮等防空力量已经全灭了……乖乖投降是正道…… 70年代的这些事情，都是我亲身经历过的，历历在目。碎布拼接的花书包，我背过，打着补丁的衣服我穿过；当年最好的服装，就是现在军训时穿的军装，都是干部子女才能够穿得起的。<br><br>我排队买过杂粮面，买过碎煤（回家再团成煤球），以及成车的冬存菜。豆腐、糖、肉、蛋、奶，新鲜蔬菜及水果，都是清一色的奢侈品，过年才能够吃上一点所谓的点心与水果罐头。<br><br>寒冬腊月，家里的窗户上没有一块玻璃，贴的都是窗户纸，小时候，大街上拖儿带女要饭的屡见不鲜，一直到1993年才废除了粮票。如有一句谎言，天打五雷轰。（此一时期为猫佐当家，是认珉逐步走向饥寒交迫的30年）。<br><br>70年代末以前，没有中国的参与，西方照样飞速发展；中国不再与西方为敌了，西方才给中国敞开了市场，给中国输入了科技与资金。<br><br>贡献最大的就是日本，日本几十年如一日，提供巨额的无息与低息贷款，提供技术援助，帮助中国把工厂建立起来，没有日本的技术援助，就没有中国最现代化的宝钢，没有日本的技术援助，就没有中国的现代电子工业。<br><br>美日欧还给中国敞开市场，把中国逐步纳入了西方主导的世界经济体系，让中国出口产品，换取外汇，这才解决了吃饭穿衣的问题。（此一时期为改革开放时期，是认珉逐步走向丰衣足食的30年）。<br><br>如果西方对中国关闭市场，断绝科技输入，中国立刻就会陷入困境，甚至绝境。西方离开中国照样飞速发展，但是中国离不开西方，否则立刻倒退。<br><br>传统电视，液晶电视，全自动滚筒洗衣机，录音机，录像机，CD机，影碟机，微波炉，BB机，模拟手机，数字手机，智能手机，传真机，复印机，磁盘，硬盘，数码相机DV机，以及电脑互联网，B超，X光机，CT扫描机，核磁共振仪，DNA识别系统，试管婴儿，心脏支架搭桥，微创手术，等等医疗技术及器械，，，没有西方科技源源不断的输入进来。你以为，中国能够制造出来？？<br><br>没有谷歌，你以为会有摆渡？没有优步，你以为会有滴滴？没有GPS，你以为会有北斗导航？没有西方的原创科技，你以为会有中国琳琅满目质优价廉的山寨产品？以此类推……<br><br>中国离西方有多遥远，中国贫困化的程度就有多深。<br>中国与西方有多接近，中国现代化的程度就有多高。<br><br>邓曾经有略偏于朴素的观察总结：即亚洲国家里，偏重美国发展模式，及与美国保持良好关系的国家地区，大都走向繁荣发达富裕；而固守成规，或沿袭苏联模式的，竞相堕落向贫困、内乱和封闭。（联合早报） 难道你又多了个美爹？？？？？？？为什么网易上面这么多以攻击自己的祖国为目的的人呢！！！！你美爹那里只是有钱人的世界，像你这种sb，你美爹拒收啊！ 什么马赛克？应该是素描！几个线条就好了，屁民知道这么多干嘛？ 吹牛来打中国[微笑]看看高科技到底能表达出什么[微笑] 美国能力越大责任越大，维护世界和平是历史赋予美国的责任。美国成为这个世界的警察是历史形成的客观现实，容不得你们这些跳梁小丑污蔑!<br><br>世界贸易的繁荣，赋予了每个国家，发挥自己地区优势的平等机遇，强国再也不必靠掠夺和扩张，来增强实力。好不夸张的讲，是美国不遗余力的维护世界和平、促进国际贸易发展，才避免了第三次世界大战的爆发。<br><br>是美国遏制苏联，才让我们有了改革开放的机遇。感恩美国，是每一个爱国者的基本道德底线。仇美的人，应该以汉奸论处就对了。 类似反恐形式的非对称作战<br>咱的运八在尼日利亚也可以拉开舱门架上机枪对武装份子扫射 当然，杀鸡需要牛刀吗 运输机的作用在与部队的转移速度。 舱内拍的如此清晰不怕泄密吗不是应该马赛克吗 二战，美国实力最强，贡献最大，二战结速后，为什么美国的版图，没有扩大一寸哪？？你不觉得奇怪吗？<br><br>美国搞十来艘重型航母，全球到处跑的，军费每年就烧5、6千亿美元，但是美国的版图却没有扩大一寸，你不觉得奇怪吗？<br><br>鹅裸死军队一出手，那可就是要攻城略地开疆扩土的。。美国军队一出手，就是死一堆人，花一堆钱，最后一寸土地也没有捞到，你不觉得奇怪吗？<br><br>是谁在维护世界和平？？你装傻可以，全世界可不傻。。200多个小国弱国，最不怕的就是美国的航母靠岸。最怕的就是鹅裸死的军靴落地。<br><br>墨西哥人，心里那个恨啊，你美国为什么不在殖民时代，把墨西哥全拿走？？现在剩下的墨西哥人公投入美，美国也不要，真是气死墨西哥人了。你敢到墨西哥瞎比比，美国侵略吞并墨西哥领土试试？？小心墨西哥人揍死你。<br><br>波多黎各人痛苦啊，公投入美，美也不要，夏威夷人真是幸福死了，波多黎各人眼馋夏威夷人啊。。太平洋诸多岛国，都是排队的要公投入美啊。<br><br>美国驻军可都是请来的，波兰望眼欲穿了大半个世纪，这才终于热泪盈眶的请来美军啊。。你敢到波兰瞎比比美国驻军试试？？小心波兰人揍死你。<br><br>没有美国驻军，就没有工业发达，经济繁荣的南韩。。南越人那个恨啊，那个眼馋啊，你美国为什么就从南越撤军了哪？<br><br>美国驻军一旦撤离韩国，南韩必将重蹈，美丽富饶的南越，被野蛮灭国的厄运。<br><br>98年印尼爆发的，针对华人的大屠杀，惨!惨!!惨!!!惨！！！！<br>全世界都在打嘴炮，唯一派出军舰，武装干涉印尼内政的就是美国。<br>星条旗迎风飘扬，自由的旗帜永不落！！！面对美军武装营救，印尼华人热泪盈眶。<br><br><br>二战后，这个世界如果没有了美利坚。<br>和平，繁荣，发展，都将沦为泡影。<br>和平，繁荣，发展，就是美国向全世界提供的免费产品。<br>谁敢威胁和平，繁荣，发展，美国就敢弄死它。<br>什么苏联，傻大木，卡炸飞，塌俐班，爸傻儿，等等，都不在话下。<br><br>星条旗迎风飘扬，自由的旗帜永不落！！！ 你觉得他会只派个炮艇过来那不是他傻就是你傻喽 二战后美国杀死几千万人 我喜欢这货 脑子是个好东西，可惜你没有。 那钱发铁四全家！楼上绝对同意滴😄 希特勒、东条英机、红太阳、金太阳、胡志明、萨达姆、卡扎菲、巴格达迪、巴沙尔都知道，宁得罪阎王，莫得罪山姆。 不整死你这卑鄙无耻不要脸的贱货绝不罢休。 游戏里玩过，但记不清是哪个游戏了 使命召唤。 这玩意？在中俄面前就是靶机，有来无回。 中国造这类机型干嘛？ 好端端的图片，中间加一道灰色水印“参考消息”。-----一群踏马迪虐待狂病态东西。你们也算是文化人？白瞎！ 你说的是图2刺眼不好模仿？我也感觉奇怪，为什么没人就图2说下工艺问题呢？我记得我国的飞机图一发出来，2个喷点是无数人出来说呢，一个是做工，另一个是动力。难怪美国人都说，最爱美国的人都在中国呢，确实如此啊。建议各位去看看围城。记得我大学同学，大学毕业后羡慕美国技术移民去了美国，最初是到处和我们炫耀，故意问国内一台奔驰多少钱，然后说他买的这台奔驰多少钱，接着是开始就此事发表评论，后来我们都烦了，联系也少了，近几年突然又联系我们了，不再说什么美国如何如何了，问及他的事业如何，才知道，干了20来年，一直是工程师，干活可以，其它免谈，现在想移回来，让我们帮忙想下办法，我去咨询下了国家移民局，结果是啥大家都知道，我建议他再努力一下，争取拿个诺奖之类的，这样可以移回来，不然那就是免谈了。 这玩意？在中俄面前就是靶机，来多少都完蛋。 美国真的那么强大吗？？？ 用无影脚还是贷款？ 空中炮艇果然名不虚传 美帝万岁 对，最后一关吧 13图，22图，外星飞船般的座舱就可以得出结论与美利坚为敌必亡，犯美利坚者必诛 还我们东西，滚出我们的生活。 中国什么会有 先夺取制空权，然后它上 滚，卑鄙无耻不要脸的贱货。 太清晰了，刺眼，不好模仿 你们的回复正是体现了中国的自由和民主。 毛呢猫腻 伊拉克还有大量59残骸在沙漠里呢，没有它们就没有世界最远坦克击毁记录 美国打IS？叙利亚人民最有发言权。 真狂霸酷拽 一个AC-130，一个A-10，没有制空权的恐怖分子碰上这哥俩表示很无奈。 真霸气 这东西只有美帝有用，没人能拿这个打美帝，就是因为制空权。 看到了这样清晰的图片，大清朝也能造了。 美利坚 好多粪爹就是被这玩意儿打得灰飞烟灭的。 这玩意？在中俄面前就是靶机，来多少都完蛋。 维护区域稳定。 谈制空权？现在全宇宙那个国家敢在美帝空军面前谈制空权？所以这种特种飞机只有美帝有，别的国家装备了，也是送死的货！ 二楼说这话是多不要脸！唐朝在强也只是区域性大国和美国比？美国是世界性超级大国前无古人后无来者！史上第一国星条旗遍布全球驻军170个国家亚欧非大洋洲美洲重要海道都是美军控制天空陆地海洋外太空陆海空天四个一体化！ 这种炮艇必须得有绝对制空权才能使用，否则就是个标靶。这玩意打一些没有高端防空武器的恐怖疯子可以。 那游戏、你们玩过吗 怪不得军费那么高！😄你们经常用的那个词是啥来？ 那机枪真大 冒蓝火🔥吗😳 前无古人是对的，后无来者就太满口了吧！ 蒋中正文集（由秦孝仪编撰并作序）卷20:中华民国三十三年七月二十一日出席黄山整军预备会议讲话（445-450页）：你们要知道：现在外国人对于我们中国军人的心理，要知道他们对于我们中国军人的地位人格是一种什么看法？不要以为他们把我们当作四强之一，就自己以为是了不得。须知他们实际上不仅不把我们当一个军人，而且简直不把我们当一个人！这种心理，这种耻辱，不知道你们都已痛切感觉了没有？长此因循下去，再不力求振作，不要说我们的力量不能消灭日本，就是日本应失败而灭亡了，也决不是我们的胜利。........自从这次中原会战与长沙会战失败以来，我们国家的地位，军队的荣誉，尤其是我们一般高级军官的荣誉？可以说扫地以尽。——外国人已经不把我们军队当作一个军队，不把我们军人当作一个军人！这种精神上的耻辱，较之于日寇侵占我们的国土，以武力来打击我们，凌辱我们，还要难受！……讲到这一次中原会战的情形是怎么样呢？有一些美国和苏联的军官和我们军队一同退下来的，据他们所见，我们的军队沿途被民众包围袭击，而且缴械！这种情形，简直和帝俄时代的白俄军队一样，这样的军队当然只有失败！我们军队里面所有的车辆马匹，不载武器，不载弹药，而专载走私的货物。到了危急的时候，货物不是被民众抢掉，就是来不及运走，抛弃道旁，然后把车辆来运家眷，到后来人马疲乏了，终于不及退出，就被民众杀死！部队里面军风纪的败坏，可以说到了极点！在撤退的时候，若干部队的官兵到处骚扰，甚至于奸淫掳掠，弄得民不聊生！这样的军队，还存在于今日的中国，叫我们怎样作人？尤其叫我个人怎样对人；我统帅受到这样的耻辱，也就是大家的耻辱。……第四、现在兵役办理的不良，实在是我们军队纪律败坏，作战力量衰退的最大的原因……前几天我看到红十字会负责人送来的一个在贵州实地看到的报告，报告新兵输送的情形，真使我们无面目作人，真觉得我们对不起民众，对不起部下！据报告人亲眼看到的沿途新兵都是形同饿莩，瘦弱不堪，而且到处都是病兵，奄奄待毙，有的病兵走不动了，就被官长枪毙在路旁，估计起来，从福建征来的一千新兵，到贵州收不到一百人； 有59就足够了 实话实说。 真是强国自信，中国现在有这种同级别机型吗 空中炮艇 ",
        "Total": 10090,
        "Link": "http://comment.news.163.com/photoview_bbs/PHOT25PID00014T8.html"
    },
    "PublishTime": "12/29/201709:43:32",
    "Title": "天降死神！美媒曝光AC-130机上作战画面_网易军事"
}