{
    "Article": "（原标题：蔡英文宣布即将量产“腾云”无人机台军先吓一跳）【观察者网综合报道】年前蔡英文发布上台后第一份“国防白皮书”，号称要让“台军装备自主化”。随后，她就在公开场合宣布，即将“量产台制无人机”，结果，连台军都吓了一跳。一位台军消息人士透露，目前台制无人机“腾云”尚在研制阶段，要量产并交付部队，至少要4、5年。据台湾中时电子报1日消息，蔡英文于去年12月29日在“中科院”举行年度记者会，现场推出“腾云”的模型，称“（这是）我们自主研发的‘腾云’，它是具有侦察能力的多功能无人机。在这里，我要告诉国人，它即将开始量产”。蔡英文出席“中科院”记者会，无人机“腾云”（画面右侧）和高教机相拥图自台媒由台湾“中山科学研究院（中科院）”研发的大型无人机“腾云”，身长度约为8米，翼展长度约为18米，未来可供台军执行“国土防卫”、“作战攻击”、“海岸巡防”、“环保资源”等用途使用。但由于“腾云”还在研发阶段，不少台军军官听到蔡英文的“豪言”，都感到相当意外：若设计方案不变，预计还需4到5年才能交付。据悉，“腾云”研发方案可分为关键技术阶段、展示确认阶段，以及工程发展等三阶段。一位台军军官表示，“研制完成之后，‘腾云’还要进行一连串的战术测评，再由空军建案、编列预算后，才能进入量产并成军，估计要量产10架以上的数量。”“腾云”无人机图自台媒29日展示“腾云”模型，是经过前两个研发阶段的成果。往后将进行“工程发展”阶段，测试各项性能与可靠度，还包括“针对遥控车的操作训练”，预计要4年才能完成。据悉，“腾云”第三阶段研发预算已于今年入编，被划入“战备支援”一栏，自2018年到2021年，共计新台币34亿余元（约合人民币7.5亿）。据台湾“中科院”介绍，“腾云”除了具备侦察功能外，还可搭载电子干扰装置，未来可“扩充其他任务功能”。“中科院”稍早前曾对外发布影片，“腾云”可在后方加装侦察天线和干扰设备，成为“电战机”——具备在交火前，干扰对方雷达，掩护台军作战等功能。不过，“中科院”立刻遭到了台军的“打脸”：不管是电子干扰或是在无人机上挂弹，“腾云”还有很长一段里要走。一位消息人士更是透露，“10年内，不易做到”。“腾云”与美军MQ-1“捕食者”无人机外观相似。但是，“中科院”研发技术尚未成熟，使得“腾云”目前只能靠人员操作，不能和“捕食者”一样自动起降。“腾云”在技术上依然十分原始落后，其实际水平恐怕还不如伊朗的“见证者”无人机。其使用的技术和台制中型无人机属同一级别：留空时间、侦察功能、空地通信链接等技术，在大陆同行眼里简直和开玩笑无异。美军MQ-1“捕食者”无人机图自美国空军官网台军除“腾云”大型无人机外，另有小型的“红雀”无人机，和中型的“锐鸢”无人机。本文来源：观察者网责任编辑：李杭_BJS4645",
    "Title": "蔡英文宣布即将量产无人机 台军:至少还要4年_网易新闻",
    "PublishTime": "01/01/201816:33:20",
    "Source": "Netease",
    "Comment": {
        "Content": "婊子必死！ 菜鸟一天到晚呱呱叫… 在蔡大妈眼里四五年就是很快了，咋嫩都不服？ 还不是被大陆吊打？ 杀了喂狗！ 空心菜 空心菜 台湾人比你本事大，3.6万国土2300万人GDP高达36178亿人民币，在全国也排名第五位。不知道你河北多大，人口多少，GDP人均有没有台湾的五分之一。 只是为了捞取政治资本罢了 十年？台湾都解放了！ 台湾人就这样，喷子多，没本事，就会骂人 希望台湾早日认清形势。 台湾人就这样，喷子多，没本事，就会骂人 湾湾不是可以上淘宝么！买几台大疆无人机改改LOGO不就可以了么？ 婊子必死！ 都是一个模子出来的 马上就有人拆台 菜鸟一天到晚呱呱叫… 十年？台湾都解放了！ 希望台湾早日认清形势。 蔡英文说的可能是真话，宁可信其有，不可轻视，现在民进党台独倾向很严重，请政府严加防范。 呵呵 杀了喂狗！ 空心菜 有什么用？ 腾讯云？ 空心菜 台湾人比你本事大，3.6万国土2300万人GDP高达36178亿人民币，在全国也排名第五位。不知道你河北多大，人口多少，GDP人均有没有台湾的五分之一。 在蔡大妈眼里四五年就是很快了，咋嫩都不服？ 只是为了捞取政治资本罢了 希望台湾早日认清形势。 还不是被大陆吊打？ ",
        "Reply": 20,
        "Link": "http://comment.news.163.com/news2_bbs/D7321FIU0001899N.html",
        "Total": 92
    },
    "KeyWords": "无人机,量产,蔡英文",
    "URL": "http://news.163.com/18/0101/16/D7321FIU0001899N.html"
}