{
    "Title": "一年多不发声，马蓉为什么此时喊话王宝强？_网易新闻",
    "Article": "（原标题：一年多不发声，马蓉为什么此时喊话王宝强？）昨天深夜，马蓉发长文隔空喊话王宝强。马蓉在长微博里称自己“十年家庭，生儿育女，付出所有，问心无愧！”相信法律会给出公正的答案。并表示这是最后一次在网络上与王宝强对话，“一个家庭的变故本不应成为社会话题。“希望王宝强作为一位父亲可以思考下所言所行是否会对儿女的身心健康及成长造成伤害？并做好了面对孩子们长大成人后目光的准备！”不过，到目前为止，马蓉尚未明确表示没有出轨宋喆。马蓉所提到的微博小号@不吃素的狮子asdfgh在这个月初开始更新，内容满是各种和孩子的互动，俨然是一位好妈妈。自2016年8月14日凌晨王宝强发布微博称，“妻子马蓉与经纪人宋喆存在婚外不正当关系，决定解除与马蓉的婚姻，停止与宋喆的合作”以来已经有将近一年半的时间。据报道，宝强起诉马蓉离婚案庭审程序已进行完毕，将在年内一审宣判。换句话说，这几天就应该能看到宣判结果。马蓉选择这个时间点再次开始回应此事，也许并不是巧合。去年8月15日，王宝强到法院起诉马蓉要求离婚。他在诉状中提到，要求解除双方婚姻关系，判令婚生子女均由其抚养，马蓉支付抚养费至孩子年满18周岁，并支付10万元精神抚慰金。王宝强还要求依法分割夫妻共同财产。离婚案审理过程中，马蓉也起诉王宝强侵犯名誉权，要求删博并道歉30天。该案作为名誉侵权案件，目前也在审理中。今年9月11日，宋喆因涉嫌职务侵占，被警方控制。据警方调查，宋喆涉职务侵占400余万元。此外，还有一些宋喆和马蓉在美国购房、购物及出国旅游的花销，宋喆都“推到”了马蓉身上。王宝强已对马蓉父母提起民事诉讼，追讨被转移的财产。在这一年多的时间里，还有媒体爆料马蓉曾在审理中表示不同意离婚，称和王宝强还有感情。本文来源：我在现场责任编辑：杨强_NN6027",
    "URL": "http://news.163.com/17/1226/12/D6J65R570001875P.html",
    "Comment": {
        "Link": "http://comment.news.163.com/news_shehui7_bbs/D6J65R570001875P.html",
        "Reply": 239,
        "Total": 6754,
        "Content": "案子的发展，马母有点悬了， 人至贱则无敌 马蓉是当代的潘金莲吗？她不忠与背叛的到底是什么？ 恶心 楼上两个水军发个贴能赚多少？给我也来赚赚呗！ 而且，批马蓉的全都在讲网上流传的谣言，一个事实依据都没有。<br>如果马蓉出轨证据确凿，何来法院受理名誉侵权案，更不会离婚案打了这么久都没有个结果。<br>现在网易上充斥了大量法盲账号。 你还有脸说以事实为依据，事实是你和那个不要脸的经纪人开了无数次房，拿着你老公的钱给男小三买吃买喝买壮阳品，偷偷转移你老公的幸苦钱，哪一条事实都足以证明你是个比潘金莲还无耻的女人 它又有新电影了。每次王八有新电影，都把它老婆拿出来炒作一下 马蓉一个该是中国娱乐界历史上最不要脸的女人了。 金莲有话说 相信法律？可也要对得起法律，这才是真的。 怕被判刑吧？ 我工作赚钱养家这么辛苦，包个二奶，也是问心无愧？ 9494，有钱一起赚嘛，，捂着良心发贴就能赚钱，这事划算 给八卦的我一个结果看看 马蓉是我见过最不要脸的渣女，最不要脸的婊子，没有之一！ 马蓉的骚比钱也稀罕 水军出门就撞死，一些傻逼屁都不懂被王宝强的宣传团队忽悠得更个白痴一样。<br>如果马蓉出轨证据确凿，法院就不会受理名誉侵权案。<br>因为说出轨是事实的话，这不是侵权。<br>而且，也不会离婚官司打这么久。<br>最起码王宝强说证据确凿是谎言。<br>到目前为止没有证据证明马蓉和宋喆有一腿。<br>更奇怪的是，王宝强大谈老婆出轨，却从来不带孩子亲子鉴定。<br>这个奇怪的现象只能证明两件事：<br>要么，马蓉出轨是为了借种，而且王宝强知道孩子不是自己的，同时还认可这一事实。<br>或者，王宝强知道孩子肯定是自己的，也就是说王宝强知道老婆没出轨，是故意在胡说。 在这一年多的时间里，还有媒体爆料马蓉曾在审理中表示不同意离婚，称和王宝强还有感情。 ２个孩子真可怜，总是被烂货娘亲拿出来当挡箭牌 现在水军发帖都开始赌命了吗 王宝强还要求依法分割夫妻共同财产<br>仁至义尽啊 马婊演戏呢？这策划也就够忽悠忽悠弱智 我的天，做得对还怕舆论还怕别人说？敢做不敢当？这阵想起来孩子了 你偷情的时候，做好了面对孩子们长大成人后目光的准备了吗？还问心无愧呢，呸！ 到底是谁的言行会对儿女的身心造成伤害 有才 奸夫淫妇还有理啊！ 一个失德的人反到要用道德绑架别人，真是够颠倒黑白的了。 翟欣欣呢？刘鑫呢？ 贱女人(臭几)，你出轨快活，有没有想过给你孩子带来伤害，你老公伤痛吗 马婊如何面对成年后的孩子呢 二楼典型网易大喷子 我给你点了个赞，我对演艺圈和当事人一点也不了解对王宝强与马蓉的家事也不感兴趣，但对很多人的憎恨感到不解,当他们中的一员被秤砣砸死被强拆家园被当替罪羊枪决....也从未表现过如此排山倒海的愤怒！ 我出门是开车的，说撞有错？ 王宝强虽带绿帽子，但是活的真实，敢说敢做，支持！ 王八强现在事业走了下坡路，圈内人明显和他疏远了距离，这就是傻逼将家庭事情四处宣扬的下场。那些同情的他的脑残，哪天你老婆要是因为你在外边出轨了和你离婚，然后向全社会宣扬你的事迹你就知道傻逼行为是什么滋味了！ 第一句话少了一个“被”字 你方唱罢我登场。 只回这句“如果马蓉出轨证据确凿，法院就不会受理名誉侵权案。”：靠！法院只要受理就有钱收！！ 这个时代，出轨大家也就骂两声。但是靠老公养出轨就恶心了。如果出轨的对象也靠老公养，就更恶心了。偏偏这个靠老公样的姘头还是你的前男友还是你推荐给你老公，又恶心了不少。但是最恶心的是你和姘头还要霸占家产，啧啧，恶心死了。 马蓉你这样说，让潘金莲情何以堪啊？她应该叫你祖师爷！ 潘金莲跟马蓉比起来真是千古奇冤啊！ 你他妈有病吧！人家家务事你他妈操碎了心 一是雇佣的大量的水军借题炒作艺人的热度；二是王宝强本身所代表的东西，对这个符号的任何蔑视与不敬，都伤害了那个庞大群体脆弱的自尊心！ 楼里水军出门撞死,两位同意吗？ 你意思是你老婆把你绿了把你钱包养情夫一年开房200多次最后全转走你也得为了家庭不说话为了孩子继续忍耐？大兄弟！你肚子装的是大海啊！！ 无事空穴不来风，没见过那男人往身上揽这种事情。 希望王宝强作为一位父亲可以思考下所言所行是否会对儿女的身心健康及成长造成伤害？并做好了面对孩子们长大成人后目光的准备！”鸡婆也敢说出这样的话？哈！！！不服不行！！！干烂事的是你，不是王宝强！ 把以前发过无数次的照片再发一遍，再配点文字，稿费又到手了，在有态度的某易当小编真好混。 顶你半句，另外；关你屁事！天然气再涨或断气，你也就只剩下拾柴了，，，拿一张身证的操拿几本护照的心？老铁；你心真大。 说说他怎么渣呗，以前不知道。让兄弟开个眼，别整天随大溜。你有理有据那就是提高青少年品质，俺代表吃瓜群众谢谢你了。你要是说不好光凭算卦。。。可真是恶心人。本来嘛，平常瞧不起某个戏子也没啥，我也干过，我相信没谁在这点上比别人清高。可你分清场合，全民骂马婊的当口你蹦出这么一句来，如果没点干货你被人用唾沫淹死也不奇怪。 不曝光你，钱怎么追回来？不要脸到极致了。 偷男人不重要的,重要的是还索人钱财,不知道是不是都考虑索命了 超越了创作出来的人物，更牛逼 一开始就是一个很不对称的婚姻，根本上也是他们自家的事儿，如今倒成了传统道德的砧板肉，是不是应该想想这个社会有什么问题？ 马蓉🐴贱，比 金莲是虚构的只是文学创作 为了社会公序良俗，你个臭婊子也得受到法律严厉制裁 金莲有话说 只是一種直覺而已 哈哈哈哈哈，看到蓉嬷嬷说的这些话笑死我了 ２个孩子真可怜，总是被烂货娘亲拿出来当挡箭牌 粉丝400万？你想多了，粉丝多是因为评论她的微博必须关注她，刚出事的那段时间我见证了她的粉丝从80万到500万的过程，你没有猜错，都是去喷她的 有些人的脑子已经连浆糊都算不上了，完全两个独立的案子，扯到一块。<br>甚至还觉得“法院受理我名誉授权案，就说明你告我出轨的案子不算证据确凿”，这是何等的脑洞大开逻辑混乱啊··· 你扯的远了。王宝强这事儿的重点不在他老婆出轨。他老婆要是光出轨，然后离了，我才不在乎。现今出轨还算新闻？也就沉迷娱乐八卦的人在乎。 大家都群情激昂的批斗地主，你要是不跟着一起打骂地主，就说明你是地主家水军，红卫兵后代跟他爷爷奶奶当年行为也没什么区别 總覺得王寶強隱藏得太好。實際上很人渣 都出去偷腥了还说问心无愧，难道这四个字现在另有含义？ 马蓉是我见过最不要脸的渣女，最不要脸的婊子，没有之一！ 我就不明白，王宝强出轨四处玩女人没有人骂？！只骂他的女人？！ 通奸有理? 上次王八脚趾骨裂了（脚后跟），包装城腓骨断了，吹了很久的逼，很多傻逼买单。拍电影后，炒作老婆的奸情，赚了好几亿，又是很多傻逼买单。 恢复通歼罪 宝宝，保险点，还是和那两个孩子做个亲子鉴定吧! 所以説⋯⋯ 人怎么可以无耻到如马金莲这种地步，自己做都做了，还不允许别人说。 焉能鶩 楼里水军出门撞死,两位同意吗？ 不是她们本人的微博吧 马蓉贱比 中文能好好寫不？ 说不出理了就言语攻击，辩不过了就骂对方是水军，这帮卫道士跟当年的红卫兵没有什么区别，楼上你跟这些人计较你就输了 众人拾材火炎高，大家一起顶起，让马金莲和潘金莲一样遗臭万年。 小宋进去，小马憋得难受又想起宝阿宝了！ 虽然不喜欢傻根,不过看你面向也不是好鸟,还有脸说对小孩造成什么影响,真是没有碧莲 这样经典的婊子不应该让其生活在和谐社会里 我给你点了个赞，我对演艺圈和当事人一点也不了解对王宝强与马蓉的家事也不感兴趣，但对很多人的憎恨感到不解,当他们中的一员被秤砣砸死被强拆家园被当替罪羊枪决....也从未表现过如此排山倒海的愤怒！ 王八强现在事业走了下坡路，圈内人明显和他疏远了距离，这就是傻逼将家庭事情四处宣扬的下场。那些同情的他的脑残，哪天你老婆要是因为你在外边出轨了和你离婚，然后向全社会宣扬你的事迹你就知道傻逼行为是什么滋味了！ 这女的跟宋本来就是一对，只不过没扛过金钱的诱惑，既然爱财，就要有为财死的准备 蓉蓉，宋哲的香肠好吃吗 这个微博应该不是本人的 伱眞脳殘，與馬騒何乾 她的意思就是说，家丑不可外扬，我出轨的事你就别说了。 三楼更胜于二楼。 挂美国IP说中文的傻逼 当代新四表马荣这是要争头功啊 一楼SB吧，二楼更SB！ 无非就是表明自己做妈妈是非常合格的,孩子抚养权要归她,王宝强要付抚养费到成年. 说你马表水军素质不高 为什么什么对话都发微博？ 潘金莲跟马蓉比起来真是千古奇冤啊！ 这事好解释，贵国几千年来都是如此，你难道不知道？中国男人最他妈怂。哈哈 王却实在外面也有情人。。。。。。不过世人更不能接受老婆出鬼，从古到今都是这样以前的男人三妻四妾很正常。要是任何一个老婆出鬼不是打死就是淹死。。。。。。。。。 她妈网名是真的她自己在发的微博么？还那个网名不太现实吧 错了，你忘记了翟欣欣啊，马婊没弄死宝强，翟婊可是让苏死了 偷男人还不让说，卧槽，什么逻辑?这是什么世道啊?法律保护的都是些什么人啊?婊子，嫖客，小偷，流氓，无赖，地痞，贪污犯。。。。。。 他外面的是谁啊？ 不信就不信，闷头不信没人管你。问题是你没头没脑的来这么一句，还指望别人不喷你？ 马蓉是我见过最不要脸的渣女，最不要脸的婊子，没有之一！ 宝宝真可怜 案件没有审定前，你就知道事实？莫非你是马蓉或者宋喆中的一个？ 这是要生活费的节奏吗？ 马蓉可恶 潘金莲让出淫妇宝座一一马蓉登顶！ 这种戏子和婊子的新闻在网易这类有社会责任的网站能不能少点甚至杜绝，我们有那么多科学家、文学家、实业家、战士、警察、技术工人、教师、医生。。。。难道这些为社会创造巨大财富，为人类进步默默奉献的人还没有这些令人作呕的戏子婊子值得报道吗？ 婊曰：明年回国后我会负责到底的！ 傻根，天下不仅有贼，还有骗子！而且还很多 你就等着最后宣判打脸吧。 马蓉，我教你个方法可使你孩的的名誉不至受损：那就是你赶快自杀谢罪并捐献全身器官赎罪。 老马拿孩子来吃回头草了 臭婊子死前的垂死挣扎 婊子同狗一样不值钱 去年买个表，原来是马表。 你傻逼啊？我这叫维护马荣？<br>她管我屁事。<br>我不知道马有没有出轨，但我知道王在撒谎和买通媒体。<br>现在各大媒体天天放马的假消息，老子很烦而已。<br>王不知道出了多少钱。<br>是水军出门就撞死！<br>一些法盲傻逼屁都不懂被王宝强的宣传团队忽悠得跟个白痴一样。<br>如果马蓉出轨证据确凿，法院就不会受理名誉侵权案。<br>因为说出轨是事实的话，就不是侵权。<br>而且，也不会离婚官司打这么久。<br>明显是没有什么明确的证据，双方在扯皮。<br>最起码王宝强说证据确凿是谎言。<br>到目前为止没有证据证明马蓉和宋喆有一腿。<br>你说孩子就说对了。<br>最奇怪的是，王宝强大谈老婆出轨，却从来不带孩子亲子鉴定。<br>这个奇怪的现象只能证明两件事：<br>要么，王宝强知道孩子不是自己的，同时还认可这一事实，不希望别人知道。<br>或者，王宝强知道孩子肯定是自己的，也就是说王宝强知道老婆没出轨，是故意在胡说。<br>以下说的我也没证据：<br>但熊乃瑾都块生了，这发生关系得是什么时候？<br>离婚怕是逼婚吧。 我们这里也出过这样的事，还没骗钱，结果是老公到境外买枪回来，春节直接把奸夫用枪送上西天了。俺就服宝强兄弟的忍劲！ 你以为法院闲得谎啊，受理不受理也是要讲依据的。你去乱告一个试试，看看法院是否受理。 總覺得王寶強隱藏得太好。實際上很人渣 给八卦的我一个结果看看 码表的意思是：我虽然出轨了，但是你们不能老抓着不放啊。我现在有很痛苦，况且你们这样对孩子也不好啊。我也很委屈呢。。。哈哈哈哈 只回这句“如果马蓉出轨证据确凿，法院就不会受理名誉侵权案。”：靠！法院只要受理就有钱收！！ 上次王八脚趾骨裂了（脚后跟），包装城腓骨断了，吹了很久的逼，很多傻逼买单。拍电影后，炒作老婆的奸情，赚了好几亿，又是很多傻逼买单。 在这一年多的时间里，还有媒体爆料马蓉曾在审理中表示不同意离婚，称和王宝强还有感情。 脑子是个好东西推荐给你 出轨被别人艹还说问心无愧[大笑] 看来找到后台了，和谁睡了？ 偷了人还不许人骂破鞋了？这什么时代啊 没法面对成年后的孩子的是出轨的一方吧！ 水军出门就撞死！<br>一些法盲傻逼屁都不懂被王宝强的宣传团队忽悠得跟个白痴一样。<br>如果马蓉出轨证据确凿，法院就不会受理名誉侵权案。<br>因为说出轨是事实的话，就不是侵权。<br>而且，也不会离婚官司打这么久。<br>明显是没有什么明确的证据，双方在扯皮。<br>最起码王宝强说证据确凿是谎言。<br>到目前为止没有证据证明马蓉和宋喆有一腿。<br>更奇怪的是，王宝强大谈老婆出轨，却从来不带孩子亲子鉴定。<br>这个奇怪的现象只能证明两件事：<br>要么，马蓉出轨是为了借种，而且王宝强知道孩子不是自己的，同时还认可这一事实，不希望别人知道。<br>或者，王宝强知道孩子肯定是自己的，也就是说王宝强知道老婆没出轨，是故意在胡说。<br>以下说的我也没证据：<br>但熊乃瑾都块生了，这发生关系得是什么时候？<br>离婚怕是逼婚吧。 恶心的女人，这种女人宝强离了也好解脱 王八的傻逼电影我这几年从来不看。一个暴发户三角眼做个美容手术整天装傻充愣演老实人，实际上就是一奸佞小人。那些崇拜他的许多都是北漂当群演的，傻乎乎地以为只要努力就能成大明星。 你他妈有病吧！人家家务事你他妈操碎了心 脑子是个好东西 帐号被盗不是他发的 二楼傻逼 好好一个女人被王八毁了 把不要脸提到了世界新高度！！！！ 算了吧，跟翟欣欣比，差几条街了 马婊如何面对成年后的孩子呢 二楼典型网易大喷子 我给你点了个赞，我对演艺圈和当事人一点也不了解对王宝强与马蓉的家事也不感兴趣，但对很多人的憎恨感到不解,当他们中的一员被秤砣砸死被强拆家园被当替罪羊枪决....也从未表现过如此排山倒海的愤怒！ 希望王宝强作为一位父亲可以思考下所言所行是否会对儿女的身心健康及成长造成伤害？并做好了面对孩子们长大成人后目光的准备！”鸡婆也敢说出这样的话？哈！！！不服不行！！！干烂事的是你，不是王宝强！ 有点常识吧，法院只管受理的，不分对错，因为总有被告和原告。还有，就算孩子是王的，也不能证明马婊在婚内没出轨。你这都什么逻辑呀！晕 王八，傻逼，要趁那婊有人要私了，早又找个粉嫩校花，又当美国人的爹了。 比鸡还要贱 王八强现在事业走了下坡路，圈内人明显和他疏远了距离，这就是傻逼将家庭事情四处宣扬的下场。那些同情的他的脑残，哪天你老婆要是因为你在外边出轨了和你离婚，然后向全社会宣扬你的事迹你就知道傻逼行为是什么滋味了！ 看到这样的新闻都恶心 马蓉是我见过最不要脸的渣女，最不要脸的婊子，没有之一！ 我的天，做得对还怕舆论还怕别人说？敢做不敢当？这阵想起来孩子了 空虚痒啊！ 老公赚钱太辛苦了，生理问题不能累着老公，让别人替老公解决，这种好妻子哪里找啊！ 我的天情夫宋某都被抓起来了还有脸在这胡说？工作室就能这么理直气壮的瞎扯吗？ 他的老實只是宣傳包裝出來的，感覺他實際上又好色又人渣。 跟贴被火星网友带走啦~ 白静、盘没了，只能接骨灰了。 支持宝宝 你意思是你老婆把你绿了把你钱包养情夫一年开房200多次最后全转走你也得为了家庭不说话为了孩子继续忍耐？大兄弟！你肚子装的是大海啊！！ 艹得爽当然就问心无愧 婊子立牌坊，千古奇闻 我们这里也出过这样的事，还没骗钱，结果是老公到境外买枪回来，春节直接把奸夫用枪送上西天了。俺就服宝强兄弟的忍劲！ 小宋拿着马蓉的钱外面再保养小三，现在小宋也被抓了，估计转移的资金也要被追回了，马婊这是想复合吗？ 三大表刘鑫马荣翟欣欣<br>看有没有哪个大佬愿意接这个盘 我觉得是不是宝强的孩子还有打待商榷<br>当代潘金莲你难道忘了，想车祸撞死宝强的事了吗 王马一对傻他妈二。 宝强的兄弟，宝松要手刃这俩奸夫淫妇，为兄报仇！ 马蓉是当代的潘金莲吗？她不忠与背叛的到底是什么？ 婊子 而且，批马蓉的全都在讲网上流传的谣言，一个事实依据都没有。<br>如果马蓉出轨证据确凿，何来法院受理名誉侵权案，更不会离婚案打了这么久都没有个结果。<br>现在网易上充斥了大量法盲账号。 我们这里也出过这样的事，还没骗钱，结果是老公到境外买枪回来，春节直接把奸夫用枪送上西天了。俺就服宝强兄弟的忍劲！ 你还有脸说以事实为依据，事实是你和那个不要脸的经纪人开了无数次房，拿着你老公的钱给男小三买吃买喝买壮阳品，偷偷转移你老公的幸苦钱，哪一条事实都足以证明你是个比潘金莲还无耻的女人 我们这里也出过这样的事，结果是老公到境外买枪回来，春节直接把奸夫用枪送上西天了。哈！！！ 1楼2楼不是水军，说的也很有道理。王很可能因为此事今后事业一蹶不振，因为这事做的犯忌了。2楼不明白很多人为什么莫名记恨？我可以解释一点，鲁迅早已经指出过，国人极其麻木，是非不分黑白不明，几百年未曾改变，当然，这一直是桶治者教育和希望的结果。当年克林顿与莱温斯基事件，克林顿为什么没被弹劾掉？就是因为这是道德，不犯法。克林顿人品虽有问题，但不影响他当总统处理美国事务。同理，马必然受到道德谴责，但单纯出轨一事并不犯法，否则法律已经找她了。王的曝光把家事爆于大庭广众之下，貌似解恨，实则自身也受到了极大伤害，家中丑事一直给大众评说，孩子受到更大影响，我想这也不是他的本意。他完全可以大度一些，智慧一些，自己搜集好证据，悄悄起诉离婚。重新开始新的生活。可惜，他做砸了。 金莲冤枉~啊~啊~啊~~~~~ 相信法律？可也要对得起法律，这才是真的。 金莲有话说 一家和和美美多好，马蓉也太不知足 王宝强的休书发出一年多了吧？法律上他两好像还没有离婚呢吧？王宝强好像也换了好几个新女友了吧？ 这女人无耻的没有任何底线 现在又想起来孩子了，当时你做对不起人家事的时候怎么没看在孩子的份呢还有感情？说完自己不觉得脸疼？不爱就别结婚结婚就本分点 为什么此时喊话？这不废话，钱花光了呗。 不是撞王宝强。<br>是有一辆车要撞死现在和王宝强打对台的王的亲戚。 喊什么话，到这种地步还不是你红杏出墙自找的，嗤之以鼻！ 不这么闹腾曝光一下，说不定他将会再遇到一次先前新闻报道过的意外车祸，难逃厄运了（去年不是爆料过他以往某次单独开车时，轿车意外失控差点出车祸么？据说那车先前让宋哲和马蓉拿去修理过） 我来掩护宋大官人先撤！ 首先你侮辱了金莲这个词 跟贴被火星网友带走啦~ 噗噗噗，劳资💊看吐了。。。。 马瞿刘黄，四大贱 我的天，做得对还怕舆论还怕别人说？敢做不敢当？这阵想起来孩子了 道德沦丧的时代 到底是谁的言行会对儿女的身心造成伤害 打着妈妈旗杆，来争理真不要脸 一个失德的人反到要用道德绑架别人，真是够颠倒黑白的了。 贱女人(臭几)，你出轨快活，有没有想过给你孩子带来伤害，你老公伤痛吗 马婊如何面对成年后的孩子呢 准备学张柏汁用孩子洗白的好妈妈 我给你点了个赞，我对演艺圈和当事人一点也不了解对王宝强与马蓉的家事也不感兴趣，但对很多人的憎恨感到不解,当他们中的一员被秤砣砸死被强拆家园被当替罪羊枪决....也从未表现过如此排山倒海的愤怒！ 臭婊子 历史上真实的潘金莲？ 婊子脸比城墙厚 王八强现在事业走了下坡路，圈内人明显和他疏远了距离，这就是傻逼将家庭事情四处宣扬的下场。那些同情的他的脑残，哪天你老婆要是因为你在外边出轨了和你离婚，然后向全社会宣扬你的事迹你就知道傻逼行为是什么滋味了！ 第一句话少了一个“被”字 到底有没有被那货搞过 马婊错在禁不住诱惑被宋艹了。最后想厮守就不对了，宝强也不是诸位眼中的傻根，也是有心机的。 这个时代，出轨大家也就骂两声。但是靠老公养出轨就恶心了。如果出轨的对象也靠老公养，就更恶心了。偏偏这个靠老公样的姘头还是你的前男友还是你推荐给你老公，又恶心了不少。但是最恶心的是你和姘头还要霸占家产，啧啧，恶心死了。 那个翟欣欣呢 跟别人在床上爽的时候你有想过孩子嘛？婊子就是不一样什么理由都可以找出来 马蓉贱比 吃干抹净，重新在来。这招高！这就不公平了，必须让宝强养个小三，不然就必须离婚 按她的德行，也许活不到那一天。 潘金莲跟马蓉比起来真是千古奇冤啊！ 一是雇佣的大量的水军借题炒作艺人的热度；二是王宝强本身所代表的东西，对这个符号的任何蔑视与不敬，都伤害了那个庞大群体脆弱的自尊心！ 妈的不要脸的东西，还出来丢人。 鲁迅:我没有指过 马蓉这是看事情过了那么久了就出来蹭波热点试图洗白了这是但是绝对不能被原谅如果原谅那么以后谁的婚姻出现这种事都学她还能不能过日子了你辛苦的挣钱被她拿走包养小三完了她还指责你 那孩子长大未必成什么样呢，没准被教育的觉得他妈做得对也说不准。 从头找到尾，都没找到为什么？ 别侮辱潘金莲，历史上真实的潘金莲很贤惠的 王宝强虽带绿帽子，但是活的真实，敢说敢做，支持！ 网上留传的证据全tmd是假货。根本无法分辨事实。 金莲，你以为傻根真傻啊？如果你第一时间向傻根道歉，他也不可能公布于众。 马蓉一个该是中国娱乐界历史上最不要脸的女人了。 “问心无愧”这个词你也敢用？？？ 案子的发展，马母有点悬了， 有才 王宝强还要求依法分割夫妻共同财产<br>仁至义尽啊 你偷情的时候，做好了面对孩子们长大成人后目光的准备了吗？还问心无愧呢，呸！ 意思就是我当婊子孩子不知道所以没影响 金莲有话说 怕被判刑吧？ 恶心 上面有人说道强哥学过武术，突然想到强哥是和尚的话，马鸡就是妖孽22222233333333333333 人至贱则无敌 什么鬼话连天，妖孽哪里走... 我工作赚钱养家这么辛苦，包个二奶，也是问心无愧？ 金莲有话要说 到目前为止，作者尚未明确表示未出轨 王宝强是在少林寺练过近十年武的，讲究养生禁欲，结婚后应该不怎么泄欲，满足不了生了两个孩子的老婆 马婊演戏呢？这策划也就够忽悠忽悠弱智 有心计 你这样的就是王八中的臭傻逼 被人艹得要死要活的时候想什么呢，现在把孩子推出来挡。 贱货 再炒这些艺人，中国就没希望啦！ 奸夫淫妇还有理啊！ 翟欣欣呢？刘鑫呢？ 因为🐩🐩的本命年到了不叫几声它怕大家都不知道它是怎么生活的。 真恶心马婊 第一次好紧张。 王八强现在事业走了下坡路，圈内人明显和他疏远了距离，这就是傻逼将家庭事情四处宣扬的下场。那些同情的他的脑残，哪天你老婆要是因为你在外边出轨了和你离婚，然后向全社会宣扬你的事迹你就知道傻逼行为是什么滋味了！ 是你出轨在先好吧！ 你方唱罢我登场。 这两货的新闻也能算得上要闻？ 马蓉是我见过最不要脸的渣女，最不要脸的婊子，没有之一！ 王八绿离婚大戏剧情各种36计，反间计，两口合计做掉经纪人，再夫妻撕逼，比悬疑剧各种反转还有看头了听说还有3P 钱花光了 马蓉你这样说，让潘金莲情何以堪啊？她应该叫你祖师爷！ 潘金莲跟马蓉比起来真是千古奇冤啊！ 婊子养的。 是不是钱挥霍玩了 又怀孕了 是不是学的孤儿五五开的套路？ 做错了还理直气壮，不知道的还以为是政府官员呢。 问身无愧都敢用，还有什么不敢 这他妈到底是哪个的行为让孩子长大不高做人？真不要脸！ 在法庭上不同意离婚？ 没人搭理她了，出来刷刷存在感 "
    },
    "Source": "Netease",
    "KeyWords": "王宝强,马蓉,离婚案,离婚",
    "PublishTime": "12/26/201712:37:47"
}