{
    "Source": "Netease",
    "PublishTime": "12/26/201708:27:03",
    "KeyWords": "台湾,新生儿,卫福部,桃园市",
    "Title": "台当局砸百亿救不了出生率 被呛:生不起 要生你生_网易新闻",
    "Comment": {
        "Link": "http://comment.news.163.com/news2_bbs/D6IPOHEI00018AOR.html",
        "Total": 2728,
        "Content": "只有低素质的困难群众才会生来来来加双碗筷 那太好了，我马上去。你去哇 惊现火腿肠古董手机 主要是人素质提高了，知道人生的意义不是生孩子养孩子了。 人家一定会去的啦…… 说的对：没钱、没时间生养小孩，能养活自己都难，不懂民众的当局要他何用？ 虚构的原因，突显这边制度经济好呗 海外网一天不黑台湾，一天就无法完成领导任务吧，无耻 台湾的今天就是大陆的明天？ 借台讽大陆 大陆媒体看得到台湾的正面新闻吗？ 这样的文章也能过审吗哈哈各种打脸 台湾躲过了计汉生育 农村现在也大多只生一个，养不起。 我叔家的兄弟生了四个怎么还要罚七万 弯弯的福利这么好啊，妈卖批的咱这小县城从怀孕到出生花尼玛的两万多 好像大陆生的起似的 这是故意说给我们大陆人听的，还是故意在大陆制造仇恨？ 台湾一个人不吃不喝15年左右可买房，中国一个人不吃不喝50年[不屑] 太笨，不生你可以罚款啊 没计划生育出生率还这么低？<br>我们的计生委撤了吗？ 嗯，我们这边生得起，养得起，明白了 说的好像中国生的起养的起一样，真是龌龊之极。 台湾给福利补贴也不生，大陆收费罚款也要生，差距太大了。 歡迎移民台灣 开放就去，都是中国又不担心语言 吓得我又看了几遍小品超生游击队。这种新闻是谁给勇气发出来的？梁静茹吗 人家生育是贡献，我们生育国家当成负担。除了多收钱，我还真没看到有啥福利。 中国全面放开二胎是不够的：<br>因为即使全面放开二胎，现在许多人都不想生或者只生一个（头胎是男孩更甚），更有许多人是不孕不育生不出（孩子）的、生出来的孩子是有问题的、夭折的；移民的、年轻人找不到对象的、还未生育就身故的、不适宜生育的，以上所说情况造成的人口下降量远大于三孩、四孩的人口贡献量，此外，上环、结扎等手术以及高昂的养育成本也让许多现代女性对生育望而却步，所以即使全面放开二胎也不能保证人口的正常交替（2:2:2）<br>麻痹于二胎不过是将急性病转化成慢性病，将会带来更深远、严重的后果。 台湾人不生孩子是因为太贪玩了，台湾夜生活非常丰富，很多夜市经营到凌晨2点，街头到了凌晨3点都非常热闹，我认识的人多台湾人天天都要玩到凌晨。这篇文章胡扯为经济原因，台湾的房价物价比我们低，收入比我们高，台湾人的生活压力比我们可小多了。 别忘了，那天台湾高兴了开放大陆移民， 应该出个政策：谁敢不生就全村结扎 和农村人说去 现在生孩子真的要量力而行，没有条件真养不起。 大陆人很幸福，从来不抱怨。 台湾躲过了计汉生育 这是在说谁？不是我吧？！ 我老婆今年怀孕会台湾生育真的没人生小孩。台湾小孩从出生到好几岁补助的人民币约合几万元产检各种几乎免费。生孩子好几个护士看一个孕妇。这样都没人生。养不起的标准不一样，台湾的公立医疗放在北京都比很多私利的医院还好很多。 放开大陆人试试 湾湾不妨大量引进超生游击队呀 无知，大陆汉族出生率比台湾还低，很快报应就来了，要不美团、华为怎么去讨好绿色，因为他们人多了。 微博上有个海峡科技在线，大家可以了解很多内地媒体不报道的台湾新闻。 每月还有育儿津贴，这是哪里？生不起还好不遭罪，让你尝尝病不起、老不起、死不起的滋味那才叫个难受。 中国年年负增长，人怎么会越来越多，奇葩 只有低素质的困难群众才会生来来来加双碗筷 弯弯的福利这么好啊，妈卖批的咱这小县城从怀孕到出生花尼玛的两万多 惊现火腿肠古董手机 绿色是什么？？ 嗯！死鬼[捂脸][坏笑] 人家一定会去的啦…… 因为不是那时候生的，50岁以上老人都经历过 舅服你 还不抓紧生，以后没人接盘了 在美国生个7.8个发财，在中国生两个都筹死了， 台湾的今天就是大陆的明天？ 台湾要人随时都有，放低门槛，外劳多多 1000步笑50步！哈哈哈 我们是因为养儿防老，老无所养啊 台湾幼儿园都是免费的。不生是因为要享受生活。 大陆媒体看得到台湾的正面新闻吗？ 城市化把人集中起来了。去看看西部农村 箐真 其实还有其他话，。勉强还能听的一些不怎么会讲 多生一个你得能保证有优质的条件培养！没有咱还是生一个吧。 笑死，节育环生的起，生了喝三鹿全家死 大陆汉族是限制生育 我们这边生二胎三胎都养得起，台湾不行了 农村现在都还在比谁生的多，生的多的觉得很光宗耀祖， 在不生没人接共产主义的班了 你说的绿色就是msl吧 你这说法不对，应该是台湾如何如何，大陆如何如何，， 台湾当局像哈巴狗在国际上到处乞怜，又像过街老鼠人人喊打。 放开大陆人试试 开放二胎有用?msl生七八个呢 东施效颦 去过农村吗你？ 现在生孩子真的要量力而行，没有条件真养不起。 太笨，不生你可以罚款啊 没计划生育出生率还这么低？<br>我们的计生委撤了吗？ 移民台湾真是找死，民进狗和日本杂种最讨厌的就是大陆人，恨不得把大陆人全赶下海 说的好像中国生的起养的起一样，真是龌龊之极。 农村也两个的也很少了，基本一个 歡迎移民台灣 蔡英文都不结婚生子了，台湾人民有样学样，出生率当然下降了，哈哈哈哈哈哈哈哈哈！ 广东农村很多都是只生一个儿子的，生两个的话生活质量马上下降。。。生两个的话一般是因为第一胎是女儿 对,生不起养不起也不想 恩，台湾最垃圾了，生不敢生，就我们敢使劲生 你可以普及一下?“三立新闻”“苹果日报”“民视”就算了，网上能看到。 别忘了，那天台湾高兴了开放大陆移民， 计划生育啊 大陆有的是办法让你生二胎 食物链低端实物少了需要补充了 和农村人说去 大陆难道不是吗？全面二胎了，生不起的还是不生。 汉人是基数大就这一代。出生率断崖式下跌 [喷水][喷水][喷水][喷水][喷水][喷水][喷水][喷水] 养不起 大陆人很幸福，从来不抱怨。 我擦，一楼别把人家往邪路上引啊 中国年年负增长，人怎么会越来越多，奇葩 说出来天朝人民的心声! 谁是国际傻逼还真不好说。 我老婆今年怀孕会台湾生育真的没人生小孩。台湾小孩从出生到好几岁补助的人民币约合几万元产检各种几乎免费。生孩子好几个护士看一个孕妇。这样都没人生。养不起的标准不一样，台湾的公立医疗放在北京都比很多私利的医院还好很多。 台当局就是厚着脸皮也要去！睁着眼装瞎子当九二共识不存在了！可惜了曾为两岸关系做努力的人了！ 无知，大陆汉族出生率比台湾还低，很快报应就来了，要不美团、华为怎么去讨好绿色，因为他们人多了。 移民台湾真是找死，民进狗和日本杂种最讨厌的就是大陆人，恨不得把大陆人全赶下海。 城市化是最好的避孕药 幸福个屁不抱怨是假的 微博上有个海峡科技在线，大家可以了解很多内地媒体不报道的台湾新闻。 借台讽大陆 看了百度贴吧，还有好多人生三胎的，估计现在还有生越多越幸福的人吧！ 每月还有育儿津贴，这是哪里？生不起还好不遭罪，让你尝尝病不起、老不起、死不起的滋味那才叫个难受。 好多人真的很无知，以为农村人就愿意多生了？只是期望ZF不要再折腾80后了！ 主要是人素质提高了，知道人生的意义不是生孩子养孩子了。 说的对：没钱、没时间生养小孩，能养活自己都难，不懂民众的当局要他何用？ 十楼是在说上面的政策好，黑的高 制定法律：社会禁止流通、销售关于避孕、人工流产等用品、药物、服务、医疗，估计还是可以提高出生率的。 台湾的今天就是大陆的明天？ 这是故意说给我们大陆人听的，还是故意在大陆制造仇恨？ 对象全是画皮。结婚则必被骗、篡、害。所生孩，非野种，即被自始，永彻，污染坏品德等一切基因之绝对坏种。 麻辣隔壁的大家以为大陆的出生率就很乐观吗？ 偷钱选蔡的时候咋不考虑？ 生多了养不起太累！ 这样的文章也能过审吗哈哈各种打脸 生了一个小孩就离婚的年轻人比比皆是 台湾躲过了计汉生育 弯弯的福利这么好啊，妈卖批的咱这小县城从怀孕到出生花尼玛的两万多 不可能！现在的人不生了难养！ 台当局无耻的拿钱刺激民众生育。一个办法全解决，不生罚款，罚得他倾家荡产 五十步笑百步 不再婚恋生育者，才可能是好人。 生育率仅为1.04，为亚洲最低。笑台湾之前先看看咱们计划生育的伟大成果 组织叫干什么就干什么的都会后悔 农村的还是想怎么生怎么生 说得我朝就生得起养得起似的 太笨，不生你可以罚款啊 嗯，我们这边生得起，养得起，明白了 放开大陆人试试 马上突破二十亿大关[大笑][大笑] 会心一笑哈哈哈 台湾给福利补贴也不生，大陆收费罚款也要生，差距太大了。 现在的人也聪明了生的多的看到别人生一个比自己过得好都羡慕的 应该是黄安！ 虚构的原因，突显这边制度经济好呗 boom教的生活成本真的比我们低？ 吓得我又看了几遍小品超生游击队。这种新闻是谁给勇气发出来的？梁静茹吗 人家说的是放开大陆移民。 和农村人说去 原来要抢水和地，现在抢媳妇，兄弟多不自己先打起来？ 台湾人不生孩子是因为太贪玩了，台湾夜生活非常丰富，很多夜市经营到凌晨2点，街头到了凌晨3点都非常热闹，我认识的人多台湾人天天都要玩到凌晨。这篇文章胡扯为经济原因，台湾的房价物价比我们低，收入比我们高，台湾人的生活压力比我们可小多了。 别忘了，那天台湾高兴了开放大陆移民， 应该出个政策：谁敢不生就全村结扎 现在很多国家都是奖励了，生了免税，涨工资给钱什么的 笑话，中国又有几个人生二胎，生得起吗 现在生孩子真的要量力而行，没有条件真养不起。 还是“计划生育”好～ 人的素质提高了，高到了连动物繁衍后代的本能和责任都不要了？ 我马上去 不说别的大陆人确实能生。 海外网一天不黑台湾，一天就无法完成领导任务吧，无耻 这是在说谁？不是我吧？！ 台湾躲过了计汉生育 我老婆今年怀孕会台湾生育真的没人生小孩。台湾小孩从出生到好几岁补助的人民币约合几万元产检各种几乎免费。生孩子好几个护士看一个孕妇。这样都没人生。养不起的标准不一样，台湾的公立医疗放在北京都比很多私利的医院还好很多。 好像大陆生的起似的 无知，大陆汉族出生率比台湾还低，很快报应就来了，要不美团、华为怎么去讨好绿色，因为他们人多了。 没放开吗？你老妈想生都可以啊 现在的人也不会多生！ 中国全面放开二胎是不够的：<br>因为即使全面放开二胎，现在许多人都不想生或者只生一个（头胎是男孩更甚），更有许多人是不孕不育生不出（孩子）的、生出来的孩子是有问题的、夭折的；移民的、年轻人找不到对象的、还未生育就身故的、不适宜生育的，以上所说情况造成的人口下降量远大于三孩、四孩的人口贡献量，此外，上环、结扎等手术以及高昂的养育成本也让许多现代女性对生育望而却步，所以即使全面放开二胎也不能保证人口的正常交替（2:2:2）<br>麻痹于二胎不过是将急性病转化成慢性病，将会带来更深远、严重的后果。 二孩不是放开了么?二孩生育率是多少? 摇钱树？是羊吧！等着刮羊毛 hoho,大陆的未来，哪有仇视自己民族的子孙后代的国家 老子就是不生，来强奸老子呀[大笑] 丢你老母的，看看我们 1比5的比例新台币，等于几百人民币的补贴，而且台湾房价也不低，叫蔡头诚意再足点 放开大陆人试试 湾湾不妨大量引进超生游击队呀 是有所指么？ 歡迎移民台灣 “立委”吴玉琴说，过去数年育儿津贴有提 念小学时看到一篇文章，讲的是在台湾的一对小姐弟，她们的父母给资本家逼死了，家里什么都没有，姐姐就靠卖血来养活自己和弟弟。当时就感觉痛苦万分，台湾人民真的是生活在水深中。我发下誓愿，长大一定要当解放军，一定要解放台湾。 ",
        "Reply": 153
    },
    "Article": "（原标题：台当局砸百亿救不了出生率被呛:生不起要生你生）资料图海外网12月26日电日前，台当局“卫福部”拟花6亿元（新台币，下同）送新生儿家长“育儿百宝箱”遭轰“脑残”，被叫停后，“卫福部”坦言，育儿津贴的发放也将一并检讨。据统计近六年，台当局已在育儿津贴上砸出上百亿元，但除了桃园市，其他城市的出生率都不增反减。台湾网友评论称，没钱、没时间生养小孩，能养活自己都难，不懂民众的当局要他何用！据台媒报道，台湾各县市为提高台湾新生儿出生率陆续在生育、托育补助上加码，过去六年的数据整合显示，相关经费年年增长，累计已超过百亿元，然而成效却差强人意，除了桃园市外，其他“五都”的出生率都有所下降。台“卫福部”部长陈时中介绍，台当局向养育零至两岁儿童的未就业家庭提供2000至5000元的育儿津贴，“六都”的一次性生育津贴从6000至30000元不等，台北对五岁以下的儿童家庭每月还有2500元育儿津贴，桃园市是针对三岁以下儿童家庭每月提供3000元育儿津贴。据台媒统计，近六年台当局的所花费的生育、育儿补助经费达百亿以上。但各地出生率（每年每千人中的平均活产数）却仅有桃园市有所增长，其他“五都”就2012年相比，都有所下降。台北市从1.1%降低至1.03%，高雄从0.89%降至0.78%。台湾“行政院”政委林万亿指出，桃园是因为人口平均年龄年轻，并且有迁入而导致新生儿出生率提升，并不能证明生育、育儿津贴具有成效，育儿津贴需长期发放且占有相当金额资源，因此不建议发放。对此，台湾网友纷纷表示不满，有网友表示，每天加班12小时，又要照顾老人，没钱、没时间生养小孩，能养活自己都难，这种不懂民众的当局要他何用。另有观点称，台湾低薪高工时，万物都在涨，只有工资不涨，想结婚等下辈子吧，要生你来生！名为“BaryJane”的网友说：“当局只会跟大家叙述问题，却不想着民众想要孩子要面临的重重困难。糟糕的是腐败和榨取廉价劳动，以及教育和福利制度。”台“卫福部”台南医院妇产科主任蔡永隆称，2016年台湾出生率仅1.07％，是全球最低，若出生率再这么低下去，台湾人口会逐年减少，同时呈老化社会。蔡永隆说：“到2050年，台湾人口会从2300万人降到1800万人；到2060年，台湾人口更会降到1700万人。台湾出生率这么低是严重警讯，如没有外配、陆配等新住民加持，台湾出生率可能更低。”他提到，他曾向台当局卫政单位主管反映此事，对方竟毫不在意，让他慨叹如台当局高层再不重视这问题，恐怕会是台湾未来发展的重大危机。日前，台当局“卫福部”成立少子化办公室，不少“立委”忧心雷声大、雨点小。“立委”吴玉琴说，过去数年育儿津贴有提升，但新生儿还是没增加，显见应有更全方位的托育、教养、友善职场等政策。郝龙斌说，台当局须清楚少子化症结，很大原因来自“当前经济压力、未来经济疑虑”，单设一个办公室无法解决。据了解，截至11月，2017年岛内新生儿出生人数仅为17万7000多人，比去年同期少1万多人，预料今年新生儿总数将跌破20万。专家分析，生子与婚姻、劳动环境等因素相关，近年台湾结婚率低、职场环境不佳、职场对孕妇歧视等情况，都会影响新生儿数量。本文来源：海外网责任编辑：杨强_NN6027",
    "URL": "http://news.163.com/17/1226/09/D6IPOHEI00018AOR.html"
}