{
    "KeyWords": "菲利普,伊丽莎白二世,菲利浦,恐怖分子",
    "PublishTime": "01/02/201808:53:00",
    "Comment": {
        "Link": "http://comment.news.163.com/news2_bbs/D74QF6P4000187V9.html",
        "Content": "做女王的老公不食人间烟火不讲人话，不然早被休了，嘿嘿 当事人一笑了之。 没毛病啊 做女王的老公不食人间烟火不讲人话，不然早被休了，嘿嘿 当事人一笑了之。 没毛病啊 ",
        "Total": 14,
        "Reply": 3
    },
    "Title": "英国菲利普亲王又失言 笑称\"大胡子男为恐怖分子\"_网易新闻",
    "Article": "（原标题：菲利普亲王又失言笑称“大胡子男为恐怖分子”）英国女王伊丽莎白二世与菲利普亲王【环球网综合报道】据台湾“中时电子报”1月2日报道，英国女王伊丽莎白二世的丈夫菲利浦亲王以爱开玩笑出名，但也多次因为玩笑话惹出争议。尽管已经宣布退休，菲利浦亲王仍在12月31日出席教堂活动。不过他在看见一名留大胡子的民众时，竟然开玩笑地问身边维安人员：“他是不是恐怖分子？”，为他的玩笑失言又添一例。据英国《每日邮报》报道，目击者称当天菲利浦亲王正与女儿安妮公主离开玛丽玛格达莱妮大教堂，他见到一名与家人同行的高个子蓄胡男，便向身边的保安人员开玩笑说：“他是不是恐怖分子？”有目击者表示：“他显然是想开个玩笑，那名男子听到后也大笑，似乎觉得很搞笑”，他也称菲利浦亲王当时虽然是与安保人员耳语，但音量明显大到让当事人听到，可见亲王是故意的，但并非意图冒犯对方。报道称，现年96岁的菲利浦亲王在退休前以爱开玩笑炒热气氛出名，不过他的玩笑在好笑之余也多次引发争议。本文来源：环球时报-环球网。更多精彩，请登录环球网http://www.huanqiu.com责任编辑：王征_NN7526",
    "Source": "Netease",
    "URL": "http://news.163.com/18/0102/08/D74QF6P4000187V9.html"
}