{
    "Source": "Netease",
    "KeyWords": "中国,亚洲人,酒",
    "Title": "外媒盘点亚洲人谁最能喝？中国居然不是第一名_网易新闻",
    "PublishTime": "12/25/201715:19:40",
    "URL": "http://news.163.com/17/1225/15/D6GT1I910001875P.html",
    "Article": "（原标题：外媒盘点亚洲人谁最能喝？中国居然不是第一名）#endText.video-infoa{text-decoration:none;color:#000;}#endText.video-infoa:hover{color:#d34747;}#endText.video-listli{overflow:hidden;float:left;list-style:none;width:132px;height:118px;position:relative;margin:8px3px0px0px;}#entText.video-lista,#endText.video-lista:visited{text-decoration:none;color:#fff;}#endText.video-list.overlay{text-align:left;padding:0px6px;background-color:#313131;font-size:12px;width:120px;position:absolute;bottom:0px;left:0px;height:26px;line-height:26px;overflow:hidden;color:#fff;}#endText.video-list.on{border-bottom:8pxsolid#c4282b;}#endText.video-list.play{width:20px;height:20px;background:url(http://img1.cache.netease.com/video/img14/zhuzhan/play.png);position:absolute;right:12px;top:62px;opacity:0.7;color:#fff;filter:alpha(opacity=70);_background:none;_filter:progid:DXImageTransform.Microsoft.AlphaImageLoader(src=\"http://img1.cache.netease.com/video/img14/zhuzhan/play.png\");}#endText.video-lista:hover.play{opacity:1;filter:alpha(opacity=100);_filter:progid:DXImageTransform.Microsoft.AlphaImageLoader(src=\"http://img1.cache.netease.com/video/img14/zhuzhan/play.png\");}if(/(iPhone|iPad|iPod|Android|NETEASEBOBO|blackberry|bbd+)/ig.test(navigator.userAgent)||/safari|chrome|firefox/i.test(navigator.userAgent)&&navigator.plugins&&!navigator.plugins[\"ShockwaveFlash\"]){varstr1='<videocontrols=\"controls\"preload=\"auto\"width=\"100%\"poster=\"http://vimg3.ws.126.net/image/snapshot/2017/12/0/2/VD5J3TF02.jpg\"style=\"max-height:100%\">';varstr2='<sourcetype=\"video/mp4\"src=\"http://flv.bn.netease.com/videolib3/1712/25/dbVIz6923/SD/dbVIz6923-mobile.mp4\">您的浏览器暂时无法播放此视频.</video>';document.getElementById(\"FPlayer1404863609673\").parentNode.innerHTML=str1+str2;}外媒盘点亚洲人谁最能喝？中国居然不是第一名（来源：~）window.NTES&&function(d){varf=function(c){varb=c.getAttribute(\"flashvars\"),a=c.getAttribute(\"repovideourl\").replace(\".flv\",\"-mobile.mp4\");h=d(c.parentNode.parentNode.parentNode),g='<embedsrc=\"http://v.163.com/swf/video/NetEaseFlvPlayerV3.swf\"flashvars=\"'+b+'\"allowfullscreen=\"true\"allowscriptaccess=\"always\"quality=\"high\"wmode=\"opaque\"width=\"100%\"height=\"100%\"type=\"application/x-shockwave-flash\"/>';if(/(iPhone|iPad|iPod|Android|NETEASEBOBO|blackberry|bbd+)/ig.test(navigator.userAgent)){g='<videocontrols=\"controls\"preload=\"auto\"width=\"100%\"height=\"100%\"><sourcetype=\"video/mp4\"src=\"'+a+'\">您的浏览器暂时无法播放此视频.</video>';}h.$(\".video\")[0].innerHTML=g;},e=function(b){vara=d(b.parentNode.parentNode.parentNode);a.$(\"li\").removeCss(\"on\"),b.addCss(\"on\"),a.$(\".video-title\")[0].innerHTML=\"string\"==typeofb.textContent?b.textContent:b.innerText,a.$(\".video-title\")[0].setAttribute(\"href\",b.getAttribute(\"url\")),a.$(\".video-from\")[0].innerHTML=\"（来源：\"+b.getAttribute(\"source\")+\"）\",f(b);};window.continuePlay=function(){vara,b=d(d(\".video-list.on\")[0].nextSibling);3==b.nodeType&&(b=d(b.nextSibling));if(b&&d(\".video-innerinput\")[0].checked){e(b);}},function(){vara={init:function(){if(d(\".video-listli\")[0]){d(d(\".video-listli\")[0]).addCss(\"on\"),this.eventBind();}},eventBind:function(){d(\".video-listli\").addEvent(\"click\",function(b){e(d(this)),b.preventDefault();});}};a.init();}();}(NTES);外媒盘点亚洲人谁最能喝？中国居然不是第一名。世界卫生组织数据显示，韩国人是亚洲最能喝酒的人，平均下来，15岁以上的韩国人每年消耗10.9升酒精饮料。越南在酒精饮料消费量方面排在第二名，泰国排名亚洲第三，蒙古国和中国分列第四名和第五名，日本与老挝并列第六。本文来源：参考消息网责任编辑：韩佳鹏_NN9841",
    "Comment": {
        "Content": "他们要是能喝二锅头，那不就成了人了 有本事喝茅台，没本事喝酒精 韩国青酒，25还是36度来着，我忘了，我喝过，不好喝，只能说不适合我的口感吧，我还是喜欢45度左右的洋河，和53度左右的二锅头，上中学那会，特别喜欢喝那个红薯酿的酒，度数也高，我爸在我小时候就喜欢喝那个，便宜，纯粮食酿的，就是醉了，头也不疼，现在已经没有了，或是买不到了，现在都是酒精兑的，啤酒还是雪花，就江苏来说，我感觉还是徐州人最能喝，在那边做过工程，7个人喝了12瓶白的，个个和没事人一样，就我不省人事了！ 傻X外媒，中国幅员这么大，北方能喝，南方不能喝，一平均就下来了。从能力角度看，最能喝的还是中国人。 要比比公务员 哑洲人谁最能在職撈學厉#.工行易会满在職嗵吃本科硕博#仨汶凭 为什么要喝酒,是酒的滋味好,还是喝完了之后的感觉好？ 要比比总量，不能比人均 韩国人的酒才几度？让他们喝我们的 韩国10几度的烧酒。。。跟黄酒差不多。试试让高丽棒子喝二锅头 亚洲人中国人应该最好色。 他们要是能喝二锅头，那不就成了人了 风光66 哑洲人谁最能在職撈學厉#.工行易会满在職嗵吃本科硕博#仨汶凭 北京东北人能喝，喝酒前他是东北的，喝酒后东北是他的 要论能喝得属贵州那边，碰见贵州的都是喝50°的白酒，几乎没见喝低度白酒的 每天半斤56°二锅头，喝完开车好得很，多年无事故 为什么要喝酒,是酒的滋味好,还是喝完了之后的感觉好？ 亚洲人中国人应该最好色。 青海，宁夏，内蒙这撒地方的，喝酒我就服他们 韩国10几度的烧酒。。。跟黄酒差不多。试试让高丽棒子喝二锅头 要比比总量，不能比人均 傻X外媒，中国幅员这么大，北方能喝，南方不能喝，一平均就下来了。从能力角度看，最能喝的还是中国人。 韩国青酒，25还是36度来着，我忘了，我喝过，不好喝，只能说不适合我的口感吧，我还是喜欢45度左右的洋河，和53度左右的二锅头，上中学那会，特别喜欢喝那个红薯酿的酒，度数也高，我爸在我小时候就喜欢喝那个，便宜，纯粮食酿的，就是醉了，头也不疼，现在已经没有了，或是买不到了，现在都是酒精兑的，啤酒还是雪花，就江苏来说，我感觉还是徐州人最能喝，在那边做过工程，7个人喝了12瓶白的，个个和没事人一样，就我不省人事了！ 这兄弟还在！ 没有谁敢说是亚洲最强的,因为强中自有强中手 韩国的酒也就是米酒和清酒，大多数度数都是个位的，连啤酒都不如。当然清酒有度数高的，但一般人消费不起 韩国人的酒才几度？让他们喝我们的 得按照酒的度数折算成纯酒精才好吧 每年10.9升？我认识几个酒鬼每个月能喝5桶56°2L的二锅头 要比比公务员 有本事喝茅台，没本事喝酒精 ",
        "Reply": 21,
        "Link": "http://comment.news.163.com/news_shehui7_bbs/D6GT1I910001875P.html",
        "Total": 139
    }
}