{
    "PublishTime": "12/27/201718:15:00",
    "Source": "Netease",
    "Comment": {
        "Link": "http://comment.news.163.com/news2_bbs/D6MCL3PJ000187VE.html",
        "Total": 374,
        "Reply": 38,
        "Content": "应该开除！ 2001网络不发达便于抄袭，聪明反被聪明误，现在反剽窃软件一扫，离开现原形。 抄袭的水平太低了 鄙视一楼这种故意引战的无耻行为，或同情其无知。又反对二楼轻视理工类的行为。学科没有高低，人有。愿你们多读圣贤书，“闻道有先后，术业有专攻。” 一个老师的好坏并不是一两篇论文就能决定的，虽然抄论文本身不道德，但有时我们真的是被逼的，我们兢兢业业的备课，上课，批改，辅导，等回家，累的要死，还要忙论文，没有论文就评不了职称。有些老师论文写的确实好，大部分时间花上了，他课能钻研到哪里去！ 什么道歉信？里面居然还有各种推脱，这种人思想已经定型，毫无挽救希望，应该杀一儆百 当年有某宝吗 这TM应该开除好么！ 这年头叫兽何其多！ 劳心者治人,劳力者治于人 全国论文，除少数几个人，几乎都是抄袭的！<br>抄袭的人，一般将原文章换个说法，表达的意思不变，算是合格论文。<br>高明的，掺杂着自己的一点思想，就很不错了，算是优秀论文。<br>人懒的，雇人捉笔，也能凑合着吧！<br>最差的，直接抄袭，懒得改……<br>几人能保证，你写的论文是原创？这个比例不会超过5%！<br>所谓论文，基本上都是将别人的观点再次重复一遍！没有意思！<br>论文的最大意义是:养活了一帮杂志(背后是什么人不得而知)！写垃圾论文的人得到了晋级！ 装潢门面的 作为理工类研究人员，一直搞不懂教育学是干什么的，有存在价值吗 哈哈哈哈！如此的教授，如今的教授。论文由朋友代写，还是抄袭的。无语了，教授多如…… 呵呵 思想上被谎言灌输毒害，人云亦云，善恶颠倒，麻木不仁，比简单的身体上吸毒要严重的多，撒旦攫取的是人的灵魂，是毁灭人类。 可能是某宝找的代写 现在是2017年年末，他2000年抄的论文，17年后被人揭发。而17年前，这种抄袭应该是个常态吧！那么为什么有人揭发他，只因他现在是院长了！ 见怪不怪 他们组织造假早就成性了 道歉 抄袭的水平太低了 学术不端 不是没时间写，是没水平写吧？ 鄙视一楼这种故意引战的无耻行为，或同情其无知。又反对二楼轻视理工类的行为。学科没有高低，人有。愿你们多读圣贤书，“闻道有先后，术业有专攻。” 一个老师的好坏并不是一两篇论文就能决定的，虽然抄论文本身不道德，但有时我们真的是被逼的，我们兢兢业业的备课，上课，批改，辅导，等回家，累的要死，还要忙论文，没有论文就评不了职称。有些老师论文写的确实好，大部分时间花上了，他课能钻研到哪里去！ 什么道歉信？里面居然还有各种推脱，这种人思想已经定型，毫无挽救希望，应该杀一儆百 道歉 当员真是第二条命，这就完了？法律制裁呢？剽窃是犯法行为啊，虽然本案可能不涉及刑事责任。 这年头叫兽何其多！ 呵呵 研究教育的。比如幼儿应如何科学教育这不是学问吗？ 严惩不贷 装潢门面的 复制多简单啊 劳心者治人,劳力者治于人 没有 朋友代考 教授配秘书了吗还代写 呵呵 天下文章一大抄<br>谁人不抄谁憨包 思想上被谎言灌输毒害，人云亦云，善恶颠倒，麻木不仁，比简单的身体上吸毒要严重的多，撒旦攫取的是人的灵魂，是毁灭人类。 应该开除！ 呵呵 全国论文，除少数几个人，几乎都是抄袭的！<br>抄袭的人，一般将原文章换个说法，表达的意思不变，算是合格论文。<br>高明的，掺杂着自己的一点思想，就很不错了，算是优秀论文。<br>人懒的，雇人捉笔，也能凑合着吧！<br>最差的，直接抄袭，懒得改……<br>几人能保证，你写的论文是原创？这个比例不会超过5%！<br>所谓论文，基本上都是将别人的观点再次重复一遍！没有意思！<br>论文的最大意义是:养活了一帮杂志(背后是什么人不得而知)！写垃圾论文的人得到了晋级！ 呵呵 当年有某宝吗 这TM应该开除好么！ 呵呵 2001网络不发达便于抄袭，聪明反被聪明误，现在反剽窃软件一扫，离开现原形。 拿机子过一边啊，好歹也得低于40%重合吧 哈哈哈哈！如此的教授，如今的教授。论文由朋友代写，还是抄袭的。无语了，教授多如…… 可能是某宝找的代写 抄书，读书人能叫抄吗？ 现在是2017年年末，他2000年抄的论文，17年后被人揭发。而17年前，这种抄袭应该是个常态吧！那么为什么有人揭发他，只因他现在是院长了！ 作为理工类研究人员，一直搞不懂教育学是干什么的，有存在价值吗 "
    },
    "Article": "（原标题：北方民大公布教授涉论文抄袭调查结果：免除刘启刚党内外职务）12月18日，澎湃新闻报道了北方民族大学预科教育学院教授、院长刘启刚在2001年3月发表的一篇题为《在文体的边缘上探索——新闻文体变革的一条路子》的学术论文涉嫌抄袭一事。彼时，刘启刚对澎湃新闻回应称该论文系“朋友代写”。12月19日，北方民族大学党委宣传部相关负责人对澎湃新闻表示，学校对学术不端行为是“零容忍”的态度，将对刘启刚学术论文涉嫌抄袭一事进行调查核实。27日下午，澎湃新闻从北方民族大学党委宣传部获悉，校方已于26日作出了对刘启刚论文涉嫌抄袭事件的处理结果。校方党委宣传部相关负责人透露，第一，认定刘启刚论文抄袭行为属实。第二，《北方民族大学学报》将发布撤稿声明。第三，刘启刚上交因这篇论文所获得的所有科研津贴，具体费用是360元。第四，学校在学术委员会调查结论的基础上，决定给刘启刚党内严重警告处分，免除其党总支副书记、预科教育学院院长的职务。同时，要求全校老师以此为戒，端正学风。27日，涉嫌论文抄袭者刘启刚也主动致电澎湃新闻记者，承认了上述学术论文是抄袭的，也是自己所为，并不是当初所说的“朋友代写”。“我想向原作者、向社会道歉，很对不起大家，请求大家原谅，也对媒体和社会的监督批评表示感谢。”刘启刚同时说，他身为教育工作者，却犯下如此错误，感到非常后悔。12月27日，刘启刚通过个人实名微博发表了“学术不端道歉书”。@刘启刚--截图通话结束后，刘启刚又通过个人实名微博发表了“学术不端道歉书”，表示自己已经做了深刻反省，认为自己的论文抄袭行为是因为学术素养差，急功近利造成的，为此深感不安和愧疚。12月18日，澎湃新闻报道北方民族大学预科教育学院教授、院长刘启刚2001年3月发表的名为《在文体的边缘上探索——新闻文体变革的一条路子》的论文和时任新华社记者徐占琨35年前发表在复旦大学主办、复旦大学新闻学院主编的学术期刊《新闻大学》上的论文一篇同名论文《在文体的边缘上探索——新闻文体变革的一条路子》大面积相似。徐占琨论文于1982年4月发表在《新闻大学》上；刘启刚论文则是发表在《西北第二民族学院学报》2001年第3期上，收稿日期为2001年3月29日，刘启刚论文的发表时间比徐占琨论文晚了19年。澎湃新闻对比发现，刘启刚论文除了比徐占琨论文缺少一大段内容外，其他部分与徐占琨论文从题目到每一个段落内容，都近乎完全一致，几乎照搬了徐占琨论文。本文来源：澎湃新闻责任编辑：徐萌_NN7485",
    "Title": "高校教授涉抄袭被免职 论文从题目到内容近乎一样_网易新闻",
    "URL": "http://news.163.com/17/1227/18/D6MCL3PJ000187VE.html",
    "KeyWords": "刘启刚,论文,抄袭,教授"
}