{
    "Title": "国米VS拉齐奥前瞻:射手榜巅峰对决 国米盼止连败_网易体育",
    "URL": "http://sports.163.com/17/1229/19/D6RJFIFI00058781.html",
    "Source": "Netease",
    "Article": "网易体育12月29日报道：北京时间12月31日凌晨1点，意甲联赛第19轮，国际米兰将坐镇主场迎战拉齐奥。最近3场比赛连续告负的蓝黑军团，必须警惕像上赛季那样圣诞前后突然成绩滑坡的情况再次出现。看点一：国米力争终结3连败最近3场比赛国米连续告负，输掉了2轮联赛和意杯1/4决赛的米兰德比。此情此景不禁让人想到了上赛季的蓝黑军团，同样也是圣诞节前后突然疲软，最终失掉了欧战资格。蓝黑军团若不想重蹈覆辙，必须尽快调整自己的状态结束连败。看点二：国米能否留在前3？联赛中接连输给乌迪内斯和萨索洛让国米丢掉了领头羊的位置，本轮国米虽然是主场作战，但面对最近两战连续零封对手并打进5球取得连胜的拉齐奥，不太在状态的蓝黑军团想要取胜并不容易。接下来国米还将在联赛中遭遇佛罗伦萨和罗马这两大强敌，如果本轮再不取胜，国米将有可能跌出前3。看点三：伊卡尔迪PK因莫比莱伊卡尔迪和因莫比莱分别是国际米兰和拉齐奥的当家射手，目前两人分别以17粒进球和16粒进球排在积分榜前2位，如果两人能够继续之前联赛中的表现，那本赛季的金靴基本就将在两人之间产生。本场比赛两队强强对话，两队当家射手的表现将决定各自球队能否最终取胜，国米目前遭遇连败，而拉齐奥则在力争跻身欧冠区，两队都希望自家的王牌射手能带来胜利。预测首发：国际米兰（4231）：1-汉达诺维奇/7-坎塞洛、37-什克里尼亚尔、13-拉诺基亚、21-桑顿/11-贝西诺、5-加利亚尔迪尼/87-坎德雷瓦、20-博尔哈-巴莱罗、44-佩里西奇/9-伊卡尔迪拉齐奥（352）：1-斯特拉科沙/13-华莱士、3-德弗里、26-拉杜/77-马鲁什奇、16-帕罗洛、6-卢卡斯-雷瓦、21-米林科维奇、19-卢利奇/18-路易斯-阿尔贝托、17-因莫比莱本文来源：网易体育作者：元气责任编辑：冯昊天_NSJS2656",
    "PublishTime": "12/29/201719:04:12",
    "Comment": {
        "Total": 67,
        "Content": "心疼我🐔，两年前之前还能混个圣诞冠军，今年鸡崽子跳的比两年前更嘚瑟反而摔的更狠🤣 支持拉齐奥老鹰抓小鸡 国米这场3比0拿下拉齐奥伊卡尔迪帽子戏法 支持拉齐奥老鹰抓小鸡 心疼我🐔，两年前之前还能混个圣诞冠军，今年鸡崽子跳的比两年前更嘚瑟反而摔的更狠🤣 国米1:1拉齐奥拉齐奥克鲁斯先进一球,国米米利托扳平最后点球大战,拉齐奥战胜国米捧杯 国米这场3比0拿下拉齐奥伊卡尔迪帽子戏法 老夫来看看有没有🐶🐔糜烂的球迷？？？ ",
        "Reply": 5,
        "Link": "http://comment.sports.163.com/sports2_bbs/D6RJFIFI00058781.html"
    },
    "KeyWords": "拉齐奥,国米,国际米兰"
}