{
    "Source": "Netease",
    "KeyWords": "何穗,",
    "Title": "超模何穗裸背秀雪肤 撩裙转圈活泼迷人_网易娱乐",
    "PublishTime": "12/25/201708:49:08",
    "URL": "http://ent.163.com/photoview/00AJ0003/646619.html",
    "Article": "超模何穗裸背秀雪肤撩裙转圈活泼迷人近日，何穗在个人社交网站上分享了一组自己的美照，她身穿渐变纱裙仙气飘飘，一转身背后风光更是撩人，裸背大秀性感。而当仙姑提裙转圈，又显现出活泼可爱一面。",
    "Comment": {
        "Content": "男人 维密模特有一个相似的特点，那就是嘴大，笑起来很浪并且有感染力！不是单纯的摆拍好看，你看让唐嫣杨幂去走维密给她们个185身材也不行，没那特质，只能在机场街拍 是不是他拉的屎都是那么迷人？ 怎么我没觉得她漂亮和有气质？就高 欣赏不了 学生：老师，您教的都是一些没用的东西，<br><br>老师：我不许侣们这样说记己。 铝们胡建人不要这样纸说话…… 当初我面试的她，觉得挺不错的，主要是皮肤比较好，身材没有现在这么性感，不过也算不错了，小姑娘挺讨人喜欢的，我所以就让她去了节目组砸金蛋，后来一个偶然的机会我这里有一个去走秀的机会，那段时间她把我伺候的挺好的，夜夜笙歌可以形容吧，得到这个机会后就开始红了，后来就不理我了，早知道是这样，我就不会给这个机会她了。后悔，可惜啊。 身材不錯 而且不能是圆脸！！ 超模还是只喜欢何穗 像人妖 超级喜欢何仙姑 超模的气质就是不一样 嘴大脸大，个高腿长，皮肤白 何仙姑 洗发水广告？ 嘴大脸大，个高腿长，皮肤白 男人 心机婊 姚晨不当超模岂不是维密的一大损失？ 姚晨也不矮。[大笑] 怎么我没觉得她漂亮和有气质？就高 仙姑小编这个屁拍的很有仙气，仙姑一高兴没准就临幸你一次 龟儿哈嘛批，脸皮厚，走路向左不向右，长期骗你外婆，和别个视频脱衣秀，我两锭子把你打得，你还说不够。 当初我面试的她，觉得挺不错的，主要是皮肤比较好，身材没有现在这么性感，不过也算不错了，小姑娘挺讨人喜欢的，我所以就让她去了节目组砸金蛋，后来一个偶然的机会我这里有一个去走秀的机会，那段时间她把我伺候的挺好的，夜夜笙歌可以形容吧，得到这个机会后就开始红了，后来就不理我了，早知道是这样，我就不会给这个机会她了。后悔，可惜啊。 身材不錯 气质真好 老哥你没说错，嘴大，笑起来，就联想起床上发浪，估计姚晨给个身材也离超模不远 而且不能是圆脸！！ 超级喜欢何仙姑 是不是他拉的屎都是那么迷人？ 何仙姑漂亮 什么时候自己的身材跟超模那样就满足了哈哈 超模就是不一样哈 何仙姑 好白 超模还是只喜欢何穗 为啥都喜欢在酒店拍写真 假如假设没任何意义 每个超模都有她自身的特点。不管是刘雯也好，奚梦瑶也好，还是何穗，能代表中国走向世界就必须支持。 刘雯中国第一超模？？有没有搞错啊那何穗呢。。她上过好多次维密。。她算不算超模。。我觉得何仙姑比刘雯长得美多了 大美女🌼🌺 欣赏不了 学生：老师，您教的都是一些没用的东西，<br><br>老师：我不许侣们这样说记己。 什么鬼新闻 像人妖 维密模特有一个相似的特点，那就是嘴大，笑起来很浪并且有感染力！不是单纯的摆拍好看，你看让唐嫣杨幂去走维密给她们个185身材也不行，没那特质，只能在机场街拍 超模的气质就是不一样 好看好看 不笑好看些，一笑就… 洗发水广告？ 铝们胡建人不要这样纸说话…… 哈哈美啊 ",
        "Reply": 37,
        "Link": "http://comment.ent.163.com/ent2_bbs/PHOTJNER000300AJ.html",
        "Total": 286
    }
}