{
    "Source": "Netease",
    "PublishTime": "12/26/201709:59:17",
    "KeyWords": "胡可,",
    "Title": "胡可带俩儿子坐游艇 安吉帅气小鱼儿搞笑_网易娱乐",
    "Comment": {
        "Link": "http://comment.ent.163.com/ent2_bbs/PHOTJNI3000300AJ.html",
        "Total": 164,
        "Content": "就说在香港看到安吉了 两兄弟挺象的，就是不象父母 其实从长相来看就是两普通孩子，甚至还不如一些普通孩子长得帅气。只不过投胎投的好点 胡可每次出场都是容光焕发而沙溢却是满脸憔悴 俩儿子一点不像！ 安吉好看很多 素颜好美的胡可 报个料吧，前天周日，我媳妇在北京海淀区私人月子中心，做孕检，我一早过去，看到沙溢胡可了，很低调，普通人，胡可跟我媳妇一起做的健身操，过几天就会传出胡可怀孕尽情期待 帅气的两个小伙 仔细看了下，是挺好的，我也相信吧 胡可每次出场都是容光焕发而沙溢却是满脸憔悴 报个料吧，前天周日，我媳妇在北京海淀区私人月子中心，做孕检，我一早过去，看到沙溢胡可了，很低调，普通人，胡可跟我媳妇一起做的健身操，过几天就会传出胡可怀孕尽情期待 你的手机挺好，应该不会说谎。 俩儿子一点不像！ 安吉好看很多 又不是双胞胎 帅气的两个小伙 那个最美的友人叫朱锐！叫朱锐！叫朱锐！演技颜值双高！！ 哪里美了气色那么差。五官美皮肤气色不好 友人是孩子的干妈朱锐 就说在香港看到安吉了 两兄弟挺象的，就是不象父母 其实从长相来看就是两普通孩子，甚至还不如一些普通孩子长得帅气。只不过投胎投的好点 懂的都懂，不懂别问。[微笑] 搞怪爸爸去哪玩了 小的真像岳云鹏 素颜好美的胡可 为什么两个孩子都是单眼皮？ 好吧，你赢了，基因也可以正正得负😄 正正的负 帅哥！这以后得出道啊 ",
        "Reply": 22
    },
    "Article": "胡可带俩儿子坐游艇安吉帅气小鱼儿搞笑12月26日凌晨，胡可在微博晒出一组照片。照片中，她和友人带着安吉和小鱼儿坐在游艇上自拍，俩儿子开心的表情似复制粘贴。安吉帅气，小鱼儿凹造型超搞笑。",
    "URL": "http://ent.163.com/photoview/00AJ0003/646723.html"
}