{
    "URL": "http://news.163.com/18/0101/16/D730CARG0001899N.html",
    "Title": "男子拒绝为小孩买票还殴打公交司机 司机:我疼啊_网易新闻",
    "KeyWords": "施暴,公交,殴打",
    "Article": "（原标题：男乘客拒绝为小孩买票暴打公交司机，司机哭喊：不要打我，我疼啊）#endText.video-infoa{text-decoration:none;color:#000;}#endText.video-infoa:hover{color:#d34747;}#endText.video-listli{overflow:hidden;float:left;list-style:none;width:132px;height:118px;position:relative;margin:8px3px0px0px;}#entText.video-lista,#endText.video-lista:visited{text-decoration:none;color:#fff;}#endText.video-list.overlay{text-align:left;padding:0px6px;background-color:#313131;font-size:12px;width:120px;position:absolute;bottom:0px;left:0px;height:26px;line-height:26px;overflow:hidden;color:#fff;}#endText.video-list.on{border-bottom:8pxsolid#c4282b;}#endText.video-list.play{width:20px;height:20px;background:url(http://img1.cache.netease.com/video/img14/zhuzhan/play.png);position:absolute;right:12px;top:62px;opacity:0.7;color:#fff;filter:alpha(opacity=70);_background:none;_filter:progid:DXImageTransform.Microsoft.AlphaImageLoader(src=\"http://img1.cache.netease.com/video/img14/zhuzhan/play.png\");}#endText.video-lista:hover.play{opacity:1;filter:alpha(opacity=100);_filter:progid:DXImageTransform.Microsoft.AlphaImageLoader(src=\"http://img1.cache.netease.com/video/img14/zhuzhan/play.png\");}if(/(iPhone|iPad|iPod|Android|NETEASEBOBO|blackberry|bb\\d+)/ig.test(navigator.userAgent)||/safari|chrome|firefox/i.test(navigator.userAgent)&&navigator.plugins&&!navigator.plugins[\"ShockwaveFlash\"]){varstr1='<videocontrols=\"controls\"preload=\"auto\"width=\"100%\"poster=\"http://vimg3.ws.126.net/image/snapshot/2018/1/U/H/VU651RBUH.jpg\"style=\"max-height:100%\">';varstr2='<sourcetype=\"video/mp4\"src=\"http://flv.bn.netease.com/videolib3/1801/01/NXCbO8754/SD/NXCbO8754-mobile.mp4\">您的浏览器暂时无法播放此视频.</video>';document.getElementById(\"FPlayer1404863609673\").parentNode.innerHTML=str1+str2;}乘客拒绝为孩子买票，暴打公交司机（来源：original）window.NTES&&function(d){varf=function(c){varb=c.getAttribute(\"flashvars\"),a=c.getAttribute(\"repovideourl\").replace(\".flv\",\"-mobile.mp4\");h=d(c.parentNode.parentNode.parentNode),g='<embedsrc=\"http://v.163.com/swf/video/NetEaseFlvPlayerV3.swf\"flashvars=\"'+b+'\"allowfullscreen=\"true\"allowscriptaccess=\"always\"quality=\"high\"wmode=\"opaque\"width=\"100%\"height=\"100%\"type=\"application/x-shockwave-flash\"/>';if(/(iPhone|iPad|iPod|Android|NETEASEBOBO|blackberry|bb\\d+)/ig.test(navigator.userAgent)){g='<videocontrols=\"controls\"preload=\"auto\"width=\"100%\"height=\"100%\"><sourcetype=\"video/mp4\"src=\"'+a+'\">您的浏览器暂时无法播放此视频.</video>';}h.$(\".video\")[0].innerHTML=g;},e=function(b){vara=d(b.parentNode.parentNode.parentNode);a.$(\"li\").removeCss(\"on\"),b.addCss(\"on\"),a.$(\".video-title\")[0].innerHTML=\"string\"==typeofb.textContent?b.textContent:b.innerText,a.$(\".video-title\")[0].setAttribute(\"href\",b.getAttribute(\"url\")),a.$(\".video-from\")[0].innerHTML=\"（来源：\"+b.getAttribute(\"source\")+\"）\",f(b);};window.continuePlay=function(){vara,b=d(d(\".video-list.on\")[0].nextSibling);3==b.nodeType&&(b=d(b.nextSibling));if(b&&d(\".video-innerinput\")[0].checked){e(b);}},function(){vara={init:function(){if(d(\".video-listli\")[0]){d(d(\".video-listli\")[0]).addCss(\"on\"),this.eventBind();}},eventBind:function(){d(\".video-listli\").addEvent(\"click\",function(b){e(d(this)),b.preventDefault();});}};a.init();}();}(NTES);近日，武汉一男子在公交车上殴打公交司机，司机一直大声哭喊：不要打我，我疼啊...据悉，司机让超过1.2米的女孩买票，男子坚决不买冲上前对他施暴，此前，这名男子也因不买票和司机发生过纠纷。本文来源：一手Video责任编辑：李杭_BJS4645",
    "Source": "Netease",
    "PublishTime": "01/01/201816:04:19",
    "Comment": {
        "Link": "http://comment.news.163.com/news2_bbs/D730CARG0001899N.html",
        "Reply": 273,
        "Content": "拘留了没？ 那你这个畜生就不止被谴责了，人家父亲会把你的小弟弟割下来，安在你的脑袋上，让你做独角兽的。 你们这是孔乙己的精神胜利法，就打人了怎么着吧 建议为了安全，强行将公交车司机位置单独隔离 有些人就是要去拘留所 丢人现眼啊，就是这样给小孩做榜样？ 尼玛你有本事烧了公交公司啊，关司机鸟事？ 这么牛逼，还坐什么公交车？直接买轿车好了。不但穷开装逼！[暴怒] 真是一个以身作则的好父亲啊，您的女儿以后一定会继承你的优良作风的 那家狗跑出来了，没人领，就宰了 关几天就老实了 一块钱至于吗？省下一块就发了？一辈子穷鬼一个。 法制中国呢？肆意人身攻击！ 这司机你就不能雄起？反正都只有一条命。。又是他先动手，你怕什么？检查轮胎的敲车棒呢？直接往他身上抡啊 一张票2块钱，这父亲为这点事大打出手，考虑过孩子的感受吗？ 一说报警就怂了 注定一辈子穷鬼的样子 傻逼这么暴躁，吓着小孩了！ 公交还嫌贵，你真得混得未免太惨了 我告诉自己：一定要努力学习！让自己走出村子，要带家人离开这片土地！<br>--日语专业大二学生留 拘留几天吃个官饭就好了 还真没办法，就像被楼上咬了，法律不支持咬回来！只能谴责 最可笑的是公交车司机不论怎样都不能还手，被砍也只能站着被砍。。。。不然就是公司和司机不对 老铁6666 干么烧车，激动什么，公交司机自己不反抗，打一顿而已。 这种人的德行，就值一块钱了，给小孩子做的这种榜样，他今后会后悔的 我在武汉待了5年，大学虽然多，但是整体素质非常差。 公交司机自己都不反抗，警察难道帮你揍一顿，过去了，结案。 今天看一个视频，一名公交司机强忍疼痛把车靠边停下猝死——已经不止一次出现这样的新闻。其实司机从现在的工作时间长度和交通压力来开，不但是高强度工作，还会遇到1楼这样的乘客，不是铁打的都不愿意吃这碗饭。公交公司拿再高的补贴也不会贴到司机上去对不对？ 呵<br>呵<br>！<br>看把他打司机时把他孩子吓得比尖叫！<br>就像他在家要乱伦她孩子叫声一个样！ 不穷好吗？你看啊，打完人，要看病吧？3000块是最低的，然后拘留15天，还得看司机追究不，要是追究，这是公共场所寻衅滋事，要判刑的，涉及刑民两责，弄下来也得花个10万才能摆平。所以你看，打人的多有钱，坐个公交都能座出飞的的价钱。 精神病，快收治！ 支持该打：尼玛，现在的公交还有公共服务在吗？我们这公交公司领着高补贴，定着高票价，排着烂路线…… 差这一块钱吗？ 公交司机自己不反抗，不打白不打。 坐不起车就别坐，丢人不 这个人渣真该屎，是时候警察出现了 外地的风俗习惯我们不懂 如果谴责让你幸福，我宁愿上你的幼女再让你谴责 你是个疯狗，没有公交你走路？ 傻逼穷鬼 穷鬼买不起票！ 这就完了？打了人就算了？没结果？ 一楼，公交这么多毛病，停止你那条线路算了，自己每天开车上班，省得啰嗦。 一楼是正话反说，是和咱喷子对着干的 这种垃圾应该刑事起诉，公交车见到他就禁止上车。 看标题我以为是你爸家暴你妈 建议为了安全，强行将公交车司机位置单独隔离 没时间 他爹没教育好![鄙视] 别打了，别打了，我让你免费。。。 傻逼穷鬼 这么牛逼，还坐什么公交车？直接买轿车好了。不但穷开装逼！[暴怒] 那家狗跑出来了，没人领，就宰了 这种言传身教，寒门无贵子这话也不无道理 估计也是有旧仇恨，不然不会一上来就打，乘客打人固然违法，但司机也要注意自己讲话的分寸，没素质的司机碰到的也不是少数，一般乘客也不会无缘无故的和司机发生冲突 你说的是城乡小巴中巴大巴吧！不然1块钱2块钱是高额？票价是司机定的？线路是司机安排的？原谅我小学生懂的少！！！希望层主能够多多普及知识。。。 支持该打：尼玛，现在的公交还有公共服务在吗？我们这公交公司领着高补贴，定着高票价，排着烂路线…… 3楼抱歉，点错了，想点回复点成踩了，不过又顶了一下，也不亏，1楼傻逼，这年头第一次听说嫌公交贵的，普通公交卡四折，更别说学生卡和免费的老年卡了 你跟他讲法律，他跟你讲人情，你跟他讲人情，他跟你讲暴力，你跟他讲暴力，他跟你讲法律 注定一辈子穷鬼的样子 什么狗屎标题！！不进来只看标题鬼能看懂？网易小编什么水平？是个人都能干，三石得好好整顿一下了！ 按你那就打了怎么着的逻辑，你家女性被玩了也不会怎么着 如果孩子真超过1米2，就应该买票，这男的应该依法判刑，别的不说，至少危害公共安全，如果没有1米2，不买票也正常，但是不该打司机，应该赔医药费 武汉的公交，坐过几次，唯一印象就是司机都是赛车手，猛加速，猛刹车，站那拉着吊环，跟挂块腊肉似的，晃个不停 怂，居然哭。 此等恶霸，没人管吗 应该严厉处罚 二楼，一楼这样的LOSER真可能干出这种事来，到时候你就倒霉了 东北人，必须是 干么烧车，激动什么，公交司机自己不反抗，打一顿而已。 公共场所寻衅滋事，是触犯刑法的。不是无所谓，是看对方是否追究。 这狗日的拉进局子里打个半死最好 公交还嫌贵，你真得混得未免太惨了 1楼你注意点，因为你这种水平的，在美国出门就被弄死的几率很大啊，真的很危险，也不要回国，回国你活不过下一集。 不穷好吗？你看啊，打完人，要看病吧？3000块是最低的，然后拘留15天，还得看司机追究不，要是追究，这是公共场所寻衅滋事，要判刑的，涉及刑民两责，弄下来也得花个10万才能摆平。所以你看，打人的多有钱，坐个公交都能座出飞的的价钱。 这司机这么窝囊能活下来也算是奇迹，不知道他有没有老婆，看样子奸他老婆他都会躲出去的 今天看一个视频，一名公交司机强忍疼痛把车靠边停下猝死——已经不止一次出现这样的新闻。其实司机从现在的工作时间长度和交通压力来开，不但是高强度工作，还会遇到1楼这样的乘客，不是铁打的都不愿意吃这碗饭。公交公司拿再高的补贴也不会贴到司机上去对不对？ 你一个东北几线小城张口就是外地 呵<br>呵<br>！<br>看把他打司机时把他孩子吓得比尖叫！<br>就像他在家要乱伦她孩子叫声一个样！ 公司规定不能反抗，不然你以为谁愿意挨打？说话动点脑子 这人这素质… 过了一个村子就是外地 警察！你管不管！？这已经危害公共安全了！故意伤害，寻衅滋事。总之，打人者应被抓之！ 一个人挨打，两个人的错！ 这司机你就不能雄起？反正都只有一条命。。又是他先动手，你怕什么？检查轮胎的敲车棒呢？直接往他身上抡啊 这个人渣真该屎，是时候警察出现了 呵呵呵，在中国，打人不犯罪，无所谓吧！大不了休息几天的事罢了！ 外地的风俗习惯我们不懂 你是个疯狗，没有公交你走路？ 看标题我以为是东北人 肯定不会是因为这起事件起的冲突，之前应该有前因的。 当着小孩的面这样，是要把孩子教育成什么样？ 你女儿被校长玩，你老婆被上司玩，你还喊谢主恩隆吗？ 有道理！ 这下进去监狱菊花残了 哪里有合法？法律是合约。你同过他有99%财富的法律？？？？？？？？？？ 尼玛你有本事烧了公交公司啊，关司机鸟事？ 像疯狗一样。<br>这不武汉的事情？ 一楼，公交这么多毛病，停止你那条线路算了，自己每天开车上班，省得啰嗦。 是有多穷， 差这一块钱吗？ 把这个傻狗领回家爆打 搞不懂 判刑就不会有下次了 李小璐在PGone家J情啪啪啪的完整版不需要费用看：（三65aj点cn）把三和点改成3. ？？？？？？？？？？？？？？？？？？？？？？？？？？？？？？？？？？？？？？ 所以你们玩的“再富有的沈万三，只要被朱元璋盯上就别想幸福”只是早过时的垃圾理论，这是连逻辑都玩不通的东西，，，，，，，， 这狗日的绝对有神经病，幸亏是坐公交，要是开私家车，还不秒秒钟发作啊😱太恐怖 这么牛逼，还坐什么公交车？直接买轿车好了。不但穷开装逼！[暴怒] 警察死哪去了？ 好象有种“格物论”--规范化物产私有则能激励人类劳动，问题是马云他不是直接劳动者。。。。。<br>格物论也要讲分配的，不然比尔盖茨可以建军队、卖买妇女、玩奴隶社会。。。。。 那家狗跑出来了，没人领，就宰了 反而是少数房客，，<br>据说现在新的房子，之前有一对奇葩，租后，房子搞得…房主就是房东，房东只好重新刷墙还有换地板。<br>有的房客也太离谱了汗。<br>看到了，墙是新的，中介说为此停2个月了，为了消味。<br>地板是新的，看得出来。<br>房东好的，房客也该爱惜使用人家的房子。 一块钱至于吗？省下一块就发了？一辈子穷鬼一个。 法制中国呢？肆意人身攻击！ 支持该打：尼玛，现在的公交还有公共服务在吗？我们这公交公司领着高补贴，定着高票价，排着烂路线…… 不知道怎么讲，我这几天带女儿去广州，她身高不到120，我还是买了儿童票，只想免得到时没座位。半价花了百多块，但求少点麻烦罢了。 轿车谁家都有不牛逼啊，想装逼坐八抬大轿啊，雇8个抬轿子的，前面再来几个敲锣打鼓开路的，算上社保一年100来万，比开车牛逼多了 对付这种人只有一个办法，捅他几刀，以后每次看到不用客气直接捅，不过应该没人能办到吧？？对付凶的人千万不能怂，要不然人家会欺负死你的 个人之间喜欢不喜欢，误会不误会，有缘没有缘，是一方面。而那些有底线有良知的人们，都不会为前面3种的各种区别而特别过度缺德。他们都是真有素质的人。<br><br>祝福所有有良知的人们。 公交车买票看身高不看年龄，为一块钱动手打人，小心你孩子有样学样，等你老了，他也为一块两块对你大打出手 我告诉自己：一定要努力学习！让自己走出村子，要带家人离开这片土地！<br>--日语专业大二学生留 真过了，怀远小学生都受贿过万元？这个时代。 引用这里一些人的说法：国人穷啊，吃不饱，穿不暖，看不起病，买不起房。一块钱也拿不出来啊。人民公交为人民，还收什么钱啊。 不会没人管这件事吧？ 那么这里有些奇怪，中印普通人那么能劳动，却不比西方副有，钱去哪里？<br>======================================<br>就是马云、马化腾等官老板把钱通过第三产业白送给美国了，说白了是定价的权利不合逻辑学j，是不科学的。。。。。。。。。。。。。。。。。。 [羞羞] 那女孩觉得她爸很牛。 原谅他吧，毕竟火化差一块 那么这里有些奇怪，中印普通人那么能劳动，却不比西方副有，钱去哪里？<br>======================================<br>就是马云、马化腾等官老板把钱通过第三产业白送给美国了，说白了是定价的权利不合逻辑学j，是不科学的。。。。。。。。。。。。。。。。。。 狗眼看人低，少以钱看人😕。多次对属龙有好感，76，88，没矛盾。属龙强势多点，然而人家多大气。<br>只不过，路人已经有很多年没有遇到龙龙们了，不论男女龙。<br><br>新房东属龙，希望路人之后走好运吧。新年快乐！O(∩_∩)O 我在武汉待了5年，大学虽然多，但是整体素质非常差。 直接买飞碟最好，回你的火星去吃热干面吧 喂，你还活着吗？ 垃圾人渣 它们还扣钱？它们先结合当地情况，把所有调理清楚再说！有那个起码的素质吗，装！ 给vv有 第3次，房东上海的<br>真不是挑事情而是比较客观！<br>租房子，不论合租还是整租，也不论在不在上海本地租的。如果房东是上海人，不要被之前的那些各种传说搞晕。只要租客素质正常的，上海房东，都是比较好的，再便宜的房子，人家都细节有，上海男人和阿姨妈妈，就是那样的。 支持枪权，象这样的人玩完了。<br><br>而且这个的老婆与家人估计也是长期生活在恐怖中。。。。。。。。。。。。。 丢人现眼啊，就是这样给小孩做榜样？ 外地的风俗习惯我们不懂 那样，自然会有些人，晚上后来会坐三轮车。哪知道，不搞好交通，不跟上配套，这边这两年据说房子卖的非常给力！新文都表扬了！<br>可是，配套，却严重停。<br>却不补配套，还抓三轮车～<br>也有自己私车，但是很少人选，因为那种更难取信。都会选地方上接受的，所以三轮车。<br>结果，只有当道的，抓三轮车，据说罚钱，还扣车半个月，人家也叫苦。说，确实如果有管理，可以交个正常的租费，他们也没有别的，而且乘客也需要有车。<br>不考虑乘客，随便虐三轮车，这边没有出租车，公交车8点半集体停。<br>各种乱，只是领导们有钱还有它们养的各种狗屎有钱～ 不言不语个v 东北人也地狱？ 不管怎么说，不论男女老少都有个数，有良知的好人们才会真有好报，这是从来都有的永远的真理！ sb 哇！这超凡的战斗力，应该去中印边境，钓鱼岛，维和前线好好施展施展！ 还跟一个女说过，阿姨说她们真的不容易，听出来都感冒了，在八线。<br>交通不便，4年不变，车晚上8点半没了，但是地铁到附近明明是夜里11点左右。没有旳士。租房的没车，电瓶车，一些人可能觉得不安全，特别是天黑后，有一段路挺不安全的，不如坐车安全。<br>有了自发的三轮车 西方有的国家规定下午不能开店上班、下班不能给工人打电话等。。。<br>====================================================<br>就是很楚：权利的负面、分配的错误--劳动没有在直接生产上--也用不了过多的劳动--只有这样理想化才能比印度好，其实封建私有制还是现在印度，大家是看到的，那肯定不好，，，，，，，，， 有后台？ 一块钱是高票价，你这种穷逼就别活了好不好 曹！我们穷人，孩子不买票又咋了？就知道欺负我们老百姓是不是？！看老子揍死你！ 狗屎婊子饭桶垃圾，你们大量捧很多倒数，还要疯狂虐很多，那么多年，至今还在继续！ 这么牛逼，还坐什么公交车？直接买轿车好了。不但穷开装逼！[暴怒] 厉害了，大武汉😂 它们只管随便虐，同时集体幸灾乐祸！去年就说，应该已经在棺里了～ 祸国殃民罪孽滔天而且狗屁不通只是各种疯狂造孽，它们真是够了！ 3只猫跟乔同一天的。<br>巫师们真是无聊 对，你们有条件，普通的流浪狗都炒作什么王可可，还有很多素质差的都是你们炒的成功。<br>反过来，虐了又虐，8年，10年，12月10日继续，跟帖还冷嘲热讽笑～给你上个大香哈哈哈～<br>而又是云淡风轻的小的逛街，包括狗婊子都喷明星了。同时老的演戏忽悠，小的也笑说，王在演给猪看～ 你们他妈的多少年了！个个无能缺德多年，差不多算了！一群无知饭桶！ 楼主挺悲惨的，挤公交都觉得贵，人家开着奔驰宝马都不觉得贵，还不好好反省自己。 滚你吗！八线！4年没变化，比不了你，4年多少钱都一无是处！ 哎哟喂，巫师们，领导们，男女老少狗屎们，你们威风！你们继续虐，你们愚不可及透了.！ 前门上后门下，你不懂吗？我有个朋友就是开公交车的，公交车都有摄像头的，前门不是随便开说开就开的。他开前门给你下，他是要扣钱的！！！！ 那家狗跑出来了，没人领，就宰了 你这想的也太狭隘了，坐公交车不代表没车...同理开车的不一定是自己的。最后总结就是这个B真的垃圾 武汉的八妈日养的。 支持该打：尼玛，现在的公交还有公共服务在吗？我们这公交公司领着高补贴，定着高票价，排着烂路线…… 尼玛我再搬，一个行李箱，还背一个大包，两个凳子，一个大纸篓！<br>如果它觉得穷酸才搬那些，它们也是我的物品！没有它家的，它嫌个毛！ 这么牛逼还坐什么公交车，坐火箭吧！ 正常的，样样弱！你们随便弄，都各种弄不好，成事不足败事有余，除了疯狂造孽你们一无是处！你们就是一群真正的社会垃圾！ 你是个疯狗，没有公交你走路？ 还不知足。12月10号，四川的哪个领导和哪家巫师的又一伟大啊！ 公交还嫌贵，你真得混得未免太惨了 12月10日，那么大的……没下文了？狗屎的领导和巫师们真是任性！ 热干面吃多了都这样 路人穿个大棉袄，戴个大微薄，一边24左右的行李箱，一边还背个大包，还拿着两个凳子和纸篓！<br>车上人不少，只是一站地！我那么多东西怎么放！就前面空。所以说明情况的。 哎哟微不是一群重罚千年的狗屎们又烧东西了吗！ 有时候真觉得无聊。最近搬家，刚才拎了一份，加上几个凳子和纸篓。<br>就坐一站地，而且还等于说了。确实上车看到人有点多，就说了只一站地东西多不想往里通过人群了。而且稍后还有两个人想跟我顺路下车。<br>哪知道，开车的，什么都不说，一站地功夫，刻意不开前面，大声说从后面下车！ 素质不如狗的饭桶，别装高大上！ 噢，全世界都该让着你，联合国都是你家开的 哎哟微不是一群重罚千年的狗屎们又烧东西了吗！ 我都觉得猫怪，之前没注意，后来想起来它们的生日，都冷汗。<br>现在，同一天，都搬。连女房东都说，好像一下子都搬走了。 尼玛，母猫丢了，小猫剩的2只今天被2家接了，路人今天搬家。<br>连女邻居都觉得，好像很特别，短短几天全都搬了。 之前就曾发生过，警察是怎么处理的？ 这个人渣真该屎，是时候警察出现了 有的司机你又不是售票员你一心一意开车保护大家安全就足够了 八线多少不合理，没有人管，生活配套四年不变，乱七八糟。扣你吗！ 说一下给所有幸灾乐祸而且重罚千年以上的狗屎们 有的人真的有点讨厌不是路人话多。今天新的二房东，知道有的地方同方向，尽管路人租的他家的这个点的房租挺便宜的，人家没有嫌贫爱富，还说可以开车顺路的。路人还要附近收拾物品，所以没劳驾房东。<br>而且这几天过年了，不少人都是高高兴兴的，不管认识不认识，没素质的才会新年引人恼火。 什么人 真的，被一群素质不如狗，低智商，低能，心底差，的男女老少，<br>欺负烦了 我的物品多，所以才难得想站前面，不然根本不会，它大过年的太刻薄了！ 今年10月10号换到一个，15号3只猫。<br>12月10号疯狂烧八年鬼造，就那么任性！<br>当天下午就烦起来，房东一系列赶人。给它们一群垃圾乐的，赵婊子易也出来装大咖说别的明星了，它说什么啊，它给狗屎养狗还有过所谓男友一同蹭，那么垃圾它装什么！ 但是除此之外，某甜全家包括八辈祖宗！某聪的全部狗屎！你们好自为之！ 捧好你们特意选的纯狗屎们，那些是你们认定的社会名流～ 路人只要一大堆东西，还有几次说“不好意思”，通过人群，而车子停着等路人折腾下车。<br>至于吗！元旦！大过年的，行个方便它能死啊！<br>估计跟他妈有的房东一个德行，看出来搬家了，连凳子纸篓都搬，被它嫌贫爱富了而已！ 去谴责，去远诛啊，校长玩幼女，导师玩女博士，怎么着吧 这就叫见你一次打你一次。 这男子这样做考虑到他女儿的感受么 你就去咬咬公交车司机吧，毕竟他们碾死了你那么多同类， 让买个票那么激动干嘛？素质不是一般差 一两块钱的车票还不肯买，什么人啊？！ 曹！我们穷人，孩子不买票又咋了？就知道欺负我们老百姓是不是？！看老子揍死你！ 一车的人都额外等了一会，本来开个门就下车。路人还几次因为物品不好过路，连说不好意思跟几个乘客。也有乘客觉得，有点奇怪。<br>至于吗，过年第一天！ 曹！我们穷人，孩子不买票又咋了？就知道欺负我们老百姓是不是？！看老子揍死你！ 一些成人，他们不说教育孩子，它们自己那点嫌贫爱富，还有一些完全陌生人的没有必要的刻薄，它们真是比较缺德。 祝贺这位垃圾打人拳师，为省这一元钱，在他女儿的心中，留下了一辈子的光辉形象。 反抗了要丢饭碗的 打个毛的马赛克 一块钱至于吗？省下一块就发了？一辈子穷鬼一个。 支持该打：尼玛，现在的公交还有公共服务在吗？我们这公交公司领着高补贴，定着高票价，排着烂路线…… 以前报警处理过，不过看样子并没怎么处理，为大陆得执法弹性点赞～😂😂😂 一张票2块钱，这父亲为这点事大打出手，考虑过孩子的感受吗？ 一说报警就怂了 齐达内不当球员还有大把钱公交车司机怎么办？丢工作就没钱开饭了！ 废物 拉黑，永远不允许坐客车，坐火车，坐飞机 傻逼这么暴躁，吓着小孩了！ 打的就是这种怕丢工作的顺民 湖北人都很坏 你们记住湖北人！湖北人畜生不如！ 可以拉去拘留十五天 老铁6666 曹！我们穷人，孩子不买票又咋了？就知道欺负我们老百姓是不是？！看老子揍死你！ 最可笑的是公交车司机不论怎样都不能还手，被砍也只能站着被砍。。。。不然就是公司和司机不对 大家要对公交司机多些理解和关爱,都是人呵! 太没有素质了 这么牛逼，还坐什么公交车？直接买轿车好了。不但穷开装逼！[暴怒] 武汉人渣不少！ 要是老子老子饭碗都不要了，也要让你进医院，暴脾气上来挡都挡不住 这煞笔吧 这么牛逼在警察面前不一样怂 这种人的德行，就值一块钱了，给小孩子做的这种榜样，他今后会后悔的 天津足球流氓全国出了名的，就你们天津人渣少 这种现象和警察处理问题和稀泥有关。。 穷鬼买不起票！ 反抗的结果又三种，一，打不过他，被K的更狠，二，打成平手，进派出所，各挨五十大板，三打过他了，他受伤，你自卫反而要赔钱，这就是天朝的法律 公交司机自己不反抗，不打白不打。 大珠海，我几乎每天都看到有人逃票，司机一遍遍叫也没用，不过多数是做工地的民工。我也是民工 结论：顺民不打白不打，女下属不玩白不玩 这么牛逼，买什么轿车，坦克才适合你 这个人渣真该屎，是时候警察出现了 看路人穷酸，凳子纸篓都搬，嫌弃！ 如果谴责让你幸福，我宁愿上你的幼女再让你谴责 你是个疯狗，没有公交你走路？ 这渣子，绝对是垃圾小混混出生 还就打人了，怎么着？这么厉害，当初八国联军是不是你打跑的？打起同胞来很厉害啊，我看就是哪个南面小国偷渡到广东，渗入到中国，一边赚中国的钱，一边打中国人，一边又在这抹害中国。你这种人，唉，真应该直接抓住，秘密处决了，省的你继续残害中国人 老头老太都不用买票，小孩子无经济来源，无自主生存能力，为什么不是让老头老太买而规定让小孩子买栗呢？没有人性的中国 我上车时候，说明情况，而且通过人群确实麻烦，如果不是人多，东西都不好放入群里，所以索性在开车的旁，只是一站地。元旦过年。装尼玛！ 一块钱也搁得住打人？ 司机也是多管闲事操心的命，票钱应该跟工资不挂钩吧？ 公交都是倒贴的，经常看到街上一个乘客都没有的公交在线路上一样得跑，就是为了便民，哪怕只载到一个乘客方便一个人民 一看就是挑事的，哪里没有坏人。你说说，你广西就没有 所以就白打了？ 疯狗！ 你是傻逼吗？ 哈哈，这种素质 有些人就是要去拘留所 司机怎么那么弱呢？打回去呀！ 事儿要分两面看，买票是必须的，尤其是上车后家长要鼓励孩子自己主动刷卡，这样既锻炼孩子的自主能力，又遵守了社会公德。可是这个家长为什么这么愤怒，大家有没有想过？是不是平时逃票的现象就很多，尤其是家长带孩子的时候；是不是有熟人、领导或亲戚朋友坐车司机就不提醒买票呢？这些现象都是有的，大家不要看了视频就一边倒的批评打人者，打人者肯定是错，但这件事是不是也要值得我们深思呢？ 戾气太重！ 这么牛逼，还坐什么公交车？直接买轿车好了。不但穷开装逼！[暴怒] 真是一个以身作则的好父亲啊，您的女儿以后一定会继承你的优良作风的 中国法律规定不能自卫反击 那家狗跑出来了，没人领，就宰了 这么脑残的人怪不得坐公交 神经错乱的民族 宇宙的探索是离不开我的话的，只有把围绕地球公转的一切物质包括气体计算在地球体积之内才能找到地球真正的边和角，那是反引力汇聚地，是真正的真空隧道，宇宙高速路，太阳系内的动脉!把围绕太阳公转的一切物质包括气体计算在太阳体积之内才能找到恒星与恒星的边和角，那是恒星与恒星之间的真空高速隧道，找到真空隧道以近光速超光速飞行那不是个事!宇宙飞行器也不能按照飞机的二维结构原理制造，飞机是不能高速自转的，但只有高速自转才能产生真空电磁场，以近光速飞行，未来的宇宙飞行器必须按地球原理制造，八层以上结构，你看地球高速自转着前进，我们人坐在地球上有啥不适感觉吗？ 支持该打：尼玛，现在的公交还有公共服务在吗？我们这公交公司领着高补贴，定着高票价，排着烂路线…… 我们法治建设啊还要依靠个人的拳头来保护自己 怎么处理啊？ 这种煞笔，人家司机也没说难听的上来就直接打人，畜生，其实司机应该用计，先让车跑起来，然后再激怒他，让他来打你，然后使劲撞豪车，撞的越多越好，最后全部算他的责任，出现死伤还要追究他刑责，让他赔几十万还要坐牢 这样好了，把公交扯了 我老家一个打村官被拘留了几天，据说放出来以后听见警车鸣笛就尿裤裆里了。具体咱没有见过，也不知道现在是否好了，不过从拘留以后再也不嚣张了。看来那里边应该是招待的不错。 警察，有人打人了！ 武汉就很合理了 精神病，快收治！ 你这想法更畜生，发生什么事就解决什么事，一肚子坏水，河南人的脸都让你丢尽了。 拘留几天吃个官饭就好了 公交车票没几个钱，我宁愿我小孩快快达到买票标准。。 人渣，父亲，没有好榜样！小孩在旁边还这样！<br>加入你女儿受到欺负，你这样我绝对支持你，双手举赞！<br>逃票，劳资鄙视你！ 病态 看来开公交还要配砍刀 穷鬼没钱买票！ 这个社会怎么了 武汉人都这样，是不是这样喷 公交司机自己都不反抗，警察难道帮你揍一顿，过去了，结案。 武汉啊，呵呵呵呵 大家别学这种人 拘留所待着就好了 穷得有理。 来，警察叔叔快来调解爱来教育 坐不起车就别坐，丢人不 [微笑]你居然还吃这来路不明的狗？ 这个司机好怂耶[可怜][可怜][可怜] 退余额 汉人 小孩都尖叫了 坐个公交他还要享受专车待遇了！人渣！！强烈建议这种人渣别打码！ 这就完了？打了人就算了？没结果？ 武汉人真有血性，佩服。[狗][狗][狗] ",
        "Total": 4022
    }
}