{
    "URL": "http://news.163.com/17/1228/15/D6OLUVU8000187V9.html",
    "Comment": {
        "Reply": 7,
        "Content": "键盘侠们是时候展示一下你们有多多爱国了！ 珍惜生命。 异国他乡的… 太不幸了。 希望可以到达天堂。 怎么到处都是中国人，应该清理了 刚刚接了一个项目，下周签合同，去喜马拉雅山种树，预计森林覆盖率达到98.352%，国家先给钱不用垫资，有没有一起干的，有兴趣先打2000诚意金，我马上当书记，顶我的可以不打钱，一起赚！ ",
        "Total": 8,
        "Link": "http://comment.news.163.com/news2_bbs/D6OLUVU8000187V9.html"
    },
    "Title": "外交部:冰岛大巴事故致中国游客1人死亡 11人受伤_网易新闻",
    "Source": "Netease",
    "KeyWords": "外交部,中国,冰岛,事故",
    "PublishTime": "12/28/201715:43:00",
    "Article": "（原标题：外交部：冰岛大巴事故造成中国游客1人死亡，11人受伤）【环球时报-环球网报道】据中国外交部28日消息，冰岛时间27日，一辆载有44名中国游客的大巴在冰岛南部维克镇附近倾翻，造成中国公民1人死亡，11人受伤，伤者已送往医院救治。中国外交部发言人华春莹在当天举行的外交部例行记者会上发布了上述信息，并称中国驻冰岛使馆已立即启动应急机制，派员赶赴医院探望慰问受伤游客，要求冰方彻查事故原因，全力救治伤员，并督促相关旅行社切实履行责任，积极做好善后。外交部和驻冰岛使馆将继续密切关注事件进展，积极为涉事游客提供必要协助。本文来源：环球时报-环球网。更多精彩，请登录环球网http://www.huanqiu.com责任编辑：赵亚萍_NN9005"
}