{
    "Article": "网易娱乐12月29日报道三部本届颁奖季热门影片《我，托尼娅》《请以你的名字呼唤我》《伯德小姐》和林克莱特新片《最后的旗帜》资源在网上泄露，谁干的？发布这些资源的黑客组织Hive-CM8（《三块广告牌》泄露也被怀疑是他们所为）发表公开声明谈到此事，称这是一份“圣诞礼物”，并号召观众可能的话尽量去电影院支持这些影片的票房：“别忘了，看预览DVD版（这些资源来自颁奖季发给各家的影片预览DVD）和真正在影院看是不同的体验，你还是应该买票去电影院，支持电影制作人。我们分享这些资源，主要是为了那些生病不能去电影院，或者因为电影上映范围有限，他们的国家看不到这些电影上院线的人。这样，这些人就能体验一些颁奖季提名影片了。享受吧……”Hive-CM8近些年经常在网上发布颁奖季热门新片资源，并一直声称自己的行为是为帮助没有条件去影院看这些电影的人，强调不会影响电影制片人收回投资。2016年初，他们曾为泄露了昆汀的《八恶人》道歉，当时那份声明还说到了很多该组织坚信的理念：Hive-CM8表示，该组织在网上提供这些盗版电影资源是为了帮助那些没法去电影院观影的人：“我们希望和那些不够富裕，没钱去电影院观影的人一起分享这些电影。当然这些盗版资源无法和在电影院现场观看的体验相提并论。就像我们在nfo信息中说的那样，如果你有能力，那么还是请去电影院观赏这些电影，支持这些电影的制片人。他们需要从电影票中获益，拿回制作电影时投下的钱。”而谈到提前泄露《八恶人》资源，声明称：“这部伟大的电影在上映之前就提前放出了资源，我们为此感到抱歉。我们无意伤害任何人，我们不知道这资源会变得这么受欢迎。《八恶人》是一部令人兴奋又非常娱乐的优秀西部片，导演、演员、剧本、摄影、配乐方面都非常棒，称得上是昆汀最棒的作品。”他们表示：吃一堑长一智，为了避免类似《八恶人》这样的麻烦出现，他们特地等到《大空头》上映一周之后才放出资源，给了片方“捞回投资”的机会。以及他们不认为泄露资源会影响影片回本，反而认为对电影宣传有好处：“现在大家都在热议《八恶人》，我们不认为这次提前泄露事件对制片人们造成经济上的损失，我们实际上创造了一种新的炒作方式，这避免了《星球大战7》宣传攻势占满新闻、电台、报纸，而且片方完全不用花钱。假如说原来有5%的人想去电影院看这部片子，我们相信现在绝对有40%的人愿意去电影院了，因为大家都在讨论这部片子，所有人都想去看看这部备受热议的电影是啥样的。这肯定会推动影片的票房。”Hive-CM8是如何获取到这些盗版资源的呢？他们表示并非是通过黑客途径窃取：“我们是在马路上从一个家伙手里面拿到电影拷贝的，所以压根不存在什么解密行为。”指的就是拿到颁奖季预览DVD了。本文来源：网易娱乐责任编辑：陈恺_NK4686",
    "URL": "http://ent.163.com/17/1229/19/D6RKAAHR00038FO9.html",
    "Source": "Netease",
    "KeyWords": "热点,颁奖季,电影,八恶人",
    "Comment": {
        "Reply": 9,
        "Link": "http://comment.ent.163.com/ent2_bbs/D6RKAAHR00038FO9.html",
        "Total": 15,
        "Content": "callmebyyourname[羞羞] 良心啊 无语下 callmebyyourname[羞羞] 中国有什么国产的国外的看不到？ 良心啊 感触很深！举个例子吧，战狼2国内刚上映一周，我就在Youtube上看到高清完整版了，而雷神2都已经下映了，我至今还看不到。而在中国呢，国产的看不到，国外的也没资源。说的版权，完全是说给自己听的，做给自己看的！ 《少年派的奇幻漂流》 还有这影片? 神片资源来了 这么多好片啊! "
    },
    "Title": "多部颁奖季热门影片资源泄露 幕后黑手称造福观众_网易娱乐",
    "PublishTime": "12/29/201719:18:49"
}