{
    "Source": "Netease",
    "KeyWords": "金属,螺丝,医生,螺栓",
    "Title": "74岁老太胃中取出150个钉子螺丝 有的已氧化生锈_网易新闻",
    "PublishTime": "12/25/201716:34:53",
    "URL": "http://news.163.com/17/1225/16/D6H1JS8P00018AOQ.html",
    "Article": "（原标题：钉子螺丝螺母俄74岁老太胃中竟取出150余件金属零件）国际在线专稿：据俄罗斯生活新闻网12月24日报道，俄罗斯布里亚特共和国的医生近日在一名74岁高龄的老太太胃中发现了超过150个金属零件，其中包括钉子、螺丝、螺母等。据布里亚特共和国国立临床医院官网发布的消息，这名老太太来自伊沃尔金斯基区，十二月初，她被送往医院治病。医生为患者提供了必要的帮助，治疗后患者病情稳定，但却因为不明原因发烧。患者胃中的异物成堆在做进一步检查时，医生们惊讶地发现，患者的胃中有许多异物。详细检查后，医生们发现这些异物中有钉子、螺丝、螺栓等各种金属零件。通过对X光片的分析，患者随时都有胃穿孔的危险，医生们决定尽快做手术将异物取出，以免致命的后果。患者很快就接受了手术，医生们在她的胃中取出了长钉、螺钉、螺栓、螺母、长达15厘米的金属段和银制链子等，总数超过150件。这些金属零件已经氧化，因此不知道它们在患者胃中已经存在多长时间。从患者胃中取出来的金属零件据悉，患者胃中所有的异物都已经取出并在重症监护室接受观察。关于这些金属零件是如何进入到患者胃中的，目前并没有具体说明。本文来源：国际在线责任编辑：徐萌_NN7485",
    "Comment": {
        "Content": "毛子免费医疗不，毕竟老太这么大岁数了，先交钱了没有 这老太是个洋老太？不是榫卯结构，是丁卯结构？ 这是病。 金属狂人😄 补铁嘛 吞金是重金属中毒，和吞铁性质不一样 老铁，扎心了 老心，扎铁了 口味重 异食癖！确定无疑！ 这不太科学啊？这么多钉子，胃没事？看来古代吞金自杀有点难度。 假心闻吧，你吃个试试？ 牙好胃口就好👍 自己吃的 这老太是个洋老太？不是榫卯结构，是丁卯结构？ 74岁老太胃中取出150个钉子螺丝有的已氧化生锈 这是病。 那就得看醋的浓度,含有醋酸成分越多,越不容易生锈,反之择会生锈加快 缺铁，补一补。 胃液还没有消化这些铁件么？ 老心，扎铁了 不敢想象 口味重 一百多个螺丝有多重，胃受得了么。 老铁，扎心了 异食癖！确定无疑！ 毛子免费医疗不，毕竟老太这么大岁数了，先交钱了没有 额…… 为了补铁补血 老毛子就是牲性——啥都吃！ 牙好胃口就好👍 缺铁 吞金是金子太沉坠破肠子导致死亡，太痛苦了。 假心闻吧，你吃个试试？ x战警补充点铁元素 应该起诉钉子厂，伤那讹那。 能不能起诉螺丝厂子，没有提示不能吃 好奇，铁不沉吗 金属狂人😄 结论：老头胃里含氧量过高。 补铁嘛 毛子就是牲性——啥都吃！ 吞金是重金属中毒，和吞铁性质不一样 战斗民族 钢铁侠 混江湖人 看包装了,如果你的是塑料袋密封包装,在你包装时候有热气,也会导致塑料袋里有热水珠,从而导致生锈达克罗螺栓一般是不太怕海水腐蚀的 异食癖，还有吃土吃玻璃的。最可笑的是走进科学还当特异功能 俄罗斯总有不少奇葩事儿 这不太科学啊？这么多钉子，胃没事？看来古代吞金自杀有点难度。 好结实的胃 胃中不是强酸环境吗？怎么铁还能够长期存在 ",
        "Reply": 39,
        "Link": "http://comment.news.163.com/news2_bbs/D6H1JS8P00018AOQ.html",
        "Total": 373
    }
}