{
    "PublishTime": "12/31/201708:56:00",
    "Source": "Netease",
    "Comment": {
        "Content": "这种技艺找个公司挂靠不就可以有许可生产了吗 真几把逗，非遗传人，然后直接判罪了哈哈 自古二楼出傻逼 说得好听要传承，却给定有罪，要说有罪嘛，又免于刑罚，好厉害的两张嘴，怎么样都是它们说了算 去台湾，那里能继承我们国家的文明。现在的观园本无文化基础上，别指望他们能干出什么只会毁灭。他们所作所为连他们自己都不知道在干什么 真傻！拿着证去韩日，他们绝对会收！ 看来我的降龙十八掌也危险了 一边不让人传承，一边又说要传承中华文化。。。双击666 我笑一下 县上的人说要拍节目让准备，准备一半就被人举报了，怎么感觉就是钓鱼执法，甚至可以说直接挖个坑把他踹下去的 这是有多心虚 这是真理，去韩国一次性卖掉技术。 自毁长城有什么办法 我们的邻居是整天试验核武器的！东北人照样生活，但是，还有一个邻居，为了防止邻居的核导弹，弄了个萨德，我们就不让他们生活，什么道理 啥证?请问你不发证他能有证吗？ 被异族殖民98年的元朝时期，好像就是五户共一把刀。 判刑是给法律面子，免罚是给社会面子，面子都给出去了，自己的里子却掉光了；这石头摸了几十年了，就摸出这么个结果，姓资或姓社已经不重要了，重要的是面子，遇到事就光想着把话说圆，弹性太大，自己订的规则自己随便改，看人下药，当老百姓都是傻逼；老百姓说话了，自己什么揍性真没点B数么？ 移民吧，亲，韩国思密达们会热烈欢迎你的，于是这项非物质文化遗产被韩国顺利申遗，科科 失传勿怪 几百年上千年都没事，现在就违法咯了[报警][报警] 你的话让我想起了上世纪九十年代北京金融街拆迁时一位在大乘胡同住了一辈子当时却拿着那点补偿无处可去的百岁老太太，她说：大清的时候我就住在这里，民国也住在这里，闹日本的时候同样住在这里，现如今我没地方去了。 傻逼警方。你咋不去鸟巢抓呢？招待奥巴马一次燃放的都以吨计 扯，做鞭炮、烟花的？你哪里不是照样生活！ 制作刀具的，也应该判刑，菜刀很危险 这个曾经发明火药的民族，如今最害怕火药！真可笑！ 49以后啥都没有了 苦涩的说句：八国联军保护了多少文物啊，否则都破了四旧 中国古传承在日本想想就可悲。还有那些笑话小日本喝茶叶末的人。难道不知道中国古代喝茶是要磨成粉的么?估计没多少中国人还记得斗盏这个说法了吧。悲哀[大哭] 恭喜你们又灭绝了一个非物质文化遗产，重现那十年“盛世”已经初步达成。 非遗传承人就可以不遵守法律了？这特么有点不要脸了么？既然知道自己从事的行业是特殊行业在，知道自己制造的东西有威胁性，为什么不去想关门申报备案？一被抓了就拿自己是农民说事，农民就可以违法么？农民是违法的借口么？<br><br>学开锁的人多了，开锁公司难道不需要去公安备案么？人家怎么就知道去备案你怎么就特么这么牛逼拿无知当个性？ 论语说“七十而从心所欲，不逾矩”，意思是70岁的时候想怎么作都可以，不会有事。咱这边就严格点了，毕竟居民生活水平据说高了，平均寿命据说一平均就高了，发LV就规定了，80岁可以减免处罚！老头子就这么里面外面熬了1年，不容易啊，终于80了！ 一楼乱扯，要的是管理，而不是禁止，一定在家里制造?不能在仓库?自古以来就在用，百姓也没意见，现在就不行了！ 这是个办法！那边也是传承，而且很多东西比这边还更遵循传统。 当今的主要社会矛盾，是地方官员日益低下的智商与人民日子增长的民主觉悟之间的矛盾。 不知道多少年以后。韩国就会说这项文化遗产是他们。。。其实不怪韩国，看看我们自己家里都变成什么样？ 每次自己却坚持不了5，6分钟就完了后来我加了巍.（QZ依究潵究）<br>现在每次半小时以上不用担心她了哈哈哈 他如果有证，会受处罚？ 哈哈哈哈 如果你的邻居是做这个的，你还会这么淡定吗？ 传统呢，继承呢？ 元朝-清朝-目前。 工匠精神就是一个口头小花盆 都是最烂的时代 你说的是黑作坊或者大工厂一炸几百米，这么个传承人哪炸的了那么多 目前，在歷史朝代中已排名第二。<br>第一是元朝！ 干脆把赵县赵州桥也拆了吧，一个未经国土城建批准的违章建筑。 有啊！有个字斗认识不？<br>49以后有各种斗譬如说：头天斗地斗人斗你玩———————— 每年都有炸的，附近几百米都跟着遭殃，不该严格管理？ 一边喊着传承，一边说要传承，我只想说，cnm NB,Sb, 最高法的有关司法解释，杨风申用于制作烟花的火药超量，确实违法----》》》几百年前做梨花瓶的时候还没有最高法的规定吧~? 随你们高兴。。。慢慢作。。。。 官字两张嘴 一边不让人传承，一边又说要传承中华文化。。。双击666 改了就好了呗。 去韩国吧人家会支持你的 8楼说真话了。<br>估计是老头的东西，抢了某烟花厂的效益。<br>现在烟花价格可贵了，利润高的吓人。 关键词404 贫贱不能移 自己干不行，去上市公司干 看来我的降龙十八掌也危险了 移民国外吧，不至于失传 我独孤18贱也危险了 河里面捡个枯木都判刑 老铁，解释一下玩具枪呗 非法制造易燃物品 化工厂煤气管道每年也有炸的，怎么不见“严格管理”？ 判刑是给法律面子，免罚是给社会面子，面子都给出去了，自己的里子却掉光了；这石头摸了几十年了，就摸出这么个结果，姓资或姓社已经不重要了，重要的是面子，遇到事就光想着把话说圆，弹性太大，自己订的规则自己随便改，看人下药，当老百姓都是傻逼；老百姓说话了，自己什么揍性真没点B数么？ 三寸金莲也是中华文化，，而且比烟花的历史长多了。。。 个人是拿不到烟花生产许可证的，只针对企业 它们整天最担心的就是手里的权利，防的最厉害的不是外面的人，而是自己家的人，严格的说它们也没当成自己人，谁对它们哪怕有亿分之一的威胁都要清除掉，土包子得来的宝贝生怕别人给它抢走了 扯蛋危险不，一样有人在扯，你得看怎么扯和在哪里扯。怕扯痛了就不扯了吗？那下一代怎么生出来？ 我的凌波微步再上一层就可以躲子弹了 靠。 去国外吧，有手艺的，到国外绝对是名利双收。 傻逼警方。你咋不去鸟巢抓呢？招待奥巴马一次燃放的都以吨计 你家是不是邻居公共厕所？ 如果很早之前禁止，四大发明中也就没有火药了，当然后面的枪炮也就更加没有了。 大家要引以为戒。 一千年后的新中华四大发明之一：和谐社会。 非遗不是证？还要什么？ 河里面捡个枯木都判刑 判有罪不应该，法院太教条！ 说得好听要传承，却给定有罪，要说有罪嘛，又免于刑罚，好厉害的两张嘴，怎么样都是它们说了算 谁天天在家做烟花啊？ 做烟花当然需要许可证，如果条件达不到就不给发证 离紫禁城太近了 哦，还有3个男四眼青年，跨年的日子，结伴到电影院看动画片👀 什么让你这般害怕？！ 矛盾论 解决办法多了去了，就看怎么解决，一棒子打死是最傻的方式，这些匠人本来就是文明瑰宝，你给他找一个适合的作坊，证件齐全，安全到位，匠人安心，不见得不能继续传承下去。每年给些经费也不至于让匠人寒心，在进行适当补助，所产生的旅游利润将远大于这些经费。 说得正规的好象不会出事，天津，中什么化那爆起来比黑厂还厉害 每次自己却坚持不了5，6分钟就完了后来我加了巍.（QZ依究潵究）<br>现在每次半小时以上不用担心她了哈哈哈 他如果有证，会受处罚？ 哈哈哈哈 说你行你就行不行也行，说不行就不行行也不行！.......不服不行！ 怎样说都有理 如果你的邻居是做这个的，你还会这么淡定吗？ 不要搞了，你管他什么产了。 扯，做鞭炮、烟花的？你哪里不是照样生活！ 每年都有炸的，附近几百米都跟着遭殃，不该严格管理？ 哈哈哈哈 笑一下吧 一遍唯物主义，一边神话传说 逗比，火药才出现多少年？ 说得好听要传承，却给定有罪，要说有罪嘛，又免于刑罚，好厉害的两张嘴，怎么样都是它们说了算 呵呵，就这朝违法 真傻！拿着证去韩日，他们绝对会收！ 中国的法官们制不住真违法的，治守法的往死里捏。 看来我的降龙十八掌也危险了 一边不让人传承，一边又说要传承中华文化。。。双击666 一个赚钱的项目你不给人家不判你判谁。正确的做法是上交技术让组织聘用这是惯例 国家大了什么人都有就是这样 就是带到棺材里也不要交出这个的制作方法！！！有能耐下套自己去摸索 有人在害怕…… 就是正常的加工别的东西的工厂，一年也比这个炸的多啊！ 这是真理，去韩国一次性卖掉技术。 自毁长城有什么办法 哈哈哈哈哈哈哈哈哈哈，不犯法吧，笑应该不犯法。[挨揍][挨揍] 一场文革连古人的坟都给起了，你还想传承古代的烟花？没判你死刑算不错了。 等日本鬼子和韩国棒子申遗后，让他们去抓人吧！[大哭][大哭][大哭][大哭][大哭] 非遗都能取消，历史也在从教科书抹杀，中华名族，还有什么？ 两张嘴 上下两张嘴[车珠子] 几百年上千年都没事，现在就违法咯了[报警][报警] 去日本申请人间国宝然后在朝日新闻上一登报详细说明情况产经新闻再一转载打b的脸 扯，做鞭炮、烟花的？你哪里不是照样生活！ 经历过办证经历的人会送你这条件达不到俩字：呵呵。 出国去韩日台，说不定会有机会传承 制作刀具的，也应该判刑，菜刀很危险 奇葩 你说的是黑作坊或者大工厂一炸几百米，这么个传承人哪炸的了那么多 那北棒子呢？ 灭了一门手艺！ 拿录音机来放了听吧，污染环境 火药的发明是人们长期炼丹,制药实践结果,至今已有一千多年历史 去岛国，你将会是一位匠人！ “官”字两张嘴！！！怎么说怎么有理。哈哈哈哈！ 上面的是不是中国人? 逗逼啊 这十八掌打在谁得脸上了？ 不知道多少年以后。韩国就会说这项文化遗产是他们。。。其实不怪韩国，看看我们自己家里都变成什么样？ 做烟花当然需要许可证，如果条件达不到就不给发证 想不通就对了。该失传的，就让他失传；该继承的，自然会有人去继承；不用你们这些刁民去担忧 这玩意有啥用？花钱污染环境，趁早禁掉！ 自己扇自己耳光 如果你的邻居是做这个的，你还会这么淡定吗？ 失传勿怪 河北省非物质文化遗产中心是一帮法盲；河北省的派出所是一帮文盲；法院是一帮子教条主义。鉴定完毕 杨风申在制作“五道古火会”使用的烟花时，经人举报，被河北赵县公安局民警带走 华为就少说两句 早点亡国就好了！ 每年都有用刀杀人的，买刀要不要证 横竖两张嘴 它们就是一群成事不足败事有余的狗屎💩 去韩国吧 草，说的有理有据，辩不过拿手机说事。 每年都有炸的，附近几百米都跟着遭殃，不该严格管理？ 乱七八糟，好的大量被虐；垃圾成风还都有后台？ 有关部门是中国的大佬。 这还真不打脸，打脸的前提是他们得要有脸 2016年2月，县里人告诉我说，正月十五有电视台来录制节目，为拍摄需要，我准备制作七百个“梨花瓶”烟花，平时一般都是制作两百个“梨花瓶”烟花，那天我做完三百个“梨花瓶”烟花后，院子里来了人说我被人举报了。 如果你的邻居是做这个的，你还会这么淡定吗？ 老头用的是黑火药，不是炸药。而且数量很少。烟火厂，第一量大；第二加了很多雷管中的成分（为了效果好），所以威力巨大。两码事儿。 真几把逗，非遗传人，然后直接判罪了哈哈 让老艺人寒心那！ 韩国发明的 我有点支持韩国抢注非遗了 盛世如此美好。 钓鱼执法不就是它们创造出来的词吗？一句话，才短短几十年，它们就已经怕成这样了。。。 看来我的降龙十八掌也危险了 一边不让人传承，一边又说要传承中华文化。。。双击666 申请非遗的时候，有关部门应该考虑到这些问题！[报警] ...... 打汽球的枪都有事，这个能逃得了？ 以后什么雕塑，裁缝一律抓 有罪，又免于刑罚？还有有这个操作？ 真是的。这样多伤一个民间匠人的心？这种传统手艺都要失传了你们才开心？ 拆北京城墙，城门都无人追究责任，一个烟花又怎么了？老祖宗的东西失传了多少？ 你妈警察蜀黍没钱花了 掏个鸟被判刑，打个气球被判刑，收玉米被判刑，放个几百年传统烟花也被判刑！！！ 世上最可恶的两件事：踢寡妇的门，挖绝户的坟 人家放了几百年都没炸过，你操个屁心啊！人家邻居，村民都没意见，你操个屁心啊！法官是特么智障吗？只会按法律条文判？有没有社会危害性，心里没点逼数吗？ 你个放烟火的抓了算什么？老祖宗的坟、屋子，书画，也不知打砸抢烧了多少呢。 真是太伤人了！过分 几百年上千年都没事，现在就违法咯了[报警][报警] 一边说抵制洋节一边再扼杀自己的传统，为什么中国的节日不再吸引国人了官老爷心里有数没 套现找我 你是南京人？ 打脸！！！…… 好少见啊！难道年末最后一天礼部和麾下百万雄师网评员都放假了？ 肯定某位领导想要人家手艺挣钱，没想到老爷子不迁就呗，这都看不明白 这个古火花的原理，不会爆炸。了解原理都会明白。现在莫名其妙胡乱的，太多。 没给钱。 个人建议，去其他的国家吧[喷水]，应该会好过点 你这是恶意提问，下一个问题 那个什么遗本身就是个笑话，至于中国的法律，就是个更大的…… 我的金钟罩还要传下吗？ 去台湾，那里能继承我们国家的文明。现在的观园本无文化基础上，别指望他们能干出什么只会毁灭。他们所作所为连他们自己都不知道在干什么 它的原理不会有火灾，而且事实也是从没有火灾过。莫名其妙就把人家关了，一群这个世道的狗屎！ 该绝种就绝种吧，反正早晚结果一样。以后这东西只能出现在野史里，不是挺好。 这个案子有一段时间了，所以追剧的都知道，这个古法的原理真是有安全，不会爆炸，而且事实也有，那么多年从来没有发生过爆炸和火灾。明明是安全的，又是古代传的精华遗产！<br>现在的狗屎们各种歪了乱了，垃圾。 跟贴被火星网友带走啦~ 应该传承！所有民族文化的精华，都应该传承还有发扬！ 该管的没人管，不该管的全来了，这就是他们干的事情呵呵！ 别，看这架势力不二年台湾要变省了，虽然说是好事，但不知道为啥心有戚戚。 真傻！拿着证去韩日，他们绝对会收！ 非法和合法就是没交钱和交钱的区别，所以说，你不交钱就抓你判刑和你不交钱就打你的那帮有什么区别？大家说？ 现在大气污染还不是怪我们烧柴火，唉 它们怕了。。。 扯，做鞭炮、烟花的？你哪里不是照样生活！ 这么说，菜刀也不能做，每年都有菜刀杀人的。 那些领导们到底有没有文化！ 中国有什么古文化？生活中又继承了什么文化？。作为学生精神深处没有一丁点中国文化感受，只有现在人的素质要求 处罚是合法的。因为你不能在自己家里或者居民区制造。烟花爆竹厂是可以的啊，你去那里生产就合法了。 我的一阳指也不敢乱出手了 每年都有炸的，附近几百米都跟着遭殃，不该严格管理？ 有钟国梦就行了，要啥自行车 所以这个社会再无匠人 急。。在线等处理弹弓的方法。。。 不喜欢人家为什么不搬家？ 说得好听要传承，却给定有罪，要说有罪嘛，又免于刑罚，好厉害的两张嘴，怎么样都是它们说了算 去台湾，那里能继承我们国家的文明。现在的观园本无文化基础上，别指望他们能干出什么只会毁灭。他们所作所为连他们自己都不知道在干什么 怕的历害啊.. 真傻！拿着证去韩日，他们绝对会收！ 这是传承，正确做法是引导他们如何规范制作，安全使用，而不是扼杀。现在的当X最怕发生事故，只要不发生事故，传承不传承无所谓。 它们只是占了中华的地而已，中华文化的正统根本不在它们这里，它们来的时候也是打着两个外国大胡子的招牌来的呀！ 发了证还爆炸的，发证机关管赔吗？ 一边不让人传承，一边又说要传承中华文化。。。双击666 “它”字用的妙哉！！<br>大家理解理解它们吧，毕竟人家只有短短几十年。。。 [惊讶] 身上有技术，赶紧出国！澳洲就缺这种人才！猪国不是人住的！ 好了又一传统技艺从某国消失恭喜发财恭喜发财 摇号，中了的可以放烟花。 没办法，现在一说自由就是受外国蛊惑的，二说mz就是要亡中国。搞的好像马克思真的是中国人一样 你个怂货 估计以后我儿子都不敢用菜刀了！！！！！ 誓将城相拉下马！！ 最黑朝代与腐败莫过于今 不好意思，澳洲不可以，要专业人士才能放，鞭炮都没有 糟了煤气难道也是非法的 啥证?请问你不发证他能有证吗？ 傻逼玩意儿 四大发明！！！ 呸呸呸呸 还用在过阵子？现在要抓你都合法，弹弓早就是武器了（超过15焦尔了） 古代皇帝不怕颠覆。 我笑了 几百年上千年都没事，现在就违法咯了[报警][报警] 自裁吧 每天都有车祸，是不是也要禁止开车。 扯，做鞭炮、烟花的？你哪里不是照样生活！ 外国都可以放烟花，中国不能放，烟花还是中国发明的！你严加管理是对的，但一刀切式禁掉所有烟花就是天大的笑话，完全是不讲理不体察民情的管理方式。 每年都有炸的，附近几百米都跟着遭殃，不该严格管理？ 这说明了什么？说明他们开始怕了。。。。<br>人家说了，超过多少焦耳就是定义为枪支了。。。再过一阵子，我给我儿子做的弹弓也要藏起来了。。 每次自己却坚持不了5，6分钟就完了后来我加了巍.（QZ依究潵究）<br>现在每次半小时以上不用担心她了哈哈哈 消灭T4G,人人有责! 他们知道只要坑自己人他们就可以存在也只知道坑了 它们就是怕。 我也笑一下。没有两把刷子怎么能安天下 其实吧。。。。 元朝还禁烟花? 所以说不能土鳖当家 一个烟花给大哥吓坏了，都吓住院了 只要睡着别醒就是最想要的结果 才止四大发明 抓碰瓷和通信诈骗有这么认真就对了。 自宫吧 那也别去医院看病了，反正都得死 做烟花当然需要许可证，如果条件达不到就不给发证 傻，传承中华文化主要靠禁止过洋节 一个神经病，病入膏肓，药物已经不起作用，唯一办法就是割去毒瘤 难道有证就不爆炸了？ 我给我儿子做的弹弓怎么办呀，听说按杀伤力是“武器”等级，，，怎么办，在线等处理办法。。。 其实在这个信息化时代，大家通过了解，大部分年轻人都知道过去。。谁是正规正统，谁又才是匪民。。。<br>历史长河里，正义的史书永远会存在。。。 ererwerw 复兴元朝指数70% 如果你的邻居是做这个的，你还会这么淡定吗？ 我给我儿子做的弹弓怎么办呀，听说按杀伤力是“武器”等级，，，怎么办，在线等处理办法。。。 元朝-清朝-目前。 变省？你想太多了，先不说LD的家属都是国外的，他们在这里是为了捞钱，还是为了变省？？再说了，真打起来了，你帮谁 元，五户一把刀，98年。 这个事情嘛。。。。 目前，在歷史朝代中已排名第二。<br>第一是元朝！ 跟贴被火星网友带走啦~ 很好，这很大清。 可以过圣诞节啊[不屑] 这个国家没未来 这就是现实看那些所谓的圈就知道抢这个字是怎么写的 几百万？那只是走关系的成本好不，这可是县城，从县公安局要一直贿赂到省公安厅，还有政府，消防，几百万不够分的。 这种技艺找个公司挂靠不就可以有许可生产了吗 因为他们害怕 这说明了什么？说明他们开始怕了。。。。<br>人家说了，超过多少焦耳就是定义为枪支了。。。再过一阵子，我给我儿子做的弹弓也要藏起来了。。 为什么要判阿，非遗人不多了， 说得好听要传承，却给定有罪，要说有罪嘛，又免于刑罚，好厉害的两张嘴，怎么样都是它们说了算 办那个证没有大几百万能办下来？你叫农民为了庙会放焰火自掏腰包几百万？ 鞭炮传承上千年了，一样爆炸呢！ 看来我的降龙十八掌也危险了 一边不让人传承，一边又说要传承中华文化。。。双击666 快剁手。 这个“它”字用的好呀！！现在是信息化时代，不想以前，很多它们不让我们知道的东西其实很多人都能知道真相。。。<br>另外，今天，我包里放了把十字螺丝刀去坐地铁，都被人家截留下来。。。还要登记身份证。。。<br>它们已经怕成这样子了吗？ 他们害怕 有期徒刑4年零6个月，后来又判无罪。法律变成了橡皮泥🤡 那是，毕竟那啥里边出那啥，自己怎么来的当然要怕了，宁可错杀一万不能放过一个 尽量发泄吧，没办法，这就是要让你看看谁才是最厉害的，你也翻不起来。就尽情享受吧。 这技能交给谁？你愿意学？ 哇，那么这么说路边卖油条的也有问题了，热油在古代是属于城防军事装备。 这奇怪吗？你家祖上买了一块地，这块地几百年不改性，现在不是性共了？ 把你阉了 被异族殖民98年的元朝时期，好像就是五户共一把刀。 这说明了什么？说明他们开始怕了。。。。<br>人家说了，超过多少焦耳就是定义为枪支了。。。再过一阵子，我给我儿子做的弹弓也要藏起来了。。 这说明了什么？说明他们开始怕了。。。。<br>人家说了，超过多少焦耳就是定义为枪支了。。。再过一阵子，我给我儿子做的弹弓也要藏起来了。。 他们怕这个老人教会一堆徒弟然后做一堆大炮仗 几百年上千年都没事，现在就违法咯了[报警][报警] 你把这技能交出来，这就是他们希望的！ 扯，做鞭炮、烟花的？你哪里不是照样生活！ 如果你的邻居是做这个的，你还会这么淡定吗？ 我也着急。。在线等处理弹弓的方法。。。 人家传承几百年了家里人都没炸死绝。到了现在说为了保护你生命不让你做了。 人家上百年传下来的手艺，到了你这就不安全了？我就问你一个问题，杀人的是刀，还是人？ 三鹿出事时难道没有证？如果有，出问题了，发证的怎么处理了？ 只想问下这个免于刑事责任是根据那条那款？（不是不同情他，只是想问下法律难道就是随便说了算？） 当时制作的时候是县文化馆找的他，从非物质文化遗产的角度来说他也属于这个口子管理的，文章说了县安监局也备案了，只是谁都没注意爆炸物管理的职能归属省安监及公安，政出多门管理部门自己都没搞明白却要老百姓来承担结果，这是非常可笑的结果。 都小心点哦，张麻子，张小泉，还有满大街磨剪子的，你这往严重了说，可差不多是制造军火，帮助犯罪了。嗯，还应该加上烧砖头的，这个是不是要实名制买砖？ 改行做包子去，这个安全，祥合。 州官还没有点灯。你放什么火？ 砖头飞出去威力远大于刀翦。 对不起，有权真的可以为所欲为[微笑] 以后设么可以传承，我告诉你们，足浴养生， 傻逼那个是制作火药，整不好会爆炸的，等爆炸死人了你这个傻逼还说为啥不管理 精神分裂症不是一天两天能治好的 应限制数量并上报，只可在春节期间制作。 烟花工厂谁在控制？交给谁，我去学，怕又是被举报抓局里了 玛叫的徒子徒孙，是万国之最人，祸害中华最深。 这句是被坑后才出现的要不怎么到处都是被坑的国人 做烟花当然需要许可证，如果条件达不到就不给发证 还好没算执照军火 妈了b钱三强他们都住我大院我都不怕 二楼你怎么不早说，我刚才跟儿子一起玩弹弓了，现在想起来好怕怕，怎么办？ 中国四大发明，竟然是违法的，哈哈哈哈哈，笑死我了😭😭😭😭😭 韩国，非遗靠你了！ 肯定是有人和他谈，人家不同意然后就被举报了。 亲爱的陌生人，晚上少熬夜，躺在床上也不要来回刷手机。胃不好就少吃辣少喝冷饮，受了委屈就哭出来，学会珍惜身边的人，如果还没有人牵你的手，自己要照顾好自己。陌生人从来不给我点赞，希望下一个陌生人给我点赞。 如果不这样糊弄人，它们怎么混得下去？它们就是靠骗和枪起家的，这套把戏如果大家都不信了，它们不就玩旦了？ 子孙都不敢传承这文化了 这说明了什么？说明他们开始怕了。。。。<br>人家说了，超过多少焦耳就是定义为枪支了。。。再过一阵子，我给我儿子做的弹弓也要藏起来了。。 别传承了有些东西自生自灭吧 我是原子弹非传承继承人怎么办？ ",
        "Link": "http://comment.news.163.com/news2_bbs/D6VMA165000187VE.html",
        "Total": 34628,
        "Reply": 1158
    },
    "Article": "（原标题：非遗传人制古火烟花获罪免罚，其子称以后不再制作忧非遗失传）杨风申。浙江新闻网资料图因“非法制造爆炸物”被警方拘留，经过一审、上诉，一年后，2017年12月29日，79岁的河北非遗“五道古火会”传承人杨风申被石家庄市中级人民法院二审判决犯非法制造爆炸物罪，免予刑事处罚。宣判当天，杨风申的儿子杨现强对澎湃新闻记者表示，对判决的结果难以接受，但不会申诉。赵县五道古火会是流传于河北赵县、将祭祀和焰火表演相结合的传统民俗文化活动，古火会从每年的农历正月十五下午开始一直延续到深夜。2012年，“五道古火会”被列入河北省非物质文化遗产名录。杨风申1996年接任“五道古火会”会头，已制作了20年“五道古火会”使用的“梨花瓶”烟花。据他介绍，“梨花瓶”烟花有一部分可以在市场上买到，但最关键的“梨花瓶”和“火架子”必须手工制作，这项技艺由“会头”代代传承下来，从不外传。2016年2月19日，杨风申在制作“五道古火会”使用的烟花时，经人举报，被河北赵县公安局民警带走，在拘留19天后取保候审，此后被赵县人民检察院提起公诉。赵县人民法院一审判决认为，杨风申违反国家爆炸物管理法律法规，未经有关部门的批准，非法制作烟火药15千克以上，其行为已构成非法制造爆炸物罪，情节严重，应予惩处，判处有期徒刑4年零6个月。一审判决后，杨风申上诉至石家庄市中级人民法院。2017年5月22日，石家庄市中级人民法院依照《中华人民共和国刑事诉讼法》第二百二十五条第一款第（一）项、第二百三十三条之规定，作出终审裁定：驳回上诉，维持原判。该案被媒体报道后，引发舆论热议。有评论认为，杨风申案件反映了古老的民俗与现代秩序、现代法律的矛盾冲突。2013年2月24日，河北赵县，“五道古火会”现场，民间自扎的蛇年烟火燃放出流光异彩。燕赵都市网图在此前接受澎湃新闻采访时，河北省非物质文化遗产保护中心相关负责人表示，对“五道古火会”进行非遗认定时，考虑到了火药制作有一定的危险性，但火药制作只是整个民俗活动的一个组成部分，该项目在当地的民俗社会作用是主要价值所在，其所属类别为民俗类而不是传统技艺类。并且该项目之所以能够传承至今，在确保安全方面也有一定的自控和防范措施。该负责人认为，开展非遗保护传承工作，也必须要遵守法律，一方面是非遗方面的《中华人民共和国非物质文化遗产法》《河北省非物质文化遗产条例》等，另外还应当遵守现行的各项法规，涉及到火药等危爆物品的要在有关部门备案。但据新京报此前报道，赵县安监局危化科相关负责人表示，县安监局没有发放烟花爆竹生产许可证的权限，只有省安监局才有，且生产许可证只针对企业，个人不可能获得生产许可，因此杨风申不可能从安监部门获得生产许可。12月29日，石家庄市中级人民法院下达的二审判决书称，考虑到杨风申作为非遗传承人，其制造烟火药的目的是为了履行法定传承义务，为在庙会进行烟火表演，制造烟火药行为未造成实际危害后果，犯罪时已年满75周岁以上等特殊情况，对其免予刑事处罚。但杨风申和儿子杨现强至今有些迷茫：按照法院判决，制作“梨花瓶”烟花是违法的，他们以后也不会再制作了，“那这个非遗怎么办？”二审判决后，杨凤申的辩护律师杨昱向澎湃新闻表示，根据最高法的有关司法解释，杨风申用于制作烟花的火药超量，确实违法，但如何在当地政府、法律、公安机关等部门的有效管控下，合法地宣扬非物质文化遗产是这类案件的关键。据新京报报道，河北省非物质文化遗产保护中心曾就杨风申一事发出说明称，希望国家在非遗保护工作中，尽快出台涉及到火药这一危爆物品的具体适用法律解释，确保非遗保护工作有法可依。杨风申的非遗传承人证书及相关报道。新京报图【对话杨风申、杨现强父子】“为什么之前没人说我们违法？”澎湃新闻：之前被人举报过吗，有想过自己会违法吗？杨风申、杨现强：我是一个老百姓，制作烟花是用来“古火会”放的。2016年之前，没有被人举报过，也没想过制作烟花会违法，它不是省非物质文化遗产吗？我至今都想不通，镇政府、公安、消防等部门，出事前每年都来“古火会”，为什么之前没人说我们违法？澎湃新闻：你什么时候开始学会制作烟花？杨风申：1996年，我接手“五道古火会”，开始做“梨花瓶”烟花，自己买材料，自己制作，当时和我一起学的有三四个人，后来他们都不做了，只有我一个人一直做，我是“五道古火会”第四代接班人。澎湃新闻：2016年2月19日当天你被拘留的情况是怎样的？杨风申：2016年2月，县里人告诉我说，正月十五有电视台来录制节目，为拍摄需要，我准备制作七百个“梨花瓶”烟花，平时一般都是制作两百个“梨花瓶”烟花，那天我做完三百个“梨花瓶”烟花后，院子里来了人说我被人举报了。澎湃新闻：“五道古火会”什么时候被评为河北省非遗项目？杨风申：2011年，“五道古火会”被列入石家庄非物质文化遗产名录。2012年，“五道古火会”被列入河北省非物质文化遗产名录，我也是那一年被评为省级非物质文化遗产传承人的。澎湃新闻：“五道古火会”包括哪些内容？除了你之外，村里现在还有其他接班人吗？杨风申、杨现强：“五道古火会”包括庙会和“梨花瓶”烟花，“梨花瓶”烟花是古火会的精髓。我之后还有一个接班人，六十多岁，刚学了不到一年，还没有学会就不能学了。澎湃新闻：“五道古火会”最辉煌是什么时候？杨现强：2000年以前，那时十里八乡的人都来，主要来祈福和看烟花，慢慢来的人开始变少，它成为了非物质文化遗产。但是每年都很隆重，种完冬小麦后，我父亲整个冬天都在弄这个，他一样一样的去办，一个人会花很长的时间。澎湃新闻：作为非物质文化遗产，你们每年活动有经费吗？杨现强：成为非遗以前没有，靠村民筹钱来搞这个事，被列入河北省非遗后，大约事发两年前，才开始有经费。赵县文化馆给的，2014年给了1000元，2015年给了10000元，2016年我父亲就出事了。“古火会”现在没了“梨花瓶”项目澎湃新闻：你父亲被举报后，“五道古火会”这两年情况怎么样？杨现强：我父亲出事后，两年都没有放过烟花了，现在“五道古火会”好像村委会在负责，没有了“梨花瓶”烟花这个节目，“五道古火会”演变成一个普通节日，来的人少了很多，一些人就白天来赶一下庙会。澎湃新闻：“梨花瓶”烟花有多少年历史了？它和一般烟花有什么不同？杨现强：“梨花瓶”烟花历来就有，它和其他的烟花不一样，它燃放的时间长，花样更多。澎湃新闻：从1996年到现在，20年来，你父亲做“梨花瓶”烟花，有造成过人员或财产的损失和伤害吗？杨现强：没有。澎湃新闻：你们去安监部门申请过生产许可证吗?杨现强：以前没有申请过，今年夏天我们去安监部门问，他们说我们作为非遗项目，如果要申请生产许可证，必须要有正规的场地，取得环评、消防等相关部门证书，但这些我们作为个人做不下来。“这个非遗怎么办？”澎湃新闻：你怎么看待这次中院的判决？杨风申：我对判决不满意，我觉得自己没有罪。澎湃新闻：还会申诉吗？杨现强：不会。我爸爸岁数大了，经不起折腾了，我要对老人身体健康负责，他马上快要80岁了。澎湃新闻：你怎么看待你爸爸这次案件？杨现强：我们都很伤心，包括亲戚朋友，包括村民都很伤心。一个快八十岁的老人，每天为这事奔波忙碌。忙碌的时候，他一天往返无数次，我们看着都心疼，他不图名不图利，为给大家提供一个娱乐方式，结果现在闹成这种结果，你说能不伤心吗？澎湃新闻：你怎么看“五道古火会”这一非物质文化遗产？杨现强：“五道古火会”有几百年的历史了，它弘扬民族文化，提升人民娱乐性，丰富人民生活方式，我感觉是一种正能量的东西。它的精髓是“梨花瓶”烟花，法院判决我父亲有罪，那制作“梨花瓶”烟花就是违法的，以后也不会再制作了，那这个非遗怎么办？我们也不知道。非遗传人制造爆炸物免予刑事处罚称并不理解指控河北省非遗项目“五道古火会”传承人杨风申涉嫌非法制造爆炸物一案在河北赵县人民法院进行二审宣判，石家庄中级人民法院判处杨风申犯非法制造爆炸物罪，免予刑事处罚。杨风申并不理解涉嫌非法制造爆炸物的指控，杨风申称，这么多年来“梨花瓶”从来没有发生过爆炸事故。每年古火会表演时，在会场一旁都设有救护车，但是从来没有出过事。本文来源：澎湃新闻责任编辑：张宪超_NN9310",
    "URL": "http://news.163.com/17/1231/09/D6VMA165000187VE.html",
    "Title": "非遗传人制古火烟花获罪免罚 其子称以后不再制作_网易新闻",
    "KeyWords": "烟花,获罪,非物质文化遗产,民俗"
}