{
    "Title": "8旬老夫妇携巨量大麻被捕 辩称:送朋友当圣诞礼物_网易新闻",
    "URL": "http://news.163.com/17/1225/20/D6HDS3IS0001899N.html",
    "Source": "Netease",
    "Comment": {
        "Total": 204,
        "Reply": 22,
        "Content": "来华盛顿州啊，大麻合法，奶奶的家附近还开个大麻店 8旬老人都抓？有没有良心？有没有道德底线？不是批评教育就放回家吗？死监狱了怎么办？ 美国不行，我们就不一样了，上次撒币那个老野不是没事吗，一机多少人命啊，差点断送了。 加州大麻合法！？ 没有任何一个洲可以合法携带数量如此巨大大麻的，大麻是个好东西，可不要贪杯哦 自作孽不可活 你教会了我们什么是法律！ 美国有的州大麻合法 来华盛顿州啊，大麻合法，奶奶的家附近还开个大麻店 没有任何一个洲可以合法携带数量如此巨大大麻的，大麻是个好东西，可不要贪杯哦 说国外大多数国家都大麻合法化的脸疼吗 尊老爱幼是中华民族的传统美德，所以老年犯和少年犯都必须保护 8旬老人都抓？有没有良心？有没有道德底线？不是批评教育就放回家吗？死监狱了怎么办？ 美国不行，我们就不一样了，上次撒币那个老野不是没事吗，一机多少人命啊，差点断送了。 合法你也不能用卡车拉啊。。 加州大麻是合法的，波士顿好像那边也是合法的～～但是跨州运违禁物品，这个罪名蛮大的～～ 你敢关，他们就敢在监狱养老，你们准备好给他夫妻送终哟！ 这才叫法 就问你抓不抓，关不关[狗][狗] 加州大麻合法！？ 我们这里是批评教育 这才是法律面前人人平等,不管年龄性别i,只要到达法定年龄 美国孙子！ 厉害👍 美国有的州大麻合法 早就合法了。。。 アメリカは良いですね。自由で強大な国だ。 哇...找律师办那个医疗证明要多少钱啊 自作孽不可活 加州和科罗拉多州也是。 你教会了我们什么是法律！ ",
        "Link": "http://comment.news.163.com/news2_bbs/D6HDS3IS0001899N.html"
    },
    "Article": "（原标题：8旬老夫妇携巨量大麻遭捕辩称:送朋友做圣诞礼物）海外网12月25日电近日，美国一对年过八旬的老夫妇遭警方拘捕，原因竟是夫妇俩在车上携带了60镑大麻，而这些大麻据称是用来当作圣诞礼物的。据《纽约时报》报道，80岁的帕特里克（Patrick）和83岁的芭芭拉（Barbara）于上周二（19日）在美国内布拉斯加州（Nebraska）被警方拘捕。这对老夫妇原本驾车由加利福尼亚州前往佛蒙特州，却因交通违规被警察拦下，警察闻到车上似有毒品的味道，随后进行搜查，竟然在老夫妇的车内发现了巨量大麻。这些大麻被分装在多个小袋子中，总量达60磅，价值约33.6万美元。夫妻俩表示，他们准备由加州前往佛蒙特州朋友处，他们坚称，车上的大麻是准备分发给朋友们的圣诞礼物。警察显然对老夫妇的解释并不买账。目前尚不清楚夫妇俩携带巨量毒品是否还有其他意图。这对夫妻目前被关在内布拉斯加约克县的监狱内，并面临携带毒品的重罪指控。本文来源：海外网作者：张敏责任编辑：徐萌_NN7485",
    "PublishTime": "12/25/201720:13:47",
    "KeyWords": "大麻,圣诞,毒品,警察"
}