{
    "Title": "服!曝曼城6000万镑签圣徒中卫 无敌战舰越来越强_网易体育",
    "URL": "http://sports.163.com/17/1226/11/D6J1ITNM00058781.html",
    "KeyWords": "曼城,南安普敦,瓜帅",
    "PublishTime": "12/26/201711:17:32",
    "Article": "网易体育12月26日报道：英媒体《每日电讯报》今日头条指出曼城即将在冬窗以6000万镑的高价签下南安普敦中卫范迪克。据悉，曼城已经和南安普敦展开谈判，不出意外，范迪克将在下个月正式加盟曼城。得到范迪克后，曼城的实力将更加强大，他们在后半赛季将剑指切尔西的两大纪录。《电讯报》指出曼城对范迪克是志在必得，他们已经准备好了资金，并已经说服南安普敦放人。范迪克今年26岁，身体强壮，防守意识很好，他和南安普敦的合同到2022年到期。范迪克近来在圣徒过的不如意，他连续两场英超都未能出场。曼城目前兵强马壮，高歌猛进，但瓜帅并不满足，他认为球队的中卫位置是有隐患的。孔帕尼是个药罐子，没事就要休息两天，瓜帅认为有必要买一个优秀的中卫。最终，他认为范迪克是个不错的选择。瓜帅相信范迪克可以完美融合他的战术，而且范迪克还有身体，不怵强壮的前锋。曼城阵中，斯通斯和奥塔门迪是两大主力中卫，也就是说，范迪克加盟曼城后很可能要担任替补。曼城确实“壕无人性”，6000万镑买个替补。不过，瓜帅认为范迪克的加盟可以促进球队内部的竞争，有助于斯通斯和奥塔门迪提高自身表现。今年夏天，利物浦曾无限接近签下范迪克，克洛普非常想得到这位荷兰中卫。然而，他们却遭到了南安普敦的公开警告。最后，利物浦只能发文向南安普敦道歉，并声明再也不去勾搭范迪克。如今，看到曼城抢走了心上人，克洛普内心的崩溃可想而知。《电讯报》称切尔西的孔蒂实际上也一直想买范迪克，但现在也只能看着曼城成功挖人。19轮联赛后，曼城18胜1平，势如破竹，无人可挡。联赛下半程，曼城是否会放松？瓜帅给出否定答案：“疲劳？放松？不会的。这种情况是有可能发生的，但我们会避免，因为我们有一个优秀的阵容。作为一名主教练，我知道如何让队员保持良好的竞技状态和战斗欲望。”半程结束，曼城拿到55个积分，打进60球，这两个数据都非常恐怖。英超历史上，单赛季最高积分以及单赛季最多进球的纪录都属于切尔西，分别是95分以及103个进球。如果曼城下半程能延续优秀的状态，他们非常有望改写这两个纪录。本文来源：网易体育作者：风过乡责任编辑：姚成浩_NS4810",
    "Comment": {
        "Content": "花过，那时候的3000万等于现在6000万 不是要去利物浦么 石油有挖完的时候吧，我们房产70年又能卖一轮，你算算谁钱多，哈哈哈哈 花这么多钱谁最酸[微笑][微笑]鸟是真的命苦，长的丑就没人愿意给他花钱[窃笑][窃笑] 次奥别人还咋玩 石油再生的过程比70年产权快，扯淡！ 当年切尔西开启金元模式也没这样花过钱啊 利物浦纸糊的后防和门将什么时候能换一换？ 还是不要喷人花钱了，我一个曼联球迷都无话可说了，大把球队花钱砸人只是能打出如此有统治力的半程只有曼城啊 成功压制穆帅的第二年，当然千万别学安胖的皇马，后半年突然成绩大滑坡，煮熟的鸭子飞了可要命。<br>为了三冠甚至传说中只有英超才能实现的七冠王，买谁都问题不大 栓狗冠 貌似是这样，原本储量几百亿桶能挖多久，算200年吧，200年还不能再生？ 这不是买不起吗？老渣都念叨这么久的核心拼图，结果曼城出手就6000万，还只是替补。去哪说理？ 这要玩成德甲的拜仁慕尼黑 拼啥呀明年沙特土豪的阿美石油就要在美国上市了。瞬间几千亿美元，怎么拼？ 花钱我只服富城 有钱有成绩那叫豪门，花了钱还没成绩那叫人傻钱多！ 钱花出去了，成绩没出来就呵呵了。像他娘、马塔这些人怎么会适合大巴尼，所以木鸟是不会用这些人的，人家好逮也是MVP级人物，现在倒好，都不值几个钱了。 人家溢价买人的时候，一个个觉得人傻钱多，这个不值那个不值，打出来了又说栓狗冠，双标不要太厉害哦。不光丁丁穆里尼奥看不上，热苏斯，萨内这样的一开始有几个豪门教练敢上打主力？斯通斯奥塔门迪上赛季坑成那样，今年就自动变成豪华后防线了？能变成“豪华”，有潜力是一回事，其他还不都是教练调教的好？一个有钱，一个有想法有手段，人家就是般配 曼联的阵容也很强，不比曼城差 我记得有傻逼说过，瓜不敢去英超 这是硬要完成德甲啊 鸟也花钱不少可任性不起来 你都说是当初了，当初南京房价多少？ 买个硬的后腰吧，费尔南迪尼奥快累死了 这逼吹的,来也是只是敢来个最有钱的曼城..都尼玛麻痹砸了多少钱了,这赛季得了多少好处?14分的差距估计也就是8分的差距.没那么牛逼.牛逼瓜秃就把欧冠拿了.既然这么牛逼,上赛季为什么四大皆空? 蓝月亮最好的时代 青训也慢慢出来了 你鸟爹花得可没少钱还不是落后13分！说曼城得利，沃克连续被莫名其妙罚下眼瞎了？不然就是半程全胜了。 没有财务政策么 好像储量是几万亿桶，我记错了 下赛季孔帕尼和图雷可以来中超养老了。<br><br>奥塔门迪续约完，但也30+，找个中卫也是刻不容缓的事。<br><br>曼城下一步就需要一个边后卫和一个D席的替补！<br><br>曼城现在建队的可延续性太强了！ 这阵容给鸟也就是大巴零件。 讲真6000万买范迪克要比买桑切斯值，这种当打之年顶尖后卫不是很多的，他的水平都在英国人阿根廷人之上是不可能长期踢替补的。 到你离世的那天人家也挖不完啊…… 摆大巴我只服曼巴！ 花钱不少,也不如曼城牛逼啊.花钱最多,成绩最好.只能说理所应当. 瓜秃的任性来自于强大的经济基础…… 在其他网站看过文章，石油不会被挖光的，会被挖光是卖油的炒作，加上报导的储量几百亿桶是什么概念 那是私人老板的钱，能和一个富有石油美元的酋长国比吗? 6000万买一个替补，还有那只球队能做到？ 莉莉不是强挖范迪克还被告了吗？？随后马上发生明，我们不了，不了[窃笑][窃笑] 你就是那个傻逼 抬杠我只服——攀金联 切尔西那时候钱还没现在这么毛 尼玛这……英超以后还能愉快的玩耍吗 能拿冠军就行，只要能拿冠军，石油大亨会在乎教练席上坐着你还是坐着瓜？ 看来以后只有中国房地产能和中东石油大亨一拼了 老人？你逗我？除了飞鸟和喜娃，我还真不记得谁靠近30，当然你要把踢不上主力的图雷算进去，那就没得说了 还是要找对主帅 曼城基本是一群老人（英超第二大平均年龄）了，还nmd最强底子<br>整条中zhou线（阿奎罗+图雷+孔帕尼）+左右边锋都换了个快半个球队了（剩下的费尔南迪尼奥、席尔瓦也是30多岁老将）…… 曼联两年花了三亿，投入不比曼城少 圣徒就作吧，早晚降级，今年不降明年必降 曼城基本是一群老人（英超第二大平均年龄）了，还nmd最强底子<br>整条中轴线（阿奎罗+图雷+孔帕尼）+两个边锋（包括左右边锋），都换了个快半个球队了（剩下的费尔南迪尼奥、席尔瓦也是30多岁老将），丫还在最强底子……<br>这么大的换血动作，不花钱的话，短时间内能完成得了？！曼城可不比曼联--集齐各大联赛MVP（全是年轻人，虽然大面积被用废），外加几亿欧，结果还打成那付鸟样……！ 给鸟，丁丁斯通斯热苏斯一干人全部要卖掉，根本摆不成大巴 曼城在一年间已经把整条中轴线+两个边锋全替换了（剩下的费鸟、席尔瓦、奥塔门迪也是大龄球员）,你丫究竟要人家多老才能替代？！ 曼城基本是一群老人（英超第二大平均年龄）了，还nmd最强底子<br>中轴线（阿奎罗+图雷+孔帕尼）+左右边锋，都换了个快半个球队了 进攻就是最好的防守 现在瓜底气十足，想买谁说一声，老板就老老实实跟在后面掏钱吧，反正他总是对的啦。 当年切尔西开启金元模式也没这样花过钱啊 别忘了打缺兵少将的利物浦都不敢攻出来被人摁在地上摩擦…鸟现在打强队就是能偷一个是一个，平时撅起腚随便你操，鸭子这层膜能守住就赢了，守不住就失身，参见对娜娜那场 在此之前曼城缺钱吗？有人这么去做吗？有些人天生就是做大事的，真正老板就喜欢这种会花钱，花的值能花出想要结果的人 4楼要我想起来拴狗冠~而且说的曼联这些年没大投入（莫耶斯和范加尔）？记得上赛季曼城也是一波连胜到丁丁受伤后就莫名的戛然而止~（这赛季曼城投入2.1亿元，卖出了9000万） 曼城：抱歉！原来有钱真的可以为所欲为！ 花钱我只服富城 这阵容给鸟也就是大巴零件。 曼城在2008年曼城被来自中东的阿拉伯财团收购，现在都9年了，每一年都巨额投入现在开花了。。 这要玩成德甲的拜仁慕尼黑 你真会鬼扯，曼城被收购这么多年了，哪一年没有砸钱？曼城年年冠军了？这些年曼联砸钱少了？老喜欢说曼城冠军班底，瓜来曼城之前曼城是冠军？这些年曼城一共才拿过几次英超？瓜在漫长花钱多，大多数都是年轻球员、有几个成名球星？木鸟在曼联时间和瓜在曼城一样，花的钱比瓜少多少？而且买的都是成名球星，就不说双方排名，在比赛场上打出来的战术类容根本就不是一个级别的。 曼城基本是一群老人（英超第二大平均年龄）了，还nmd最强底子<br>整条中轴线（阿奎罗+图雷+孔帕尼）+左右边锋，都换了个快半个球队了（剩下的费尔南迪尼奥、席尔瓦也是30多岁），丫还在最强底子…… 三楼太棒了，一下就把那个傻逼找到了 二楼和五楼同一个人吗？瓜帅手上的大多数球员没到瓜帅手下时估计二楼都叫不出这些球员的名字。 浪费钱，这款中卫不适合瓜 拜仁花的钱有曼城一半多？ 我记得有傻逼说过，瓜不敢去英超 曼城基本是一群老人（英超第二大平均年龄）了，还nmd最强底子<br>中轴线（阿奎罗+图雷+孔帕尼）+左右边锋，都换了个快半个球队了（未被换的费尔南迪尼奥、席尔瓦也是30多岁老将），丫还在最强底子…… 买个硬的后腰吧，费尔南迪尼奥快累死了 曼城确实花钱多，但是最没资格说曼城花钱多的就是曼联了吧，这几年你们俩家花的真差不了多少，但是你看看现在效果，好意思说别人是没底蕴只知道花钱的土豪？你还多了个伊布免费转会的，，曼城已经更新换代了，曼联还陷在泥潭里出不来。 上面的楼让我想起来拴狗冠~而且说的曼联这些年没大投入（莫耶斯和范加尔）？记得上赛季曼城也是一波连胜到丁丁受伤后就莫名的戛然而止~（这赛季曼城投入2.1亿元，卖出了9000万）<br>曼城买的是打的上的主力，圣徒上不了场不可能买（居然还报价6000万），参考夏天报价阿森纳的374，现在等着免费加盟呢（曼城买人不会抬价到上亿属于淘潜力的主力小妖） 英糙菜鸡互啄的呢？竞争最强的呢？怎么曼城就成栓狗冠了？瓜没去曼城之前不是吹英超竞争多么多么强的么？现在又上游球队遇中下游必胜了？能要点脸？被瓜秃打成德甲了还嘴硬 利物浦哭晕在厕所 曼城基本是一群老人（英超第二大平均年龄）了，还nmd最强底子<br>整条中轴线（阿奎罗+图雷+孔帕尼）+两个边锋（包括左右边锋），都换了个快半个球队了（剩下的费尔南迪尼奥、席尔瓦也是30多岁老将），丫还在最强底子……<br>这么大的换血动作，不花钱的话，短时间内能完成得了？！曼城可不比曼联--集齐各大联赛MVP（全是年轻人，虽然大面积被用废），外加几亿欧，结果还打成那付鸟样……！ 阿布都不想投入了俱乐部当生意在玩了想着盈利大巴黎曼城这种背后是一个国家支持没有球队能比不过足球不像篮球变数太大全是巨星也不一定就能拿冠军 笑笑不说话 没毛病，把曼城拿开还是菜鸡互啄 这是硬要完成德甲啊 这逼吹的,来也是只是敢来个最有钱的曼城..都尼玛麻痹砸了多少钱了,这赛季得了多少好处?14分的差距估计也就是8分的差距.没那么牛逼.牛逼瓜秃就把欧冠拿了.既然这么牛逼,上赛季为什么四大皆空? 整天说人家花钱多的人大部分现实生活中没什么魄力做大事的 广西这只太自以为是了 阿布的钱在石油土豪面前能比？把切尔西都买了一起玩[微笑] 问题来了，曼城4个顶尖中卫，怎么用？ 我还真不记得谁靠近30，<br>~~~~~~~<br>那时你眼瞎没办法！曼城在一年间已经把整条中轴线+两个边锋全替换了（剩下的费鸟、席尔瓦、奥塔门迪也是大龄球员）,你丫究竟要人家多老才能替代？！ 讲真6000万买范迪克要比买桑切斯值，这种当打之年顶尖后卫不是很多的，他的水平都在英国人阿根廷人之上是不可能长期踢替补的。 去利物浦做主力好过去曼城做替补吧？ 别黑我厂了，我厂狂轰了90分钟还输了，这苦向谁说去。 当年切尔西开启金元模式同样也没曼联那样花钱啊 取悦观众靠进攻，获得冠军靠防守。 自古傻逼出二楼 马塔在瓜手下，可以焕然一新 曼城最强的底子+花最多的钱。在中下游球队面前这完全就是一手托管都能赢的牌，强队无论发挥怎么出色只要瓜帅出牌中规中矩也绝对输不了。如果曼城现在排名第2绝对被喷死，排名第3的话下课在劫难逃 曼城基本是一群老人在打（英超第二大平均年龄）了，还nmd最强底子 波尔图不说了，二进宫的切尔西不说了？曼城人家佩莱格里尼带的并不差。 切尔西，国米，皇马哪一只不是那个时期所属联赛最舍得花钱的球队？！鸟粪！ 比奥塔门迪好一些，但跟斯通斯没法比，斯通斯出球能力目前在全世界中卫里没有对手。 孔帕尼老了要接受替补，正儿八经就斯通斯，奥塔门迪，和范迪克争首发，曼加拉适合轮换 不否认瓜瓜甩鸟帅十几条街，但一年烧几个亿，我军我厂怎么玩，都把英超变成土豪三人转了 曼城基本是一群老人（英超第二大平均年龄）了，还nmd最强底子<br>整条中轴线（阿奎罗+图雷+孔帕尼）+两个边锋（包括左右边锋），都换了个快半个球队了（剩下的费尔南迪尼奥、席尔瓦也是30多岁老将），丫还在最强底子……<br>这么大的换血动作，不花钱的话，短时间内能完成得了？！ 没毛病，这个赛季丁丁已经助攻范迪克进了一个了 说好的利物浦呢？ 哈哈，三楼回的妙 一帮瓜吹傻逼。 论花钱，大巴英糙第二 不值这个价 我赌1万英格兰世界杯拿冠军[大笑] 不是要去利物浦么 352走起 鸟也花钱不少可任性不起来 唉，曼城出手，估计不会来我军了。[可怜] 这。。。英超挖掘机要诞生了吗？ 瓜是一般球队都hold不住，拜仁都玩不起，需要大量适合他的球员，感觉这种人有强迫症，只要一点不符合要求就一定要把他干掉，伊布阿圭罗布拉沃乔哈特都是这样，还有这赛季更新掉的后卫线，老板不给力的话真玩不了 明年世界杯冠军是英格兰 瓜肯在防守力量上如此重金投入，确实比以前有很大改变。孔蒂不怕瓜买前锋，就怕瓜买后卫，很说明问题。 当年切尔西开启金元模式也没这样花过钱啊 玛这……英超以后还能愉快的玩耍吗 利物浦纸糊的后防和门将什么时候能换一换？ 太好了，先变成慕尼黑再变成英格兰国家队，欧洲中国队世界杯冠军有望了！ 安胖能力一般般的啦，很多都是时运造的，强运型教练也算。当初米兰那么强的中后场，那么多年才1个意甲冠军，2次欧冠被大逆转，可见一斑。今年在拜仁彻底是崩塌了。 花钱我只服富城 貌似是这样，原本储量几百亿桶能挖多久，算200年吧，200年还不能再生？ 都这样了还买人还让不让一起踢了 看来无缘红军。。。。 渣叔：wqnmlgb！ 这要玩成德甲的拜仁慕尼黑 英超球迷最经常说的一句就是我们的联赛竞争最激烈、难度最大 拼啥呀明年沙特土豪的阿美石油就要在美国上市了。瞬间几千亿美元，怎么拼？ 栓狗冠 顶替斯通斯？不存在的。 曼城今年也来一个以不败战绩夺冠吧！ 后卫都这个数了！英超真是个烧钱联 问题是现在曼城根本不缺中卫，这范迪克来打替补吗？给我老克吧 虽然我是瓜米，但是你说的也有一定道理。但目前瓜吊还没带过弱旅，不一定就不会别的战术。但是可以确定的是，现在瓜的打法确实对于球队的技术水平要求蛮高的，最明显的就是，伊布在任何球队都算技术流，但是在瓜麾下与的时候，明显跟其他小灵快不在同一个位面。同理比利亚和亨利都没有佩刀在阵中更显得游刃有余。所以瓜感觉挑人的眼光总是那吗么与众不同 这是硬要完成德甲啊 这阵容给鸟也就是大巴零件。 这阵容栓条狗都比站个穆里尼奥强 改打三后卫 现在瓜秃想打破的英超95积分记录恰恰是木鸟带队创造的。 没有财务政策么 门第沃克改打边前卫？ 曼城实力展压英超，再添猛将.球吧社区认为本赛季的英超冠军毫无悬念 好像储量是几万亿桶，我记错了 要脸不 讲真6000万买范迪克要比买桑切斯值，这种当打之年顶尖后卫不是很多的，他的水平都在英国人阿根廷人之上是不可能长期踢替补的。 今年就是让两场球你鸟爹也白搭！ 莉莉不是强挖范迪克还被告了吗？？随后马上发生明，我们不了，不了[窃笑][窃笑] 瓜帅把最好的全买去，拿个欧冠最好 这么有钱 利物浦这个豆腐渣防线，早就该换了 伊布不是你联的么 牛逼 曼加拉：当我是空气？ 看来以后只有中国房地产能和中东石油大亨一拼了 这么牛逼，布拉沃不也是废了，牛逼别买其他门将啊，布拉沃还是美洲杯一哥呢。这么牛逼，伊布怎么废了？ 范迪克，斯通斯，奥塔门迪谁替补？这个中卫阵容太奢侈？[惊讶][惊讶][惊讶] 扯蛋,多少年了,还没记性,欧洲中国队拿冠军?寻开心呢! 花钱的事，能跟自己培养起来相比否？？？？ 孔队是要走了吗? 瓜秃的任性来自于强大的经济基础…… 抢些曼城不要的球员应该不错 粗壮硬 曼城出手估计不会愿意来我军了。。我军把聚乐和塔赫撸来吧。未来德国主力后卫。 说实话曼城这套阵容给鸟真的要卖掉一半。 英超终于要结束菜鸡互啄的时代了吗？ 海帅真的把安胖脸打肿了 所以说，赶紧让曼城夺冠吧，不然下赛季砸4亿镑买人，其他队怎么活？ 哈哈，我玩实况用拜仁，刚把聚勒卖掉。 夏天把库鸟卖给巴萨，7000W搞定范迪克！现在也不至于还在跟娜娜争第四 切尔西那时候钱还没现在这么毛 有钱就是牛逼 这后卫值6000w？我滴天太疯狂了 6000万镑的替补曼城真豪气[微笑][微笑] 蓝月亮最好的时代 踢的好成绩好，老板高兴买买买。 花这么多钱谁最酸[微笑][微笑]鸟是真的命苦，长的丑就没人愿意给他花钱[窃笑][窃笑] 又买？还能好好的玩耍吗？ 被你搂住一个劲的薅羊毛，就是老乡你要反了 曼城哪一年投入少了，为什么别人做不到统治力。英超不是德甲就曼城一家能花钱。切尔西有钱但这两年确实花少了。曼联没少花只是不出成绩。还有存着2亿的温总 太好了！继续加强后备力量，血洗大巴队！ 当年切尔西开启金元模式也没这样花过钱啊 利物浦纸糊的后防和门将什么时候能换一换？ 又要买了 利物浦:老乡你过分了，夏天我7000要跟你买你不卖，如今6000万卖土豪？！ 成功压制穆帅的第二年，当然千万别学安胖的皇马，后半年突然成绩大滑坡，煮熟的鸭子飞了可要命。<br>为了三冠甚至传说中只有英超才能实现的七冠王，买谁都问题不大 大英国富成 花钱我只服富城 以后是不是改名曼城挖掘机了？！[狗] 。。 哈哈 壕无人性 穆二年定律维持不下去了 栓狗冠 这光后卫就花了快3亿英镑了吧 壕与人性[大笑] 范迪克这赛季状态不好 彪马的赞助都加到5000W了，一个衣袖也能卖1000W+，曼城现在的商业品牌，太强劲！ 摆大巴我只服曼巴！ 这是硬要完成德甲啊 能拿冠军就行，只要能拿冠军，石油大亨会在乎教练席上坐着你还是坐着瓜？ [狗][狗][狗] 这不是买不起吗？老渣都念叨这么久的核心拼图，结果曼城出手就6000万，还只是替补。去哪说理？ 上半季18胜1平，不知道有没有更吊的，要说花钱没成绩，隔壁就少花了8000万而已，什么成绩？冬窗隔壁一样得引援，不过6000万买后卫确实太特么贵了 记录谁创造的 利物浦：？？？ 无敌了 青训也慢慢出来了 遇见之后，狠狠的打 这要玩成德甲的拜仁慕尼黑 现在就是后防线让人不放心了，伤员太多。感觉B席可以打造成类似大卫席尔瓦那样的中场核心。年轻的小将估计下赛季就可以打一打了。 下赛季孔帕尼和图雷可以来中超养老了。<br><br>奥塔门迪续约完，但也30+，找个中卫也是刻不容缓的事。<br><br>曼城下一步就需要一个边后卫和一个D席的替补！<br><br>曼城现在建队的可延续性太强了！ 哇塞，栓你都可以😄 莉莉不是强挖范迪克还被告了吗？？随后马上发生明，我们不了，不了[窃笑][窃笑] 每次比赛总感觉只上了一个后卫一个门将 人家溢价买人的时候，一个个觉得人傻钱多，这个不值那个不值，打出来了又说栓狗冠，双标不要太厉害哦。不光丁丁穆里尼奥看不上，热苏斯，萨内这样的一开始有几个豪门教练敢上打主力？斯通斯奥塔门迪上赛季坑成那样，今年就自动变成豪华后防线了？能变成“豪华”，有潜力是一回事，其他还不都是教练调教的好？一个有钱，一个有想法有手段，人家就是般配 英超拜仁从此诞生。 今年的曼城就是游戏大BOSS的存在，曼联球迷先提前祝贺邻居本届英超夺冠 次奥别人还咋玩 会员价格飙升不过还是比阿森纳便宜在票务方面也比阿森纳曼联要便民 不是说水平下降，砸手里吗 也不看看瓜迪奥拉来了以后曼城商业价值提升了多少，曼城现在完全是钱多的没处花了。 你都说是当初了，当初南京房价多少？ 这么说的话，我一直很服曼联，能挖阿森纳范佩西，还能把利兹联挖降级，拿过来做自己的国王！ 这阵容给鸟也就是大巴零件。 这模式估计是放眼欧冠了 有点玩实况联赛的感觉… 足球界有俩毒瘤，其一叫瓜秃，硬生生把一个精彩的英超变成了英国大巴公司；其二叫鸟妇，坐地能吸尘，谁来她都敢躺着让其摩擦，成为所有大巴的标准模式！ 这真的好吗？ 那是私人老板的钱，能和一个富有石油美元的酋长国比吗? 文章说：连续2场没上了（如果不是受伤了），此人能卖6000英镑！！！我惊到了！！算了！现在买人都得从5000万起了我觉得！换成人民币可是4，5亿起价呀！！奶奶的！足球玩得就是溜 6000w买替补后卫，除了表妹还有谁？这赛季只能对表妹说声服！ 抬杠我只服——攀金联 英超挖掘机，就问你服不服 之前的后卫基本全清洗了，花钱大头全在后卫门将了，其实前锋还可以来一个，如果阿圭罗实在想走的话买一个当打的前锋补上也行 有钱有成绩那叫豪门，花了钱还没成绩那叫人傻钱多！ 好酸 尼玛这……英超以后还能愉快的玩耍吗 顶级的有天赋的凡是队内地位高的全挖走吧五大联赛你第一。 ",
        "Total": 3661,
        "Link": "http://comment.sports.163.com/sports2_bbs/D6J1ITNM00058781.html",
        "Reply": 224
    },
    "Source": "Netease"
}