{
    "PublishTime": "12/29/201716:49:04",
    "Source": "Netease",
    "Comment": {
        "Content": "2017还剩两天·祝所有的易友·全家平安·健康·开心·[大笑] 快乐是一天，不快乐也是一天，所以，还是快乐吧！2018，快乐来吧 我用一整年的时间来走我们曾经一起走过的所有的路，去吃我们曾经吃过的所有的美食，穿你买的衣服，戴你买的手表，看你看过的书，那双拖鞋那件羽绒服我放进衣柜里面从此不再穿... 可能是我太过健忘，一直觉得10年前会是1997年，而现实10年前已经是2007的来了。<br>可能是我太过深情，一直觉得我们没有分手太久恍若昨日，而现实是你已经离开我2年了。<br>也可能是我不争气，一直觉得家里有爸有妈支撑着就够了。而现实的是父母有时候连走段路都喘大口气。<br>漫长的岁月里，时光真是神偷啊！愿你我都安好！ 2018平安健康幸福美满 一楼，加油，2018年末，你会觉得这一年的泪和汗都是值得的 哎哥们，你住哪？我也想送你一顶！先别谢，我是雷锋 哥们！真的假的？ 犹记得当年学习书上说1997香港回归，当时就在想1997呀，好遥远啊！<br>当时要是出现二十一世纪，那都是科幻片…… 越来越近了,好激动! 2017我戴了9顶绿帽子，这个冬天不太冷[不屑] 2018你好。 如果人到中老年，就是一部西游记。悟空的压力，八戒的身材，老沙的发型，唐僧一样的絮絮叨叨.....关键是还特么的离西天越来越近了！ 2017年，又干了一个小少妇。😄 2017年我好像嫖过2次还是3次，有点忘了 我想成为你最心动的相遇和最不舍的告别. 我的2017很充实，很阳光。我希望2018年有个健康的宝宝。 每年都要告别 2016，2017黑暗的两年 2017年，没有任何建树，愿2018年能够有所突破、有所作为。 才两三次哥们，都对不起你的IP地址 2018我新的开始。 好快啊时间，毕业两年了，以后不知道怎么办，很累，很迷茫。希望家人都健健康康，爸爸妈妈慢点老吧 祝福一楼好好的❤️ 2017我结婚了，希望明年有个小宝宝。希望家人身体健康，希望自己能换个角度思考工作。 2018我想造个娃！ 明年我要找到女朋友 我始终感觉我一直越来越颓废，每年初定的一个小目标到了年底就成了大目标。27岁，眼看着周围的人结婚，生子。我还是倔强得骗自己，我就不结婚。。呵呵，脸疼 有些人,有些事,有些情,无论多么不舍,也只能放手. 快点告别2017吧，明年我的宝宝就要降生了😄 平平淡淡才是真2017过去吧！ 你应该很孤单吧，一个人缓慢的看着评论，而这一秒，你正好看到了我的评论，这一秒你是属于我的，你好，陌生人，祝你2018过得很好 稿事君，加油，看你的更新是我每天打开网易新闻的动力 我只想悄悄地问问，文章这么好，我该如何点赞？？？！ 2018年我希望能结婚生子！ 2017年过去了，我很怀念它…… 2017再见拜拜拜拜再见 挺住，为了母亲泉下安息也要坚强👍 2017年当了爸爸，值得纪念的一年 2017我失去了母亲，失去了工作，失去了前进的动力和方向[大哭] 2017我生了个儿子很开心。哈哈哈 目标是2017先赚他一万块，目标已完成！ 2017还剩两天·祝所有的易友·全家平安·健康·开心·[大笑] 2017年，没有任何建树，愿2018年能够有所突破、有所作为。 2017我结婚了，希望明年有个小宝宝。希望家人身体健康，希望自己能换个角度思考工作。 2017还是挺不错的，虽不完美，但确是青春。 才两三次哥们，都对不起你的IP地址 点赞 越来越近了,好激动! 小编我想要封面图！可不可以给发出来？ 说实话，早特么给我过了，去尼玛的2017.不见 加我微信给你图 2017年我好像嫖过2次还是3次，有点忘了 真的假的? 一个女友，给我戴九鼎 我只想悄悄地问问，文章这么好，我该如何点赞？？？！ 2018更环保！为自己，为大家，为一切生命！嗷嗷嗷嗷嗷 放不下也得放下！真的，前面一两个月可能很痛苦，后面慢慢地就好了！我每次遇到这种感情上放不下的事情我就用理性问自己这样做对不对？以后会不会后悔？你自己发自内心回答好这两个问题就可以做决定了！不要明知道是个坑还往里面跳！那只会让你最后粉身碎骨追悔莫及！ 健康新年快乐 封面图呢我是被封面图骗进来的，小编还我封面图 不挂科就是2017给我的最后一份最好的礼物。 加油💪 还有喜欢过去的？在我眼里，最美的永远都是未来！ 令我作呕的2017，请滚开 开倒车 2017我失去了母亲，失去了工作，失去了前进的动力和方向[大哭] Mark 我想成为你最心动的相遇和最不舍的告别. 2017年，我27岁，重新选择到一个陌生的城市发展，这个城市很大很大，是你给我勇气，我的小多多。 幸福快乐 2018平安健康幸福美满 祈愿：光阴无恙，笃定安详！ 一颜九顶…… 哥们！真的假的？ 2017，收获满满 2017再见了！发生了太多太多的事！祝我好运！ 如果人到中老年，就是一部西游记。悟空的压力，八戒的身材，老沙的发型，唐僧一样的絮絮叨叨.....关键是还特么的离西天越来越近了！ 你微信多少呀哥？我的是349876669 2017我戴了9顶绿帽子，这个冬天不太冷[不屑] 2017过得一团糟拜拜咧你嘞 封面图呢[可怜] [大哭][大哭][大哭]，对，可是说实话，我特么压根放不下她！！！ 告别2017,拥抱2018,努力，加油! 一晃十年过去了 挺住，为了母亲泉下安息也要坚强👍 可能是我太过健忘，一直觉得10年前会是1997年，而现实10年前已经是2007的来了。<br>可能是我太过深情，一直觉得我们没有分手太久恍若昨日，而现实是你已经离开我2年了。<br>也可能是我不争气，一直觉得家里有爸有妈支撑着就够了。而现实的是父母有时候连走段路都喘大口气。<br>漫长的岁月里，时光真是神偷啊！愿你我都安好！ 2018必将是一个好年成 一个人就顶还是九个人给你带的，如果是9个人，你也不亏！ 怀孕生子两年稀里糊涂的就过去了。工作感觉每天都在神游。 希望股市大涨 懵懂中，总感觉，2017年距离1997年感觉只有一支香烟的距离！时光荏苒，80后的我正在奔向40岁的前沿…… 2017再见拜拜拜拜再见 谢谢朋友们的鼓励！ 有些遗憾就是不好好说再见 每一年都在告别，不管你是否接受他都一定会过去，只是一年比一年更加不舍，因为我们越来越清楚时间有多重要 可能是我太过健忘，一直觉得10年前会是1997年，而现实10年前已经是2007的来了。<br>可能是我太过深情，一直觉得我们没有分手太久恍若昨日，而现实是你已经离开我2年了。<br>也可能是我不争气，一直觉得家里有爸有妈支撑着就够了。而现实的是父母有时候连走段路都喘大口气。<br>漫长的岁月里，时光真是神偷啊！愿你我都安好！ 还有两天希望大家能够开心结束新一年 共享经济啊 我想要封面图发朋友圈 时间永远不会停止！ 2017转眼就要过去了，今年有啥收获吗 东莞扫过还不少么？ 2017年我好像嫖过2次还是3次，有点忘了 我想时间倒退，抱着父亲不放手，陪着他摄影，陪着他吃饭，陪着他看电影，陪着他散步 名字都绿了啊 2017对2018说，好好对待这个傻瓜！ 恭喜了！ 谢谢啦！ 💝💝💝工作再忙，不能忘了陪孩子，我们要如何两者兼顾？利用好碎片时间，再忙也能教育好孩子！<br><br>👇👇👇<br><br>1、早晨孩子还在被窝里，用轻吻或轻拍唤醒孩子，告诉孩子，我爱你。让孩子学到早晨用爱问候他人。<br>2、在孩子面前迅速穿衣服，即使在寒冷的冬天，也醒即起，显得动作利索，并可以和孩子比赛谁穿衣服快。<br>3、表扬孩子在头一天晚上就准备好自己第二天要穿的衣服，告诉他这是一个很好的习惯。<br>4、在早晨的时候，轻声哼自己喜欢的歌，给孩子传递早晨轻松愉快的心情。<br>5、掀开窗帘，为今天的来临表示感恩。同时告诉孩子今天能有工作真好，并展望见到一些有趣的人。<br><br>6、在起床后，带孩子一起做俯卧撑或伸展运动。开始孩子会不愿意，但是当坚持形成一个习惯后，他会在每天起床后做点简单的暖身活动。 我的果果也要诞生了[窃笑]现在才2个月。 很奇怪的事，2017房价基本没涨，2018会怎么样呢？ 有些人终究是生命中的过客,强留不得. 忙忙叨叨瞎忙活的一年，过去就过去吧。 快点告别2017吧，明年我的宝宝就要降生了😄 不多，18加油哦 哎哥们，你住哪？我也想送你一顶！先别谢，我是雷锋 东莞严打啊 一夜九顶？ 17再见 贿赂公务人员，再罚5000，钱到手，多少大保健不能做 东莞是一个好城市。比较包容 都高潮了吧？爽了吧？[大笑][大笑][大笑][大笑] 哥们！真的假的？ 怎么没有封面的图 2017再见，所有的坏运都过去吧，2018愿一切安好 加油 还好2017睡了两个少妇[大笑][大笑] 2017我戴了9顶绿帽子，这个冬天不太冷[不屑] 没有再见 爸爸我永远爱你❤️ 没有什么不舍，和死了的人比我还活着，和有钱人比我还在不服气的过着，和普通人比我还不如他们！有些时候越是在无力的时候想要的东西越多！ 敬你是条汉子。 滚粗吧2017这一年老子有太多的伤心 一楼有九个老婆吗？ [被黑][被黑][被黑][被黑] 2017已逝，离开已两年有余，愿2018一切安好！ 本命年，都说是太岁之年，与我而言的确是比较辛苦的一年，报考了中级会计职称，每天白天上班晚上上课，白天虽然忙的不可开交，但是下班前还是会泡一杯浓咖啡为了晚上能有精神听课，个中辛苦，尽在不言中了，好在最后给自己交了一份还算漂亮的答卷，现在觉得处在一个幸福阶段，和男朋友感情稳定，准备明年结婚，愿以后会越来越好吧，我信奉有一句话叫“越努力越幸运”，愿万事如意🙏🙏🙏 谢谢你 我还不如直接请抓我的jc做个大保健，也花不了5000 我才三个半月哈哈 封面图呢？还准备盗用呢 罚款3000没发票 看得我掉泪 除了娱乐门就再没有别的话说了吗？ 严打也还是有的，只是没以前服务那么好了 80年的，这里还有比我老的吗？ 恭喜 2017还剩两天·祝所有的易友·全家平安·健康·开心·[大笑] 17年失去亲人，失去喜欢的人，工作最近也倒霉，唉 过去已过去，未来还未来。而你，也已不是鲜衣怒马的少年郎，待你一夜忘尽忧伤，2018年的行囊已经打点妥当。<br>不管未来得意与欣喜、坎坷与彷徨，都应该已足够有幸有人能陪伴你走下2017生涯这段不平凡之路。 我只想悄悄地问问，文章这么好，我该如何点赞？？？！ 好想听一楼讲故事 好的祝心想事成～ 犹记得当年学习书上说1997香港回归，当时就在想1997呀，好遥远啊！<br>当时要是出现二十一世纪，那都是科幻片…… 2018你好。 謝谢你 2018是传说中某王朝结束的年份，期待吗？ 希望2018转运 [大笑][大笑] 2017年我好像嫖过2次还是3次，有点忘了 可能是我太过健忘，一直觉得10年前会是1997年，而现实10年前已经是2007的来了。<br>可能是我太过深情，一直觉得我们没有分手太久恍若昨日，而现实是你已经离开我2年了。<br>也可能是我不争气，一直觉得家里有爸有妈支撑着就够了。而现实的是父母有时候连走段路都喘大口气。<br>漫长的岁月里，时光真是神偷啊！愿你我都安好！ 用试？ 八个月不 别了。最爱的永子🐱，，彻，别了辛酸的2017，，，，说放弃谈何容易，，但也结束了！不爱了！愿我们都能幸福♪((└|o^▽^o|┐)) 挺好继续努力 [微笑] 我怎么能特别眷恋1997年呢 只有我希望2017早点过去吗 2017年过去了，我很怀念它…… 本命年，感觉过得不是特别好，没有完成自己的目标 2017年还有两天就要过完，无论舍得不舍得，都要挥挥手和它说一声再见了，正如在2016年那样有点小小的眷恋，还有稍许的遗憾。无论你处于那种状态，或者人生充满变故，或步入中年修仙状态，都要和它说再见了。 2017年当了爸爸，值得纪念的一年 挥别2017期冀2018 2017我生了个儿子很开心。哈哈哈 好快啊时间，毕业两年了，以后不知道怎么办，很累，很迷茫。希望家人都健健康康，爸爸妈妈慢点老吧 我想下载封面图的，为什么点进来却没有 哥们！真的假的？ 真的是啊，10年前居然是2007了 2017破产了，活着负债累累如同lose一般的生活，2018希望能来点奇迹 好的我想认识你～ 这二十年正是八零后的芳华啊 2017我戴了9顶绿帽子，这个冬天不太冷[不屑] 2017，再见 写的真好 我的2017很充实，很阳光。我希望2018年有个健康的宝宝。 加我微信点赞哈哈 2017最后一交易日，股票涨停，完美收官，也预示着完美开始！<br><br>拥抱2018！祝老公身体健康，祝宝贝茁壮成长！<br><br>祝我认识及认识我的人心想事成！🤗🤗 2018我新的开始。 2018我想造个娃！ 你应该很孤单吧，一个人缓慢的看着评论，而这一秒，你正好看到了我的评论，这一秒你是属于我的，你好，陌生人，祝你2018过得很好 [报警] 2018年我希望能结婚生子！ 图片呢？草 2017毁了我十年[微笑]现在又要用四年时间来补救作死呀 希望2018转运 以前梦想回到10年前，现在幻想回到15年前 快乐是一天，不快乐也是一天，所以，还是快乐吧！2018，快乐来吧 告别2017，迎接2018 可能是我太过健忘，一直觉得10年前会是1997年，而现实10年前已经是2007的来了。<br>可能是我太过深情，一直觉得我们没有分手太久恍若昨日，而现实是你已经离开我2年了。<br>也可能是我不争气，一直觉得家里有爸有妈支撑着就够了。而现实的是父母有时候连走段路都喘大口气。<br>漫长的岁月里，时光真是神偷啊！愿你我都安好！ 说得好棒 等待，在工作中等待幸福的降临! 2017年，又干了一个小少妇。😄 都快要饭了。还有啥不舍，快点过去吧，准备饿死在2018 我用一整年的时间来走我们曾经一起走过的所有的路，去吃我们曾经吃过的所有的美食，穿你买的衣服，戴你买的手表，看你看过的书，那双拖鞋那件羽绒服我放进衣柜里面从此不再穿... 2017年我好像嫖过2次还是3次，有点忘了 2018，新的一年， 每年都要告别 2016，2017黑暗的两年 发现没？图片借不到[被黑] 滚蛋吧2017 明年我要找到女朋友 时间不会留住，如同人的生命，留住的是人的美德，留给后人的口碑。 垃圾2017 我始终感觉我一直越来越颓废，每年初定的一个小目标到了年底就成了大目标。27岁，眼看着周围的人结婚，生子。我还是倔强得骗自己，我就不结婚。。呵呵，脸疼 有些人,有些事,有些情,无论多么不舍,也只能放手. 黑色的2017滚吧！ 稿事君，加油，看你的更新是我每天打开网易新闻的动力 平平淡淡才是真2017过去吧！ 顶你上头条让你想到是几次 2017很实惠的，丰收的一年，谢谢你2017年，希望新的一年2018年，更多人迈向更多的收获与成功 你们这些舞文弄墨的文艺范，真受不了 再见2017，拥抱2018 ",
        "Link": "http://comment.ent.163.com/ent2_bbs/D6RBO4G200039867.html",
        "Total": 1471,
        "Reply": 174
    },
    "Article": "2017年是温存的，但大多数人的生活是动荡的。2017年又是平淡的，无数人在百无聊赖中重复着日复一日的琐碎。可走到工作日的最后一天，仍有些舍不得和它说再见。你若问我2017年，你丧吗？我想说真的很丧。这种丧是步入适婚年纪的80后，在大城市中仍没有房子和姑娘的一无所措。是90后的踏入社会的迷惑，又日渐失去了应有的理想和朝气。是70后困顿半身后，发现前半生过的不是自己。于是，我们拿起了保温杯倒上枸杞，开始修仙。连90后都开始秃顶，我为何还要在意地中海的脑门，我们都一样，岁月又放过谁。到最后，都是油腻腻的中年男子，在荷尔蒙下降后，认了命。2017年娱乐圈里过的最丧的人，莫属白百何的前夫陈羽凡。没有什么比脑袋上扣上一定绿帽子还让人沮丧，在某个深夜，酒醉的陈羽凡挥动高尔夫球杆砸了狗仔的车，借着酒劲抒吐心中愤懑，“我啥都没做，绿帽子被媳妇戴成这样”。陈羽凡的悲痛，只有当年的王宝强能懂。昔日的恩爱夫妻，就此分道扬镳，白百何自“一指禅”后就鲜有露面试图让公众遗忘，待到2018年《捉妖记2》上映的时候，又是新的篇章。你要是问我2017年关键词，我想说戏精上身在生活中，我们扮演者各式各样的角色，有着多层次的自己，想多了也不清楚到底哪个才是真正的自己。加以深情款款，在舞台上唱起《安河桥》，私下里却是戏精，借着女方的伤情给自己宣传。貌似道貌岸然的长者，背地里可能也会去白云皮革城给女徒弟买假包。平日里被尊称为“老艺术”家的谦谦裙子，也许会在地库里舌吻女演员，在车里礼貌性的拥抱好友。在微博里发着鸡汤，写着繁体字，戏中千年不变的形象，实话说挺累人的。不如像陈志朋，活着真正的自己，虽然遭受非议，总比伪装起来会开心吧。我们把太多明星中戏中角色的形象，当做他生活中的本我。实则，他们也会吃喝拉撒，也会喝醉时左拥右抱，手拿麦克风大喊：XXX，你傻X。你若问我，2017年做了什么？我想说，等待上帝并不会垂青碌碌无为的人，机遇对于每个人都不公平。与其抱怨和愤懑，不如就等待下去。婚变后的潘粤明等了五年，才遇到《白夜追凶》，这时候的他已然步入中年，心态上都已淡然，那场变故犹如利刃，刀刀见血。岁月啊，你别追，该来的他自己会来。五年后的潘粤明没有往日的明朗，却多了些许被岁月打磨的成熟味，愈发迷人。经历人生大起大落的人，才知静心等待的意义。俞灏明，那场大火带走的不止是容颜似乎是一切对于未来的期许。就当命运的十字架要死死钉在身上时，他凭借“杜明礼”翻身，忘记他“快男”的身份，他想做一个演员，用生活给予他的哲思去迸发出因隐忍和等待积蓄的力量。我想，命运也是公平的，不会垂青谁，也不会放弃谁。2018年，希冀它发生什么？卓伟能在讲事实上图片的基础上还吃瓜群众一个真相。娱乐圈明星在分手的时候能够体面的再见，不再是你死我破，撕的血肉模糊。王宝强离婚案能够有个定夺，还他一个迟到的公道。小众文化不再被淹没在地下，能够出现更多《中国有嘻哈》的节目，至少让公司年会表演的节目有的基调。能够出现像《芳华》、《嘉年华》一样触及人心底的电影，不再是为了圈钱而侮辱观众的智商。再者更希望一夜爆红的小鲜肉，在经历锤炼后，能够拿出让人信服的作品，而不是粉丝的盲目崇拜。总之，2017年还有两天就要过完，无论舍得不舍得，都要挥挥手和它说一声再见了，正如在2016年那样有点小小的眷恋，还有稍许的遗憾。无论你处于那种状态，或者人生充满变故，或步入中年修仙状态，都要和它说再见了。2017年，稿事君经历了这些娱乐事件：白百何出轨，陈思诚出轨，周立波被抓，卓伟被封号，薛之谦人设塌陷，郭富城当爹奚梦瑶维秘摔倒，周杰林心如强吻门，印小天被骗，作家指控郭敬明性骚扰，何洁离婚李晨求婚范冰冰，鹿晗公布恋情，宋仲基宋慧乔结婚，宋喆被抓马蓉喊话王宝强袁立手撕《演员》，侯耀华送女徒弟假包，朱时茂车吻美女，岳云鹏深夜找妹整个2017年没有演员因为吸毒嫖娼被抓。愿2018年好运来，稿事君带给你更多娱乐大事件送给2017年的你我他我这么努力嘿，我从早忙到晚你知不知道，我一点都不快乐做的都不是自己喜欢做的事怎么会快乐呢？——————杨德昌《一一》本文来源：稿事编辑部责任编辑：张楠_NK4501",
    "URL": "http://ent.163.com/17/1229/16/D6RBO4G200039867.html",
    "Title": "2017年，无论你有多么不舍，请试着和它告别_网易娱乐",
    "KeyWords": "演员,王宝强,白百何"
}