{
    "PublishTime": "12/27/201709:17:25",
    "Source": "Netease",
    "Comment": {
        "Link": "http://comment.war.163.com/news_junshi_bbs/D6LD3PD8000181KN.html",
        "Total": 53,
        "Reply": 9,
        "Content": "红旗9哪里去了，都喂了2次屎，为啥不能再喂一次？ 就是那个不发一弹就滚蛋的酥400？！ 钱到手了，让他放去 选择题：25亿美元<br>A.4个营系统的S400<br>B.约25架F35A<br><br>下注了啊！~ 一般是按照美元的 土耳其这次会不会像放我们鸽子那样也放俄罗斯一把鸽子？ 换做我也正规的4，不会买山寨的3 红旗9哪里去了，都喂了2次屎，为啥不能再喂一次？ 就是那个不发一弹就滚蛋的酥400？！ 刚才那个新闻还说不用美元结算 一般是按照美元的 钱到手了，让他放去 选择题：25亿美元<br>A.4个营系统的S400<br>B.约25架F35A<br><br>下注了啊！~ 采购俄武器美国指定不会高兴，如果买中国武器就会不一样，中国对美购不成威挟 土耳其这次会不会像放我们鸽子那样也放俄罗斯一把鸽子？ 换做我也正规的4，不会买山寨的3 "
    },
    "Article": "（原标题：俄媒披露俄土S400合同：25亿美元采购4个营系统）【环球网军事12月27日报道】据俄罗斯卫星通讯社莫斯科12月27日电，“俄罗斯技术”集团总经理谢尔盖切梅佐夫表示，土耳其向俄罗斯购买了4个营S-400系统，总价25亿美元，合同金额的55%为俄提供的贷款资金。他在接受俄《生意人报》采访时证实，土耳其购买了4个营系统。他在回答相关问题时称：\"是的，25亿美元。\"在谈到俄方贷款时他表示，俄土两国财政部已经完成了谈判。他补充称：\"仅需批准最终文件。我可以说，他们支付合同总价的45%作为预付款，55%位俄贷款资金。我们计划于2020年3月开始首批供应。\"本文来源：环球时报-环球网。更多精彩，请登录环球网http://www.huanqiu.com责任编辑：姚文广_NN1682",
    "Title": "俄媒披露俄土S400合同：25亿美元采购4个营系统_网易军事",
    "URL": "http://war.163.com/17/1227/09/D6LD3PD8000181KN.html",
    "KeyWords": "俄土,俄罗斯,贷款,s400"
}