{
    "Article": "（原标题：以色列为何很紧张？法媒：伊朗军队距前者边境仅30公里）参考消息网12月27日报道据法国《费加罗报》网站12月17日报道称，自从叙利亚内战爆发以来，以色列发现其面对的“伊朗问题”越来越大。极端组织“伊斯兰国”垮台后出现的和平以及巴沙尔政权的“胜利”，似乎无法减轻这一问题的严重性。以色列情报机构摩萨德前官员西玛·夏因表示：“我们十分紧张。伊朗军队在叙利亚站稳了脚跟。伊朗的得力助手真主党也在那里公开活动。至于参加叙利亚战争的什叶派民兵，我们担心他们会被并入到叙利亚军队中。”随着对地中海东岸地区的影响力不断巩固扩大，伊朗被认为是“规则改变者”，而这是一种力量格局的改变。夏因总结说：“如果与真主党发生新的战争，以色列将面临两线作战的局面。”这位以色列前情报官如今为著名的以色列国家安全研究所工作。报道称，以色列指责夙敌伊朗利用叙利亚内战以及随之形成的新的军事力量对比关系，在叙利亚南部部署伊朗军队和真主党武装，而真主党利用战事获得了武装攻击能力的提升。但是自从黎巴嫩哈里里总理辞职引发危机之后，事态突然有了新进展。在整个叙利亚内战期间，以色列在叙利亚划定了2条威胁其国家安全的红线：向真主党输送武器和在边境地区建立“恐怖主义组织”。以军曾多次袭击向真主党运送物资的车队。但是，如今危险在逐渐临近。图为以色列装甲部队刚刚出版著作《我的地缘政治词典》的弗雷德里克·昂塞尔解释说：“以色列人认为真主党想在黎巴嫩立稳脚跟，而什叶派武装的支持让其具有某种合法性。但是以色列人无法容忍真主党武装出现在戈兰高地附近，因为整个以色列北部地区都有受到袭击和渗透的威胁。”昂塞尔认为，伊朗人显然是想在叙利亚站住脚，“什叶派官兵和民兵在距以色列边境仅有30公里的大马士革周边地区建立了永久性基地”。以色列总理内塔尼亚胡重申，为确保以色列的利益受到保护，以色列保留军事打击叙利亚南部地区的选项。以色列国防部长阿维格多·利伯曼警告说：“我们不会允许在叙利亚形成一个什叶派轴心，这有可能被作为威胁以色列安全的活动的基础。”以色列建议设立一个纵深50公里的缓冲区，伊朗及其盟友的武装不能深入到该地区。伊朗影响力的增强并不是以色列领导人担忧的唯一问题。俄罗斯-伊朗关系的巩固是以色列面临的另外一个问题。西玛·夏因解释说：“这已经不仅仅是一种理性联姻，而是一种战略合作关系。伊朗已经在该地区站稳脚跟，其与俄罗斯的关系不再局限于军事层面，也包括经济因素。”在这种新的地区格局下，以色列也在努力寻找盟友。一位以色列外交官说：“我们并不是要替所有人干脏活累活，但是所有能向伊朗额外施加的压力的力量，我们都欢迎。”这种力量来自沙特，也来自美国，尤其是特朗普将伊朗列为其在该地区的主要敌人，并威胁要“撕毁”伊朗核协议。以色列领导人始终无法认同2015年7月伊朗与国际社会达成的和解，因为这不过只能使伊朗核计划暂时中止10多年而已。西玛·夏因认为：“撕毁核协议是不可能的，但是可以导致另外2个新问题，那就是伊朗的弹道导弹计划和伊朗的地区称霸。”外媒称，在欧盟内部，法国总统马克龙是唯一公开提到有必要与伊朗人就这2个问题进行谈判的领导人。然而，以色列人怀疑他没有足够手段影响其他欧盟国家领导人。这样的建议遭到了欧盟外交与安全政策高级代表费代丽卡·莫盖里尼的冷对。内塔尼亚胡可能不会见她。由于在文化和历史上与该地区国家渊源颇深，法国不断提出倡议，试图缓和伊朗与沙特之间的紧张局势，并出面充当了黎巴嫩危机的调停者。但是法国对伊朗施加压力的能力很有限。法国对伊朗在地中海东岸地区影响力日增很敏感。同时，法国也地处抵制核扩散的前沿。它希望能够挽救一个自己做过贡献的核协议，而如今它认为该协议还是令人放心的。它还希望自己能在一个未来非常有利可图的市场上占有一席之地。因此，法国拒绝了以色列的要求，不赞成对伊朗在黎巴嫩的银行账户监管上施加压力。弗雷德里克·昂塞尔认为：“马克龙不愿因为虚幻的东西丢掉实际利益。他以聪明的方式填补了美国人留下的空白。这是让法国变为一个救急大国的良好时机——充当逊尼派和什叶派之间冷战的裁判。”（编译/芦龙军）本文来源：参考消息网责任编辑：姚文广_NN1682",
    "Source": "Netease",
    "KeyWords": "以色列,伊朗,叙利亚,真主党",
    "Title": "以色列为何很紧张？伊朗军队距前者边境仅30公里_网易军事",
    "Comment": {
        "Total": 15490,
        "Content": "紧张？犹太人为什么要紧张？犯以色列者虽远必诛！借一百个胆给波斯人也不敢动犹太人，就算你敢动也要考虑背后的大哥 总有狗想要吠 以色列毕竟是小国寡民，一点不稳重<br>你看大厦，美帝飞机军舰常年在家里逛游，他有任何一丝紧张吗？ 你觉得有几个支持以屎列的？ 为了问候他家女性，最近我打字速度明显上升，感谢乳山这条疯狗！我还得去日他妈！ 这就是所谓爱国者们的素质！ 以色列:今天领导决定改40公里<br>伊朗:艹尼玛！速速撤退10公里<br>两天后<br>以色列:不好意思之前说错，是50公里<br>伊朗:哥，能给个准信不？ 什么啊，犹太人刚闹事的时候，毛熊白头鹰，还有欧洲人那是全部明里暗里的出手相助，各个都想把犹太人送走…… 我哭的他们两个死掐最好，谁也不要把谁干趴下，不停打就好了。 我们是墙大国家 不紧张把子女送🇺🇸干嘛[微笑] 哈哈哈哈哈哈！ 你说别的国家或种族紧张有可能，你说以色列紧张？你吃什么长大的？没脑子？ 天天叫嚣将人家从地图上抹去，，支持抗魔一线的以色列。。 虚在伺候我呢完事你在问 尼玛可好？ 震惊，沙特吓傻了，以色列吓尿了，伊朗后撤10公里，古巴专家分析，叙利亚或赢。 以色列：我叫不紧张[色色] 有没有搞错，第一次中东战争，自愿者（包括英国军官、其它雇佣军）都跑到阿拉伯联军里，英法美还对以色列进行犹太移民、武器进行军事封锁！移民 大锅疯饭 小洋奴，你家女的外号是“京城第二公交公司”。老夫正在玩呢。<br>小洋奴，你的玛可是说了，她当年可是玩遍京城的，人称“京城11路车”。为什么排到第11路了？因为你家的女性太多，一个一个往下排，你的玛就排到第11路了。老夫当年还跟她耍过。她毕竟是会玩的人，花样真不少。你早点去鉴定一下吧，兴许你的爷和你的爹都坐过京城11路车呢。<br>小洋奴，不要跑路，来坐京城11路车了。快点，票快没了。 还有大多数中国人支持以色列 以色列不孤立，伊朗的敌人有沙特及其盟国。 你这货是社会垃圾。 这个洋奴跑到这里来丢人现眼了。 让以色列紧张伊朗就离倒霉不远了。 伊朗骑虎难下，干爹跑了，看来是要耗死在叙利亚了 小洋奴，老夫正在玩宿迁11路车呢。<br>小洋奴，你的玛可是说了，她当年可是玩遍宿迁的，人称“宿迁11路车”。老夫当年还跟她耍过。她毕竟是会玩的人，花样真不少。你早点去鉴定一下吧，兴许你的爷和你的爹都坐过宿迁11路车呢。<br>小洋奴，不要跑路，来坐宿迁11路车了。快点，票快没了。 威武，好支希 伊朗挺住，千萬別學鵝毛逃跑[窃笑][窃笑] 真的单挑的话，估计伊朗会被爆出翔 一群狗比喷子，不喷会死啊！ 哈哈哈，以色列说了，30公里以内的伊朗基地，全部摧毁，伊朗太狡猾，压着线建立基地 中砖家或俄砖家更具权威！ 你觉得普通老百姓有几个支持伊朗的？ 日遍你家女性！ 发现一群爱国人士，让我们一起喷死这些汉奸走狗。这些人就是浪费国家粮食的人 小洋奴，老夫正在玩宿迁11路车呢。<br>小洋奴，你的玛可是说了，她当年可是玩遍宿迁的，人称“宿迁11路车”。老夫当年还跟她耍过。她毕竟是会玩的人，花样真不少。你早点去鉴定一下吧，兴许你的爷和你的爹都坐过宿迁11路车呢。<br>小洋奴，不要跑路，来坐宿迁11路车了。快点，票快没了。 华为还是这么自信！？ 连缅帝时不时的也来上几炮就让人比较头疼了。。。 前途堪忧！ 还美帝，印帝都想踩就踩一脚。 你这是在侮辱垃圾。 第一次中东战争时世界各地的志愿者到特拉维夫帮助以色列人。相信今天如果发生以伊战争还是有不少正义势力帮助以色列打垮这个妄想把以色列从地图上抹去的国家！ 小洋奴，老夫正在玩宿迁11路车呢。<br>小洋奴，你的玛可是说了，她当年可是玩遍宿迁的，人称“宿迁11路车”。老夫当年还跟她耍过。她毕竟是会玩的人，花样真不少。你早点去鉴定一下吧，兴许你的爷和你的爹都坐过宿迁11路车呢。<br>小洋奴，不要跑路，来坐宿迁11路车了。快点，票快没了。 你家女性可好？ 小洋奴，你家女的在宿迁的外号是“宿迁第二公交公司”。后来又跑到京城做了“京城第二公交公司”。老夫正在玩呢。<br>小洋奴，你的玛可是说了，她当年可是玩遍宿迁的，人称“宿迁11路车”。为什么排到第11路了？因为你家的女性太多，一个一个往下排，你的玛就排到第11路了。老夫当年还跟她耍过。她毕竟是会玩的人，花样真不少。你早点去鉴定一下吧，兴许你的爷和你的爹都坐过宿迁11路车呢。<br>小洋奴，不要跑路，来坐宿迁11路车了。快点，票快没了。 问候你家女性！ 你家女性可好？ 那些太监挺希望伊朗赢得 伊朗别怂，跨进30公里让以色列知道你们不怕他们。 以色列除非搞定阿拉伯人否则就没有安全感！ 孟子之所以伟大就是说出了得道多助失道寡助这句放之四海而皆准的至理名言 垃圾还能回收再利用，它这种东西应该直接活埋 这个问题问的好👌 还有大多数中国人支持以色列 以色列毕竟是小国寡民，一点不稳重<br>你看大厦，美帝飞机军舰常年在家里逛游，他有任何一丝紧张吗？ 以色列的敌人比伊朗要多吧？中东一圈有和以色列友好的国家吗？你读不读历史。 早就打服了。伊朗邪恶小丑就蹦哒蹦哒而已 以色列:今天领导决定改40公里<br>伊朗:艹尼玛！速速撤退10公里<br>两天后<br>以色列:不好意思之前说错，是50公里<br>伊朗:哥，能给个准信不？ 那就快快滚出网易，就跟你这样的走狗怂恿别人滚出中国一样！ 鹅毛的破烂飞机被出现的F22吓尿了，过了几天就宣布撤军[窃笑] 我给我儿子买的都是垃圾手机，就是那种连牌子都没有的那种，我儿子还挺开心，还经常嘲笑别人，学学我儿子 有一伙中国人不但跪添几个来自德俄的洋人！还把这几个洋人认做祖宗！公开宣称死后不是去见华夏的列祖列宗，而是去见这几个洋人！它们是不是洋奴汉奸？ 为什么伊斯兰国”从不袭击以色列？ 楼上，你太能吹了，龙卷风🌪️都不及你😄 先去看一下5次中东战争，都没使用核弹，双方武器级别基本差不多，除了第一次以色列弱到渣。战绩呢？6日战争以色列差点招来美军的打击，幸亏阿拉伯弟兄们给劲，几天就歇逼了。 以色列你敢开战，就等着被耗死吧。人家现在有二个安理会干爹在无偿输血。你以为就你美爹会呀。只要输血不断供，就可以一直耗死你。 波斯人不是阿拉伯人，国风和做法上和毛主席很像，破鞋征万里，不怕打，打不怕的精神在全国贯穿，几十年的战争环境已经把每一个波斯人练就成了不惧战的将士。我常年在巴伊做事，是真有体会！犹太人和波斯人打起来，还真不好说！讲后台的话俄罗斯也绝不会放掉中东的最后一张牌伊朗。 但愿伊朗崛起 小洋奴，你的玛正在老夫的床上耍得起劲呢。不得不说，尼玛会的花样真多。你要不要一起来耍？钱由老夫出。来，老夫等着你。<br>小洋奴，老夫还要告诉你一点：你们这类货，只要敢把尼们的玛抛出来，老夫保证会和她耍得很好。不信，就试试。 华尔街民众示威一年多，他们的诉求得不到解决，还被暴力清场；<br>美国警察枪杀无辜黑人；<br>美国棱镜门监听民众通讯，被斯诺登曝光，还要审判斯诺登。<br>这些都是在洋奴们嘴里“天堂”一样的美国，这个美国天天黑着别人，却从来不看它连自己的百姓都黑。还有洋奴们为它洗地。 自從猶太人建國依賴，伊朗面對的以色列問題，也越來越嚴重。 你家女性可好？死光没？ 好远啊，坐高铁要17分钟 爱国志士都是睁眼瞎还是装傻充愣！ 网易纵容媚美分子的行为及其可耻！ 做洋奴还做出优越感来了。 狐假虎威 为什么要把你打出来 参考信息你们也信 一不小心，你这货把自己的心里话说出来了。 长毛象牙看升 以色列还用和他们耗？你太看的起那帮人了！ 以色列不孤立，伊朗的敌人有沙特及其盟国。 小洋奴，一天改几个名字？想跑？休想！<br>小洋奴，你家女的在宿迁的外号是“宿迁第二公交公司”。后来被人认出来了，就改了名字、地址，又跑到京城做了“京城第二公交公司”。老夫正在玩呢。<br>小洋奴，你的玛可是说了，她当年可是玩遍宿迁的，人称“宿迁11路车”。为什么排到第11路了？因为你家的女性太多，一个一个往下排，你的玛就排到第11路了。老夫当年还跟她耍过。她毕竟是会玩的人，花样真不少。你早点去鉴定一下吧，兴许你的爷和你的爹都坐过宿迁11路车呢。<br>小洋奴，不要跑路，来坐宿迁11路车了。快点，票快没了。你就是扒了皮，老夫也不能让你跑了。 傻13年年有 排列错误！好支威有！记住了。 军事打击伊朗不远了 伊朗挺住，千萬別學鵝毛逃跑[窃笑][窃笑] 哈，虽然咱不感动它们，可是嘴炮从来没停过呀，信不信咱用嘴炮就统统灭了它们！ 哪里有你们这群垃圾，老夫就到哪里打扫。老夫不图名，不图利。事了拂衣去，深藏功与名。 梅卡瓦，必将碾碎波斯梦！ 哈哈哈，以色列说了，30公里以内的伊朗基地，全部摧毁，伊朗太狡猾，压着线建立基地 小洋奴，你家女的在宿迁的外号是“宿迁第二公交公司”。后来被人认出来了，就改了名字、地址，又跑到京城做了“京城第二公交公司”。老夫正在玩呢。<br>小洋奴，你的玛可是说了，她当年可是玩遍宿迁的，人称“宿迁11路车”。为什么排到第11路了？因为你家的女性太多，一个一个往下排，你的玛就排到第11路了。老夫当年还跟她耍过。她毕竟是会玩的人，花样真不少。你早点去鉴定一下吧，兴许你的爷和你的爹都坐过宿迁11路车呢。<br>小洋奴，不要跑路，来坐宿迁11路车了。快点，票快没了。你就是扒了皮，老夫也不能让你跑了。 伊朗已踏上征程，离以色列30公里安营扎寨，待命把以色列从地球上抹去。伊朗能让大兵跪降，抹去以色列易如反掌。 认了洋祖宗的马猎子孙冒充中国人 华为还是这么自信！？ 不摘掉头巾就没有未来 那就快快滚出网易，就跟你这样的走狗怂恿别人滚出中国一样！ 应该在乌克兰建立国家哪里很安全，又不会发生这么多的事。 先去统计一下以色列的人口数，在不使用核弹的情况下。只要双方的武器级别都差不多，你耗不过人口多的一方。 你家女性可好？ 打！打！打！伊朗放起胆子打！把美帝的走狗以色列的💩打出来！哈哈哈！ 那你怎么解释六日战争？ 这还不简单，比如朝鲜战争中的太子，比如王成的原型蒋庆泉....就是他们避免了咱们过美帝压制下韩国人民的悲惨生活，让咱过上巢县人民太阳照耀下的幸福生活。 这个小疯狗追着我骂，我正好也无聊，拿这牲口练练字。 还美帝，印帝都想踩就踩一脚。 支持消灭以色列，国小但很坏 网易纵容媚美分子的行为及其可耻！ 小洋奴，哪里有你们这群垃圾，老夫就到哪里打扫。匿名不匿名的，一点也不妨碍老夫打扫洋奴。老夫不图名，不图利。事了拂衣去，深藏功与名。 哈哈哈！大兵没有跪降伊朗，是大🐖跪降了伊朗。 以色列和伊朗干一仗吧别比比了 有一伙中国人不但跪添几个来自德俄的洋人！还把这几个洋人认做祖宗！公开宣称死后不是去见华夏的列祖列宗，而是去见这几个洋人！它们是不是洋奴汉奸？ 伊斯兰国”是以色列扶持的吗？ 华尔街民众示威一年多，他们的诉求得不到解决，还被暴力清场；<br>美国警察枪杀无辜黑人；<br>美国棱镜门监听民众通讯，被斯诺登曝光，还要审判斯诺登。<br>这些都是在洋奴们嘴里“天堂”一样的美国，这个美国天天黑着别人，却从来不看它连自己的百姓都黑。还有洋奴们为它洗地。 小洋奴，你家女的在宿迁的外号是“宿迁第二公交公司”。后来被人认出来了，就改了名字、地址，又跑到京城做了“京城第二公交公司”。老夫正在玩呢。<br>小洋奴，你的玛可是说了，她当年可是玩遍宿迁的，人称“宿迁11路车”。为什么排到第11路了？因为你家的女性太多，一个一个往下排，你的玛就排到第11路了。老夫当年还跟她耍过。她毕竟是会玩的人，花样真不少。你早点去鉴定一下吧，兴许你的爷和你的爹都坐过宿迁11路车呢。<br>小洋奴，不要跑路，来坐宿迁11路车了。快点，票快没了。你就是扒了皮，老夫也不能让你跑了。 只有30公里？短兵相接那么核蛋蛋是不能用了 洋奴，跑到这里来了？来玩宿迁11路车。<br>小洋奴，你家女的在宿迁的外号是“宿迁第二公交公司”。后来被人认出来了，就改了名字、地址，又跑到京城做了“京城第二公交公司”。老夫正在玩呢。<br>小洋奴，你的玛可是说了，她当年可是玩遍宿迁的，人称“宿迁11路车”。为什么排到第11路了？因为你家的女性太多，一个一个往下排，你的玛就排到第11路了。老夫当年还跟她耍过。她毕竟是会玩的人，花样真不少。你早点去鉴定一下吧，兴许你的爷和你的爹都坐过宿迁11路车呢。<br>小洋奴，不要跑路，来坐宿迁11路车了。快点，票快没了。你就是扒了皮，老夫也不能让你跑了。 哈哈哈哈，越帝菲帝日帝那就更不用说了[大笑] 瞅瞅如今四人奸麾下的红孽如同过街老鼠一般人人喊打，怪不得他只敢匿名发帖😄。 比当奴才好 还离30公里呢紧张个屁前几个月印度军队都来中国领土了我们都没有紧张以色列心理素质太差了 真见了米军你比谁都汉奸 以色列除非搞定阿拉伯人否则就没有安全感！ 紧张？犹太人为什么要紧张？犯以色列者虽远必诛！借一百个胆给波斯人也不敢动犹太人，就算你敢动也要考虑背后的大哥 再打一次中东战争，以色列有没有必胜的信心？ nishi你真是傻子 伊朗也算是中东地区的一霸，有相对完善的工业体系。比起沙特等国也算是好的很多了。 像你这弱智的人还在这里叫，就这还有这么多人点赞！傻逼一群！ 孟子之所以伟大就是说出了得道多助失道寡助这句放之四海而皆准的至理名言 以色列毕竟是小国寡民，一点不稳重<br>你看大厦，美帝飞机军舰常年在家里逛游，他有任何一丝紧张吗？ 这就是所谓爱国者们的素质！ 伊朗的敌人有沙特及其盟国。 以色列唯利是图是个没底线没原则的国家，他会为了利益出卖一切 还没等伊朗动手，就被灭掉了。 人类迟早一天毁灭在自己手上！ 吓瘫了在餐桌上拉屎的阿三 这标题写的怎么跟以色列怕伊朗似的。要不是听说以色列说你敢靠近30公里内我就揍你，我差点就信了标题。 小洋奴，你的玛正在老夫的床上耍得起劲呢。不得不说，尼玛会的花样真多。你要不要一起来耍？钱由老夫出。来，老夫等着你。<br>小洋奴，老夫还要告诉你一点：你们这类货，只要敢把尼们的玛抛出来，老夫保证会和她耍得很好。不信，就试试。 不好意思是什叶派本就少，口误 逊你相当保皇派，注重血统，十叶相当共和派，注重能力，算起来还是十叶更进步 你觉得普通老百姓有几个支持伊朗的？ 虚在伺候我呢完事你在问 尼玛可好？ 跟贴被火星网友带走啦~ 开开心心喝毛台 对于洋奴这类不是人的东西，用不着说好听的。直接打脸就是了。说得再好，它们也听不懂人话。 伊朗敢打美国飞机美国军舰不敢动以色列一根汗毛，以色列不是吹的 都是特朗普个sd 有需要的近邻，是主耶酥基督开的路;要首都，就需要在其它爱人的方面有建树，，， 还有大多数中国人支持以色列 以色列不孤立，伊朗的敌人有沙特及其盟国。 该爱国贼出来表演了 两伊战争再次拉开序幕 老虎为什么紧张？因为兔子在它30里外搭了个窝[微笑] 伊朗骑虎难下，干爹跑了，看来是要耗死在叙利亚了 解散联合国，竟然全反对老美。 肯定是认了洋祖宗的马猎子孙 政教合一，呵呵。真不如巴列维时期。 哈哈哈，以色列说了，30公里以内的伊朗基地，全部摧毁，伊朗太狡猾，压着线建立基地 小洋奴，你家女的在宿迁的外号是“宿迁第二公交公司”。后来又跑到京城做了“京城第二公交公司”。老夫正在玩呢。<br>小洋奴，你的玛可是说了，她当年可是玩遍宿迁的，人称“宿迁11路车”。为什么排到第11路了？因为你家的女性太多，一个一个往下排，你的玛就排到第11路了。老夫当年还跟她耍过。她毕竟是会玩的人，花样真不少。你早点去鉴定一下吧，兴许你的爷和你的爹都坐过宿迁11路车呢。<br>小洋奴，不要跑路，来坐宿迁11路车了。快点，票快没了。 沙特和伊朗都自命不凡，都自命伊斯兰的领导者。沙特国王还是教主呢。逊尼派和什叶派不是一天两天的了。伊朗帮叙利亚那是肯定的。逊尼派本就少。叙利亚总统巴沙尔是逊尼派，但叙利亚逊尼派占少数，所以他倒台了，伊朗机会可能孤军奋战了。也门已经废了。我们这些不信教的就在这吃瓜看戏吧有啥说的呢，只管看戏 你这货是社会垃圾。 瞧这乐的…… 呵呵，真以为犹太人拿中国人当朋友？？幼稚 全世界人民团结起来，消灭破坏世界稳定的恶魔：霉国和以色列！ 那个同一个干爹的黄恶儿呢？ 我建议伊朗多造大炮，以色列地小就算有核武器一个毁灭一个城市，，你伊朗造50000门大炮，就算以色列打掉一些不可能全部打掉吧，就算被打掉20000们，你剩下的30000门大炮集群攻击的威力不比一两棵原子弹的威力小，既然空军不是你的对手，坦克没你的先进，也没有核武器，那我就在你的30里之外的线上部署5万门大炮，你说你空军厉害能一下子打掉我的5万门大炮吗，你说你坦克先进你能一下子冲破我的大炮防线吗，你说你用原子弹打过来，那伊朗没了你以色列也不复存在，。 可是没有人给你赞耶……那我给你个踩吧 看到这个标题感觉很可笑 在多年的各种制裁下，伊朗也是缺医少药，工业体系虽完备但很多也熄火没法开动。真打起来能坚持多久是个问题。 以色列和沙特都是IＳ的幕后金主。 伊朗跟沙特那是教派冲突，完全没法何解的 以色裂真能吹，还保留军事打击的选项，伊朗已不是两伊战争时的伊朗，现其背后又有中、俄支持，看中东到底是谁人之天下 卢梭:爱国主义是流氓地痞最后庇护所！哈哈，几百年前法国大思想家早已看穿了这群玩意的嘴脸！[窃笑] 还美帝，印帝都想踩就踩一脚。 波斯这是高边疆战略，高边疆战略是汉拔尼首创，把交锋的前线放到对手的跟前以保证本土的安全，米蒂是执行高边疆战略最突出的典范 小洋奴，你的玛正在老夫的床上耍得起劲呢。不得不说，尼玛会的花样真多。你要不要一起来耍？钱由老夫出。来，老夫等着你。<br>小洋奴，老夫还要告诉你一点：你们这类货，只要敢把尼们的玛抛出来，老夫保证会和她耍得很好。不信，就试试。 霉狗高潮了…… 你手机真心不错，酷派大神f1，厉害了，<br>我就问你是不是傻子？ 有些国家开始害怕 你是他们的中间人。 腌杂又出来了？ 伊朗别怂，跨进30公里让以色列知道你们不怕他们。 什么叫想！是已经踩了一脚又一脚！ 伊朗派出黛绮丝，会同中原明教其馀三大护法白眉鹰王，金毛狮王，青翼蝠王把他们杀个片甲不留！ 对于不是人的洋奴们，直接打脸就是，没必要与它们说好听的。因为说得再好，它们也听不懂人话。 洋奴们靠着断章取义的意淫，又高潮了。 老夫就是来此打扫你们这种垃圾的。 以色列不孤立 以色列不硬在中东活不了。。。 教派内部冲突， 霉狗🐶？ 就事论事，不要歪楼，以色列跟美帝就像坑爹的女儿跟土豪爹，跟大沙就像整天眉目传情的老情人，其他三个无非就想干一炮或者多干一炮 孟子之所以伟大就是说出了得道多助失道寡助这句放之四海而皆准的至理名言 以色列毕竟是小国寡民，一点不稳重<br>你看大厦，美帝飞机军舰常年在家里逛游，他有任何一丝紧张吗？ 伊朗千万别跑 这就是所谓爱国者们的素质！ 哈哈哈，以色列说了，30公里以内的伊朗基地，全部摧毁，伊朗太狡猾，压着线建立基地 结局都一样 记住你这句话，后面翻出来对 世袭国也有逼脸去联合国投票 你说别的国家或种族紧张有可能，你说以色列紧张？你吃什么长大的？没脑子？ 呃呃 以色列再不动手，可能就晚了～看看基本态势，就是个两线作战情形！你要等它们准备就位、一起开张、双向夹击吗？！ 一个萨德就吓尿了 交了保护费的哈！ 给他一百个胆也不敢打，也不看看以色列后面的大哥是谁 给朕狠狠的打 抓赌忙着呢 diosvmzjat 以色列都直接灰机飞进去轰炸导弹基地了，没见伊朗放个屁 还有大多数中国人支持以色列 小姨子不太可能怕什么伊朗“大军”，双方也没什么必要交战的需求，只是各自维持一种“架势”而已 这个沙特到底是个什么角色？ 以色列不孤立，伊朗的敌人有沙特及其盟国。 打犹大! 不论是过去的战争，还是现代战争，基本就没有单挑的，都要找帮手，同样以色列自己的实力不用说了，何况以色列背后还有美帝了！ 伊朗说以色列算什么，我给赞了 伊朗挺住，千萬別學鵝毛逃跑[窃笑][窃笑] 伊朗算个球 哈哈哈，以色列说了，30公里以内的伊朗基地，全部摧毁，伊朗太狡猾，压着线建立基地 那村长朋友是否比你多碳管污利的朋友都比你多咋说看来他们都是对的 呵呵，把阿三吓瘫走不了啦 以色列为什么总被美国佬利用，好好发展，和平相处，人民免受战争灾难，这样不好吗？非要轻信美国佬的挑唆，自己国家和人民受罪，完全不值得的，醒醒吧以色列。 作死的节奏！ 原始森林出来的，见识就是不一样 你怎么说就不对了世界只有四大流满，美帝永远是正益的， 真他么物以类聚。。 爱国者的素质再差也比你们这些反华哈洋狗强！！！ 还美帝，印帝都想踩就踩一脚。 你脑子是不是进水了！你是火星的鬼骯脏尸臭爬蛆一样泃活着 第一次中东战争时世界各地的志愿者到特拉维夫帮助以色列人。相信今天如果发生以伊战争还是有不少正义势力帮助以色列打垮这个妄想把以色列从地图上抹去的国家！ 支持以色列🇮🇱、伊朗邪恶力量的源泉 封杀是不是出生 伊朗骑虎难下，干爹跑了，看来是要耗死在叙利亚了 向以色列使用化学武器，突击进入以色列的城镇，以人多的优势跟以色列人打巷战，让以色列的核武器发挥不了作用，然后电子干扰，大炮，火箭炮，导弹攻击，以色列必定玩完。 噢耶，说多了就是错 gnmb 联合国128票：你说啥？ 以色列与你关系很好？ 30公里，火箭炮都可以覆盖以色列大部分了。确实有点慌！ 伊朗根本不是以色列的对手，差几个档级， 2018 以色列：你们这群辣鸡别来惹我 噗…… 你去吗？不去就别BB！ 在别人的领土划缓冲区？为什么不在自己领土划缓冲区呢？ 夜虎呢 鬼吹灯之寻龙诀 好狗还知道护家呢？你呢？ 拓疆开土时候到了 不是孟子是谁？ 参考消息网...<br>奴才网 牛逼了 看来你应该当主席，你比所有人都睿智 紧张？犹太人为什么要紧张？犯以色列者虽远必诛！借一百个胆给波斯人也不敢动犹太人，就算你敢动也要考虑背后的大哥 以色列算个毛，你的对手现在有二个干爹在不断的输血。看谁的血先断供。 全国人民团结起来，让美狗和卖国贼无所遁形 笑出声，跟以色列比狠？ 消灭以色列！世界要和平！ 伊朗根本不是以色列的对手 四楼，我不诅咒你！请你看看纪实《为你，耶路撒冷》再说吧。 建议新闻联播有真相 伊朗北部通過伊拉克和敍利亞的內亂打通了伊朗到黎巴嫩的什葉派聯盟，南部再利用也門打代理人戰爭牽制沙特，對外在利比亞突尼斯地區支持什葉派投射影響。遜尼派一家獨大的局面在慢慢改變。説以色列完全不緊張那是假的，畢竟中東戰爭以色列照樣會死人，照樣要集中力量防禦，把遜尼派打成一盤散沙讓自己發展經濟的大好局面則會改變。因為以色列本來人口就不多，動員起來全民皆兵，大家都去作戰和發展軍工產業了，經濟自然就會受到影響。但又不可能在聯盟發展前就直接下手，因為敍利亞是俄羅斯和美國的代理人戰場，不可能全都聽以色列的。這就像有血光之災又破解不了一樣煎熬。 楼上蠢狗 你这么吹你以爹，它给了你多少好处了[微笑] 你有资格说这话？ 伊朗别怂，跨进30公里让以色列知道你们不怕他们。 一个军事网，中国的军事机密能告诉你们的，只是看看一些近况，猜想出一些东西的网站。真逗 嘿嘿…… 看来以色列担心伊朗会帮助叙利亚政府军，从而对它构成威胁和挑战。 以色列毕竟是小国寡民，一点不稳重<br>你看大厦，美帝飞机军舰常年在家里逛游，他有任何一丝紧张吗？ 知道修仙到底是干啥吗？求指点 拐个圈，废柴3号被打爆，4,2,1......... 说说我在三楼那点说错了？ 在中东敢跟以色列硬碰硬的也不伊朗了 还有大多数中国人支持以色列 以色列不孤立，伊朗的敌人有沙特及其盟国。 1楼，害你什么了？又帮了你多少？你有脸说么？ （多做好事，必有好报）美攻朝中收台战略对冲平衡（加快发展繁重工作替代性智能机器，不用延迟退休）公司上市后业绩异常下降，依法赔偿遏制骗钱（当务之急大小限减持和再融资要挂钩分红或回购，违则重罚，促进长期良好经营，缓解套现压力）尽快开征股指期货的印花税，才能降低杠杆及高频风险，限制其乱影响股市（基金只有盈利才收管理费，真正为投资者服务）连续2天涨跌停就限仓交易，共同受益，利国利民！ 为什么有那么多傻逼中国人支持以色列！以色列害中国还少吗？一群群的智障傻逼玩意儿！ 伊狗死期不远了。 有没有搞错，第一次中东战争，自愿者（包括英国军官、其它雇佣军）都跑到阿拉伯联军里，英法美还对以色列进行犹太移民、武器进行军事封锁！移民 傻逼玩意什么叫国家？ 只有傻逼中国人支持以色列！ 孟子之所以伟大就是说出了得道多助失道寡助这句放之四海而皆准的至理名言 伊朗比较喜欢让人下跪，所以站伊朗一边的才是跪着没站起来的。 5个伊朗加起来也奈何不了以色列 发现一群爱国人士，让我们一起喷死这些汉奸走狗。这些人就是浪费国家粮食的人 网易上的喷子嘴巴比核弹还厉害！！ 前途堪忧！ 以色列，你就不怕被拖进中东的战争泥潭里而不能自拔吗。以前你打赢了，是因为你的干爹在后面一直输血，而对方要花钱买武器而无法一直输血。现在你跟中东的几个什叶派阿拉伯国家干，我怕你耗不起。这些国家现在有二个安理会国家一直在无偿输血，你耗不起的。今非昔比了，你好自为之吧。 以前觉得以色列挺硬派的，现在看就跟一二逼愣头青一个样，典型的受虐心里，天天认为别人要打他，真以为阿拉伯波斯人闲的蛋疼！ 四楼，我不诅咒你！建议你去读读《为你，耶路撒冷》，讲以色列建国期间发生的事。 伊朗已经很多次说过要把以色列在地图上抹去 三楼，请读读《为你，耶路撒冷》再说吧 都别较真，人家也只是为了一点生活费而已 低智商的国家在高智商的国家面前就如同是被戏耍的猴子，人再多也没用，最终还是自己被领进了屠宰场。 还美帝，印帝都想踩就踩一脚。 自古就有远交近攻的战略。可是现在的傻逼们把它彻底的搞倒了。 这彪题明显是以穷兵黩武的流氓国家，为标准导向！但是对国民负责的和平国家，不都是这样吗？！ 第一次中东战争时世界各地的志愿者到特拉维夫帮助以色列人。相信今天如果发生以伊战争还是有不少正义势力帮助以色列打垮这个妄想把以色列从地图上抹去的国家！ 为什么要把你打出来 以色列离再一次逃亡不远了！ 伊朗和巴基斯坦是不是独裁国家？谁来科普一下 打！打！打！伊朗放起胆子打！把美帝的走狗以色列的💩打出来！哈哈哈！ 伊朗、阿富汗曾经是世俗国家，过的很滋润，可惜…… 你先说说我在6楼，那点说错了？ 曾经的波斯帝国多么强大，自从改信了胡大以后波斯文明就不存在了！<br>伊朗不是以色列的对手 修到一定的程度就去拜见佛祖了，就再也不回来了。 这句话不是孟子说的， 怕屁，有美爹和美国史上排名前三的伟大总统特川普，伊朗敢动就灭了 美国驻日本占领军像日本的女人们问候新年好，感谢这一年来日本女性的殷勤伺候，感谢日本男人们辛苦的看门端尿壶，送纸巾！更是感谢这些年生下的儿子们这么孝心，你们虽然身在中国，但是我们想着你们！在新的一年里，我驻日本占领军会再接再厉，也希望日本女人能多喊几句亚麻跌……————大不列颠.美跌.驻日韩占领军 傻逼滚出中国！ 说的好像中东有任何一个第二国喜欢以色列一样 楼上蠢狗一条，也妄想代表中国人？ 以色列对付你们这些宗教狂，还真有一套。你们活该。 穷一国之力对敌一部，死伤无数终于打平，欠下无数外债，饿死国民数千万，台岛无力回收，让世仇借机翻身，被世界遗弃，这就是朝战最直接的结果。 傻逼玩意儿！ 环球时报参考消息央视网人民网人民日报新华网铁血网太行军事网CCAV澎湃新闻网华尔街见闻中新网国际在线……政事儿政知局观察者网长安节知事...海外网瞎嗑倒 美国正在盅俑以色列挑起另一场中东战争，而且有扩大的趋势。 因为后面有主人亲爹 一个字干 有了挂反坦克导弹的中国产无人机，以色列的装甲部队也不安全了，空中优势虽然巨大，但也不可能像无人机24小时都可以飞 以色列真没怕过谁最佩服的是当年的巴比伦行动 以色列毕竟是小国寡民，一点不稳重<br>你看大厦，美帝飞机军舰常年在家里逛游，他有任何一丝紧张吗？ 大马士革离戈兰高地60公里好不 紧张？犹太人为什么要紧张？犯以色列者虽远必诛！借一百个胆给波斯人也不敢动犹太人，就算你敢动也要考虑背后的大哥 干儿子正在犹豫该不该接盘！ 以色列历史上从来没怕过谁。 长毛象牙看升 一直很纳闷美国人在中东这么多年搞什么，石油美元霸权七十年代已经拿到了，其他打生打死，即花钱死人，费力不讨好，特别这次迁大使馆，简直无脑至极！<br>但换个角色，把以色列当主角，这一切顺理成章：当年围攻以色列的四大国，沙特怂了，埃及认输了，伊拉克、叙利亚残了。犹太人用了五六十年的时间把快要统一建国的阿拉伯世界搞得支离破碎。<br>犹太人对付阿拉伯人简直是当年日本对付我们的翻版，先把用矛盾和利益把你们打散，然后谁挑头打谁，谁强大打谁，谁想统一打谁，那怕这个对我好也不行，要知道波斯人是中东最早支持以色列的！<br>把美国人当成以色列人手里的鞭子，中东一切事都顺理成章！ 中东伊斯兰国家不团结，如果团结，早把美国的狗腿子以色列干掉了！ 有什么好紧张的？怕弹药不够用的？ 大胡子有暴力基因，看看屎太林 以色列给中国不少帮助的伊朗有点极端不过看热闹吧。中东都乱成一锅粥了。从兔子在中东到处卖武器也能看得出兔子也是一看热闹的主 无头厘 十万大军冲过去。 支持以色列 伊斯兰法就是伊朗地宪法，伊朗是当今唯一一个政教合一的国家。哈梅内伊是伊朗和伊朗军队的最高统帅。 伊朗的目标是美国。小小的以色列怎么会怂。人家都敢站在万里意外骂美国。区区三十公里，就隔着30公里骂你以色列了。你让我离30公里就30公里啊？我偏要离你31公里骂你 要和你 但就算这样，伊朗依然是一个多党制的国家，有着极为发达的选举制度，选举结果能在相当程度上反应真实民意，实质上伊朗是威权政府，伊朗在一定限度内也容忍公民生活方式的多元选择权。这种将神权统治和民主选举相结合的“伊斯兰共和国”迄今仍是独一无二的政治体制。<br>伊朗有着相对较为开放的媒体政策，出版检查制度在1989年后逐渐放松，尽管在20世纪九十年代中期，伊朗的舆论政策一度从紧，但仍较大部分中东国家（如沙特阿拉伯、巴林等）宽松。 等基地建好了，以色列宣布一个50公里的安全范围就行。 以色列人才是真正的战斗民族，说干就干的角色 会不会是完全不知道人家来了？毕竟测不到嘛 参考消息……秒懂 不紧张，就是尿裤子了 还有大多数中国人支持以色列 以色列不孤立，伊朗的敌人有沙特及其盟国。 只不过公开价格变成黑市价格而已，经济规律一直都在，二战战俘营里的香烟价格，你不妨去研究一下 出来混总是要还的 伊朗骑虎难下，干爹跑了，看来是要耗死在叙利亚了 美利坚斯坦国？ 伊朗的基地离以色列30公里的？那不是在大马士革？小便好无耻！要知道以军在戈兰高地距大马士革就这个数！ 应该在乌克兰建立国家哪里很安全，又不会发生这么多的事。 哈哈哈，以色列说了，30公里以内的伊朗基地，全部摧毁，伊朗太狡猾，压着线建立基地 哈哈，就怕你不出手哇～～～ 原来没有以色列的 伊朗的基地离以色列30公里的？那不是在大马士革？小便好无耻！要知道以军在戈兰高地距大马士革就这个数！ 敌人的敌人就是朋友 问题现在的伊朗和以色列都属于愿意用自己不用别人那种……除非出口伊朗飞机 希望不要战争！ 其实欧洲跟伊朗关系也不算差…… 把你当成傻逼，一切就顺理成章了 第一次中东战争时世界各地的志愿者到特拉维夫帮助以色列人。相信今天如果发生以伊战争还是有不少正义势力帮助以色列打垮这个妄想把以色列从地图上抹去的国家！ 排了夜壶去了 以色列人被埃及、叙利亚、巴比伦、波斯、罗马都欺负过，不过上帝是他们的盾牌。 伊朗如果早日跟随美国实现改革民主也是大国之一了可惜哪个不学学北面那个 呵呵呵，以色列眼都不带撒它们的 支持以色列，伊朗神棍当道，合该被灭！ 老毛子不讲义气，让伊朗单扛以色列……😂 不错，美狗日杂就是些畜生傻逼！ 伊朗别怂，跨进30公里让以色列知道你们不怕他们。 以色列就不应该在哪里建立国家。 俄罗斯，伊朗，朝鲜，（）<br>上面填的是亚洲四强赛……呵呵 重要的是，在波斯人里，它也是被孤立的那一个，没人吊它。 伊朗估计会被打得怀疑人生 我说得很清楚，是最近联合国对耶路撒冷问题的投票，美国只得了4票，在这个问题上，美国失道寡助是显而易见的事实。事实上，正是你偷换概念，拿出以色列成为联合国的正式成员国这事来证明以色列现在得道多助。这很可笑知道吗。首先，在二战后多数国家出于对犹太人的同情支持其建国，不代表支持其后期扩张，也不代表支持其控制耶路撒冷，更别说迁都了；其次，时间过了几十年了，世界格局不停发生着变化，你还在拿着几十年前的支持率来看现在的具体事件，你听说过一个小学生学的成语，刻舟求剑吗？ 问题他们跟俄罗斯合作就注定要不得翻身，谁跟俄罗斯混谁就是SB。 孟子之所以伟大就是说出了得道多助失道寡助这句放之四海而皆准的至理名言 在支持以色列这个问题上，美国从不含糊。历次联合国涉以问题的决议时，似乎美以都占少数。然东西方对弈的时候。决多数国家毫不犹疑的站在美国一方。 ",
        "Reply": 617,
        "Link": "http://comment.war.163.com/news_junshi_bbs/D6LH7VN3000181KT.html"
    },
    "PublishTime": "12/27/201710:29:40",
    "URL": "http://war.163.com/17/1227/10/D6LH7VN3000181KT.html"
}