{
    "Title": "iPhone X销量预估被下调40%，苹果收盘重挫2.5%_网易科技",
    "URL": "http://tech.163.com/17/1227/08/D6LAPDQV00097U7T.html",
    "KeyWords": "iphone x,苹果,概念股,苹果公司",
    "PublishTime": "12/27/201708:36:51",
    "Article": "（原标题：iPhoneX销量预估被下调40%，苹果收盘重挫2.5%）周二迎来圣诞节后首个交易日的美国三大股指全线收跌，能源和零售板块走强带来的指数上涨完全被苹果公司下跌所抵消。苹果收盘下跌2.5%，创今年8月10日来最大单日跌幅，总市值已远离9000亿美元大关。媒体称因iPhoneX销售不如预期，苹果下修明年首季销量预估40%至3000万部。自11月上市以来，苹果方面尚未公布iPhoneX销售数据，公司也没有对相关报道进行回应。相关阅读：苹果砍掉iPhoneX40%订单？供应商称未收到通知12月25日，有媒体消息称因iPhoneX销售不如预期，苹果公司下调了明年首季销量预期，从原订单季5000万部大减至3000万部，减幅超预期。同时称富士康旗下郑州厂区紧急宣布，全面暂停招工作业。受此消息影响，25日苹果概念股普遍受挫，40多只苹果概念股中仅有两只收涨。截至收盘，安洁科技（002635）下跌9.47%，蓝思科技（300433）下跌8.44%，德赛电池、江粉磁材、水晶光电等个股下跌超5%。证券时报记者就此致电蓝思科技、安洁科技，两公司均表示并未收到苹果下调明年一季度订单的消息，目前仍在按照原计划生产。但是，部分券商研究员掌握的情况是苹果下调销售预期属实，有两家券商分析师接受证券时报采访时透露，苹果方面确实下调了明年一季度销售目标，但幅度比传闻的要小。本文来源：第一财经责任编辑：王凤枝_NT2541",
    "Comment": {
        "Content": "不过，苹果财年第一季度（正常年份第4季度）历来都是营销、利润最多的，之后的其他第二、三、四个季度（正常年份第1、2、3季度）下跌不是很正常吗？ 有点小钱的还是赶紧买吧，你不知道明年春季苹果新品发布会到底能出什么样的机子，现在用X还是可以的 明年夏季发布会将发布6.1寸全面屏和4.7寸全面屏，硬件和软件都将大幅升级，但定价会比现在iPhoneX的发布会价格低约20%左右，如果你不着急换手机，可以再等等！当然，如果你不想买全面屏，请购买现在的iPhone8或8Plus,谢谢支持！ 上海人可能不知道，成都这地方藏龙卧虎，当年大众最垃圾的辉腾就属成都人买的多。 成都的汽车保有量中国第二，第一是北京。 X的销量初期应该还是不错的，不过最近势头在下滑。主要还是价格，如果还是5000多起步，那就完全不一样了。 然后用一年也降频了？ 很早我就说粪叉的销量非常一般，一帮脑残果粉还跟我较劲。其实有些事情非常简单，既然那么高的销量，大街上肯定会有很多人用。这2个月了，我在大街上就没看到过一个人用粪叉，地铁里面也没有。这在以前苹果发布新机的时候是不可能的，最多一个月满大街就可以经常见到了。 太贵，那里买的下手 多虑了，X这个造型起码用3年 已经看到很多部X了，可能三线城市的人消费能力有点差距吧 大家都错怪苹果了，其实苹果的本意是让大家常换电池，保持续航，这样就不用带充电宝了。 的确不舍得，谁会花钱去买个垃圾？另外，你怎么不买个256G的？ 真相是什么不重要，你永远只相信你自己心里所想的那个“真相”是吧？所以果残只相信苹果的正面新闻，而果黑就只相信苹果的负面新闻。 我同事换了五六部这样吧，我自己打算年后换 我最早也想换8，看到前后屏维修价格，我承认我萎了，买得起修不起 一楼坐等被打脸。这种花钱写的文章也信？？或者你就是黑子？ 很早我就说粪叉的销量非常一般，一帮脑残果粉还跟我较劲。其实有些事情非常简单，既然那么高的销量，大街上肯定会有很多人用。这2个月了，我在大街上就没看到过一个人用粪叉，地铁里面也没有。这在以前苹果发布新机的时候是不可能的，最多一个月满大街就可以经常见到了。 这他妈叫重挫，大天朝不服啊！ 想多了，成本都不够赚 有点小钱的还是赶紧买吧，你不知道明年春季苹果新品发布会到底能出什么样的机子，现在用X还是可以的 不降频变慢，新手机怎么卖。 这一代质量确实有问题我的第二天就掉漆了苹果还不给处理. 1w块真的有点点辣手…… 我反正不太理解，在帝都买个辉腾可以吓吓人，在离帝都3000公里的地方，买辉腾干嘛 明年苹果预计将发布6.1寸、5.5寸和4.7寸的三款全面屏手机。其中两款使用OLED屏幕，一款使用LCD屏幕。以后的手机再也看不到Home键了。硬件和软件都会比现在有升级，但售价预计比当前同等级低约20%左右。各位看自己的喜好购买即可！ 太贵，那里买的下手 多虑了，X这个造型起码用3年 已经看到很多部X了，可能三线城市的人消费能力有点差距吧 东京专卖店门口每天排队两三百米，百分之九十是中国人……有游客也有黄牛。价格相差太多哈，国内8的价格那边可以买X了……[骷髅] 大家都错怪苹果了，其实苹果的本意是让大家常换电池，保持续航，这样就不用带充电宝了。 出现问题的不是机器的形状、功能、或者价格，而是运营方式、和创造思路，苹果药丸 不过，苹果财年第一季度（正常年份第4季度）历来都是营销、利润最多的，之后的其他第二、三、四个季度（正常年份第1、2、3季度）下跌不是很正常吗？ 邪恶势力在统一指挥下黑🍎，背后就是缺歪汇，因为孝敬铺京干跌需要的💲太多了，供不上啊 除非你手机里不要装任何系统以外的APP，否则这有什么意义？安卓的乱，不在系统本身，而是APP，质量乘次不齐，霸占资源进驻后台。如果你非要说原生系统的流畅，你安卓也比不过WP，人家1G的内存就跑得欢了。 天天地铁上下班，只看到一次有人用粪X，从旁边看，感觉OLED屏幕效果还是很不错的，比以前强多了，但是的确没有什么人用。 上海人可能不知道，成都这地方藏龙卧虎，当年大众最垃圾的辉腾就属成都人买的多。 你一个铲屎的怎么能看到？你看到满大街的美女了吗？美女不会白天整天抛头露面的给你看。 买个手机就成了脑残果粉瞎几把贴标签，网易喷子们仇富到了一定水平了 同事一部，看演唱会见了一部，还是太贵了买不起 X的销量初期应该还是不错的，不过最近势头在下滑。主要还是价格，如果还是5000多起步，那就完全不一样了。 成本绝对够了，只是利润率就比较低了。 两个牛角看起来真的不舒服，要是有点强迫症的，真想把它涂黑了。。 一看到苹果就开喷，这可是甲亢啊 这是苹果多年来的样子，已经不行了，原来乔帮主还就是在4000~6000元，现在都涨到8000元以上了，能有多少人买账，还是一个未知数 跌吧跌吧,黄金会一直涨,我爱黄金... 这是你的个人经历吧，本人Noto8128G的官方价买的，我舍得。你舍得吗？ 明年夏季发布会将发布6.1寸全面屏和4.7寸全面屏，硬件和软件都将大幅升级，但定价会比现在iPhoneX的发布会价格低约20%左右，如果你不着急换手机，可以再等等！当然，如果你不想买全面屏，请购买现在的iPhone8或8Plus,谢谢支持！ 确实比较少见，大街上偶尔能看到一两个。 买了以后，明年这时候电池性能再下降，cpu再被降频？<br>呵呵 黄金又涨 x中国销量一定不多，满大街见不着，4000买个7就能用ios，犯不着花8000 全面屏的成本本来就高。不可能便宜多少。20%完全是瞎扯。 主要是安卓现在做的越来越好，原生系统的流畅性完爆ip 😄 然后用一年也降频了？ 我在官网买了一个，货源充足。两天到手。 买买买又不贵 没办法，毕竟心胸狭隘的人，成不了大事 很早我就说粪叉的销量非常一般，一帮脑残果粉还跟我较劲。其实有些事情非常简单，既然那么高的销量，大街上肯定会有很多人用。这2个月了，我在大街上就没看到过一个人用粪叉，地铁里面也没有。这在以前苹果发布新机的时候是不可能的，最多一个月满大街就可以经常见到了。 ",
        "Total": 227,
        "Link": "http://comment.tech.163.com/tech_bbs/D6LAPDQV00097U7T.html",
        "Reply": 52
    },
    "Source": "Netease"
}