{
    "Source": "Netease",
    "PublishTime": "12/26/201713:29:03",
    "KeyWords": "贾跃亭,甘薇,侯小强,乐视",
    "Title": "老赖贾跃亭妻子只能刷卡两千，为啥甘薇能出国团聚过圣诞？_网易科技",
    "Comment": {
        "Link": "http://comment.tech.163.com/tech_bbs/D6J93NS400097U7R.html",
        "Total": 10012,
        "Content": "我们的法律不过是张纸，所谓强制执行都是玩笑。 小微也可以每天换一线名屌 2楼你也不看看人家用的什么手机哈哈😄 七楼要带小薇飞到天上去 没钱就不能过圣诞节了吗，服了 法律上当然不算骗，但当时贾跃亭拉孙宏斌投资的时候是隐瞒了公司状况的，孙宏斌也没想到乐视的窟窿那么大三四百亿，贾跃亭也认为虽然窟窿堵不上但弄来一百五十亿是可以平复债主的，然后再讲一个新的故事就能有新的投资堵上这个窟窿，但债主没那么傻，就算这次融资是真的汽车的窟窿还很大 我真的好想知道，如果老贾又一次创业成功了，国内媒体会怎么改口风呵呵呵 庞氏骗局可不是靠一个人就能运作的。。。 都这个时候了，还有傻逼相信贾跃亭真的是创业 贾跃亭：你们把俺拉入黑名单了，俺成老赖了，坐不了飞机了，回不去了[微笑][微笑][微笑] 不，不，不，上次我看到六楼去找小薇了 刚刚看完西班牙国家德比，结果是，谁输谁赢已经不重要了，微博上最多的声音是骂PPTV，回头比一下，乐视在做体育直播的时候，几乎很少听到乐视的服务器不给力、带宽不行等，我自己和我身边的朋友，只要是自己的网络给力，乐视的体育直播体验感是最好的。<br>如果不考虑站队的问题，乐视最大的问题就是在于雄心太大，盘子铺的太夸张，使得资金明显跟不上，很多集团化的多业务公司都是十个锅九个盖，最少也六个盖，乐视呢，十个锅，一个盖、两个盖，两个盖的话，有一个还是借的。<br>所以，本质上，不是产品不行，也不是行业不行，只是贾的雄心超出了自己的能力范围，最后导致现在的崩盘。<br>如果贾有一个重新来过的机会，自己安安分分的去做FF，我感觉真是可以撼动整个电动汽车行业，比不过特斯拉，起码比国内的北汽、比亚迪什么的要强的多。 胡说八道！小薇没去之前才是真的快活 某些人不希望他回来 大概是这样的：我是微微，现在需要5000去美国找老贾，等我到了美国，给我打钱的到时候还你十倍。 不是有人整他后台，他会这么倒霉？<br>乐视好好一家企业，手握中国影视版权半壁江山，硬生生被搞死，跟乐天一样。 这个人不是不敢再回来了，如果想追债的话就组团去美国吧，而且美国可以合法持枪。 我怎么觉得法院的限制令实在变相帮他。这假药停上面有人啊 国内会称他为神人，但是太难了他翻身 老贾的性生活还用得着你操心呀，天天上一线名逼都可以 马云和诸葛亮都说过这句话[微笑] 手握百亿，一家团聚，身在万恶的资本主义，真是水深火热啊 因为大陆摇旗呐喊的傻逼千千万。不骗白不骗 存在即合理，不要什么的都问为什么 某些领导最怕的就是假药停回来了 老婆孩子一起下周回了，基本上看不到这一家子了 出国怎么了，还不让人一家团聚了 你以为全世界都是你这样的 你觉得呢？没人帮助的话，能过大陆天下第一关，中国海关吗？ 强制执行的对象一般都是普通人 孙宏斌没那么傻。都是后头有人安排的 贾跃亭的性格就是投机取巧，没有雷军的务实精明，也可能是创业板的大牛市给他一种假象，只要不停的编故事就能从股市捞钱，支撑他的乐视生态。殊不知摊子铺的太大，什么业务都要砸钱参一脚，结果资金链断裂。很多业务根本就是看不到一点回报的，那个女足联赛花了几千万买版权费，有鬼会去看啊，乐视手机是亏钱在卖，卖的越多亏的越多，亏的你怀疑人生，买乐视会员的寥寥无几。这种行事作风注定了乐视的结局 无聊的话题，无聊的文章，蹭热度的心态适可而止吧 你有100亿在手的时候，要用手解决？ 没人他能出去？ 小薇去美国了，假总久旱逢甘霖啊[窃笑] 莎士比亚说：成功的骗子，不必再以说谎为生，因为被骗的人已经成为他的拥护者 人家夫妻就不能在一起过个圣诞节了？ 恒大许家印都差点破产。。。生意场上有什么事情不可能。。。 反正我就是老赖了，你们爱咋滴咋滴 一起在美国晒豪宅，晒名牌，晒美元，气死这帮傻逼。 乐天是实业，实打实的有商场！假药有啥？所谓造车，工厂都是的空的！这是想做企业？假药和国内多数上市和想上市的公司一样，上市就是为了圈钱！弄点假业绩，抬升股价，然后抛售直接走人！ 有钱大家一起赚，懂吗？ 难道小薇不是啊 老贾好不容易陪甘薇过个节又要被说了 你可拉倒吧，他老婆在不过去他都能涝死！你以为他能闲住！ 假药停应该很不想黄脸婆去找他的，不过甘薇知道太多他的秘密，没办法呀…也许去了美国后，会弄死甘薇吧 因为特价机票399 老子就是不回去，你们奈我何？ 失信名单狗屁没用 😱😱 商人不可能完全做到诚信的，做过生意的应该明白这个道理。 我靠，靠本事骗的钱，咋地[喷水][喷水][鄙视][狗] 这年头，老实打工做生意都没活路，只有骗，方显英雄本色 事已至此，只能祝福贾总夫妇在美帝生活快乐了😂 干股这个东西很重要 我这种小屁民都用星空联盟里程数换过机票…何况人家…买票又不只能用钱买… 以现在科技，找个造车团队能有多难，关键是人家从一开始就没想过真造车！只想弄快钱！不得不佩服这种人生赢家！几年赚几百亿，还能成功身退！<br>因为他知道造新能源车没钱赚，特斯拉都年年亏！ 贾是民族英雄，国内练技能，国外祸美帝！ 信用卡能刷2000银行卡能刷2亿 老贾的性生活还用得着你操心呀，天天上一线名逼都可以 我真的好想知道，如果老贾又一次创业成功了，国内媒体会怎么改口风呵呵呵 总感觉老贾还能东山再起，就凭他还在坚持创业的这股劲，立贴为证。 打脸 多虑了，车在天上飞着呢，落不下来。 只要是被列为失信执行人就会发限制令的，别问我怎么知道，因为我也有一张 胡说八道！小薇没去之前才是真的快活 能把车造出来就打脸了。 老赖不能坐飞机，所以回不来啦 火星小说，什么东东啊？ 因为银行卡里有2亿啊 说话别那么冲，下周回，保证！ 看结果 就一个PPT 我怎么觉得法院的限制令实在变相帮他。这假药停上面有人啊 国内会称他为神人，但是太难了他翻身 手握百亿，一家团聚，身在万恶的资本主义，真是水深火热啊 不跑是SB，骗子国第一定律 天天金镶钻 久旱？都快淹死了好吧 哈哈谁说要刷自己的卡？？ 存在即合理，不要什么的都问为什么 哦哦哦 出来了也没用，买车不是只用一年 人家过个节日不行吗 出国怎么了，还不让人一家团聚了 莎士比亚说：成功的骗子，不必再以说谎为生，因为被骗的人已经成为他的拥护者 一起套钱而已。 我也觉得奇怪，大陆很少使用限制令的，难道真是贾xx的人? 太腐败了中国。 无聊的话题，无聊的文章，蹭热度的心态适可而止吧 假药停应该很不想黄脸婆去找他的，不过甘薇知道太多他的秘密，没办法呀…也许去了美国后，会弄死甘薇吧 小薇去美国了，假总久旱逢甘霖啊[窃笑] 而且能量大的可怕 连小薇都不相信我了 ...我怎么看到某个会要求贾回国履责来着。 还是老赖活得潇洒 不是还有现金吗 那么请计算在分开的这段时间里，小微与假总的性生活次数分别各是多少？ 假💊回国也能团聚 控制公司又怎样，不值钱 怎么感觉近几年这些做生意的大佬们出镜率比影视明星都要高也是各种表演各种秀，尽管大都是本色出演，可比国产影视剧好看多了。 老子就是不回去，你们奈我何？ 旱不着吧 截图了 法院要求他31号之前回国。。 出了上面有人，还能怎么解释？上面的人跟原乐视的关系有想象空间。你懂的 哈哈哈，全国用乐视手机的有好几百万吧，都是老贾的化身么。。。 不造车造人先 错了，是小薇久旱逢甘霖啊，讨厌 莎士比亚说：成功的骗子，不必再以说谎为生，因为被骗的人已经成为他的拥护者 很励志的故事。还有法律解说，告诉你这个可行性多高。多安全 我们的法律不过是张纸，所谓强制执行都是玩笑。 我真的好想知道，如果老贾又一次创业成功了，国内媒体会怎么改口风呵呵呵 你觉得呢？没人帮助的话，能过大陆天下第一关，中国海关吗？ 分期购呗 强制执行的对象一般都是普通人 没钱就不能过圣诞节了吗，服了 原来二楼就是贾总，同志们活抓贾老板追债的赶快过来 贾有美国国籍了吗？易友给普及一下，他怎么能不被遣返呢？美国移民局不管吗 人人都向往做男优，有逼曹还有钱拿，问题是真要这么个去做，一般人能干多久？这工作不是普通人能干的了的。不管多有钱，天天也吃不消，到后面就不是钱的事了 既然成了老赖，为什么还能出国？现在做不了飞机，所以不用回来了。 法律法律法律 到处都在演戏给屁民看 果然有办法 这么多锅贴就喜欢你的，， 炮火连天🔥 没有背景的妖怪都被打死了有背影的妖怪我们只能看到背影～大师兄 贾总一定会回国的，能放他媳妇出去就把握都弄回来 老贾的性生活还用得着你操心呀，天天上一线名逼都可以 穷寇莫追？ 他天天搞一个给100万，十晚就1000万，百晚才1个亿，假总能搞到死 扯淡100多亿给你一辈子都数不完的 关键是成功出国了！ 他可以坐美国航班。回来 嗯。。 鲁迅说：成功的骗子，不必再以说谎为生，因为他的拥护者会为其洗地 去看看，收购万达的那个，牢房都呆过，一切都要可能。 裤裆里藏着贾会计的10亿刀 你以为全世界都是你这样的 腻害 我真的好想知道，没钱可以东山再起，没信用了怎么还有人支持，不过水军还有钱收就可以了，莎士比亚说：成功的骗子，不必再以说谎为生，因为被骗的人已经成为他的拥护者 是久别胜新婚 有一个美丽的小女孩 我怎么觉得法院的限制令实在变相帮他。这假药停上面有人啊 2000英镑吧… 小薇去美国了，假总久旱逢甘霖啊[窃笑] 瞎说，人家黑妹都玩腻了 胜利大逃亡 甘薇能在国内自由活动，证明组织还是对贾跃亭挺好的，想想那些皿煮人士。。。贾跃亭并没有触及组织利益 她是去带话的 配偶必须为被执行人啊！ 上之前要PPT吗？ 知道吗？高官，自己老婆基本不用。 贾跃亭：你们把俺拉入黑名单了，俺成老赖了，坐不了飞机了，回不去了[微笑][微笑][微笑] 如果贾总长命百岁，还能活五十年不到两万日，一日十万也就20亿软币而已，怎日都行啦 因为有人怕出事，赶紧放走，又不回了 万达现在不是王家的了吗？ 屁，有钱也不会还。你有办法？ 现金可是有一大把吧 走路去的吧 人家刷卡只能刷2000，可人家有现金啊 孙猴子感觉自己能翻天啊！100多亿控股一家上市公司并没啥问题，光酷派手机在深圳东莞的地皮就赚翻了！ 你咋看的？穿越了？ 小微也可以每天换一线名屌 米国那么多外国妞。老贾会没有一两个？ 人家夫妻就不能在一起过个圣诞节了？ 老贾的性生活还用得着你操心呀，天天上一线名逼都可以 昔有史玉柱，今有贾跃亭 我真的好想知道，如果老贾又一次创业成功了，国内媒体会怎么改口风呵呵呵 你觉得呢？在这个时候小薇能出去这不是一般人做的到的 他欠你多少？几百万还是几千万呵呵。。。 虱多不痒债多不愁，老赖都是银行养着供着的，生病报销，想创业提供启动资金。这个不合规矩啊，呵呵。 他做这些，都是为了抬高股价，让他套现的利益最大化！还做实业，他所谓项目，没一个能赚钱的，就是给你几万亿，也就是多挺几年而已！所谓财报，都是损害某子公司利益输血，看起来盈利，其实都假的！<br>再看结局，倒前，股东员工质押股票救公司，而自己却把借公司的钱提跑了！按媒体介绍，假药姐弟减持股票套现数百亿！看清楚多少没！他们这是想干实业？人家就是烧钱摆盘子给你们看，股价上去，立马减持跑路！ 不知道你们是不是傻，她只能刷两千，她朋友也只能刷两千，不用她名义下的卡买单就好了 恭喜贾总晚上大保健 美国的高级妓女不是一般的爽 一帮农奴替地主操心 他是说以前用乐视的时候 假药停就是上面某些人的白手套，帮人洗钱的。 我怎么觉得法院的限制令实在变相帮他。这假药停上面有人啊 刷b 小微晚上要被干的下不了床了[窃笑] 卑鄙 特色社会主义国家呗 有人想让贾永远别回来 庞氏骗局可不是靠一个人就能运作的。。。 钱是美金在美国的卡里，人家用美国护照买机票头等舱（这种人不可能坐火车那么便宜的）各种开销拿美国信用卡消费回美国还卡完事。包括出入境也拿美国护照，你限制身份证和中国银行卡有蛋用？而且人家背后的大佬自然要保他啊，钱大部分帮大佬们洗出去的啊。 这是明显有人放水 再不去，她就要出局了！ 夫妻真是郎才女貌啊 领导月工资5000，为啥能有十几套房子？ 怎样出去的，缺一个公信力的交待 成王败寇本来就是这么现实，康师傅没下台之前，谁敢说他一声。 不知乐视啥情况的，详查山西在中央的几个落马的高官。另外乐视啥情况论上你们操心？不良媒体也特么恶心，啥消息都不核实，只管骗流量。 可惜是个骗子 都这个时候了，还有傻逼相信贾跃亭真的是创业 你有100亿在手的时候，要用手解决？ 没人他能出去？ 小薇去美国了，假总久旱逢甘霖啊[窃笑] 尼玛有钱人那个会在乎什么屁的信用卡 看小薇面相属于很容易给贾总戴帽子的人 人家不需要刷卡，都是现金和存款，就是信用卡一毛不能刷也没事 有钱大家一起赚，懂吗？ 难道小薇不是啊 本来就是既得利益者，就是不想他回来，还弄限制令这一招，实在是高！ 出去了估计就不会再回来了！ 老贾好不容易陪甘薇过个节又要被说了 上面有人 卡上2000，陪人一宿1200 这样的老赖老婆居然可以出国团聚 这下全家都跑了 冰雪薇甜的薇？ 原地打滚 为什么要原地打转？摩托车？ 七楼要带小薇飞到天上去 我真的好想知道，如果老贾又一次创业成功了，国内媒体会怎么改口风呵呵呵 贾跃亭翻盘唯一的希望是ff，但是就算特斯拉也是巨亏，互联网造车要靠资本市场输血，而现在资本对贾跃亭失去信任，目前互联网车企一堆且乐视没有什么明显技术优势，投资人脑子装大粪才会投 希望组织上派我去美国捉拿甘薇 老子就是不回去，你们奈我何？ 都这个时候了，还有傻逼相信贾跃亭真的是创业 压根就没想过要处理假药停！利益链太大，惹不起…… 我，甘薇，大钱，以后送FF一辆 呸！ 某些人不希望他回来 大家不要再冤枉是乐视举报快播涉黄、导致快播公司倒闭了，真实的情况是：腾讯公司举报快播涉黄，深圳南山区文化执法大队查封快播公司服务器，快播公司倒闭。如果还有不相信的，可以调取北京海淀法院庭审快播高管王欣时，坐在原告席上的是腾讯公司的代表律师，而不是乐视的律师。既然庭审时，坐在原告席上的是腾讯公司的律师，那么肯定是腾讯举报快播公司涉黄，导致快播公司倒闭的罪魁祸首也是腾讯公司。大家睁大了眼，一定要看清楚啊！！！<br>真相是这样的：快播公司倒闭三年前，快播公司确实盗播乐视购买的正版影视剧了，为了维护公司利益，乐视举报并起诉快播公司，快播公司最后赔偿了乐视20万元，事情就过去了。三年后，腾讯和快播公司竞争深圳一个高科技企业扶持名额，腾讯就把快播公司涉黄的事举报了。快播涉黄可是政治性的问题，深圳南山区文化执法大队查封了快播公司服务器，快播公司倒闭，后来王欣被抓判刑。腾讯就是想整死快播，为了转移大家的注意力，用QQ弹出广告发布乐视举报快播的消息，全国人民一下子都把愤怒转移到乐视身上了，乐视就成了窦娥了。 顶起来求真相 说你麻痹废话 晚上估计都干肿了！ 我就骗骗他们，你怎么不知道低调点呢 糊弄百姓而已。都别当真。 我怎么觉得法院的限制令实在变相帮他。这假药停上面有人啊 小薇有隔壁老王 冰雪薇甜的薇？ 英拉 侯小强表示“FF91设计、性能、原地打转，加速等等都堪称惊艳。” 马上把小微也列入老赖，都回不来了 去了就不会回来了明显有人放她走的 人家不用刷 估计是高层领导从假药那获得很多好处怕事情闹大不好下台 因为特价机票399 我好奇怪，他持的什么签证？可以那么长时间不回来？不会被遣返么 小微有家教 大家不要再冤枉是乐视举报快播涉黄、导致快播公司倒闭了，真实的情况是：腾讯公司举报快播涉黄，深圳南山区文化执法大队查封快播公司服务器，快播公司倒闭。如果还有不相信的，可以调取北京海淀法院庭审快播高管王欣时，坐在原告席上的是腾讯公司的代表律师，而不是乐视的律师。既然庭审时，坐在原告席上的是腾讯公司的律师，那么肯定是腾讯举报快播公司涉黄，导致快播公司倒闭的罪魁祸首也是腾讯公司。大家睁大了眼，一定要看清楚啊！！！<br>真相是这样的：快播公司倒闭三年前，快播公司确实盗播乐视购买的正版影视剧了，为了维护公司利益，乐视举报并起诉快播公司，快播公司最后赔偿了乐视20万元，事情就过去了。三年后，腾讯和快播公司竞争深圳一个高科技企业扶持名额，腾讯就把快播公司涉黄的事举报了。快播涉黄可是政治性的问题，深圳南山区文化执法大队查封了快播公司服务器，快播公司倒闭，后来王欣被抓判刑。腾讯就是想整死快播，为了转移大家的注意力，用QQ弹出广告发布乐视举报快播的消息，全国人民一下子都把愤怒转移到乐视身上了，乐视就成了窦娥了。 8楼别推我 莎士比亚说：成功的骗子，不必再以说谎为生，因为被骗的人已经成为他的拥护者 慢人一步呗 贾会计和他的小伙伴们含泪分了几百个亿后，追梦去了，乐视窒息了，韭菜们傻了……[大笑] 某些领导最怕的就是假药停回来了 太可怕了😱 信用都没了的人，还会成功？其它不说，就骗子造车你敢开？玩个手机质量不行扔了就是。车子质量不行，谁敢用？全家的身家性命！更何况他的概念车亮相当天就故障了。 小薇去美国了，假总久旱逢甘霖啊[窃笑] 你猜错了，贾总玩了这么老长时间洋妞早腻了，这回终于可以换换口味了 你tm非得刷卡？ 就想问问，上市后利润就下降甚至亏损的，是怎么上的市？上市公司老总比贾跃亭好的有多少？ 权贵争斗，苦了乐视股民，吃瓜群众幸灾乐祸，冷嘲热讽，这就是国情，可悲，可叹。 记住骗子说的话全是假话！ 难道小薇不是啊 有人不愿意他回来，他回来也没有人身安全，得罪太多人，所以他宁可违规也不回！有没有对赌的？ 楼上正解。等到老贾家人全部跑了之后，有关部门就责令老贾回来了。哈哈，演的一手好戏！ 你可拉倒吧，他老婆在不过去他都能涝死！你以为他能闲住！ 上面有人在帮他看起来好像是在一步步处罚他其实是帮他拖延时间一步步把家属和钱搞到国外 假药停：不好，母老虎来了，这下该咋办呢？这么多情妇。。。 兄弟，明白人 这货也害苦了一批人 不得不放他们的人家管家后面有山西华人！ 人生能设计？只不过是权力可遮天！ 我想问问那个让老贾回国的部门，他已经被列为老赖，限制了高消费，更不能坐火车，飞机，轮船。请问你们是要他飞回来吗。人贾总的理由很充分啊，我买不到飞机票怎么回国，厉害了。 莎士比亚说：成功的骗子，不必再以说谎为生，因为被骗的人已经成为他的拥护者 贾会计才是教科书式的老赖 这么牛逼啊 而且还是头等舱[喷水] 大概是这样的：我是微微，现在需要5000去美国找老贾，等我到了美国，给我打钱的到时候还你十倍。 睡服了有关部门 现在利益结构这么容易让人分析？ 贾跃亭给我200万，我给小薇180现金，收了点手续费 万里送炮啊！ 有人想让他们出去，不能回来 她可以刷她爸妈的啊 这个人不是不敢再回来了，如果想追债的话就组团去美国吧，而且美国可以合法持枪。 我怎么觉得法院的限制令实在变相帮他。这假药停上面有人啊 富豪再天朝就是天堂，因为处处有特权。。。 我看都不是[窃笑] 喊口号谁都会。干那！真干起来就露馅了。也是一路过眼云烟。反谁？傻逼🐷 有种莫名的期盼，期盼贾能翻身，也不知为啥。 搞垮山西帮是立了大功滴！吃瓜的吃完就散了吧[不屑] 可能是保外就医吧😄 都设计好了，法律都吃透了 我怎么就觉得是洪涝灾害啊？毕竟大洋马那么多 我老婆安全抵达了！<br>收到，马上发个限期回国通告！ 因为大陆摇旗呐喊的傻逼千千万。不骗白不骗 人渣 ⑥楼绝对老铁不放过 废话，没人能骗到这么多钱？没人能大模大样的跑路？ 我觉得五楼也不甘堕落 没人在企业那种情况下能飞出去？ 老婆孩子一起下周回了，基本上看不到这一家子了 就是回家法律的问题，人家都是保护弱者的，而这边的法律法规都是保护富人和当官的！ 马云和诸葛亮都说过这句话[微笑] 都出去了，很多人窃笑不已，这下钱总算安全了 当初跑路的时候，智障都知道出去永远都不会回来，有关部门能不知道？应该就是默认了，以免牵扯出更多的人 就那小针头，在老美的星辰大海里能旱了？ 才5万啊，是不是少了点 没人他能出去？ 小薇去美国了，假总久旱逢甘霖啊[窃笑] 早就知道她迟早会去米国！叫你们早点抓去抵债！这下什么都木有了！开心吧！ 这事不能深究，否则都要完 后台不是一般的硬啊 一起在美国晒豪宅，晒名牌，晒美元，气死这帮傻逼。 可把我们假总憋坏了，上去就是一顿操作[窃笑] 难道小薇不是啊 不是第一次了,你们会习惯的 坐看事态发展，估计会，胆子真大。我说的不是股民。 只要给钱让我去找老贾，别说五万，五十万也行啊，拜托，快打钱 非法集资 ",
        "Reply": 309
    },
    "Article": "（原标题：老赖贾跃亭妻子只能刷卡两千，为啥甘薇能出国团聚过圣诞？）文丨AI财经社郑亚红编丨鹿鸣12月25日，远在美国的贾跃亭在微博上晒出FF全体成员合影，并祝福网友圣诞快乐。而在两天前，盛大文学原CEO、火星小说创始人侯小强今天曝料称，他在洛杉矶试驾了FF91，并见到了贾跃亭及其妻子甘薇。侯小强表示“FF91设计、性能、原地打转，加速等等都堪称惊艳。”面对网友在评论中的质疑，侯小强表示“我和老贾非亲非故，从刚开始半信半疑到现在则坚信他的车会成功。”除了“冷藏”已久的FF出现动向，最引人注意的是甘薇出境，来到美国陪伴在贾跃亭身边。昨日，AI财经社向侯小强发信息求证此事，截至发稿，尚未获得回复。今年11月6日，北京市第一中级人民法院发布了对贾跃亭的限消令，法令规定贾跃亭今后不得进行乘坐飞机、G字头动车组，也不得有到星级以上酒店、购买不动产、旅游、度假等消费行为。这也意味着，贾跃亭在限消令未解除之前，难以通过合法的方式回到中国。作为贾跃亭的配偶，如果甘薇出境前往美国与贾跃亭相见，是否存在法律风险呢？对此，AI财经社采访了北京德恒（大连）律师事务所宁子豪律师，宁律师表示：所谓“列为老赖”，实际是指将被执行人列入失信被执行人名单并对其进行信用惩戒的一种执行措施。被列入该名单后，被执行人自身将在生产生活等多方面受到限制，但该类限制并不会直接波及到被执行人的配偶，还要以其配偶是否也被列为被执行人而定，如果没有被列入被执行人，便对其消费毫无影响。AI财经社经搜索中国执行信息网公告，结果显示贾跃亭四次被列为失信人名单，一张限制消费令；而甘薇并没有被列为失信人或者限消令的记录。因此，甘薇并不会受到贾跃亭限制消费的影响，可自由出入境，并不会对贾跃亭造成任何影响。今年11月，贾跃亭接受采访时曾透露“小薇说可以做事业，但是家庭怎么办，房子都被冻结了，就剩一套房子，还是用她妈的名字买的，小薇的卡也被冻结，只能刷2000块，小薇都说不相信我了。”此前，有媒体总结一年以来，甘薇与娱乐圈好友互动明显减少。但这半年，甘薇过得也颇为忙碌：新戏开机，支持乐视动向，此外还在微博上与贾跃亭一起反驳美国为女建立信托基金一事。而贾跃亭则一直在网民的期待中一次次“被回国”，他被限制消费，同其长姐贾跃芳一同被北京证监局采取责令改正行政监管措施。但这并不妨碍贾跃亭在美国追随自己的造车梦。他在美国当地接受了电视专访，又在今年12月推动了一笔FF超过10亿美元的融资，并将出任这家智能互联电动车新兴企业的CEO。如今，夫妻团聚，造车初显的贾跃亭，回不了国又能怎样呢？本文来源：AI财经社责任编辑：白鑫_NT4464",
    "URL": "http://tech.163.com/17/1226/13/D6J93NS400097U7R.html"
}