{
    "URL": "http://ent.163.com/17/1228/20/D6P7EJDI00038FO9.html",
    "Comment": {
        "Reply": 11,
        "Content": "这么快就复出了？ 讲道理别人亲你老婆忍得住嘛[狗] 我老婆嘴唇超级软你知不知道？！ 演出必要。 霍建华和周迅在如懿传里应该也有吻戏吧😄 林婊这是要吻遍娱乐圈啊 林大妈这是要做台湾的刘晓庆啊 霍建华是怎么想的？ 这么快就复出了？ 讲道理别人亲你老婆忍得住嘛[狗] 我老婆嘴唇超级软你知不知道？！ 哈哈还哈哈哈哈哈哈 娱乐圈… 演出必要。 霍建华和周迅在如懿传里应该也有吻戏吧😄 有味吗？ 林婊这是要吻遍娱乐圈啊 林大妈这是要做台湾的刘晓庆啊 霍建华是怎么想的？ ",
        "Total": 183,
        "Link": "http://comment.ent.163.com/ent2_bbs/D6P7EJDI00038FO9.html"
    },
    "Title": "撩完小鲜肉！林心如这次又吻上了周迅老公_网易娱乐",
    "Source": "Netease",
    "KeyWords": "林心如,周迅,吻戏",
    "PublishTime": "12/28/201720:55:29",
    "Article": "网易娱乐12月28日报道据台湾媒体报道，林心如的新戏正在台湾热播中。剧中，林心如剧中周旋在几段情感中，与周迅老公高圣远饰演的熟男的纠葛爱情最为刺痛，首场吻戏从两人关系中展开。由于这场戏是强吻、动作快，第一次排戏时，林心如的眼睛直接撞上高圣远英挺的鼻子，当场笑场。两人彩排过程都觉得很尴尬，正式拍摄后顺利，高圣远还对着镜头伸出大姆指比赞，表示林心如表现专业。本文来源：网易娱乐责任编辑：陈恺_NK4686"
}