{
    "URL": "http://news.163.com/17/1229/09/D6QHFDUO0001875P.html",
    "Article": "（原标题：惊！女童误食“海绵宝宝”阻塞肠道险开腹）#endText.video-infoa{text-decoration:none;color:#000;}#endText.video-infoa:hover{color:#d34747;}#endText.video-listli{overflow:hidden;float:left;list-style:none;width:132px;height:118px;position:relative;margin:8px3px0px0px;}#entText.video-lista,#endText.video-lista:visited{text-decoration:none;color:#fff;}#endText.video-list.overlay{text-align:left;padding:0px6px;background-color:#313131;font-size:12px;width:120px;position:absolute;bottom:0px;left:0px;height:26px;line-height:26px;overflow:hidden;color:#fff;}#endText.video-list.on{border-bottom:8pxsolid#c4282b;}#endText.video-list.play{width:20px;height:20px;background:url(http://img1.cache.netease.com/video/img14/zhuzhan/play.png);position:absolute;right:12px;top:62px;opacity:0.7;color:#fff;filter:alpha(opacity=70);_background:none;_filter:progid:DXImageTransform.Microsoft.AlphaImageLoader(src=\"http://img1.cache.netease.com/video/img14/zhuzhan/play.png\");}#endText.video-lista:hover.play{opacity:1;filter:alpha(opacity=100);_filter:progid:DXImageTransform.Microsoft.AlphaImageLoader(src=\"http://img1.cache.netease.com/video/img14/zhuzhan/play.png\");}if(/(iPhone|iPad|iPod|Android|NETEASEBOBO|blackberry|bbd+)/ig.test(navigator.userAgent)||/safari|chrome|firefox/i.test(navigator.userAgent)&&navigator.plugins&&!navigator.plugins[\"ShockwaveFlash\"]){varstr1='<videocontrols=\"controls\"preload=\"auto\"width=\"100%\"poster=\"http://vimg3.ws.126.net/image/snapshot/2017/12/V/E/VA5T0L5VE.jpg\"style=\"max-height:100%\">';varstr2='<sourcetype=\"video/mp4\"src=\"http://flv.bn.netease.com/videolib3/1712/29/AtPoz9012/SD/AtPoz9012-mobile.mp4\">您的浏览器暂时无法播放此视频.</video>';document.getElementById(\"FPlayer1404863609673\").parentNode.innerHTML=str1+str2;}惊！女童误食“海绵宝宝”阻塞肠道险开腹（来源：original）window.NTES&&function(d){varf=function(c){varb=c.getAttribute(\"flashvars\"),a=c.getAttribute(\"repovideourl\").replace(\".flv\",\"-mobile.mp4\");h=d(c.parentNode.parentNode.parentNode),g='<embedsrc=\"http://v.163.com/swf/video/NetEaseFlvPlayerV3.swf\"flashvars=\"'+b+'\"allowfullscreen=\"true\"allowscriptaccess=\"always\"quality=\"high\"wmode=\"opaque\"width=\"100%\"height=\"100%\"type=\"application/x-shockwave-flash\"/>';if(/(iPhone|iPad|iPod|Android|NETEASEBOBO|blackberry|bbd+)/ig.test(navigator.userAgent)){g='<videocontrols=\"controls\"preload=\"auto\"width=\"100%\"height=\"100%\"><sourcetype=\"video/mp4\"src=\"'+a+'\">您的浏览器暂时无法播放此视频.</video>';}h.$(\".video\")[0].innerHTML=g;},e=function(b){vara=d(b.parentNode.parentNode.parentNode);a.$(\"li\").removeCss(\"on\"),b.addCss(\"on\"),a.$(\".video-title\")[0].innerHTML=\"string\"==typeofb.textContent?b.textContent:b.innerText,a.$(\".video-title\")[0].setAttribute(\"href\",b.getAttribute(\"url\")),a.$(\".video-from\")[0].innerHTML=\"（来源：\"+b.getAttribute(\"source\")+\"）\",f(b);};window.continuePlay=function(){vara,b=d(d(\".video-list.on\")[0].nextSibling);3==b.nodeType&&(b=d(b.nextSibling));if(b&&d(\".video-innerinput\")[0].checked){e(b);}},function(){vara={init:function(){if(d(\".video-listli\")[0]){d(d(\".video-listli\")[0]).addCss(\"on\"),this.eventBind();}},eventBind:function(){d(\".video-listli\").addEvent(\"click\",function(b){e(d(this)),b.preventDefault();});}};a.init();}();}(NTES);12月25号，正在上班的关女士突然接到了一通电话，电话那头的声音，让关女士瞬间满头大汗。由于遇水会膨胀的特性，海绵宝宝一旦误食非常危险，而当天由于奶奶的疏忽，不小心把海绵宝宝当成了糖豆，给孩子误食，而由于各种原因，当孩子抵达医院之后，已经是三个小时之后了。经过检查，医生在关女士的女儿胃口中发现了三粒海绵宝宝，但是由于时间拖延过久，孩子误食量很大，因此进入宝宝肠道的海绵宝宝非常危险，而几天前在儿研所就接收过这样的病例。海绵宝宝一旦过度膨胀就会彻底堵塞肠道，引发肠梗阻，严重时甚至会危及生命。看着心疼的家长，医生决定尝试能给孩子服用药物，排泄海绵宝宝，减少孩子的痛苦，而在用药一晚之后，孩子的情况也有所好转。目前，关女士的女儿已经出院，在家中进行治疗和观察。医生提醒我们的一定要随时关注孩子的情况，一旦家长们发现孩子有误食的情况，尽早送往医院，进行治疗。本文来源：看看新闻Knews责任编辑：张宪超_NN9310",
    "Source": "Netease",
    "PublishTime": "12/29/201709:09:56",
    "KeyWords": "海绵宝宝,肠梗阻,误食,医生,儿童安全",
    "Comment": {
        "Content": "買這種東西的也是弱智 容易被小孩误食的东西建议添加世界上最苦的物质苦精 这种东西是属于玩具还是药物？无良商家就是为了赚点小钱害了多少孩子 有小孩家里还放这东西，还是喂的 傻逼，这玩意是车里边做装饰的 海绵宝宝是啥？ 其他国家都立法必须添加的。。 这种东西是属于玩具还是药物？无良商家就是为了赚点小钱害了多少孩子 太危险了哦 傻逼，这玩意是车里边做装饰的 容易被小孩误食的东西建议添加世界上最苦的物质苦精 别什么都给孩子吃 買這種東西的也是弱智 这个建议不错。 凡事出事就怪商家无良，自己的责任却推的一干二净。 有小孩家里还放这东西，还是喂的 有小孩家长注意了！！！ 保姆或许会虐待小孩，但保姆最多只会打打拍拍小孩，奶奶带小孩，轻者住院，重者丧命 ",
        "Total": 94,
        "Link": "http://comment.news.163.com/news_shehui7_bbs/D6QHFDUO0001875P.html",
        "Reply": 13
    },
    "Title": "老人把\"海绵宝宝\"当糖豆 女童误食致肠梗阻险开腹_网易新闻"
}