{
    "PublishTime": "12/30/201721:03:53",
    "Comment": {
        "Total": 1562,
        "Reply": 103,
        "Link": "http://comment.ent.163.com/ent2_bbs/PHOTJNQA000300AJ.html",
        "Content": "浙江卫视真的就请不到别的好歌手或名气大的了吗？！像杨颖这种货色都拽上了，为了跨年演唱会也是拼了！<br>特讨厌杨颖！无论哪个节目或演唱会里一有她，感觉就一下子掉了档次。 冲热巴来看浙江卫视跨年演唱会的！ 这也叫巨🌟我糙 这是中国人的悲哀 抵制浙江卫视！抵制假唱！抵制乱剪辑把群众当傻瓜！ 邓紫棋唱的不错 杨颖假唱，太恶心了。 请的都是些啥货色，看到ab和陈赫等就恶心 蔡依林陈伟霆表演的还可以 垃圾浙江卫视 大黑牛，男人中的绿茶婊，明明玩的女人都是娱乐圈最漂亮的女人，还一副老实无辜的表情，作为女人，感觉他插刀张馨予事件做的真不地道，就算这女人不怎么样，至少你也承诺过睡过。真是……逊毙了 跨不到，就垮了！ 主办方也是处于对观众的保护。试想她真唱你耳朵能受得了吗？ 蔡依林又丑又土，还唱走音了。 最大牌的NE-YO照片一张都没 今天跨年，避开高峰期？还是避开芒果？ 不看这垃圾台 浙江卫视有点跑偏了，跨年还提前领跑，这是犯规啊。 假唱算什么，她浑身都是假的 陈赫傻逼，王祖蓝狗比，同意的给个赞 不评论李晨帅与不帅，就觉得他长得特别蠢，一副蠢货的样子！尽管他不可能蠢…… 玉珮金鞍青楼前，笙管胡琴年复年。<br>垂杨紫陌系白马，翘脚勾心青龙衔。<br>一川白雪歌祥瑞，几绺梵烟覆长天。<br>莺莺燕燕塞高台，八月菊花二月鲜。<br>堂前百束洛阳花，公子一掷万万钱。<br>水袖罗裙舞圆荷，双靥含愁指纤纤。<br>凌波罗袜绝红尘，肚兜一抹掩双山。<br>断袖磨镜乱章台，衙郎北里多余欢。<br>又到此时唱万岁，一场春梦醉几番。<br>年关又到戏子龙腾虎跃之时，各路人员你方唱罢我登场，她们晒乳漏碧，赚得盆满外溢。周公之去，中国未来的路向何方？经济危机中如何保持发展，如何破解美国等西方国家对我们的封锁，钓鱼岛要不要，台湾打不打。唉！不说了，房东又来敲门了，今年的房租还没着落，我该出摊去了。 碰面能怎么样人家都玩的开 今晚就跨了，跨不到2018年 林俊杰感觉胖好多…… 我没有权利阻止别人去看，也无法向它的黑暗伸张正义，但我可以管住我的嘴巴，管住我的眼睛，管住我的手，永远不再看这个台是我对所有被它污蔑的人的最真诚的敬意 天佑傻逼呢 就不能一起喝杯酒？ 跨到31号！浙江卫视连日期都不记得还搞晚会 垃圾浙江卫视 baby和陈伟霆会不会碰面？ 广东人民表示听不懂大号中华 两个东北人唱粤语歌。。。 蔡依林这身也太土了吧？还看到微博上说舞台有个大洞艺人表演时差点掉下去话说陈伟霆今天一身西装是真帅难怪那么多女人爱他 搞不懂，浙江卫视的跨年晚会为什么总是在深圳举办？难道大浙江没有场馆吗？ 有杨天宝坚决不看，垃圾浙江卫视 什么玩意，也就蔡依林林俊杰俩明星 续炮呗 都是垃圾 请各位放过林俊杰 最后天佑还上来了，真恶心，真low，赶紧换台了 这是啊啊嘛 这是中国人的悲哀 一群傻逼 我要看天佑[骷髅][骷髅][骷髅][骷髅][惊讶][惊讶][惊讶][惊讶][惊讶][疑问][疑问][疑问][疑问][被黑][被黑] 又瞎又聋，赶紧回家辟谷... 有没有请那个唱《我们不一样》跨年，挺适合2017年大众的，到处放 跑男一帮垃圾 今晚就跨了，跨不到2018年 我佑最厉害 刚刚还讲到陈楚生这几年去哪里了 不评论李晨帅与不帅，就觉得他长得特别蠢，一副蠢货的样子！尽管他不可能蠢…… 最大牌的NE-YO照片一张都没 都是些什么鬼 不评论李晨帅与不帅，就觉得他长得特别蠢，一副蠢货的样子！尽管他不可能蠢…… 看到有天佑，感觉傻逼了 续炮呗 渡尽劫波兄弟在，相逢一炮泯恩仇... 玩倒计时吗[微笑] 林俊杰这种大碗居然会去这种垃圾电视台 欢迎收看江苏卫视跨年演唱会^_^ baby表演瞪眼就好了 逝去的不一定是悲哀的，活着的不一定是幸福的。愿你们在天堂找到你们的快乐。 杨颖假唱，太恶心了。 渡尽劫波兄弟在，相逢一炮泯恩仇... 主办方也是处于对观众的保护。试想她真唱你耳朵能受得了吗？ 蔡依林又丑又土，还唱走音了。 baby也会唱歌？笑死我得了 坚决不看浙江卫视 我一个台都不看玩农药 玉珮金鞍青楼前，笙管胡琴年复年。<br>垂杨紫陌系白马，翘脚勾心青龙衔。<br>一川白雪歌祥瑞，几绺梵烟覆长天。<br>莺莺燕燕塞高台，八月菊花二月鲜。<br>堂前百束洛阳花，公子一掷万万钱。<br>水袖罗裙舞圆荷，双靥含愁指纤纤。<br>凌波罗袜绝红尘，肚兜一抹掩双山。<br>断袖磨镜乱章台，衙郎北里多余欢。<br>又到此时唱万岁，一场春梦醉几番。<br>年关又到戏子龙腾虎跃之时，各路人员你方唱罢我登场，她们晒乳漏碧，赚得盆满外溢。周公之去，中国未来的路向何方？经济危机中如何保持发展，如何破解美国等西方国家对我们的封锁，钓鱼岛要不要，台湾打不打。唉！不说了，房东又来敲门了，今年的房租还没着落，我该出摊去了。 拿25亿的时间怎么就没见你叫 碰面能怎么样人家都玩的开 巨星在哪里？ 邓超呢 什么玩意，也就蔡依林林俊杰俩明星 baby和陈伟霆会不会碰面？ 哪里都会碰 广东人民表示听不懂大号中华 自袁立事件后，不再关注浙江卫视 两个东北人唱粤语歌。。。 天佑傻逼呢 见面来一炮 就想看杨颖唱歌。 有杨天宝坚决不看，垃圾浙江卫视 就不能一起喝杯酒？ 马上30岁了，发现不像以前守着电视来回换台看这些歌唱类晚会了……看看小品相声还可以…… 有陈赫和杨颖可见浙江台的垃圾 今晚吃鸡，大吉大利，新年快乐各位易友。 基本所有都假唱。。。。1楼太年轻 请各位放过林俊杰 怎么没有喊麦哥 烧钱游戏 广东什么卫视很好的？ 浙江卫视真的就请不到别的好歌手或名气大的了吗？！像杨颖这种货色都拽上了，为了跨年演唱会也是拼了！<br>特讨厌杨颖！无论哪个节目或演唱会里一有她，感觉就一下子掉了档次。 大黑牛，男人中的绿茶婊，明明玩的女人都是娱乐圈最漂亮的女人，还一副老实无辜的表情，作为女人，感觉他插刀张馨予事件做的真不地道，就算这女人不怎么样，至少你也承诺过睡过。真是……逊毙了 杨颖不是不会唱歌吗？咋又唱起了英文歌？费解？ 抵制的呢？ 不看这垃圾台 浙江卫视有点跑偏了，跨年还提前领跑，这是犯规啊。 假唱算什么，她浑身都是假的 你可以选择不看 杨颖什么时候滚，我最恨杨颖 今晚就跨了，跨不到2018年 抵制浙江卫视！抵制假唱！抵制乱剪辑把群众当傻瓜！ 跨到31号！浙江卫视连日期都不记得还搞晚会 我没看 看了一会是在看不下去大概是跑男专场[狗][狗] 浙江卫视的一切坚决不看！ 听这帮人唱歌还不如听选秀节目的歌........想起来就脚板心儿痒痒 垃圾浙江卫视 陈伟霆和baby同台 冲热巴来看浙江卫视跨年演唱会的！ 这也叫巨🌟我糙 邓紫棋唱的不错 杨颖假唱，太恶心了。 请的都是些啥货色，看到ab和陈赫等就恶心 跨不到，就垮了！ 你居然去看了？ 李晨都会唱歌了？ 解释下袁立的问题以后再做广告吧！ ab还是挺好看的。。。只是挺好看的 今天跨年，避开高峰期？还是避开芒果？ 明天更没人看啦 还有阿sa，呵呵 跨年到2018了傻逼？？ 林俊杰感觉胖好多…… baby和陈伟霆会不会碰面？ 今年浙江的跨年演唱会真是不行，满屏的尴尬，没啥明星，无聊，没看头 都是垃圾 蔡依林这身也太土了吧？还看到微博上说舞台有个大洞艺人表演时差点掉下去话说陈伟霆今天一身西装是真帅难怪那么多女人爱他 都在同一天，浙江卫视的收视率一定会很感人的。 最后天佑还上来了，真恶心，真low，赶紧换台了 头张图片给人第一感觉就是在模仿在《雨中曲》片段[大笑] 给钱就行，说句不好听的，也就名字还算个人 我也最不喜欢他俩 不是说有666么 林俊杰真嗨 邓紫棋差点认不出来了，之前有关她的画面图片都是皮裤皮裤 搞不懂，浙江卫视的跨年晚会为什么总是在深圳举办？难道大浙江没有场馆吗？ 我没有权利阻止别人去看，也无法向它的黑暗伸张正义，但我可以管住我的嘴巴，管住我的眼睛，管住我的手，永远不再看这个台是我对所有被它污蔑的人的最真诚的敬意 垃圾浙江卫视 [微笑] 不错不错 蔡依林陈伟霆表演的还可以 跑男，卑鄙，春哥？真是没有停下来看看的欲望 陈赫傻逼，王祖蓝狗比，同意的给个赞 "
    },
    "Title": "浙江卫视跨年晚会今晚举行 众星云集_网易娱乐",
    "Source": "Netease",
    "KeyWords": "浙江卫视,",
    "URL": "http://ent.163.com/photoview/00AJ0003/646986.html",
    "Article": "浙江卫视跨年晚会今晚举行众星云集今晚，浙江卫视跨年晚会举行，众多明星现身力挺。"
}