{
    "Article": "#endText.video-infoa{text-decoration:none;color:#000;}#endText.video-infoa:hover{color:#d34747;}#endText.video-listli{overflow:hidden;float:left;list-style:none;width:132px;height:118px;position:relative;margin:8px3px0px0px;}#entText.video-lista,#endText.video-lista:visited{text-decoration:none;color:#fff;}#endText.video-list.overlay{text-align:left;padding:0px6px;background-color:#313131;font-size:12px;width:120px;position:absolute;bottom:0px;left:0px;height:26px;line-height:26px;overflow:hidden;color:#fff;}#endText.video-list.on{border-bottom:8pxsolid#c4282b;}#endText.video-list.play{width:20px;height:20px;background:url(http://img1.cache.netease.com/video/img14/zhuzhan/play.png);position:absolute;right:12px;top:62px;opacity:0.7;color:#fff;filter:alpha(opacity=70);_background:none;_filter:progid:DXImageTransform.Microsoft.AlphaImageLoader(src=\"http://img1.cache.netease.com/video/img14/zhuzhan/play.png\");}#endText.video-lista:hover.play{opacity:1;filter:alpha(opacity=100);_filter:progid:DXImageTransform.Microsoft.AlphaImageLoader(src=\"http://img1.cache.netease.com/video/img14/zhuzhan/play.png\");}if(/(iPhone|iPad|iPod|Android|NETEASEBOBO|blackberry|bb\\d+)/ig.test(navigator.userAgent)||/safari|chrome|firefox/i.test(navigator.userAgent)&&navigator.plugins&&!navigator.plugins[\"ShockwaveFlash\"]){varstr1='<videocontrols=\"controls\"preload=\"auto\"width=\"100%\"poster=\"http://vimg3.ws.126.net/image/snapshot/2018/1/5/3/VD68FCV53.jpg\"style=\"max-height:100%\">';varstr2='<sourcetype=\"video/mp4\"src=\"http://flv.bn.netease.com/videolib3/1801/02/MSgRr3550/SD/MSgRr3550-mobile.mp4\">您的浏览器暂时无法播放此视频.</video>';document.getElementById(\"FPlayer1404863609673\").parentNode.innerHTML=str1+str2;}章子怡现身《歌手》彩排（来源：网易视频）window.NTES&&function(d){varf=function(c){varb=c.getAttribute(\"flashvars\"),a=c.getAttribute(\"repovideourl\").replace(\".flv\",\"-mobile.mp4\");h=d(c.parentNode.parentNode.parentNode),g='<embedsrc=\"http://v.163.com/swf/video/NetEaseFlvPlayerV3.swf\"flashvars=\"'+b+'\"allowfullscreen=\"true\"allowscriptaccess=\"always\"quality=\"high\"wmode=\"opaque\"width=\"100%\"height=\"100%\"type=\"application/x-shockwave-flash\"/>';if(/(iPhone|iPad|iPod|Android|NETEASEBOBO|blackberry|bb\\d+)/ig.test(navigator.userAgent)){g='<videocontrols=\"controls\"preload=\"auto\"width=\"100%\"height=\"100%\"><sourcetype=\"video/mp4\"src=\"'+a+'\">您的浏览器暂时无法播放此视频.</video>';}h.$(\".video\")[0].innerHTML=g;},e=function(b){vara=d(b.parentNode.parentNode.parentNode);a.$(\"li\").removeCss(\"on\"),b.addCss(\"on\"),a.$(\".video-title\")[0].innerHTML=\"string\"==typeofb.textContent?b.textContent:b.innerText,a.$(\".video-title\")[0].setAttribute(\"href\",b.getAttribute(\"url\")),a.$(\".video-from\")[0].innerHTML=\"（来源：\"+b.getAttribute(\"source\")+\"）\",f(b);};window.continuePlay=function(){vara,b=d(d(\".video-list.on\")[0].nextSibling);3==b.nodeType&&(b=d(b.nextSibling));if(b&&d(\".video-innerinput\")[0].checked){e(b);}},function(){vara={init:function(){if(d(\".video-listli\")[0]){d(d(\".video-listli\")[0]).addCss(\"on\"),this.eventBind();}},eventBind:function(){d(\".video-listli\").addEvent(\"click\",function(b){e(d(this)),b.preventDefault();});}};a.init();}();}(NTES);网易娱乐1月2日报道网曝新一季的《我是歌手》明天将开始录制，本届的首发阵容有JessieJ、张韶涵、汪峰、Gai、李圣杰、张天、张丰溢。目前JessieJ已经来到中国，她自己也在ins上说飞到中国来工作了。张韶涵也到机场了。这么多届，终于来了一个欧美选手！另据台媒透露，张韶涵此次加盟歌手的签约费用为每集150万人民币(约690万台币)加盟，预计录完14集可吸金9660万台币。本文来源：网易娱乐责任编辑：宋玉鑫_NK6612",
    "URL": "http://ent.163.com/18/0102/22/D768GM9800038FO9.html",
    "KeyWords": "汪峰,张韶涵,我是歌手",
    "PublishTime": "01/02/201822:24:13",
    "Title": "曝新一季《我是歌手》明录制 汪峰结石姐进首发_网易娱乐",
    "Comment": {
        "Content": "没迪丽热巴，不看！ 最近压力确实大！ 其他人比她低了几个档次，无论名气还是唱功。 演唱会的场地跟这节目场地完全两回事，演唱会唱的太多歌，没有摇滚歌手不车祸的基本很难保持整场，，撕喊太多 阿妹呢？炒那么久既然没有 这个阵容。。。。。越来越不堪啊，，，里面某些国内歌手，，，名气太低了吧。。。。 没姚笛，不看。 4楼很煞笔啊 我想为GAI加油，但《歌手》的规则我也特别的熟，如果咖位不是特别的牛，实力再屌也TM只能一轮游！ 大美妞，又见面了，我申请当姚笛后援会副会长，可以吗[微笑] 请问，怎么评价名气和唱功，有什么数据吗，还是靠意淫，听的懂外国人唱什么吗 我不管，就算被人水军，我也要说：4楼真傻逼 亲爱的，就服你 文艺者！现在是富贵者！精神文明是建立在物质文明的基础上！看基础何样了？如今的歌手也好，演员也罢！该让你们回归本位了！如同《封神榜》 4楼说了句实话而已确实跑调了啊，楼上几位确定不是水军？ 张丰毅也去了啊？挺喜欢他演的戏的，虽然人一般。 我宁愿再出几个邓紫棋，也不愿看到什么韩将军 我终于明白了，为什么有些淘汰的歌手，离开时要哭，每集150万，淘汰就没了，是要哭的。 振兴实体经济，尊重实体劳作者！让虚无者“归位”！让辛劳者欣慰吧！世界的进步不是歌星唱出来的！也不是影星演出来的！是劳动人民用双手创造出来的！可双手创业出来的价值，与一首歌、一部剧的报酬不成比例啊？该回归本位了！该给中国一个真实的现实了！～劳动最光荣！文艺服务于制造、生产实物的劳动者！不是文艺工作高于实物制造和生产者！ 皮裤今年参加跨年演出只唱四首，第一首歌就开开始跑调，四首一直跑，上气不接下气，这怎么解？ 张丰毅沙书记也来唱 那又怎样，再好也拿不到冠军 汪峰出场的时候才真是考验观众演技的时候 张靓颖之前不是在这个节目里面唱她的歌模仿jesiej吗？连发型和跳舞服装都是模仿jesiej的，这下正版来了她不是很尴尬？ 汪峰第一个被淘汰的。放心吧。 这次谁能拿歌王？？？皮裤汪？JessieJ？？？？ jessie分分钟秒杀他们哈哈其实李圣杰也不错的唱rnb 你是瞎了，这个女的确实欧美大牌 pgone:小璐呀家奶亮 怎么没有润土张？ 汪峰就算了吧，虽然写歌的才气不错，但是参加比赛估计不超过三轮，被淘汰 你听懂你妈的大虎逼，唱你的二人转去吧，装什么逼，几十个字的回复就一个英文单词，你他妈学前班的吗，我儿子都比你强 韩红唱歌没毛病。 如果没有汪峰，我就看！ 创作好不代表唱的好，歌手的舞台表现的是唱吧。 璐出马脚，贾装没事，万没想到，卓有成效 我瞎了，年年说有欧美大牌，结果来的不是东南亚就是中东的。贝克汉姆你好，贾斯汀比伯在哪里？ 5、6、7楼皮裤水军拿钱睁眼瞎话以次充好，确实sb 汪峰唱现场会不会跑调？ 最后那俩人是谁？？？ 天！JessieJ唱功超好的[色色][色色][色色]表现能力又强，那些人怎么比啊 这么搞笑的节目居然没有贾玲差评 你去屎 你听不懂就代表别人也都听不懂？笑死人了，low逼 最近压力确实大！ 国内哪有几个名气又高，唱歌又厉害的歌手，再说该来的歌手都来过了，老面孔又不能总上，本来第四季就差不多结束了，非要弄个第五季，一半的人都是来过的。 其他人比她低了几个档次，无论名气还是唱功。 张丰毅也去了啊？挺喜欢他演的戏的，虽然人一般。 他确实是参加这个节目的吗？确定不是跨界歌王？？？ 阿妹呢？炒那么久既然没有 王菲，车祸太多了。嗓子现在不行了。 垃圾节目 这个阵容。。。。。越来越不堪啊，，，里面某些国内歌手，，，名气太低了吧。。。。 gai是什么鬼？如果薛之谦增补的话应该能吓跑不少人，千万不要让薛之谦上，怕被恶心到 没姚笛，不看。 三楼正解，一个团队用一个星期的时间去唱好一首歌完全没问题，最能体现一个歌手功力的是演唱会。我看过最好的是当年在上海大舞台开唱的莎拉布莱曼 看见结石姐这鸟名字这是蛋疼 是沙里金书记吧 gai上了我是歌手绝对是身家大涨啊 还好没请天佑，否则就垮了 李圣杰。 看着隔壁小亮亮，皮裤汪心fang啊 何洁是来表演椅子舞的 Gai是什么鬼，拉低质量？ 张丰毅不是Gay吗 你听懂你妈的大虎逼，唱你的二人转去吧，装什么逼，几十个字的回复就一个英文单词，你他妈学前班的吗，我儿子都比你强 我宁愿再出几个邓紫棋，也不愿看到什么韩将军 嘴巴这么脏？吃翔长大的吧？给你儿子积点口德吧！免得他夭折 汪峰那破嗓子还去干嘛？就他那样还能当评委？ 张天是哪位？倾诉我孤陋寡闻 要不要来玩玩押歌王的游戏今年押汪峰 把汪峰弄一下去！这节目就是真单位的 原来如此！ 苍老师那条怎么不让评论啊？ 王菲的嗓子是李鸭子整坏滴周迅的也是。。。 只听说过张韶涵、汪峰！ 结石姐真的来啊啊啊啊，那还比什么比，谁能把bangbang那句高音唱上去？ 上联：贾在哭，万在笑，小璐在挨炮，下联：宋在操，马在叫，宝强在咆哮。横批，指璐为马。 结石姐：JessieJ 嘴巴这么臭，吃💩长大的？给你儿子积点德吧，小心他放学被车撞死 素质堪忧，你这种社会底层的渣还有儿子呢？啧啧… 没郭德纲，不看 我是歌手会修音的，唱成车祸也没事。 卧槽这一季还能看吗 应该不行，除非是国外的男的长得帅的，才能走到最后，毕竟什么受众最多，大家心知肚明。 我觉得如果真凭实力的话结石姐完爆国内所有流行歌手~~ 国内能请到的都来过了没办法了这个 根本请不动阿妹，而且阿妹刚结束巡演也该休息了 这么多人有眼疾？ [被黑][被黑][被黑] 我觉得如果真凭实力的话结石姐完爆国内所有流行歌手~~ 汪峰结石？ 汪疯真唱能听？？？？？ 有啥可听可看的啊，都是唱唱老歌，歌手也赚不到钱了，就是老人在电视台赚赚出台费而已。 我和小伙伴们都惊呆了 汪峰唱现场会不会跑调？ 结石姐冠军 华晨宇到底会不会去呢 你不是退居二线了么，怎么还在发挥余热。 天！JessieJ唱功超好的[色色][色色][色色]表现能力又强，那些人怎么比啊 应该请二驴 这么搞笑的节目居然没有贾玲差评 国外的最多只能排第二 张小斐表示不服、带上我。 期待bangbang 晕张丰溢什么鬼 喷子们还有一分钟到达战场 汪峰还能参加我是歌手啊，跑调王啊 其他人比她低了几个档次，无论名气还是唱功。 张丰毅也去了啊？挺喜欢他演的戏的，虽然人一般。 也不能这么说，是国内歌手普遍都没名气，有名气的掐手指头能数过来，羽泉，皮裤峰，老一辈超女快男，韩红，凤凰传奇。再想想香港台湾的呢？台湾是老中青三代都很多，香港可能青年一代不是很多，但是中老年经典歌手茫茫多。 不急，还有替补的歌手，这几期先听着结石姐先 这个阵容。。。。。越来越不堪啊，，，里面某些国内歌手，，，名气太低了吧。。。。 不是说有张惠妹吗 我想为GAI加油，但《歌手》的规则我也特别的熟，如果咖位不是特别的牛，实力再屌也TM只能一轮游！ 赛后，大王熟练的拿出了手机开始编辑短信你很重要，打开联系人后却陷入了沉思、、、、 香港很多不太出名的歌手都还不错，卫兰也可以啊。 希望广电总局封死这个烂节目。。。本该做幕后的导演把自己整的跟个明星似得，好恶心。 说好的张惠妹呢？ 哈哈哈哈 章官妓靠炒作长年卖淫老屁股高官上位，诈捐卖淫，生活糜烂，肮脏虚伪。汪王八四婚三孩，多次次抛弃哺乳期妻子，吃喝嫖赌。汪章一对肮脏的流氓人渣！！滚粗大众的视线！！ 不知为何，很希望香港歌手吴雨霏来，知名度低，但唱功很好，声音也很有韵味，我时常听她的歌，身边朋友同事受我影响好几个也喜欢上了她的歌，张敬轩唱歌也不错，可惜这辈子是不可能的了 崇洋媚外的网易喷子真不少，外国人、港台、内地少数民族、内地汉族，这是一些傻子们的鄙视链 汪峰在，那就果断不看了，反正假的要死。 诈捐就是终身误点 估计结石接应该也就客串下吧，这个阵容还用得着比吗 GAI的唱功还是可以的，看过蒙面唱将的都知道 璐出马脚，贾装没事，万没想到，卓有成效 现在越来越不好看了 期待全能摇滚音乐人！ 和演员的诞生这类综艺是一个道理，谁上来唱几轮都是定好的，相应的报酬也都是定好的。 章子怡和林心如的比较大气 这次谁能拿歌王？？？皮裤汪？JessieJ？？？？ 每个人喜欢的不同，卫兰我觉得还行，我觉得还是吴雨霏比较不错，唱的很多都是电视剧插曲，抒情的 这阵容，是竟然是捧汪半壁，谁爱看谁看 何洁是来表演椅子舞的 明白人应该知道冠军是谁了，就在首发中名气最大的 汪峰结石，姐进首发……这个文章的作者是个妹子进首发了，鉴定完毕 从刘云开始，就没什么好看了，张天爱漂亮是漂亮，记不住她的脸，素颜不好看 每届只要给我看下阵容基本就能猜到冠军是谁 汪峰得结石，不是艾滋么 150万每场，14场，2100万，这收入服了 皮裤汪跑音王跟结石不是一个档次的 喜欢张韶涵 除了张韵涵汪峰李圣杰认识之外，其他都不认识，，我太落伍了[不屑] 张天、张丰溢是谁 哈哈哈哈 关键是不会被淘汰吗？ 天！JessieJ唱功超好的[色色][色色][色色]表现能力又强，那些人怎么比啊 都可可 让我们一起熬呗，熬呗～～～ 林心如和章子怡比不是一个档次，无论长相，气场和气质，从来没觉得哪里漂亮，一脸温温弱弱的苦情相，真让人喜欢不起来，看起来也很有心机的样子 李圣杰张韶涵。张韶涵早年多好。可惜那样的母亲！张韶涵加油！ 很多黑汪峰的。<br>近几年潮流一直都是这样。<br>汪峰或许确实挺渣的。<br>但是在网络背后无脑黑一个并不认识的人，也挺渣的。<br>摇滚是什么？没人能定义。<br>毕竟五月天都是亚洲摇滚天团。<br>另外，说车祸现场的，相信很多听的演唱会并不多。尤其是全场高能的。<br>当然，我不觉得会有那么多人真听过他的演唱会。<br>半壁江山，并不是贬义，现在这情景，你自己琢磨琢磨另外还有谁是半壁江山？<br>跟郭德纲之于相声一样。<br>摇滚，很多都是渣的。摇滚音乐节上一半是约炮去的，另外一半是奔着约炮去的，有问题？ 越到后面的名字越不认识。。。 说实话，除了中间那个，其余的两个都不丑，甚至帅气，至少比小鲜肉耐看 最近压力确实大！ 你打错了个字，也认错了人，居然还有98个人点赞。。。666 为了表明我的价值观没问题，所以我不能把你的话当作侮辱，我只能回复你：我是城镇户口...湖南卫视说过请贝克汉姆上爸爸去哪儿了，请玛丽亚凯莉上歌手，请比伯上跨年演唱会。dll，我觉得我能说出来这个名字，就能显示我喜欢欧美音乐的时间不断。 辽宁铁岭电视台 张丰毅也去了啊？挺喜欢他演的戏的，虽然人一般。 开场来一首pricetag大家就明白怎么回事了，吴莫愁当年在国内有多火，她加倍 让谦儿哥上吧，又会同仁堂喊麦又会摇滚不比汪皮裤有看头？怎么办怎么办不吃韭菜大蒜就图一乐[大笑][大笑][大笑] 谭晶当时唱功和气场也是秒杀其他人！后来也是突然就退出了！这种节目都是有套路的，咱们只要看看享受这场视觉和听觉的盛宴就好啦！[微笑] 看了评论才知道原来还有这么人在看芒果台啊 这个阵容。。。。。越来越不堪啊，，，里面某些国内歌手，，，名气太低了吧。。。。 没姚笛，不看。 哈哈 汪峰唱现场会不会跑调？ 偏请个最丑的。。。为什么不揾亼姐…、 你不是都退役了吗，没钱也出力啊 歌手只看林志炫 老咯，来的人越来越不认识了。 她不会中文歌……如果来了！你认为它能走到最后？ 什么？汪峰结石来不了了吗？ 其他人比她低了几个档次，无论名气还是唱功。 他是她的音帝啊！ 世界的都是湖南的[微笑] 每次都戴套怕啥 除了张韶涵其他都是次要的 章官妓靠炒作长年卖淫老屁股高官上位，诈捐卖淫，生活糜烂，肮脏虚伪。汪王八四婚三孩，多次次抛弃哺乳期妻子，吃喝嫖赌。汪章一对肮脏的流氓人渣！！滚粗大众的视线！！ 陈凯歌没来，没劲 国际知名度的话确实有差，但要知道节目是中国的观众也是中国的，她中国知名度比其他人高？ 汪峰出场的时候才真是考验观众演技的时候 人家只是预计，又没说肯定 除了结石姐和张韶涵唱功强些，其他人唱功一般啊，还有车祸，这届歌手不行啊，暂时是最差的一届 看来还得补强啊 你又活了？ 另据台媒透露，张韶涵此次加盟歌手的签约费用为每集150万人民币(约690万台币)加盟，预计录完14集可吸金9660万台币。<br>这么早就知道14轮了？ 谭晶？拉倒吧，一嘴大碴子味 张涵予也去了，现在流行跨界风 这是在哪个台播放啊？ 他是她的音帝啊！ 我也觉得皮裤太恶心！ 二楼是个老实人大家孤立她 结石姐这称呼真特么不地道…… 说实话，皮裤真是上辈子修了福才能娶到章。 期待 啥时候把户口迁到城里去的？做个农民有什么不好？几十万就能修栋小别墅，城里住鸽子笼还TM得还房贷。是不是傻啊！ 如果没有汪峰，我就看！ 合影 你就是个农民 如果她真14轮，就真的黑幕了 我瞎了，年年说有欧美大牌，结果来的不是东南亚就是中东的。贝克汉姆你好，贾斯汀比伯在哪里？ 张天、张丰毅是凑数的吗？ 还不错 结石？ 我也要✌️ 天！JessieJ唱功超好的[色色][色色][色色]表现能力又强，那些人怎么比啊 我要看张韶涵。支持她！ [喷水][喷水][喷水] 有半壁江山在啊，还不行？ 丑男总有过人之处，娶到比自己优秀的女人，李亚鹏汪峰李晨 汪峰那么多次车祸现场，就不怕在现场也出车祸？ 都是影帝 nogood 最近压力确实大！ 这位老师现场老是跑掉破音 张韶涵、张馨予、张含韵、张芯瑜、张钧甯这几个人傻傻分不清谁是谁 其他人比她低了几个档次，无论名气还是唱功。 张丰毅也去了啊？挺喜欢他演的戏的，虽然人一般。 钱再多，都请不来张学友！哈哈哈哈 ？谁挑的？ 张慧妹呢 没姚笛，不看。 就怕汪峰唱呲了音，他难受，我也难受 我是歌手还没倒闭？ JessieJ +1 哎…… 好吧！播出我只看结实姐 张韶涵、张馨予、张含韵、张芯瑜、张钧甯、张涵予这几个人傻傻分不清谁是谁 张丰毅沙书记也来唱 张靓颖之前不是在这个节目里面唱她的歌模仿jesiej吗？连发型和跳舞服装都是模仿jesiej的，这下正版来了她不是很尴尬？ 中途踢馆选手已做好准备 这次谁能拿歌王？？？皮裤汪？JessieJ？？？？ 汪峰的现场还能听吗？ jessie分分钟秒杀他们哈哈其实李圣杰也不错的唱rnb 有说是毯星妈，不确定。 张杰 汪峰就算了吧，虽然写歌的才气不错，但是参加比赛估计不超过三轮，被淘汰 怎么没有润土张？ 反正也是后期修音后才播出 唱后庭花 张韶涵自己演唱会唱歌都跑调跑飞了……还来参加歌手....现在只有每次最后的决赛直播能看出来实力了吧……汪峰的嗓子还能唱吗…… 真尼玛恶毒，你狗日的不得好死！ 我终于明白了，为什么有些淘汰的歌手，离开时要哭，每集150万，淘汰就没了，是要哭的。 丑男总有过人之处，娶到比自己优秀的女人，李亚鹏汪峰李晨 我是歌手改为歌手这无所谓了，但是把节目的神秘感完全搞没了，还有主持不用歌手是没问题，但是用娃娃来代替更加没有代表性，观众要的神秘感和歌手的压力感没了，没看头 唱一枝红杏出墙来吗 你特么不是退出了吗？ 有问题了，章一直戴着墨镜，猜她的眼神 确实，现在的名单，还没有必须要给他歌王的人。估计这次想换个套路，前几季一看阵容就知道歌王了，因为那些人不签歌王约人家根本不来。 演戏绝对，这次不知道是不是唱《我是书记》 汪峰唱现场会不会跑调？ 就服你 最后那俩人是谁？？？ 外国人首先排除，歌王必须首发，且咖位大。目前来看汪峰比较有可能，但皮裤汪的唱功的确太不稳定。让我怀疑今年的歌王有可能是一位补位大咖。[微笑] 天！JessieJ唱功超好的[色色][色色][色色]表现能力又强，那些人怎么比啊 張豐溢是誰？ 这状态卫冕冠军哈哈 眼看又没破百 汪峰扯嗓子唱歌的还来啊 最重要的是换掉那个喜欢吊人胃口的导演，真的很讨厌！ 看来还得补强啊 OH 一看到汪峰就想到车祸现场 结石姐要是来了，基本就没别人啥事儿了，欧美先进的唱片工业，以及娴熟高超的发声技巧，还有本身的声带机能，唱起现场来，碾压一批！ 三楼正解，国内的比赛，外国人都不会得冠。 结石姐嗓子不行还那么拼心疼。要是以前的嗓音谁能比得上？ 期待李圣杰啊最喜欢的男歌手之一啊可惜歌红人不红啊 张天，张丰溢。。。。小编随便写两个名字上去吗 不会的，按惯例，会让其进总决赛，然后冠军给国产歌手。 这个阵容。。。。。越来越不堪啊，，，里面某些国内歌手，，，名气太低了吧。。。。 …… 有说是毯星妈，不确定。 没姚笛，不看。 我也觉得超强大的唱功各种风格都能拿捏！真的很强大 大晚上的戴墨镜干什么？瞎么？ 汪峰的歌词一点营养都没有。皮裤半壁江山，不要脸的东西。 眼看又没破百 真的沒人上了 诈捐就是终身误点 厉害 喷子们还有一分钟到达战场 我很期待赛后詹狗又要发表什么言论啊说真的那个比比赛本身精彩 ？谁挑的？ 结实姐，我的最爱之一 张丰毅？也唱歌？ 汪想生兒子嗎？讓子怡陪我一晚，我保證讓她懷上 空难现场 王珂说得太对了。 这次谁能拿歌王？？？皮裤汪？JessieJ？？？？ 他是她的音帝啊！ 赛后，大王熟练的拿出了手机开始编辑短信你很重要，打开联系人后却陷入了沉思、、、、 张丰毅是什么鬼[微笑] 有几个不认识…… 外国人首先排除，歌王必须首发，且咖位大。目前来看汪峰比较有可能，但皮裤汪的唱功的确太不稳定。让我怀疑今年的歌王有可能是一位补位大咖。[微笑] 好戏接着看 创作好不代表唱的好，歌手的舞台表现的是唱吧。 结石姐吊打中国流行音乐半壁江山 你个不要脸的，说话不算话，你不是说退出姚笛粉丝团了吗？ 张天，张丰溢。。。。小编随便写两个名字上去吗 空难现场好吧 张韶涵都不值这价，对他也不感兴趣 不是退出后援会了吗？看样子现在是涨到了6毛？ …… 所以没几期就会把她淘汰，反正可以甩锅给观众不懂欣赏。 天！JessieJ唱功超好的[色色][色色][色色]表现能力又强，那些人怎么比啊 …… …… 所以才来证明他是歌手 …… ",
        "Link": "http://comment.ent.163.com/ent2_bbs/D768GM9800038FO9.html",
        "Total": 3673,
        "Reply": 423
    },
    "Source": "Netease"
}