{
    "Article": "网易娱乐12月28日报道近日，演员秦俊杰在参加一档访谈节目时，因提到与杨紫的恋情而在节目现场怒怼经纪人：“这没什么好避讳的。”秦俊杰在《龙珠传奇》中饰演康熙皇帝，他与杨紫在这部剧中组成欢喜冤家式的情侣CP，备受观众喜爱，并因为与杨紫“戏里戏外”的感情而引发广泛关注。秦俊杰谈恋情：“没什么好避讳的”秦俊杰谈到和杨紫的恋情，并没有大家想象的那样讳莫如深，他甚至乐于分享自己的感情状态，当被问到在事业吃紧的时候选择公布恋情是否会影响事业时，秦俊杰的经纪人进行了制止，但秦俊杰直接当场回怼：“有什么可避讳的吗？我觉得没什么可避讳的。”其实公布恋情一直是娱乐圈中比较敏感的话题，秦俊杰选择反其道而行之，没有选择回避和隐藏，大方地敞开心扉亮出自己的态度，这样恰恰是一种尊重和真诚，观众和粉丝当然愿意对这份诚意表达祝福和理解。事业和爱情秦俊杰很“清醒”秦俊杰对恋情的态度坚定而真实，但也清楚公布恋情会带来的影响，他十分聪明地把事业和爱情的界限分得很明白，在节目中，秦俊杰说：“我不希望它成为一种......就是从此以后你们俩要捆在一块，你不能跟别的人拍戏了，演员肯定要跟不同的人拍戏。”秦俊杰拥有典型的“90”后爱情观：“想到了就公开”，简单了当，带着年轻人特有的聪明和纯粹，就像他在节目中说的那样：“一个90后的恋爱模式。”本文来源：网易娱乐责任编辑：宋玉鑫_NK6612",
    "Source": "Netease",
    "KeyWords": "秦俊杰,杨紫",
    "Title": "谈恋情遭制止 秦俊杰怒怼经纪人：没什么好避讳的_网易娱乐",
    "Comment": {
        "Total": 110,
        "Content": "结婚结婚早点迎娶你女友杨紫她进门吧，早日步入婚姻殿堂呗！秦俊杰哈哈 反正生出来肯定不会骂自己傻逼的！自古二楼出煞笔原来是真的！ 不要整天上头条秀自己，生米煮成熟饭接受事实有本事儿赶紧迎娶你女友杨紫她进门啊，回家生小孩儿去哇！秦俊杰哈哈 有情人终成眷属，祝:杨紫和秦俊杰他你们二个人永远幸福快乐，恩恩爱爱，白头偕老，好好在一起一辈子，好好珍惜彼此，一生难得找到真爱，总之恭喜恭喜！祝福哈哈 多坦荡，喜欢就在一起，就是没什么可避讳的，男未婚女未嫁的～有些唯粉就是玻璃心，我觉得他俩挺好，都喜欢～ 两小只都喜欢，演技都在线，祝福！ 万一生个二楼傻逼就完了！婚检必须的！ 关八上次说秦俊杰背着杨紫在常驻的酒店包了另外一个长期房和别人滚床呢~ 反正生出来肯定不会骂自己傻逼的！自古二楼出煞笔原来是真的！ 不要整天上头条秀自己，生米煮成熟饭接受事实有本事儿赶紧迎娶你女友杨紫她进门啊，回家生小孩儿去哇！秦俊杰哈哈 有情人终成眷属，祝:杨紫和秦俊杰他你们二个人永远幸福快乐，恩恩爱爱，白头偕老，好好在一起一辈子，好好珍惜彼此，一生难得找到真爱，总之恭喜恭喜！祝福哈哈 多坦荡，喜欢就在一起，就是没什么可避讳的，男未婚女未嫁的～有些唯粉就是玻璃心，我觉得他俩挺好，都喜欢～ 结婚结婚早点迎娶你女友杨紫她进门吧，早日步入婚姻殿堂呗！秦俊杰哈哈 两小只都喜欢，演技都在线，祝福！ 万一生个二楼傻逼就完了！婚检必须的！ 万一生个二楼傻逼就完了！婚检必须的！ ",
        "Reply": 9,
        "Link": "http://comment.ent.163.com/ent2_bbs/D6O4GPHK00038FO9.html"
    },
    "PublishTime": "12/28/201710:45:00",
    "URL": "http://ent.163.com/17/1228/10/D6O4GPHK00038FO9.html"
}