{
    "Comment": {
        "Link": "http://comment.news.163.com/news_shehui7_bbs/D6LKDOHS0001875P.html",
        "Reply": 150,
        "Content": "一个月要1万多零花钱女的金B吗 反正吧，广东说河南60万，河南说山东80万，山东说浙江100万，浙江说江苏120了……继续哄抬B价。 这个女人👩肯定是好吃懒做的货，或者外面还养着个小鲜肉，鉴定完毕， 能确定是谁的孩子？ 傻波依配金波依，拉刀米发西。 这个男人的经历和我差不多，不同点是我登记了，而且我结婚女方几乎没有嫁妆，结婚半个月女方就卷钱跑了，电话号码换了，人也失踪了，去法院起诉传票都送不到。我感觉我遇见专业骗婚的了，唉 这么多钱，捡了个烂灯盏，公交车，奇葩。 希望媒体能关注一下这类事件 这哪像找个失足妇女绝对比这娘们服务好 打了再骗下一个 都他妈的虚高!要面子活受罪! 就怕女的找别人弄大的😄😄😄 没办法，交智商税。 没钱就不要娶老婆啊，有人逼你了！穷你有理了？ 深圳的傻逼你妹卖笔是六十万吗，六块钱也不值吧 金b的话后面至少加俩0 人肉买卖价越来越贵了[大笑] 他应该也是听说，我跟河南的哥们是纠正，你又何必出口成脏呢 只能怪你自己！找个女人高兴过了头！啥钱都给！就怕跑了不跟你了！越这样的感情越不靠谱！ 我是山东的，三楼来说下山东哪个地方礼金过60万了，我听过最多的就是三斤三两，也就是十四万 我是河南洛阳的，你告诉我哪里收彩礼收60万！有60万结婚干嘛，天天找小姐，日不一样的b 找个公交车，还发这么多的钱。<br>幼稚 一个月一万多确实多吧，男方又不是富二代 所以男人要多张几个心眼，女人不可靠 所以一有人要就赶紧嫁出去了 我感觉你的头上有呼伦贝尔草原 说实话你有没有和她上床？ 女的骗婚，肯定不止一个老公，现在的女的都TM太有套路了，男的就该弄大她肚子再结婚 30多万买不到个结婚B？现在发现小姐真良心 既然上过了就别逼逼！ 来南方吧，广东的妹子贤良淑德，礼金也就几万块，因为我们的价值观不一样，每个父母的衷心，就是儿女恩爱，白头到老，每个女婿都是潜力股。 大哥，先上车后补票的意思你理解错了啊，不是先结婚再办结婚证啊，搞大肚子才是王道啊！ 同样都是逼，为毛她金逼。。。能观摩下不？金逼 我一女同学就脚踩两条船。跟这个男的处。婚礼日子饭店啥的都定了。结果没几天把婚退了嫁另外一个了。因为这个更有钱 吹的牛逼，差点把我吓死 瘸子女人骑自行车——牛《扭》逼《b》 你是傻逼吧，现在能娶到个老婆多不容易知道吗？相亲的都是这样的，过一段时间再领结婚证，聘礼二十多万也正常，只是这女孩花钱有些大手大脚罢了 新人们收取长辈敬茶红包6万余元<br>说到敬茶红包，那也是咱们女儿辛辛苦苦一个个跪着敬茶得来的<br>这么辛苦，让我来 自己生个女儿什么德行心里没点B数。还诉个毛线的苦 男的也是sb 河南礼金最少也要60万起，山东更多 不是过日子的女人也就罢了，关键看来也是个欺瞒成性，很不安分的女人～男人当断立断～ 前前后后从相识到婚后花了不下30万，就退了13万，从2月底到10月，8个月，一个月炮费近2万。。。。 辛辛苦苦跪着得来的红包 男的亏大了女的就是公交车骗婚的 这B女人就是个骗婚的，因为我也是受害者，这个烂女人和我认识一个星期就要同居，同居之后以各种方法和我要钱，我的家底子本来就不厚，我统计了一下，大概三个月左右，从我这儿拿走的钱就4万多块，每个月1万多，后来她看到我家实在是没钱了，找了一个所谓我在外边出轨的借口，就给跑了，再也没有回来，这个烂女人和她的家人爱财如命，大家以后可得警惕呀！ 一个月要1万多零花钱女的金B吗 返还一半才 就怕女的找别人弄大的😄😄😄 这个女人👩肯定是好吃懒做的货，或者外面还养着个小鲜肉，鉴定完毕， 二楼傻逼 自己生个女儿什么德行心里没点B数。还诉个毛线的苦 辛辛苦苦跪着得来的红包 没有金刚钻就不要揽这个瓷器活！<br>明明只是一张低额度信用卡，非说自己是ATM机！ 说男的SB有啥不对给钱花也要过日子一万都干嘛了不问吗 这个男人的经历和我差不多，不同点是我登记了，而且我结婚女方几乎没有嫁妆，结婚半个月女方就卷钱跑了，电话号码换了，人也失踪了，去法院起诉传票都送不到。我感觉我遇见专业骗婚的了，唉 大哥，先上车后补票的意思你理解错了啊，不是先结婚再办结婚证啊，搞大肚子才是王道啊！ 希望媒体能关注一下这类事件 男的傻逼了……有本事的都吃软饭，没本事的个归个，剩下的都是傻逼 天下之大，无奇不有。20天你也敢结 周围很多女性都单身，谈恋爱简单，结婚有难度… 2楼，你女儿已经被我弄大肚子了 江西最高了，20万起 男方亏大了，养儿不易呀 你更幼稚，说白了就是SB，不要再犯同样错误了，全当花钱买教训了 金b的话后面至少加俩0 人肉买卖价越来越贵了[大笑] 每个地方不一样，我湖南老家很多生了小孩才摆酒领证！广东这边基本都领证结婚摆酒 这女的根本没有在一起长久过日子的打算 说实话你有没有和她上床？ 只能怪你自己！找个女人高兴过了头！啥钱都给！就怕跑了不跟你了！越这样的感情越不靠谱！ 找个公交车，还发这么多的钱。<br>幼稚 卧槽，这么高的礼金？ 一个月一万多确实多吧，男方又不是富二代 闪婚的代价 所以一有人要就赶紧嫁出去了 我感觉你的头上有呼伦贝尔草原 男的太傻 女的骗婚，肯定不止一个老公，现在的女的都TM太有套路了，男的就该弄大她肚子再结婚 有钱也不做冤大头 既然上过了就别逼逼！ 这个女人好吃懒做，肯定是被富人玩剩下货，平均一个月零花钱就是一万多，就是马云也供不起你 二楼好 你是傻逼吧，现在能娶到个老婆多不容易知道吗？相亲的都是这样的，过一段时间再领结婚证，聘礼二十多万也正常，只是这女孩花钱有些大手大脚罢了 这哪像找个失足妇女绝对比这娘们服务好 ATM的觉醒 来南方吧，广东的妹子贤良淑德，礼金也就几万块，因为我们的价值观不一样，每个父母的衷心，就是儿女恩爱，白头到老，每个女婿都是潜力股。 肚子弄大了，那可是在多的苦都要咽了 现在都是先同居有孕3个月再结婚，这很符合现实情况的好对策，可以互相全面了解避免碰到同性恋阳痿不孕。 马云那一个月100万零花钱都毛毛雨好么 说到敬茶红包，那也是咱们女儿辛辛苦苦一个个跪着敬茶得来的<br>什么跪着敬茶，分明是跪着吹箫挣来的 你的感觉很准啊 如果登记就不要返还这13万了，论登记的重要性 不打结婚证？那应该退钱 别看了，花钱无底洞，欠了一身的信用卡花呗，工资都是用来还上个月的债，还在惦记鞋包衣服还有各种聚餐 男的也是sb 而且可能是骗婚的。 有句话说的是坐公交车和买公交车是不一样的哈哈 前前后后从相识到婚后花了不下30万，就退了13万，从2月底到10月，8个月，一个月炮费近2万。。。。 他应该也是听说，我跟河南的哥们是纠正，你又何必出口成脏呢 山东好像没有那么高的，我们那里一般是38888 男的亏大了女的就是公交车骗婚的 现在这种现象很多 这B女人就是个骗婚的，因为我也是受害者，这个烂女人和我认识一个星期就要同居，同居之后以各种方法和我要钱，我的家底子本来就不厚，我统计了一下，大概三个月左右，从我这儿拿走的钱就4万多块，每个月1万多，后来她看到我家实在是没钱了，找了一个所谓我在外边出轨的借口，就给跑了，再也没有回来，这个烂女人和她的家人爱财如命，大家以后可得警惕呀！ 这俩人在干嘛？ 一个月要1万多零花钱女的金B吗 妓女绝对比通过婚姻手段骗取钱财的女人要有良心的多啊！ 最后一段话的言外之意还好女的没去领证，不然13万都没有了…… 肚子大还不知是谁的！ 问题是男方没证据，给的估计也是现金 能确定是谁的孩子？ 傻波依配金波依，拉刀米发西。 背了？ 没钱就不要娶老婆啊，有人逼你了！穷你有理了？ 河南山东娶老婆成本高已经是病态了..我只能庆幸我们不是那里的人啊！ 自己生的女儿自己心里没点b数吗？还装，装毛线啊 这么多钱，捡了个烂灯盏，公交车，奇葩。 只能怪那些人投胎太急，脸先着地 钻石 玛丽个逼！！！ 文中女的和骗无异，只有共同财产才能谈分割，彩礼不是共同财产当然得还人家了。就算敬茶红包女方可以拿，嫁妆谁看见了？再说这笔嫁妆钱到了男方兜里？什么喜糖值6万，和酒席同价，我也想知道。按这个逻辑，男方被提款也应该返还啊。法官只不过是怕女方往死里闹不好收场，所以和稀泥，一笔一笔算账，女方根本不可能只还13万。 如果你不影响市容，要花这么多钱买[窃笑] 女孩们找到了生财之道 河南的那位，你家里开矿山的吗？还60万起。。。 贱货女人妈的有法过日子吗 都是一家人，不要太见外，于是当日返还聘金4.8万元。 复杂了 现在中国的女人判断男人爱不爱他就是看给不给钱给多少钱 我们这里一分钱不要，当然房子要的，也可以一起买 河南没那么贵，我们这市区都是六万八万十万，山上贵点十万起也没见过二十万的 尼玛，这话说的，娶个媳妇🈶️多难？你以为是老大难呢？ 像这样动不动就是几十万彩礼，骗婚就少不了。 女的骗婚，肯定不止一个老公，现在的女的都TM太有套路了，男的就该弄大她肚子再结婚 都TM像你这个B出息呢？还找个老婆多不容易？对个男人来说这事都觉得难你还能干啥？ 他指的是结婚要花60万罢了，40万买小两室，聘礼加婚纱加婚戒加烟酒一起20万，我们家都是这样的，这还是最低要求了，上个月我乡下邻居140的大胖妹工资1800初中没毕业，，就是这么要求男方的，还要求男方吧大学毕业证拿出来，不是大学生不嫁 所以男人要多张几个心眼，女人不可靠 这个包月不便宜啊 还是有钱 都是这样的？我看我周围结不了婚的女人大把 30多万买不到个结婚B？现在发现小姐真良心 这就是生女要富养出来的结果 哈哈 同样都是逼，为毛她金逼。。。能观摩下不？金逼 那还不如到某电视台的节目二手b交易平台去找了 不登记，强来的理由都没有。女的套路深，这判的有问题吧，凭什么只返还一半的彩礼 我一女同学就脚踩两条船。跟这个男的处。婚礼日子饭店啥的都定了。结果没几天把婚退了嫁另外一个了。因为这个更有钱 退一半凭什么？花销对半分可以 你是傻逼吧，现在能娶到个老婆多不容易知道吗？相亲的都是这样的，过一段时间再领结婚证，聘礼二十多万也正常，只是这女孩花钱有些大手大脚罢了 这边有人结婚，房子和装潢都是女方的，男方穷，就给了一万五彩礼，酒席七万男方出，在一起男方花了十万块。那是因为男的是骨干教师。 新人们收取长辈敬茶红包6万余元<br>说到敬茶红包，那也是咱们女儿辛辛苦苦一个个跪着敬茶得来的<br>这么辛苦，让我来 我和我老婆结婚送了9999的彩礼金！我四川，老婆广西！现在过的很幸福啊，结婚没有大操大办，节约下来的钱去日本旅游，回来买了房子月供一起供！买了车子两人的名字 这么多钱，谁还娶媳妇，而且还大都是好几手的 男的也是sb 呵呵 打了再骗下一个 唉呀我们重庆最穷啥都不要 这男的适合单身，女的还会算一下家用存钱，你就只会花钱 自己生个女儿什么德行心里没点B数。还诉个毛线的苦 给你🦅👃的时候，你怎么不嫌弃，给你👄🦅👃的时候你怎么不拒绝！人渣…… 端正思想，树立正确的价值观，才能避免悲剧。 撒子，如若你们真爱，你老婆从你爸妈那里要的礼金最后都十你们的不是吗亲？如果你们结婚后再啃下你爸妈的钱财试一试，一毛都不会出了，其实女方若真爱把礼金存在你们俩的账户，这样男方就愿意宰他爸妈钱了 这活得有多好啊 一个月要1万多零花钱女的金B吗 没办法，交智商税。 这一看就是骗婚的，女婊骗婚，应该严惩 呵呵不去办结婚证还不懂啊 华为都是大傻币 我朋友也是，遇到一个贱人。订了婚了去外地上班了，三天两头要钱。你热她冷，你冷她热。就是想点子要钱。我们都劝他，就当嫖掉了。后来事黄了，钱退没退不清楚，兄弟说退了，也没详细问。现在遇到一个女孩，人特好，懂事持家。 打了20多天洞付了十多万，再加个十来万范逼逼也可以擦嘞，多么惨痛的教训啊 估计二楼认为房子车子算在二十万聘礼里面了吧… 这逼真贵啊，20天十几万，也不知道艹了几次 有点贵啦 因为你个傻吊啊 不是过日子的女人也就罢了，关键看来也是个欺瞒成性，很不安分的女人～男人当断立断～ 能怪谁？长脑子长眼睛是干嘛用的？这社会很现实，自己为自己的错误买单，没毛病 娶个老婆不容易？我现在后面大概有十五个追我的女孩，我现在犯愁的是过年回家带哪一个 当今社会找老婆是最难的事，没钱的人，我认为最好还是单身过算了，真正靠感情支撑的婚姻夫妻如今几乎不存在，大都是靠金钱支撑的多 瘸子女人骑自行车——牛《扭》逼《b》 仙人跳了 你是傻逼吧，现在能娶到个老婆多不容易知道吗？相亲的都是这样的，过一段时间再领结婚证，聘礼二十多万也正常，只是这女孩花钱有些大手大脚罢了 没结婚登记还花这么多，这男的怎么想的？ 娶了广西的老婆，选择不错 绝对是骗婚，， 我和我老婆结婚送了9999的彩礼金！我四川，老婆广西！现在过的很幸福啊，结婚没有大操大办，节约下来的钱去日本旅游，回来买了房子月供一起供！买了车子两人的名字 呵呵，就一骗吃喝的 男的也是sb 金逼镶钻，一炮八万 一个月一万也不算多吧只能说明男的没本事 为什么有钱人都这么傻逼<br>现在觉得骂人傻逼像是在夸人！ 楼上不错，花了多少男人的钱了？ 法官当和事佬，说不定还是年终总结的亮点 认识20天就和你结婚能为啥？自己心里那么没有b数吗？ 刘娜家也高兴，说都是一家人，不要太见外，于是当日返还聘金4.8万元。<br><br>这是给你暗示，让你4.8 搞不懂如今的贼女人，自己没手没脚？花钱你自己不会去挣？你活着是造粪？ 还钱 ",
        "Total": 1680
    },
    "Article": "（原标题：相识20天就闪电办婚礼！台州男子婚后郁闷了：她把我当成了取款机！）电视剧里，男女主角零感情基础，在打打闹闹中最后建立真爱。然而故事很丰满，现实却很骨感。浙江台州三门县有一对年轻人，相识半个多月便决定长相厮守，结果将就了半年就受不了了，“亲家”变“仇家”，双方对簿公堂，就当时聘金的事情吵了起来。男女相识20天就决定在一起婚宴办完住一起后发现对方和想象的不一样李平和刘娜(两者均为化名)都是三门人，也都到了适婚年龄。今年2月初，有人给牵了红线，两人相识。仿佛是缘分到来，李平和刘娜互相一见钟情，相处仅仅20天左右，两人就决定一起生活。2月底，双方家人一起举行了隆重的订婚仪式。李平家里人很高兴，聘金也是备得挺足，足足给了25.8万元，同时送去了猪肉、烟酒等礼品，这些礼品花费了7200元。刘娜家也高兴，说都是一家人，不要太见外，于是当日返还聘金4.8万元。4月，双方按照当地的婚嫁习俗办了酒席宴请亲朋好友，整场婚礼李平家支出15万元，期间，新人们收取长辈敬茶红包6万余元。因为从相识到办婚宴，前后就2个月左右，中间准备工作也比较仓促，因此两人都没时间去民政局办理结婚登记，大家都觉得，先上船后补票的情况很常见，也没当回事。可“婚”后，李平多次催促刘娜去补办结婚登记，但是刘娜都是左拖右推，找各种理由。而且相处一起，彼此开始发现对方的不足，李平发现刘娜将自己当成了“提款机”，在外头花钱大手大脚，回家就跟李平要“零花钱”，李平暗暗一算，平均一个月要跟他要1万元左右的钱，觉得不太正常。后面就开始不愿意给了。而刘娜觉得之前都慷慨大方对自己很好的李平，结婚后开始变得抠门计较，同时两人很多方面的观念和想法都不同，刘娜觉得李平并不是真的爱她。两人矛盾日益加深，刘娜照旧时不时和李平要钱，刘平越来越觉得反感，开始拒绝给钱。而刘娜看李平不给她钱花，躲去外地，家都不肯回来了。男方要求女方退回聘礼双方对簿公堂李平家人找刘娜家人协商分手事宜，其中特别强调，刘娜不肯在李家生活，这场婚礼不作数了，两人要分手，所以刘家应该把聘金退回来。刘娜和李平婚后感情不和，经常争执吵架的事情，刘娜家人也都知道，嘴巴说既然无法共同生活，那就分开，也说过会把钱退还给李家。然而这仅仅是嘴巴说说，李家催讨多次，刘家也没有实际行动。无奈之下，今年10月，李平一纸诉状将刘娜告上法庭，请求法院判令被告刘娜返还聘金21万元、敬茶红包3万元，并赔偿损失2万元。接到诉状后，刘娜父母觉得很憋屈，跟法官哭诉刘平没良心，自己把宝贝女儿嫁过去，没想到遇到个白眼狼。“我们嫁女儿的时候，还陪嫁了车子等嫁妆、另外我们参与举办了酒席、分发了喜糖，这里就花去7万元，说到敬茶红包，那也是咱们女儿辛辛苦苦一个个跪着敬茶得来的，现在男方连家门也不让女儿进，反而起诉要求返还聘金、敬茶红包，并赔偿损失，真的没有道理，难以接受。”刘娜父母说自己心都要碎了。李平的父母也跟法官诉苦。“儿子娶媳妇不容易，儿媳家都不肯回，只想着跟咱家要钱，多的时候一个月零花钱讨要上万元，这样的媳妇真的娶不起。况且我们现在只是要回属于自己的钱，名正言顺!”两人没有登记结婚手续法院促成刘家返还一半聘金经办法官卢小挺把双方当事人及长辈都叫了过来，大家坐下来，心平气和地算了算彼此的账目。“为了这场婚礼，男女双方都付出了很多，开销也都很大。男方花了很多钱，女方也花了不少，包括嫁妆啊，喜糖啊。所以现在要求女方把全部聘金都退还，这个不太公平吧?”卢小挺当起和事佬，给双方讲道理，解释相关法律，双方都听得直点头。最终，双方和平分手，并且达成协议，女方返还一半左右的聘金，也就是13万元。卢小挺表示，李平和刘娜两人没有办理结婚手续，所以在法律上，两人不算真正意义上的夫妻。“如果两人正式登记结婚了，那么这笔聘金钱就不能提出返还了，因为夫妻双方成婚后，这些聘金就是双方共有财产了。”本文来源：钱江晚报责任编辑：谷莹_NN6577",
    "PublishTime": "12/27/201711:25:15",
    "URL": "http://news.163.com/17/1227/11/D6LKDOHS0001875P.html",
    "Title": "相识20天闪婚!男子后悔要女方退聘礼:她当我取款机_网易新闻",
    "KeyWords": "聘金,聘礼,结婚,闪婚",
    "Source": "Netease"
}