{
    "PublishTime": "12/31/201709:10:28",
    "Source": "Netease",
    "Comment": {
        "Content": "受不了我一看到这种东西心里就发毛 养五毒是什么梗？ 该。 孕母蜘蛛 人类对蜘蛛的恐惧是与生俱来的 变态 密集恐惧症的我表示毛骨悚然 猪八戒喜欢和蜘蛛精一起洗澡 养这个不做噩梦吗[惊讶] 有钱 还有蜜蜂、马蜂也很可怕 该。 还有蜜蜂、马蜂也很可怕 特么和这些蜘蛛精同处一室怎么睡的着啊！ 春三十娘，已撸 肯德基豪华午餐咋没人更新了 密集恐惧症的我表示毛骨悚然 养这个不做噩梦吗[惊讶] 喜欢蜘蛛的不知道都是啥人，这么恐怖的东西也养，太吓人了[被黑][被黑] 受不了我一看到这种东西心里就发毛 都快变蜘蛛精了 养五毒是什么梗？ 孕母蜘蛛 还没把你自己烧了，真幸运。 猪八戒喜欢和蜘蛛精一起洗澡 变态 太强壮了点..再瘦点就会更好看...因为蜘蛛侠在电影和动画里都是很瘦的... 圣母王鼎 人类对蜘蛛的恐惧是与生俱来的 1只1年500年 肥美多汁，可以成为金拱门招牌套餐：蜘蛛堡 有钱 ",
        "Link": "http://comment.news.163.com/news_shehui7_bbs/D6VM9RA00001875P.html",
        "Total": 156,
        "Reply": 22
    },
    "Article": "（原标题：“蜘蛛侠”6年培养近500蜘蛛，因一场火几乎团灭）现代快报讯12月20日20点，苏州吴江城南派出所接到一个房东的电话报警，说家里租客的房间着火了！值班民警和消防队员双双出动，赶到现场灭火。所幸发现的早，火势并不大，很快被扑灭。吴江警方供图但是，在勘察现场的时候，民警发现在起火点有一个两层的架子，架子底层有几个塑料盒已经被烧毁。处警民警被吓了一大跳，仅存十几个盒子里面装的竟然是五颜六色，鸡蛋大小的蜘蛛！吴江警方供图正当民警拿这些不知有没有\"毒\"的蜘蛛不知如何处置时，租客小刘接到通知赶了回来。原来，几年前，小刘在工作之余偶然接触到\"宠物蜘蛛\"，于是便想做这个生意。不过，虽然这种蜘蛛在网上销路很好，但养殖起来却要花费不少的人力和物力，不但\"饲料\"很贵，而且养殖条件也并不简单。在近6年的时间里，小刘每年都会从国外买一些蜘蛛回来，这样陆陆续续，才在租房里培养出近500只\"宠物蜘蛛\"，这些小东西都可以参加上海\"爬展\"活动。现代快报记者了解到，由于这些蜘蛛最佳的生活环境是在30度左右，这些天吴江天气寒冷，小刘便为这些蜘蛛置办了保温棚架子，并在保温棚底层铺上了电热毯。为了能让蜘蛛在恒温下生长，每天早上小刘出门上班都没有将电热毯关掉，不想这个举动酿成了火灾，小刘用心血养殖的\"宠物蜘蛛\"付之一炬。本文来源：现代快报作者：高达责任编辑：李天奕_NN7528",
    "URL": "http://news.163.com/17/1231/09/D6VM9RA00001875P.html",
    "Title": "\"蜘蛛侠\"6年培养近500只蜘蛛 因一场火几乎\"团灭\"_网易新闻",
    "KeyWords": "蜘蛛,宠物,养殖,蜘蛛侠"
}