{
    "URL": "http://ent.163.com/photoview/00AJ0003/646993.html",
    "Article": "基因太强大杨幂高圆圆从小美到大的女星在娱乐圈有些女艺人真的是从小美到大，对比童年照和现在的照片，只能感叹基因真的太强大，美人胚子就是不一样！",
    "KeyWords": "杨幂,",
    "Source": "Netease",
    "Comment": {
        "Reply": 59,
        "Content": "杨幂小时候像个洋娃娃 放张才出生的照片试试，谁也不认识谁 第二张都谁啊，放上来蹭热度 是吗 我怎么觉得高圆圆最丑呢！近几年就靠微整整成现在这样 都是服气的 不好看 是的，高圆圆可能是最近几年洗白微整最成功的了吧 爱我的幂姐 三岁看六十，哈哈！可以这么说的哦 主要是你长大后脸皮越来越厚了！ 女大18变，小女生越长越漂亮！ 苏乞儿时真的可爱。 那不很正常吗，很多都是小时候特好看人人夸，长大就不行了…杨幂不整容也是一样丑 杨幂和小时候一样。长得很可爱。 高圆圆，土包子，小三洗白，村逼 圆圆呢？ 童年照片，最美还得是关之琳！ 舒畅最好看 杨幂和金铭尤其是金铭，小时候真好看。金铭一点儿没动过，杨幂整颌了反而不好看了点，因为嘴不该太瘪了，切两边就行，非要去四颗牙床骨。高圆圆小时候不是非常好看，不过还可以。 小时候长的好真的不代表长大长的好啊。。。。 杨幂高圆圆都是后来多少次微调才这样的，以前一个嫩牛五方一个大饼脸 舒畅最美 杨幂挺漂亮，但嫩牛五方脸变成少牙的缩腮脸真的是因为拔了两颗牙？太平公主变成波霸也是因为刘恺威的按摩手法？？？？ 你呢？键盘侠？ 应该有王子文 我也是长大就残了 因为她是后来微整的 最有名的就属杨幂了 高圆圆变化这么大？？双眼皮都完全不一样 杨幂是照着自己小时候整的 以高圆圆的童年照看现在，真的有点基因突变 终于有人跟我一样了 整容成功了。但也改不了她万年小三的名 刘亦菲好看 丑小鸭变天鹅 我怎么觉得我小时候比他们都好看，长大怎么不好看啦，哈哈哈哈哈 你是猴子请来的救兵吗？ 123 从来不觉得舒畅好看，其他几位还是不错 还是圆圆更美 来衣裳街求看[色色][色色][色色] 那是高圆圆小时候吗…… 刘亦菲小时候最好看啊 杨幂小时候像个洋娃娃 放张才出生的照片试试，谁也不认识谁 第二张都谁啊，放上来蹭热度 是吗 我怎么觉得高圆圆最丑呢！近几年就靠微整整成现在这样 都是服气的 小时候有同学对着金铭的电视xxx 不好看 是的，高圆圆可能是最近几年洗白微整最成功的了吧 那是高圆圆小时候吗…… 三岁看六十，哈哈！可以这么说的哦 都是女神都是女神。个个都漂亮。 主要是你长大后脸皮越来越厚了！ 女大18变，小女生越长越漂亮！ 苏乞儿时真的可爱。 那不很正常吗，很多都是小时候特好看人人夸，长大就不行了…杨幂不整容也是一样丑 杨幂和小时候一样。长得很可爱。 高圆圆，土包子，小三洗白，村逼 童年照片，最美还得是关之琳！ 我也觉得 高圆圆变化这么大？？双眼皮都完全不一样 整容成功了。但也改不了她万年小三的名 没发现，还是很可爱，漂亮。 应该有王子文 杨幂高圆圆都是后来多少次微调才这样的，以前一个嫩牛五方一个大饼脸 以高圆圆的童年照看现在，真的有点基因突变 舒畅最美 杨幂挺漂亮，但嫩牛五方脸变成少牙的缩腮脸真的是因为拔了两颗牙？太平公主变成波霸也是因为刘恺威的按摩手法？？？？ 你呢？键盘侠？ 你如果也是明星了自然就也好看了…原因你懂的 我也是，众多明星里很普通的一个，总吹她不爱炒作不潜规则要不然早红了巴拉巴拉 高圆圆小时候腮帮子真大 我要看卑鄙 爆照啊爆照，不爆照谁信 拔牙确实会把脸弄凹，拔的后嗓牙，不过真拼啊，明星为了美，什么都敢做 丑小鸭变天鹅 因为她是后来微整的 艹的太少了，来叔叔教你 我也是长大就残了 最有名的就属杨幂了 杨幂是照着自己小时候整的 杨幂是自己整残了。。。 终于有人跟我一样了 小时候长的好真的不代表长大长的好啊。。。。 从来不觉得舒畅好看，其他几位还是不错 后来整了 她还不是樱桃小嘴？ 我怎么觉得我小时候比他们都好看，长大怎么不好看啦，哈哈哈哈哈 你是猴子请来的救兵吗？ 中国网民基本就是煞笔，的代名词。 刘亦菲好看 还是圆圆更美 来衣裳街求看[色色][色色][色色] 爱我的幂姐 刘亦菲小时候最好看啊 以高圆圆的童年照看现在，真的有点基因突变 123 舒畅最好看 杨幂小时候像个洋娃娃 杨幂和金铭尤其是金铭，小时候真好看。金铭一点儿没动过，杨幂整颌了反而不好看了点，因为嘴不该太瘪了，切两边就行，非要去四颗牙床骨。高圆圆小时候不是非常好看，不过还可以。 小时候不好看 长大后像嫩牛五方 圆圆呢？ ",
        "Total": 845,
        "Link": "http://comment.ent.163.com/ent2_bbs/PHOTJNQH000300AJ.html"
    },
    "PublishTime": "12/31/201708:36:03",
    "Title": "基因太强大  杨幂高圆圆从小美到大的女星_网易娱乐"
}