{
    "Article": "（原标题：印度米格-29K战机起飞时着火飞行员弹出逃生）米格-29K战机海外网1月3日电据印度ANI电视台报道，印度果阿机场发生一起飞机起火事故，一位见习飞行员驾驶的米格-29K战机在离开跑道时发生火灾，飞行员弹出驾驶舱后逃生，目前火灾已经被扑灭，事发机场跑道被关闭。据悉，米格-29K战机是印度航母配备机型。米格-29K战机据悉，俄罗斯与印度是军事技术合作领域的大型伙伴，印度陆海空军70%以上武器装备为俄制或苏制。印度空军目前正在使用900多架俄制军机，包括米格-21、米格-29(以及舰载版米格-29K/Kub)和苏-30MKI战斗机，以及伊尔-76军用运输机和伊尔-78加油机等。本文来源：海外网作者：刘强责任编辑：李杭_BJS4645",
    "URL": "http://news.163.com/18/0103/15/D783IJQJ0001899N.html",
    "KeyWords": "米格,印度,战机,逃生",
    "PublishTime": "01/03/201815:36:22",
    "Title": "印度米格-29K战机起飞时着火 飞行员弹出逃生_网易新闻",
    "Comment": {
        "Content": "飞行员得记大功了，没摔下来已经很棒棒了 发射干扰弹,机动逃离...或者更简单点,直接弹射 鹅胬真是无脑可笑，到处骂美国是搅屎棍，美国是棍，谁是屎？不带这样骂自己吧？ 苏系战机是飞行的棺材，名不虚传。 飞行员得记大功了，没摔下来已经很棒棒了 发射干扰弹,机动逃离...或者更简单点,直接弹射 抛出干扰弹,然后大过载机动躲避. 鹅胬真是无脑可笑，到处骂美国是搅屎棍，美国是棍，谁是屎？不带这样骂自己吧？ 苏系战机是飞行的棺材，名不虚传。 ",
        "Link": "http://comment.news.163.com/news2_bbs/D783IJQJ0001899N.html",
        "Total": 51,
        "Reply": 5
    },
    "Source": "Netease"
}