{
    "URL": "http://ent.163.com/18/0101/18/D73A26N100038FO9.html",
    "Title": "马苏力挺李小璐作证人 网友嘲笑：口供没串好_网易娱乐",
    "KeyWords": "李小璐,马苏,贾乃亮",
    "Article": "全民星探1月1日报道2017年的最后一天，“李小璐夜宿嘻哈歌手PGOne家，两人亲密过夜”的消息在网络炸锅。这简直是继白百合出轨小鲜肉之后又一重磅消息。不过消息被爆出不久，PGOne就出来澄清，自己把贾乃亮当亲哥，当然把李小璐当亲嫂子对待了！只是略显苍白的声明，并未解释李小璐到家里过夜的事情原由，没有太大的说服力。31日下午，贾乃亮也发布微博回应此事，称：相信老婆李小璐的为人，也信任他的所有朋友，相信一切都很美好，并祝大家新年快乐。随后不久，李小璐也发出声明：当天晚上一共5个人，除了万万和他弟弟我们三人以外，还有马苏和一个编剧朋友，我走的时候她们还在。李小璐这则声明完美解释了自己的并没有和PGOne独处，而且还拉出了圈内目击证人——马苏。当晚跨年晚会，李小璐贾乃亮夫妇也亲密牵手，似乎在告诉观众，他们很好。31号晚上，马苏在微博发出一张微信截图。并配文：万万是我们的亲弟弟，聚餐负责给我们拍照，喝多替我们提包。并祝福大家新年快乐。而微信截图中，是马苏发给贾乃亮的道歉截图，信息写明当晚她约了导演到店里吃饭，后来吃完后喝了酒，在万家睡着了。划重点！李小璐声明有另一个编剧在场，而马苏却说约了导演吃饭。有网友马上发现两人的口供对不上了！网友梳理了两人声明的逻辑，认为就算退一万步说，李小璐跟别人商量电影，但马苏没参与讨论电影，并且看了看电影喝酒睡着了，那马苏和“编剧”朋友去PGOne家干嘛？不得不说，真心梳理得很仔细。而且仔细回顾爆料视频，似乎两人还忽略澄清李小璐和PGOne亲密牵手一事。不知道接下来，关于这一点，李小璐和PGOne会不会有进一步的解释呢？也有网友认为，因为这次马苏和李小璐的澄清，接下来两人是要和编剧、导演合拍一部电影了！又或许大胆地猜测，这次声明是两人为了“嘻哈题材电影”预热呢！正如同贾乃亮说的，相信一切都很美好！本文来源：全民星探责任编辑：李彤_NK4455",
    "Source": "Netease",
    "PublishTime": "01/01/201818:53:33",
    "Comment": {
        "Link": "http://comment.ent.163.com/ent2_bbs/D73A26N100038FO9.html",
        "Reply": 181,
        "Content": "兩個男攪屎棍 马舒，你如果不帮我澄清的话我就把你也抖出来 我在床底下都看到了，我可以证明 只要器大活好，颜值都不是问题 大家好，我是PGONE，请大家欣赏我的新rap《好吃不过饺子》：<br>comeon！<br>乃亮大哥，有些话不能多说。<br>你家的饺子味道真不错！<br>你的头发有点绿。<br>你的眼神有点忧郁。<br>你的人生就像言情剧。<br>哦，爸爸去哪儿了。<br>哦，嫂子去哪儿了。<br>嫂子和兄弟一起去哪儿了。<br>她挽着我的手。<br>她搂着我的头。<br>她把白白的饺子塞到我的口。<br>她在我的身下尽情的嘶吼。<br>one！two！three！four！<br>two！two！three！four！<br>three！two！three！four！<br>onceagainoh～yeah～<br>和我一起说唱！<br>嘿，乃亮！<br>不仅你的奶亮，你的头也亮！<br>嫂嫂说去做头发，我的小名就叫头发！<br>你天天喊我弟弟，嫂嫂也喊我弟弟，我还有个弟弟！<br>嫂嫂玩着你的弟弟，还玩着我的弟弟！<br>就问你刺不刺激！yeah！ 这么一群人聚一起，没准儿吸毒呢！某万不就是个毒鬼吗？ 大家好，我是PGONE，请大家欣赏我的新rap《好吃不过饺子》：<br>comeon！<br>乃亮大哥，有些话不能多说。<br>你家的饺子味道真不错！<br>你的头发有点绿。<br>你的眼神有点忧郁。<br>你的人生就像言情剧。<br>哦，爸爸去哪儿了。<br>哦，嫂子去哪儿了。<br>嫂子和兄弟一起去哪儿了。<br>她挽着我的手。<br>她搂着我的头。<br>她把白白的饺子塞到我的口。<br>她在我的身下尽情的嘶吼。<br>one！two！three！four！<br>two！two！three！four！<br>three！two！three！four！<br>onceagainoh～yeah～<br>和我一起说唱！<br>嘿，乃亮！<br>不仅你的奶亮，你的头也亮！<br>嫂嫂说去做头发，我的小名就叫头发！<br>你天天喊我弟弟，嫂嫂也喊我弟弟，我还有个弟弟！<br>嫂嫂玩着你的弟弟，还玩着我的弟弟！<br>就问你刺不刺激！yeah！ 大家好，我是奶亮，请大家欣赏我得rap，《那是你嫂子》。<br>hey！昨天回到家<br>老婆不在家，<br>打电话说她在弄头发<br>我打开直播，脸上笑呵呵<br>谁知早上睡醒你们全都对我说！<br>你得小鹿！<br>夜不归宿！<br>偷偷跑到别人家练习rap<br>我说兄弟打住<br>那是我得媳妇<br>我得兄弟我得媳妇全都靠得住！<br>嘴上说的逞强！<br>心里很是慌张！<br>打开手机，看看消息<br>安慰我的居然还有王宝强<br>他说冬天来了<br>兄弟挺住<br>就算脑袋上长了一颗参天大树！ 李小璐下面好吃得很 璐出马脚，贾装没事，万没想到，卓实厉害 董洁又不是婚内出轨 人家年轻活好时间长 贾乃亮颜值甩批几万几条街，大姐偷吃能找个好看点的吗[微笑] 上个嘻哈节目觉得自己是杠把子，轻狂高傲各种diss，口口声声real的大骗子，忽悠铁子联系嫂子，真他妈狗篮子，伤了成千上万的迷妹子，却选择个小婊子，伤风败俗的小屌丝玷污了这个圈子，今后还想闯成个啥样子，赶紧收拾好你的的票子，快快滚犊子！ 在这之前小g娜都有爆料，挿刀李小璐曾经给炮王Kris发过暧昧短信。越来越觉得小g娜真的算得上有良心的爆料人了，简答直接，可信度极高。 大家好，我是PGONE，请大家欣赏我的新rap《好吃不过饺子》：<br>comeon！<br>乃亮大哥，有些话不能多说。<br>你家的饺子味道真不错！<br>你的头发有点绿。<br>你的眼神有点忧郁。<br>你的人生就像言情剧。<br>哦，爸爸去哪儿了。<br>哦，嫂子去哪儿了。<br>嫂子和兄弟一起去哪儿了。<br>她挽着我的手。<br>她搂着我的头。<br>她把白白的饺子塞到我的口。<br>她在我的身下尽情的嘶吼。<br>one！two！three！four！<br>two！two！three！four！<br>three！two！three！four！<br>onceagainoh～yeah～<br>和我一起说唱！<br>嘿，乃亮！<br>不仅你的奶亮，你的头也亮！<br>嫂嫂说去做头发，我的小名就叫头发！<br>你天天喊我弟弟，嫂嫂也喊我弟弟，我还有个弟弟！<br>嫂嫂玩着你的弟弟，还玩着我的弟弟！<br>就问你刺不刺激！yeah！ 男的长这么丑 马苏这是现代版王婆啊 发现猥琐的网友真不是一般多！什么时候能出网络实名制，看着这些评论都恶心 当年好像还没有和潘粤明办完离婚手续吧？双方正在互撕状态 我就不明白了马苏为什么要趟这趟混水 3Ｐ过后，一条船上的，谁都要帮着谁 马苏好恶心 自古娱乐无纯娘，奸夫淫妇一行行。偶有几对野鸳鸯，也是野鸡陪色狼。 马苏你就别掺和了行不。。。 一楼是皮粉 那是我 我神勇小钢炮出去嫖个娼回来必须看到有10个赞，不然就捶死在座各位 性格比较重要 对于已婚妇女来说活好最重要 恶心就别看 想想董洁，这个真不是事儿 一樓為什麼不實名 绝对出轨了 看你说完董姐，想到大痣，我就吐了。 心疼亮哥，不想说话，不相信爱情了 除了性格，尺寸重要，技术重要，还是脸重要 李小璐出轨妥妥的，因为我那一晚上和她翻云覆雨滚床单，累得半死！ 有没有妹子出来鉴证一下，对于你们来说，尺寸重要，技术重要，还是脸重要 网络实名你个傻逼?回到清朝是吧，一楼真他么傻逼。一楼是不是只喜欢看“正能量”，那去看新闻联播啊，来什么网易。 大家好，我是PGONE，请大家欣赏我的新rap《好吃不过饺子》：<br>comeon！<br>乃亮大哥，有些话不能多说。<br>你家的饺子味道真不错！<br>你的头发有点绿。<br>你的眼神有点忧郁。<br>你的人生就像言情剧。<br>哦，爸爸去哪儿了。<br>哦，嫂子去哪儿了。<br>嫂子和兄弟一起去哪儿了。<br>她挽着我的手。<br>她搂着我的头。<br>她把白白的饺子塞到我的口。<br>她在我的身下尽情的嘶吼。<br>one！two！three！four！<br>two！two！three！four！<br>three！two！three！four！<br>onceagainoh～yeah～<br>和我一起说唱！<br>嘿，乃亮！<br>不仅你的奶亮，你的头也亮！<br>嫂嫂说去做头发，我的小名就叫头发！<br>你天天喊我弟弟，嫂嫂也喊我弟弟，我还有个弟弟！<br>嫂嫂玩着你的弟弟，还玩着我的弟弟！<br>就问你刺不刺激！yeah！ 没办法，李金莲已经点名马苏了，毕竟一个圈子的，低头不见抬头见，不出来接着说不过去，万一哪天也需要人家帮着遮盖丑事呢？娱乐圈就是你睡他老婆，他睡你老婆，大家乱来，所以互相帮衬说谎是必须的。 我在窗帘边的躲着也看见了 全民大侦探....有这个本事去查贪官，去查犯罪...查出来让人家离婚了这些网友能能发财还是能升天？ 没办法，李金莲已经点名马苏了，毕竟一个圈子的，低头不见抬头见，不出来接着说不过去，万一哪天也需要人家帮着遮盖丑事呢？娱乐圈就是你睡他老婆，他睡你老婆，大家乱来，所以互相帮衬说谎是必须的。 人家说的是戏外 这么一群人聚一起，没准儿吸毒呢！某万不就是个毒鬼吗？ 大家好，我是PGONE，请大家欣赏我的新rap《好吃不过饺子》：<br>comeon！<br>乃亮大哥，有些话不能多说。<br>你家的饺子味道真不错！<br>你的头发有点绿。<br>你的眼神有点忧郁。<br>你的人生就像言情剧。<br>哦，爸爸去哪儿了。<br>哦，嫂子去哪儿了。<br>嫂子和兄弟一起去哪儿了。<br>她挽着我的手。<br>她搂着我的头。<br>她把白白的饺子塞到我的口。<br>她在我的身下尽情的嘶吼。<br>one！two！three！four！<br>two！two！three！four！<br>three！two！three！four！<br>onceagainoh～yeah～<br>和我一起说唱！<br>嘿，乃亮！<br>不仅你的奶亮，你的头也亮！<br>嫂嫂说去做头发，我的小名就叫头发！<br>你天天喊我弟弟，嫂嫂也喊我弟弟，我还有个弟弟！<br>嫂嫂玩着你的弟弟，还玩着我的弟弟！<br>就问你刺不刺激！yeah！ 1L想想婊子董洁都能出轨王大治，然后反诬潘粤明烂赌吸毒。呵呵，王大治和潘粤明颜值TM的一个是远古大猩猩一个是帅哥，不还是选了大猩猩。 我在马桶里，天天喝骚气得很 我在床底下都看到了，我可以证明 贾乃亮颜值甩批几万几条街，大姐偷吃能找个好看点的吗[微笑] 马叔，令辉叫你回家吃鸡 我就不明白了马苏为什么要趟这趟混水 pgone是个什么东西？什么人都能上新闻头条？李小露这是要立牌坊？奶亮，醒醒帽子忒绿了 马苏你就别掺和了行不。。。 一楼是皮粉 我神勇小钢炮出去嫖个娼回来必须看到有10个赞，不然就捶死在座各位 1L想想婊子董洁都能出轨王大治，然后反诬潘粤明烂赌吸毒。呵呵，王大治和潘粤明颜值TM的一个是远古大猩猩一个是帅哥，不还是选了大猩猩。 大治 1L想想婊子董洁都能出轨王大治，然后反诬潘粤明烂赌吸毒。呵呵，王大治和潘粤明颜值TM的一个是远古大猩猩一个是帅哥，不还是选了大猩猩。 只要器大活好，颜值都不是问题 pg：嫂子，这个星期日你有空吗？ 也许就是他本人 大治 人家年轻活好时间长 他们一堆人，谁都没解释清楚李小璐为啥住在PG家！就算马苏真的在场睡PG家了，那跟李小璐不回家啥关系！自己是已婚女士，主人一男的家，自己想想合适嘛？？这跟关系好不好没啥关系！！ 李小璐出轨妥妥的，因为我那一晚上和她翻云覆雨滚床单，累得半死！ 发现猥琐的网友真不是一般多！什么时候能出网络实名制，看着这些评论都恶心 男人帅其实不重要，重要的是持久力，不吃药不打针不用兴奋剂的一个小时以上的能有几个人，算我一个。 群P了一围二还是二围一。 一直觉着李小璐不错，这是闹哪出呢 友尽 年轻呀 马舒，你如果不帮我澄清的话我就把你也抖出来 1L想想婊子董洁都能出轨王大治，然后反诬潘粤明烂赌吸毒。呵呵，王大治和潘粤明颜值TM的一个是远古大猩猩一个是帅哥，不还是选了大猩猩。 当时我正拿着摄像机录影 Pgone是谁啊小璐玩久了老腊肉也要尝下小鲜肉 恶心就别看 这不是爱情，别玷污这两个字 哈哈哈。我也想说这个话 如果是真的，女儿不是很可怜吗[可怜] 21秒声纹测试，“不要拍了，不要拍了，拍太多了”-----这视频的事没人提了？ 21秒声纹测试，“不要拍了，不要拍了，拍太多了”-----这视频的事没人提了？ 璐出马脚，贾装没事，万没想到，卓实厉害 李小路要是出轨了，那是真该骂了 马苏好恶心 为什么不来张五个人的合照呢？ 哦恶心🤢 网络实名你个傻逼?回到清朝是吧，一楼真他么傻逼。一楼是不是只喜欢看“正能量”，那去看新闻联播啊，来什么网易。 肯定新电影要上了 好看有个几把用，能干才是硬道理 大家好，我是PGONE，请大家欣赏我的新rap《好吃不过饺子》：<br>comeon！<br>乃亮大哥，有些话不能多说。<br>你家的饺子味道真不错！<br>你的头发有点绿。<br>你的眼神有点忧郁。<br>你的人生就像言情剧。<br>哦，爸爸去哪儿了。<br>哦，嫂子去哪儿了。<br>嫂子和兄弟一起去哪儿了。<br>她挽着我的手。<br>她搂着我的头。<br>她把白白的饺子塞到我的口。<br>她在我的身下尽情的嘶吼。<br>one！two！three！four！<br>two！two！three！four！<br>three！two！three！four！<br>onceagainoh～yeah～<br>和我一起说唱！<br>嘿，乃亮！<br>不仅你的奶亮，你的头也亮！<br>嫂嫂说去做头发，我的小名就叫头发！<br>你天天喊我弟弟，嫂嫂也喊我弟弟，我还有个弟弟！<br>嫂嫂玩着你的弟弟，还玩着我的弟弟！<br>就问你刺不刺激！yeah！ 想想董洁，这个真不是事儿 床战三秒就不行，帅的掉渣你还觉的帅重要吗？ 都重要 大家好，我是PGONE，请大家欣赏我的新rap《好吃不过饺子》：<br>comeon！<br>乃亮大哥，有些话不能多说。<br>你家的饺子味道真不错！<br>你的头发有点绿。<br>你的眼神有点忧郁。<br>你的人生就像言情剧。<br>哦，爸爸去哪儿了。<br>哦，嫂子去哪儿了。<br>嫂子和兄弟一起去哪儿了。<br>她挽着我的手。<br>她搂着我的头。<br>她把白白的饺子塞到我的口。<br>她在我的身下尽情的嘶吼。<br>one！two！three！four！<br>two！two！three！four！<br>three！two！three！four！<br>onceagainoh～yeah～<br>和我一起说唱！<br>嘿，乃亮！<br>不仅你的奶亮，你的头也亮！<br>嫂嫂说去做头发，我的小名就叫头发！<br>你天天喊我弟弟，嫂嫂也喊我弟弟，我还有个弟弟！<br>嫂嫂玩着你的弟弟，还玩着我的弟弟！<br>就问你刺不刺激！yeah！ 心疼亮哥，不想说话，不相信爱情了 脸重要[羞羞] 厉害了 大家好，我是PGONE，请大家欣赏我的新rap《好吃不过饺子》：<br>comeon！<br>乃亮大哥，有些话不能多说。<br>你家的饺子味道真不错！<br>你的头发有点绿。<br>你的眼神有点忧郁。<br>你的人生就像言情剧。<br>哦，爸爸去哪儿了。<br>哦，嫂子去哪儿了。<br>嫂子和兄弟一起去哪儿了。<br>她挽着我的手。<br>她搂着我的头。<br>她把白白的饺子塞到我的口。<br>她在我的身下尽情的嘶吼。<br>one！two！three！four！<br>two！two！three！four！<br>three！two！three！four！<br>onceagainoh～yeah～<br>和我一起说唱！<br>嘿，乃亮！<br>不仅你的奶亮，你的头也亮！<br>嫂嫂说去做头发，我的小名就叫头发！<br>你天天喊我弟弟，嫂嫂也喊我弟弟，我还有个弟弟！<br>嫂嫂玩着你的弟弟，还玩着我的弟弟！<br>就问你刺不刺激！yeah！ 网易就是喷子谣言黑子的聚集地？网络不一定都是正能量但是需要真实客观拒绝谩骂诋毁和谣传！ 贾乃亮虽然帅，但是不一定长啊 马舒，你如果不帮我澄清的话我就把你也抖出来 年轻呗 马苏要倒霉了 屁刚照相的pose就像个智障 3Ｐ过后，一条船上的，谁都要帮着谁 想必屁股万有过人的长处 把嘛去了 马苏这是现代版王婆啊 装NMD正经 我相信一切都很美好 大家好，我是PGONE，请大家欣赏我的新rap《好吃不过饺子》：<br>comeon！<br>乃亮大哥，有些话不能多说。<br>你家的饺子味道真不错！<br>你的头发有点绿。<br>你的眼神有点忧郁。<br>你的人生就像言情剧。<br>哦，爸爸去哪儿了。<br>哦，嫂子去哪儿了。<br>嫂子和兄弟一起去哪儿了。<br>她挽着我的手。<br>她搂着我的头。<br>她把白白的饺子塞到我的口。<br>她在我的身下尽情的嘶吼。<br>one！two！three！four！<br>two！two！three！four！<br>three！two！three！four！<br>onceagainoh～yeah～<br>和我一起说唱！<br>嘿，乃亮！<br>不仅你的奶亮，你的头也亮！<br>嫂嫂说去做头发，我的小名就叫头发！<br>你天天喊我弟弟，嫂嫂也喊我弟弟，我还有个弟弟！<br>嫂嫂玩着你的弟弟，还玩着我的弟弟！<br>就问你刺不刺激！yeah！ 编辑朋友没编好 一楼其实最恶心，一边撸管子，一边骂黄片 非要说的让人家离婚？考虑考虑甜馨 不要否定不辣的颜值 一楼喜欢快男[疑问] 再帅有毛用？关键不能高潮！你看日本AV里有几个男的帅的？ 群P？ 看你说完董姐，想到大痣，我就吐了。 pg太他妈的丑了能下得了嘴吗 女人三十如狼四十如虎五十坐地能吸吐六十吃肉不吐骨头，男人十八日立二十康佳三十微软四十松下五十联想六十三星奶茶如狼我正好日立请问奶量招经纪人吗 李小璐出轨妥妥的，因为我那一晚上和她翻云覆雨滚床单，累得半死！ 发现猥琐的网友真不是一般多！什么时候能出网络实名制，看着这些评论都恶心 忽然想起：她，还有董洁，会不会是男方生理方面不济啊？我感觉有这可能 任何时候,证人证言只能是佐证. 又一个不仁不义的小人，口口声声讲哥哥嫂子，结果做出些禽兽的事情，离婚吧。。 这男的是谁啊 他是滚 人妻喜欢活儿好的 上个嘻哈节目觉得自己是杠把子，轻狂高傲各种diss，口口声声real的大骗子，忽悠铁子联系嫂子，真他妈狗篮子，伤了成千上万的迷妹子，却选择个小婊子，伤风败俗的小屌丝玷污了这个圈子，今后还想闯成个啥样子，赶紧收拾好你的的票子，快快滚犊子！ 李小璐不整容还好，越整越丑啊 颠鸾倒凤，不知天地为何物。 假奶量长得帅!?一楼眼拙，我不怪你 大家好，我是奶亮，请大家欣赏我得rap，《那是你嫂子》。<br>hey！昨天回到家<br>老婆不在家，<br>打电话说她在弄头发<br>我打开直播，脸上笑呵呵<br>谁知早上睡醒你们全都对我说！<br>你得小鹿！<br>夜不归宿！<br>偷偷跑到别人家练习rap<br>我说兄弟打住<br>那是我得媳妇<br>我得兄弟我得媳妇全都靠得住！<br>嘴上说的逞强！<br>心里很是慌张！<br>打开手机，看看消息<br>安慰我的居然还有王宝强<br>他说冬天来了<br>兄弟挺住<br>就算脑袋上长了一颗参天大树！ 贾乃亮颜值甩批几万几条街，大姐偷吃能找个好看点的吗[微笑] 坐等后续 其实怎么说呢。明星离婚出轨真的太正常不过。因为首先挣钱容易，二是他们工作原因要拍戏工作，经常接触不同的异性。纵使都定力的人也不能很好的把控自己不被诱惑，有钱就会任性，生活太安逸平淡又不却金钱纵使他们都有高颜值。也会在婚姻中慢慢的变成亲情没有激情，然后就会想要寻找下一段爱情。我们普通人为什么会忍受婚姻爱情变淡因为我们需要生活，需要养家糊口，还能有什么心情去寻找激情。所以明星的婚姻和我们正常不一样 你是床单吗？ 其实马苏和贾乃亮有关系，小路说了你俩不给我作证咱就玉石俱焚吧 想想董洁，这个真不是事儿 你哥拿你当铁子，你却惦记你嫂子；你是嘻哈大手子，刚进娱乐圈就当浪子！你说过夜真的没啥子，真拿你亮哥当软柿子；你这品行真的狗篮子，赶紧他妈滚犊子！ 也是啊也可能花架子，中看不中X 哈哈哈 这智商也能混娱乐圈？ 恶心就别看 在新的一年里感谢娱乐圈身体力行给我们上演精彩情感伦理大戏从马蓉到今天的李小璐当然还有很多老艺人就不多少了一并感谢你们的精彩表演<br>然后祝福我们这些吃瓜群众身体健康继续活久见 绝对是出轨了，其他的解释都是空洞无力的，离婚吧，，，这种女的要来干嘛？ 哈哈哈哈 兩個男攪屎棍 都是造谣 大姐偷吃不看颜值，仅看是否好吃.... 哥，就算是充气的你也不能往死了用啊[微笑] 的确女人的高潮不是哪个男人都给得了的 你认为王大治长得好看吗？ 董洁又不是婚内出轨 贾乃亮颜值甩批几万几条街，大姐偷吃能找个好看点的吗[微笑] 还证人呢，我就不相信这两人啪的时候马苏也在场 别洗了这种绿是不掉色的，越洗只会更绿 男的长这么丑 草，，， 想想董洁，这个真不是事儿 当年好像还没有和潘粤明办完离婚手续吧？双方正在互撕状态 这马苏也不见得是好人 细思极恐 身体爽吧 粤明：够了！你们次次都把我忘了是几个意思啊？ 好玩的嫂子 是的，因为我是导演，我还是预言家，听说第二女主角在三楼，第二男主角在四楼，第三男主角在五楼，摄影师在六楼，灯光师在七楼，道具在八楼，副导演在九楼。 21秒声纹测试，“不要拍了，不要拍了，拍太多了” 21秒声纹测试，呵呵。 不是搅屎棍 舅服你吹牛逼的本领~ 呵呵 你这样说我篮球都打不好了 李小璐出轨妥妥的，因为我那一晚上和她翻云覆雨滚床单，累得半死！ 发现猥琐的网友真不是一般多！什么时候能出网络实名制，看着这些评论都恶心 真不觉得PG帅 禁止未满十八岁观看 哈哈 你真不懂呀。<br>你没听说过一个女的被三个绑匪绑了,女的选择了贼做她老公的故事？哈哈哈....... 贾乃亮:大家不要操心，正想找个机会把她休了，现在省不少事，都洗洗睡吧。 大家好，我是PGONE，请大家欣赏我的新rap《好吃不过饺子》：<br>comeon！<br>乃亮大哥，有些话不能多说。<br>你家的饺子味道真不错！<br>你的头发有点绿。<br>你的眼神有点忧郁。<br>你的人生就像言情剧。<br>哦，爸爸去哪儿了。<br>哦，嫂子去哪儿了。<br>嫂子和兄弟一起去哪儿了。<br>她挽着我的手。<br>她搂着我的头。<br>她把白白的饺子塞到我的口。<br>她在我的身下尽情的嘶吼。<br>one！two！three！four！<br>two！two！three！four！<br>three！two！three！four！<br>onceagainoh～yeah～<br>和我一起说唱！<br>嘿，乃亮！<br>不仅你的奶亮，你的头也亮！<br>嫂嫂说去做头发，我的小名就叫头发！<br>你天天喊我弟弟，嫂嫂也喊我弟弟，我还有个弟弟！<br>嫂嫂玩着你的弟弟，还玩着我的弟弟！<br>就问你刺不刺激！yeah！ 恶心就别看 一开始雇水军攻击Gai，我看成名后还是gai靠谱点 恶心死了 他玩坏了会赔给你的，你就放心吧！ 贾乃亮:要想生活过得去，头上必须带点绿!想想文章，想想宝强，想想羽凡，自己还可以吧! 人家老公都没意见，你们瞎掺和什么呢 很简单的道理，皮几万引诱李小璐吸毒了呗，吸了毒才会不在乎颜值 总有一些人成全着自己，让别人恶心着！还怪网友了！ 那是我 主要是新鲜啊 太年轻…活好比什么都好 我全程自己Rap唱出来来了哈哈哈哈哈原来我也可以说唱啊 马苏是为自己留点后路，不是口供没有对好 酸酸的味道 白天叫嫂子，晚上嫂子叫 浙江卫视垃圾是有原因的，看看1楼这个浙江人 绝对出轨了 马苏，你可就长点心吧 在这之前小g娜都有爆料，挿刀李小璐曾经给炮王Kris发过暧昧短信。越来越觉得小g娜真的算得上有良心的爆料人了，简答直接，可信度极高。 pig一号那么丑，李小璐就是骚贱 你的意思是王大治比潘粤明帅？ 应该是贪新鲜吧。。<br>据说贾追李追了好几年，李被感动才接受。感动不一定是爱呀，也可能是一时感动…… 活好 这对恶心人的两口子终于出事了 恶心就别看 小璐总算出轨了 大家好，我是PGONE，请大家欣赏我的新rap《好吃不过饺子》：<br>comeon！<br>乃亮大哥，有些话不能多说。<br>你家的饺子味道真不错！<br>你的头发有点绿。<br>你的眼神有点忧郁。<br>你的人生就像言情剧。<br>哦，爸爸去哪儿了。<br>哦，嫂子去哪儿了。<br>嫂子和兄弟一起去哪儿了。<br>她挽着我的手。<br>她搂着我的头。<br>她把白白的饺子塞到我的口。<br>她在我的身下尽情的嘶吼。<br>one！two！three！four！<br>two！two！three！four！<br>three！two！three！four！<br>onceagainoh～yeah～<br>和我一起说唱！<br>嘿，乃亮！<br>不仅你的奶亮，你的头也亮！<br>嫂嫂说去做头发，我的小名就叫头发！<br>你天天喊我弟弟，嫂嫂也喊我弟弟，我还有个弟弟！<br>嫂嫂玩着你的弟弟，还玩着我的弟弟！<br>就问你刺不刺激！yeah！ 一楼让我痛苦挣扎了半天，还是决定献出我2018年的处女骂…你个大沙壁 real 贾乃亮颜值甩批几万几条街，大姐偷吃能找个好看点的吗[微笑] 男的长这么丑 李小璐下面好吃得很 同感，皮鸡王和奶亮相比，真tm丑，李小璐看上他啥？ 自古娱乐无纯娘，奸夫淫妇一行行。偶有几对野鸳鸯，也是野鸡陪色狼。 小路操起来很爽的 嫂子照顾弟弟要打针 小璐乱撞，乱撞小璐，小撸小璐 编，使劲编！绿就绿了呗，娱乐圈，不绿就奇怪了，绿了反倒见怪不怪。哈哈哈。 才子 想想董洁，这个真不是事儿 马苏也是个婊子 好吃不过饺子，好玩不过嫂子，干了不敢承认，这样一点也不红花会，红花会的出现就是为了绿帽子带的更纯粹！黑夜不怕黑 它毛又黑又密！ 发现猥琐的网友真不是一般多！什么时候能出网络实名制，看着这些评论都恶心 为什么娱乐圈的这种事就是大新闻 过夜这件事怎么解释都没用 ",
        "Total": 3261
    }
}