{
    "Comment": {
        "Link": "http://comment.sports.163.com/sports2_bbs/D6IQSCO300058781.html",
        "Reply": 404,
        "Content": "你信不信挖温老四去曼联比272，374有用 娜娜不是喜欢免签球员，现在轮到自己了 鸟再怎么不堪，我还是觉得曼联要鸟不会要温格。 今天是12月26日，还过6天，374(或者他的经纪人）就可以和任何一家球会谈下个赛季的合同了，只要374坚持不在新合同上签字，夏天他就是自由身，根据欧洲足联的法规，娜娜还真的只有跺跺脚、干瞪眼的份，无可奈何！！！ 以前我也这么想，蓝狐夺冠那年我看明白了，这个老头还活在10年前，靠他的老观念是不可能拿冠军的。<br>这就跟爷爷奶奶带小孩一样，依靠老经验能不能把娃带大，当然可以，能不能把孙子一辈带的比儿子一辈强，有可能，但概率很低。 我总结一句哈：曼联还不怎么缺钱，暂时不需要赚钱教练 曼联的阵容给温格，温格就能把温老四帽子摔了。叫温老二。 桑切斯对不起阿森纳?看过球的都知道谁对谁错，谁没上进心? 行了吧，防守反击长传冲吊这种老甲A的战术还有人用呢，温格就淘汰了？至少战术还先进一点吧？ 虽说我不觉得温格有能力振兴曼联，但是拉什福德，马夏尔啥的在温老四手里肯定能涨球，在大巴🐦手下嘿嘿嘿😂 我只是觉得曼联的阵容不比曼城差，<br>犯不上找个大巴司机开车。 每个人去年都知道，夏天更加坚信，留不住桑切斯的，当时厄齐尔还觉得有一丁点可能，但前者根本不会留！他肯定去曼城，但怎么就温格这么天真固执！两个球员损失一亿转会费，近两千万的工资！还有士气。 起码温格允许对手庆祝 鸟来之前是你说的那样<br>可以鸟现在的表现，用好几亿的豪阵摆大巴。<br>这样可就不好说了 我一直不明白的是，一辈子没摸过大耳朵的人，怎么就是瓜鸟安这些人一个级别了？竞技体育是靠数据和荣誉说话的，齐秃子在菜鸟2年拿了温格同学几辈子拿不到的荣誉，还有人吹温格，我也是服了，天天喊着要节约要球员少拿钱，TM自己去一直涨工资，好像现在都上千万一年了吧。 你在说瓜秃？ 我很好奇，你们对温格的信心是哪来的？<br>说的好像温格近些年的失败全是因为钱少一样。有了钱温格就牛逼了，就能夺冠了？ 卖了不更烂了？ 进攻方面还有贝尔萨，我认为这个教练进攻方面太牛逼了 买卖东西就是这样，别人求着你要买的时候价格高开可以谈，等你甩卖的时候那没办法，价格肯定是低开至少打8折 智利明年没有世界杯，桑切斯更不怕你按板凳了，这种办法适合用于处于上升期长合同的球员，库蒂尼奥就害怕，桑切斯一年合同，一眨眼就过去了。 大腿明显是和下家暗中达成协议了，不像大眼卖力表现前路未明……😂 温格太温和了，不续约按替补一年你看桑切斯妥协不……现在只能按半年了……人家真不屌你 现在曼城根本没他位置，而且他年龄也不小了 桑切斯会同意签字做梦吧！夏天合同解约赚签字费还可以选俱乐部！把桑切斯当白痴吗？ 两千万爱要不要，等多半年免费拿下，两千万给球员签字费，气死温格 年年争四，人家怎么忠诚？ 把272，374挖来，曼联就行了 我信，可以和三德子一起开拓市场，一个赚钱一个赚利息[窃笑][窃笑] 去看大门吗 归根到底阿森纳就是老板抠才没成绩，温格能挣钱才留这么多年，别人上亿的砸钱，整个夏窗下来阿森纳转会支出居然是盈利的，争冠？我一个枪迷都不信。 这种事不好评论谁对谁错。 光有口号，没有血性，没有团队面貌，能拿🏆?枪手已经没了那股气了，每年就是争四争四争四好球员不走才怪 夏天卖掉了曼城成绩或许不会这样好 首先转会要桑切斯点头同意，不然强卖过去，3500W买半年合同？？没人有那么傻 球员不同意，俱乐部也又能为力。 算了吧，瓜和鸟争议虽然大，但是比温格高了好几个档次。瓜没来曼城之前就在巴萨证明过自己了，去了拜仁虽然没拿出顶级的表现但同期的拜仁不管联赛还是欧冠也比温格的阿森纳强多了。至于鸟，不用管人家摆不摆大巴打法难不难看，战绩在那摆着，不把阿森纳压的死死的？相互战绩温格被鸟打爆，鸟把曼联从欧联带到欧冠，温格把阿森纳欧冠带到欧联，就上样上面居然还有人说温格能和瓜鸟比也是醉了。 威望？乔丹的威望还更好，他现在打得过20岁的年轻人？没有人否定温格的过去和他的伟大，但现实就是他逐步被时代淘汰了，10年前是争冠的有力竞争者，5年前是坐4争3，现在呢，争4都吃力。这是现实。 半年合同卖35M?你在逗我? 冬窗谁买谁傻逼 卖个锤子，等到1月1日，374签了新工作合同，你破厂只有这半年合同的使用权，没有所有权了，你能卖个鬼啊。 说句实话，不管是温格和阿森纳，你感觉他们还有心气嘛？嘴巴吹吹吹我要拿冠军，但是干了些什么，这么多年同一个教练，够你宏伟规划大展蓝图了吧，你说你弄这么多年，最后越来越烂，大家都看得出你没气了你还嘴硬。躺功劳簿上躺十多年还不够啊？ 6000万你还不卖，结果现在降价3500，缩水快一半了。阿森纳是生意人，教授你干了这么多年还不明白？ 战术没有过时这一说，合理安排人，能赢就是好战术。现在温老四用人真的有点不太行了。 小德加现金你TM在逗我？小德年轻，有能力，还在上升期！会比不上一个年龄30，合同最后半年的374？ 反正曼城没有错，夏天6000都送上门了，交易没成曼城官方还痛骂娜娜一顿 都放替补。欧联都没资格了。看看今年英超的形势 “我奶奶跟着乔丹也能夺冠“--------奥尼尔。 我很好奇你们质疑Wenger，Wenger在教练圈子里的威望很高，你觉得你们比一群职业的教练还专业？ 你信不信挖温老四去曼联比272，374有用 呵呵呵，孤陋寡闻，这世界本就是多元化，有的人从科学角度看问题，有的从政治角度，有的从经济，财富角度。。。角度不同，自然得出不同结论，少见多怪者，当然理解不了，懒得说了 呵呵呵，恰好本人也支持拜仁，没觉得瓜在拜仁不成功，他为拜仁注入了新的打法，理念，就足以称成功！没欧冠只是遗憾！至于教练是否伟大，在于其对足球，尤其推进足球技战术，理念的进步，不在于是否有欧冠。鸟算个球，它有啥技战术创新？不过是几十年前意式防守足球而已，这种人可以称成功者，断不是伟大，它有屁的资格，和温格，瓜相提并论。成王败寇思想重了，压根不懂哪些人，才是真正推动历史进步，足球进步的伟大人物！只知道成吉思汗最伟大 首先转会要桑切斯点头同意，不然强卖过去，3500W买半年合同？？没人有那么傻 太便宜了吧！ 桑切斯对不起阿森纳?看过球的都知道谁对谁错，谁没上进心? 温格和瓜是攻势足球教练，鸟是防守足球教练，没有可比性，根本就是两类人，两类教练。教授之所以被诟病，成绩是硬伤，没啥好说滴，遗憾05之后，风华正茂，阿森纳实在穷，无法提供好的发展平台，自己也缺乏功利心，不忍弃阿森纳，放弃多次投皇马拜仁大巴黎的机会，确实无法证明自己实力了，不辩解。好在瓜决定做教练时，先到伦敦跟温格学了段时间，也算少许师徒关系，由他去证明吧 再点卖了 意思楼上是特殊球迷？和最特殊的那一个一路货色？哈哈哈哈哈 理亏了吧，开始胡BB了吧 自己说自己是粪也是厉害咯 挖老四来曼联要发生世界大战哦 温格整得其实一点也不多，只要他提出要求阿森纳就会满足他，但是桑切斯提出来要求阿森纳反而一直在还价。人家俱乐部傻吗，这个本质不是扣不扣的问题，本质就是阿森纳的理念 教授把娜娜坑了太多年了 四爷不会去的，恨曼联都牙根痒痒。 每年都盈利不每年涨工资？年年亏钱总不能涨工资吧？ 这世上没有谁是傻子除了小便以外，除了国足还没看到过有谁能做赔本的买卖！！ 小德加现金你TM在逗我？小德年轻，有能力，还在上升期！会比不上一个年龄30，合同最后半年的374？ 如果大家俱乐部竞争的话有可能，相当于多花3500w抢先机。 扔去青年队废了 曼城肯定不会要他了，曼城是要团队的，他一个人坏了一个队。 买了再卖也划算！ 教授的功力，很少人明白滴，多说也没用。老早说过，温格和瓜是战术水平，尤其攻击方面造诣最高的教练，其他的，都差一大截，很多人不以为然。幸好瓜去了好阵容球队，得以彻底证明，否则。。。可怜教授，死守阿森纳，真的难以证明自己了 拿欧冠的不一定伟大，但没拿过欧冠一定不伟大，带领一家顶级（非豪门）俱乐部几十年，然后连俱乐部最高荣誉的大耳朵都没摸过，也敢吹伟大？也敢和瓜鸟安放在一个级别，我去。楼上的牛角尖钻的不科学啊。瓜在拜仁为什么不成功？难道是冠军少了？还是成绩差了？德甲3连冠，其他冠军也拿到手软，但就是没有一个欧冠，这就是业界认为瓜在拜仁不算成功的原因（不算失败，但也不算成功），欧冠在楼上嘴里怎么感觉就像个鸡肋的社区盾杯一样的级别，感觉说话多好笑啊。 行了……记得有一场，阿森纳0比3落后一直挺弱的球队吧……最后吉鲁打进第3球……全队疯狂庆祝扳平……只有大腿疯了似的把球抱起跑到中圈，等待开球，然后懵逼似的看全队庆祝扳平……对于这种全队由内而外的无上进心……大腿真的是来错了地方…… 半年就已经可以和下家签约了，只不过下一个转会期开启才能走人而已。这个时候除非下家球队急需你，可以出一点钱让你提前转会过来。一般就是500万差不多了，最多1000。3500的都是恶意要价 半年合同，德拉克斯勒还加钱？ 374多忍半年，多拿至少2kw不是美滋滋? 垃圾阿森纳，误人前途，一群扶不起的废物！这锅谁背！ 把272，374挖来，曼联就行了 我去，你这境界吹的我差点信了，您老境界是火星来的吧。欧冠算个屁？我发觉键盘侠怎么吹起来宇宙都不够您呆的啊。温格都算伟大了？瓜在拜仁算成功？你看足球评论吗？一个网易键盘侠，搞你好像看得懂瓜帅的战术和理念一样的，快笑死我了，就是普通的足球教练员你都考不上的玩意，搞的自己还能看懂瓜的足球理念，我XX，我一点不吹，中国能看懂瓜的理念的还真没几个。 弄的一地鸡毛阿森纳确实不差钱这是真的 你的感觉表明你就是一个普通球迷…… 三德子抓紧啊，272和374，随便撸一个都行啊 季前先争冠，1亿都嫌少，现在啊，哈哈，2500w，最多了，不然，免费到我这来，下季度，夺冠，稳稳地。。 那帮人眼里，迪马特奥在切尔西拿了个冠军杯，这人水平太高了，秒杀一切没拿过欧冠的任何主教练！不服？你有欧冠吗？没有就闭嘴，迪马特奥就是牛 未来德国核心！ 季前1亿也不能卖给曼城啊，现在啊，3000W，求包养吧。。 心不在，走就走吧，对大家都有好处 温格已经老了 曼城真不该买桑切斯本来前场就没有高度了再加个1米6几的桑切斯真要把球传进球门吗另外阿森纳的要求太高了要么7000万磅要么加人不如不要留给温格让桑切斯身在曹营心在汉绝对是颗炸弹阿森纳今年保级吧。 楼上就是传说中的球迷VIP中P? 嗯，那球员涨下工资怎么就不行？你既然赚钱，球迷要求买大牌球员，这也合理吧，怎么舍不得？自己涨工资就舍得了？什么逻辑 这我信但爵爷已经退了 你信不信把弗格森挖去阿森纳比温老四好用 鸟从无名到有名，付出了很多，这个是承认的，<br>但鸟成名后，他那卑微的自尊心跟下三赖的人格却没法让他进入伟大的行列。<br>英超跟教授同期的，后来的，对温格都懂得最基本的尊敬<br>就算是爵爷，场下也没公开说过四爷一个不字，<br>甚至还力荐温格接班自己，当然教授自己回绝了。<br>再看腻了教授不败夺冠之后<br>请再仔细看看教授的不败阵容到底花了多少银子！！！！ 我只是觉得曼联的阵容不比曼城差，<br>犯不上找个大巴司机开车。 温格不等于阿森纳，如果没有教授，枪手也能够继续发展说的没错。但至少，没有教授、没有当年亨利，想必就没有一干持续至今的枪迷！教授好运，枪手好运，今年更上一层楼！～40年的老球迷。 6000万你还不卖，结果现在降价3500，缩水快一半了。阿森纳是生意人，教授你干了这么多年还不明白？ 嗯，那球员涨下工资怎么就不行？你既然赚钱，球迷要求买大牌球员，这也合理吧，怎么舍不得？自己涨工资就舍得了？什么逻辑 垃圾阿森纳，误人前途，一群扶不起的废物！这锅谁背！ 阿森纳球迷别慌，桑切斯真的是去帮温格挖人的 肯定有人买的 错，你当大腿是病猫？小德和大腿比差太多了 温经理果然 你信不信挖温老四去曼联比272，374有用 鸟来之前是你说的那样<br>可以鸟现在的表现，用好几亿的豪阵摆大巴。<br>这样可就不好说了 球员本人已无转会动力，熬多半年转会费变成签字费，这是多么美好的事 世界上有你不得不承认的七个事实。1:你不可以忍受肥皂水弄到眼睛里。2:你数不清你有多少根头发。3:当你舌头伸出来鼻子不能呼吸。4:你正在做第三条。5:当你做第三条的时候觉得是可行的。但你看起来像条狗。6:你现在在笑，因为我把你整了。能把我顶上去吗？我想看看天上的星星😃 去年欧冠太惨了 当时钱加斯特林 鸟粪：汪汪汪汪汪汪 留下桑切斯还能和利物浦争个四，卖了之后换谁呢？进了欧冠的奖金分成可比现在卖人多多了吧，温格这帐算得让人看不懂啊 因为他的性格是想到什么说什么，得罪人比较多，逆风就会被人踩。<br>其实无关紧要，他的带队成绩已经是这个世界上最好的几名教练之一。 确实如此！不过温格估计下半赛季会弃用桑切斯作为报复，甚至在最后两场比赛派上桑切斯，让队友做了桑切斯，让桑切斯既没有状态也没有表现。 留下桑切斯还能和利物浦争个四，卖了之后换谁呢？进了欧冠的奖金分成可比现在卖人多多了吧，温格这帐算得让人看不懂啊 教授你能不能前进一步？ 临期商品至少五折，再过一段时间就得送人了 英超传控打法最早就是温格的阿森纳，现在的阿森纳打法和以前相比粗糙了很多，主要是球员水平差强人意。当然，主要是没有其它豪门有钱的原因。 内部消息大中超已经买了 可以卖给其他家啊，比如拜仁。所以只要有能力不担心卖不出。 谁买 留下桑切斯还能和利物浦争个四，卖了之后换谁呢？进了欧冠的奖金分成可比现在卖人多多了吧，温格这帐算得让人看不懂啊 经常出工不出力，有怨气啊！卖了吧，大家都解脱了 要不，我魔把鸟下了，试一试[微笑]，现在什么都不想了，就想我魔赢球把一帮西甲来的巴狗嘴堵上，好好的足球板块全给搞得乌烟瘴气 温格当时的传控其实打得很好，奈何遇到暴发户和不要脸的伐木战术，以及“为建球场而还债”折中奇葩事，导致一年不如一年…… 当年的生产经理太过自信，现在好了，贬值要砸自己手里了😄 将熊熊一窝 教授你能不能前进一步？ 留下桑切斯还能和利物浦争个四，卖了之后换谁呢？进了欧冠的奖金分成可比现在卖人多多了吧，温格这帐算得让人看不懂啊 现在曼城根本没他位置，而且他年龄也不小了 桑切斯会同意签字做梦吧！夏天合同解约赚签字费还可以选俱乐部！把桑切斯当白痴吗？ 还剩半年合同谁买啊，合约到期直接就能省不少 年年争四，人家怎么忠诚？ 把272，374挖来，曼联就行了 我信，求你把他挖来！谢谢！ 阿森纳最应该卖掉的是这个教授，发觉已经有点老年痴呆症状了。 留下桑切斯还能和利物浦争个四，卖了之后换谁呢？进了欧冠的奖金分成可比现在卖人多多了吧，温格这帐算得让人看不懂啊 不信 活鸡吧该 八折374272这两铁定免费走人 争四赚钱？ 大把中超中甲土豪开始报价了已经 这是多无知才能说争冠跟教练水平没关系。之前范加尔花的少？鸟花的也少？难道瓜现在的优势单纯是花钱带来的效果？之前莱斯特城是靠了花钱了还是靠的裁判？<br>从始至终，一个联赛的冠军都是既看教练也看金钱。 这就是穆里尼奥今年踢的到处被骂的原因？ 教授你能不能前进一步？ 6000万不卖真潮 巴屎真是哪里都有啊！ 范加尓表示不服，有钱不一定会花。 冬窗谁买谁傻逼 哈哈哈哈 不信 买卖东西就是这样，别人求着你要买的时候价格高开可以谈，等你甩卖的时候那没办法，价格肯定是低开至少打8折 资历在那，年头在那自然有威望，那么大岁数白活啦，不过最重要的是这么个现成的送分童子在那谁不捧啊，参考范厨师和莫耶斯时代的曼联，谁都说是一家伟大的俱乐部，需要时间适应，其实就是不想让你走，你走了谁送分！！ 温格的优点是什么?坚持!温格的缺点是什么?固执！ 教授你能不能前进一步？ 教授你能不能前进一步？ 3500万中超大把球会抢，J马也能4000万，8000万也不是问题，特维斯周薪50万，难道中超没行家？ 你信不信挖温老四去曼联比272，374有用 娜娜不是喜欢免签球员，现在轮到自己了 呵呵 今天是12月26日，还过6天，374(或者他的经纪人）就可以和任何一家球会谈下个赛季的合同了，只要374坚持不在新合同上签字，夏天他就是自由身，根据欧洲足联的法规，娜娜还真的只有跺跺脚、干瞪眼的份，无可奈何！！！ 这就好比打工，明明平台更好，工资更高，团队更有追求，为什么不离开？卖给娜娜了？ 瓜迪奥拉可不这么认为，哈哈哈哈 讲真很适合曼巴 就那还有人赞。<br>免签自然是好，工资签字费你以为会少？ 我厂谁骂人了？就曼狗到处冒充人去BB 桑切斯会同意签字做梦吧！夏天合同解约赚签字费还可以选俱乐部！把桑切斯当白痴吗？ 我觉得温格更适合带钱少的小球会。 你还能打败拳王阿里呢 曾经，兵工厂是温格一人力撑，是英超经营最好的俱乐部之一，老板只管数钱 奇才那些都是奥尼尔的爷爷啊，跟着乔丹没有得到冠军。 德拉克斯勒不比勒马尔差啥吧… 曼城、巴黎现在的成绩还需要冬窗花35m买一个桑切斯么？ 你在说瓜秃？ 笑出声。 直接停训，哪有这么牛逼的球员管不了。记住他来的时候什么鸟样。 现在足球确实功利，谁夺冠谁获奖谁就受吹捧。往往忘记了自己喜欢足球是因为它，有爱有恨有欢欣鼓舞有泪流满面。看看安菲尔德，看看威斯特法伦无论风雨紧紧相随。都这么能说能干干嘛不去执教中国，做千古第一人。 多写了个0？ 娜四一定的，起码不用拼欧联了！ 哈哈哈哈，就4个字 3500万，买半年，你确定？ 可以打欧冠 不管尊敬不尊敬，瓜木是一档的主帅，温格是四档的主帅，就不是一个档次的。娜娜球迷现在的第一要务是赶紧找长生不老药，这样温老四就能永远执教娜娜了。 6000万你还不卖，结果现在降价3500，缩水快一半了。阿森纳是生意人，教授你干了这么多年还不明白？ 把272，374挖来，曼联就行了 我信，可以和三德子一起开拓市场，一个赚钱一个赚利息[窃笑][窃笑] 6000万曼城一分都不会少，3500阿森纳卖给中超 千万别卖啊，明年夏天免费去曼城 去年报价姆巴佩跟勒马尔时候真的想花了<br>但钱真的不够 哈哈哈哈哈哈哈哈 明年买的话桑切斯的签字费不会少的 支持温格的，永远只会拿过去的不败赛季说事。现在是2017年，莱斯特城都拿到冠军了!可温格的支持者还在拿十几年前的东西说事!即便莱斯特夺冠有着不小运气成分，但为什么这十几年运气没眷顾下你阿森纳呢？毕竟你们的底子远比莱斯特要强的多吧？你们的冠军呢？你们为什么没冠军？拿不到联赛冠军是因为钱少？你们打强队老崩盘也是因为钱少？身为主教练，温格就一点问题没有？可笑的自欺欺人! 他真的不适合这只枪手 没四爷，阿森纳早玩完了 阿森纳不差钱 球员不同意，俱乐部也又能为力。 俱乐部没有权利卖你？嘴巴老给你卖中超来 踢法好看，又拿些杯赛冠军就行了。号称宇宙第一的曼联估计也要10多年没冠军了，打法还那么恶心的要死。 这种事不好评论谁对谁错。 温老四去曼联也是白瞎，在枪手缩手缩脚找经济实惠的惯了，去了曼联，有钱都不会花 看上一场表现就知道大腿心不在了。好聚好散对大家好 冬窗谁买谁傻逼 说的有道理，疯狂进攻的曼联才配叫红魔，现在只能叫红龟 除非巴黎脑残，单换巴黎都亏，还小德加钱 蓝狐夺冠那赛季是那那最接近冠军的赛季，就证明温老四根本就不是个冠军教练，他要不关键时候掉链子蓝狐怎么可能夺冠，从那时起就枪手如果想夺冠就必须换教练 坐板凳都卖不到好价钱的 信不信小编4000万买来踢中超 小德加现金你TM在逗我？小德年轻，有能力，还在上升期！会比不上一个年龄30，合同最后半年的374？ 反正曼城没有错，夏天6000都送上门了，交易没成曼城官方还痛骂娜娜一顿 那些说曼城可以白捡的省省吧，如果真的3500就卖主动权还在娜娜啊，你确定曼联不会截胡，别忘了还有大巴黎，桑切斯如果不同意就威胁扔预备队半年，看夏季谁还敢要你，所以冬季曼城还是要乖乖掏钱。 “我奶奶跟着乔丹也能夺冠“--------奥尼尔。 克伦克最好马上死 你以为是人贩子卖人，想卖哪儿就卖哪儿吗？ 起码温格允许对手庆祝 桑切斯明显被高估了，别大腿不大腿的，说实话阿森纳有没有他都是这个水平，根本没有质的提高，所以他成不了超巨，阿森纳能始终保持在前4左右不是因为272.374，而是有教授 说不定还真行，温格遇到曼联这样的大把花钱的俱乐部值得试试 这个第二除了温老四，好像前几名的谁也赢不了，全靠虐菜卢了。 这特么球品去哪家能放心？ 教授你搞毛 冬窗也可以标个5000万，会有人和曼联抢的 德拉克斯勒换？除非大巴黎脑子被驴踢了 首先转会要桑切斯点头同意，不然强卖过去，3500W买半年合同？？没人有那么傻 反正横竖你们这些喷子都会喷的。卖你们也会喷，不卖你们也会喷。 你看曼联现在踢得啥玩意，反观，利物浦和阿森纳打的多好看！穆鸟的屌丝气质不适合曼联！ 问题这功劳簿也不厚啊，到时工资拿的越来越厚，不管成绩多烂，反正教练位置稳稳的，这种支持只有阿森纳给得出，就这样的支持20年的温格既然连个大耳朵都没摸过，还有人好意思吹温格？还好意思说阿森纳是豪门？ 这个是真的，温四爷的水平还是有的，但争冠这事是真的没有这水平 傻逼球盲鸟粪们肯定表示不服了，它们嘢爹废物墓表不会错也不会有责任的，世界第一教练，输球就是球员问题，赢球是墓表功劳，对不傻逼鸟粪们？莫耶斯范厨师带队都比废物墓表砸3亿打造龟公任草大巴脏笔足球好，鸟粪们会意银说我们有鸡肋三罐王。 每个人去年都知道，夏天更加坚信，留不住桑切斯的，当时厄齐尔还觉得有一丁点可能，但前者根本不会留！他肯定去曼城，但怎么就温格这么天真固执！两个球员损失一亿转会费，近两千万的工资！还有士气。 没榨干净，374会被骂成狗的，娜娜都是些什么 不用了谢谢，我们好歹还是第二 大兄弟，首先不存在强买这一回事，转会哪里都得球员同意，跟nba不一样。 这样的话，没有球员敢去抢手踢球了 厄齐尔不是要去曼联么 我刚看球，我差点信了！弱弱的问一句，在娜娜的总教头上做了20年的格格摸过大耳朵吗？真是黑人我直径，说话不经过大脑，张嘴就来。 从本赛季表现来看还不如赛季前6000万卖了 小伙你以为是nba啊，转会过去都是重新签合同的 把374下放预备队，晾半年，明年免签我看他还剩下几分状态，今年看他踢球真来气，总是在场上混 我估计缩水一半都没有其他队来当冤大头！ 3500都没人买，都不是傻子 真是个傻逼喷子。这会喷穆里尼奥？当时怎么不见你支持莫耶斯，范加尔？曼联的三冠王是意淫？人家已经拿到的东西叫意淫？你特么懂什么叫意淫吗，傻逼喷子？ 大腿明显是和下家暗中达成协议了，不像大眼卖力表现前路未明……😂 脑子是好东西<br>切尔西现在就有一个，还有大把的球员去切尔西 还有半年就到期了，谁肯花3500万买？球员就是拒绝转会，阿森纳能怎么办？ 温格太温和了，不续约按替补一年你看桑切斯妥协不……现在只能按半年了……人家真不屌你 信啊，你这种真球迷说啥肯定都是对的 垃圾废物阿森纳 是这班球员不适合曼联，没有血性，是不是魔鸟带都一样，现在的曼联已经不是红魔了，换谁做教练都一样踢不出那股疯魔状态。 曼联的阵容给温格，温格就能把温老四帽子摔了。叫温老二。 两千万爱要不要，等多半年免费拿下，两千万给球员签字费，气死温格 把272，374挖来，曼联就行了 所以说温格越老越糊涂了，这么明显的经济帐，一年合同能卖6000万应该也只有曼城才这么仗义豪气了。你一个赛季不进欧冠损失都没一个亿。 有个关键的问题，球员拒绝转会就是要等着夏天自由走人怎么办？只剩下半年了，球员是可以自由接触俱乐部的了。 3500买半年？ 我想问问除了曼城其他队要积分能拿冠军吗？ 归根到底阿森纳就是老板抠才没成绩，温格能挣钱才留这么多年，别人上亿的砸钱，整个夏窗下来阿森纳转会支出居然是盈利的，争冠？我一个枪迷都不信。 桑切斯不同意,合同能重新签? 我刚看球，我差点信了！弱弱的问一句，在娜娜的总教头上做了20年的格格摸过大耳朵吗？真是黑人我直径，说话不经过大脑，张嘴就来。 谁买谁傻逼 夏天卖掉了曼城成绩或许不会这样好 那么问题来了，下家是谁 伤透了心，何必久留 肯定是夏季免签啊，374还可以自己选球队自己谈大合同 坚持半个赛季，就有免费的了，稳住 不信 6000万你还不卖，结果现在降价3500，缩水快一半了。阿森纳是生意人，教授你干了这么多年还不明白？ 在喷子眼里只要不拿冠军就是二流教练，完全不看温格用二流的阵容年年拿一流的成绩，而且坚持了传控进攻型踢法 果然是阿森纳特色要进球不要积分好好的争第五把 这种事不好评论谁对谁错。 还有半赛季3500万镑，别犯傻了，谁要？ 阿森纳曼联合称5566😂😂😂😂 冬窗谁买谁傻逼 你信不信挖温老四去曼联比272，374有用 说句实话，不管是温格和阿森纳，你感觉他们还有心气嘛？嘴巴吹吹吹我要拿冠军，但是干了些什么，这么多年同一个教练，够你宏伟规划大展蓝图了吧，你说你弄这么多年，最后越来越烂，大家都看得出你没气了你还嘴硬。躺功劳簿上躺十多年还不够啊？ 一日红蓝 桑婊 战术没有过时这一说，合理安排人，能赢就是好战术。现在温老四用人真的有点不太行了。 我一直不明白的是，一辈子没摸过大耳朵的人，怎么就是瓜鸟安这些人一个级别了？竞技体育是靠数据和荣誉说话的，齐秃子在菜鸟2年拿了温格同学几辈子拿不到的荣誉，还有人吹温格，我也是服了，天天喊着要节约要球员少拿钱，TM自己去一直涨工资，好像现在都上千万一年了吧。 二流教练?大巴黎和皇马挖他好几次呢，在你逼眼里就是二流的了，人家眼瞎是呗 反正曼城没有错，夏天6000都送上门了，交易没成曼城官方还痛骂娜娜一顿 阿森纳再也不是豪门。越来越烂了 难说，有个巨大优势被你们忽略了，买了桑切斯可以欧冠上场！放到现在转会市场3500提前买半年，早买早享用，过了6月不一定买得到。 爵爷曾亲荐教授接班，爵爷眼也瞎？？？ 你信不信挖温老四去曼联比272，374有用 半年合同卖35M?你在逗我? 曼联的问题不是球员不行，是教练不行😂😂😂你指望靠杀鸡取卵的大巴🐦来复兴曼联？别逗 挖过去改造成铁血后腰？ 确实不是很急迫，能承受桑切斯工资的没几家俱乐部，不着急。 我估计教授天天看新闻联播 桑切斯对不起阿森纳?看过球的都知道谁对谁错，谁没上进心? 恒大撸过来搞搞 皇马巴萨这两个地方容易刷数据啊 就这傻逼爱滚哪去滚哪去，还大腿呢，从他来了后阿森纳才有大比分惨案出现的。最近几场看看独的还他妈失误不断没有职业道德的玩意赶快滚，配不起阿森纳 我信，我觉得温格没遇到好老板！ 不信，温格不舍得花钱。 他现在是一心想去曼城（明年夏天），巴黎开再高的价他也不会去。 怎么也得好5300吧 哪几个MVP？ 我阿森纳怎么都这路货色 现在谁买谁傻逼 磨磨唧唧一个夏天不知道在干嘛，最后时刻想着出手，时间却不够了，阿森纳的转会经营策略就是一坨狗屎 你可知道只有一年合同的张伯伦卖了4000万😂😂😂😂 温格自己就是阿森纳股东，他是自己的老板 曼联左后卫😂😂😂😂 说好的需要一个防守核心解放博格巴，如今防守核心有了马蒂奇，再来一个组织核心？！请问有了272和马蒂奇，博格巴干什么？！在场上负责向观众展示他的新发型嘛？？？😂😂😂😂😂 大腿明显是和下家暗中达成协议了，不像大眼卖力表现前路未明……😂 十几年都一个吊样 如果今年夏天曼城6000万买桑切斯的传闻属实，在还剩一年的情况下这真的是良心价了，桑切斯明显心已经不在这了，还强留，荣誉你给不了，人家想要的价钱你又舍不得给，明年夏天免费走人，宁可一年损失6000万，也不愿意早点给人家一个顶薪，这种生意也只有阿森纳做得出来，你说这不是有病吗？ 以前确实，但是不好意思，最近五六场，踢得真的烂，进攻终结者，无脑丢球不回抢跑动比272还少很多 第二名和第四名有什么区别？还省钱，温老四比穆老二强多了好吧 草泥马，之前大眼和374要求加薪，死活说人家不值，拼命贬低这两人，现在不续约了，开始慌了 欧洲助攻王，全欧MVP中场，不叫高水平？ 再过五个月就省3500万了，损人不利已吧? 3500w有人买吗？ 桑切斯明显被高估了，别大腿不大腿的，说实话阿森纳有没有他都是这个水平，根本没有质的提高，所以他成不了超巨，阿森纳能始终保持在前4左右不是因为272.374，而是有教授 桑切斯会同意签字做梦吧！夏天合同解约赚签字费还可以选俱乐部！把桑切斯当白痴吗？ 米兰能不能抢点?加总在行啊! 曼城现在急需中卫不是前锋，3500W这个价除了曼城也无人问津了，所以明夏免费转投曼城的机会是很大的。 把272，374挖来，曼联就行了 半个赛季或者3500万，估计都选前者了，巴黎曼城都不是傻子 去看大门吗 昔日英超4强现在到底还有那个强？ 一个左边后卫一个右边后卫从此大巴更牢了 这种球员，不值得尊敬 272374应该都不缺下家 温格这几年一直活在梦里 温格是个固执的老头，球员买这个不上不下的绝对有温格自己的原因，但是个人还是相信如果温格的手下球员有绝对实力的时候，是绝对能出成绩的 现在曼城需要买人？基本上冠军都稳了.直接自由加盟就完事了 对！温格那个傻逼！还当自己是20年前呢 感觉温老四这几年一直活在梦里 这种事不好评论谁对谁错。 374和272应该去曼联，曼城的体系他们去了也没位置。曼联非常需要他们两，需要这种有创造力想象力的球员。 30岁的球员了，阿森纳不是有那个政策吗 冬窗谁买谁傻逼 374自己几个毛病总是不改，一是拿球总喜欢横着带，二是传球总瞎传，阿森纳现在除了扎卡场均失误最多就374，再来别总是抱怨。以后几个问题不改374成不了顶级 去年阿森纳只花钱买了拉卡泽特，<br>卖了好几个人，完全是黑字转会，投入啥了？ 啧啧啧，滚吧！当你是亨利啊 买卖东西就是这样，别人求着你要买的时候价格高开可以谈，等你甩卖的时候那没办法，价格肯定是低开至少打8折 他就是个傻逼 6000万你还不卖，结果现在降价3500，缩水快一半了。阿森纳是生意人，教授你干了这么多年还不明白？ 二流教练?大巴黎和皇马挖他好几次呢，在你逼眼里就是二流的了，人家眼瞎是呗 反正曼城没有错，夏天6000都送上门了，交易没成曼城官方还痛骂娜娜一顿 失败专家以前闹没花钱这几赛季阿森纳投入少了？还没赶上热刺 桑切斯再见。 曼城不会买！因为桑切斯不能代表曼城打欧冠！ 老年痴呆了 ",
        "Total": 3793
    },
    "Article": "网易体育12月26日报道：理想与现实经常会有一些差距。温格一直都在努力续约桑切斯，他也一直相信肯定能成功。但是，温格终究还是失败了，桑切斯死活不愿签字。教授罕见的血性，今夏拒绝出售桑切斯，此前还表示冬窗依然不卖智利人。不过，《每日邮报》透露枪手高层已经出面，说服温格，冬窗赶紧把桑切斯卖了。桑切斯和阿森纳的合同在明年夏天到期，也就是说，即将到来的2018年冬窗是阿森纳卖掉桑切斯最后的机会了。如果冬窗依然不卖人，阿森纳就只能在明夏眼睁睁的看着桑切斯以自由身的身份免费离队。此前，枪手名宿伊恩-赖特曾批评温格：“既然桑切斯不续约，你干嘛不早点卖人，好好的1亿镑级别的交易被你毁了。”今夏，确实有人想买桑切斯。曼城出价6000万镑的高价求购桑切斯，但温格拒绝了。机会错过了，就很难再回来了。曼城有钱，但不是冤大头，英媒体称他们不会在冬窗再出手，而是等到明年夏天免签桑切斯。最近的发布会上，温格曾态度强硬，宣称桑切斯在这个冬窗不会离队。不过，高层不同意他的观点，《邮报》称阿森纳内部已经做出了决定：冬窗只要有球队出价3500万镑就可以出售桑切斯。桑切斯早就身在曹营心在汉，他这赛季在阿森纳并不积极，有人甚至称他是“打卡上班”、消极怠工。枪手高层对桑切斯的忠诚度非常失望，智利人无论是在训练还是在比赛中都是一副无所谓的态度。另外，枪手球员以及部分教练组成员也对桑切斯感到反感，他们中的很多人都认为温格今夏就该将桑切斯卖掉。《太阳报》此前透露桑切斯已经遭到了队友的孤立。对桑切斯有意的球队可不止曼城一家，法甲土豪巴黎也一直想要桑切斯。《邮报》认为巴黎可以轻松的满足阿森纳对桑切斯的标价，3500万镑对他们而言就是小菜一碟。另外，巴黎还可以用德拉克斯勒+现金的方式来交换桑切斯。本文来源：网易体育作者：风过乡责任编辑：姚成浩_NS4810",
    "PublishTime": "12/26/201709:20:23",
    "URL": "http://sports.163.com/17/1226/09/D6IQSCO300058781.html",
    "Title": "温格妥协!阿森纳愿3500万镑售桑神 再不卖就烂了_网易体育",
    "KeyWords": "桑切斯,温格,阿森纳",
    "Source": "Netease"
}