{
    "Source": "Netease",
    "PublishTime": "12/26/201713:35:58",
    "KeyWords": "特朗普,共和党,美国总统,参议员",
    "Title": "特朗普连任不易 美参议员：他将\"招来\"各方挑战者_网易新闻",
    "Comment": {
        "Link": "http://comment.news.163.com/news_guoji2_bbs/D6J9GCBG0001875O.html",
        "Total": 978,
        "Content": "伟大的总统！ 他精力充沛的令人难以置信 支持特靠谱连仼 教老特一招谁要跟你竞选把他资格取消了就行 海外网 就是，隔壁普秃就这么干 特朗普：能做就做，不能做拉倒，管着这一摊子事，休息都休息不好，少做四年自己轻松多了😄😄😄 果真是反美是工作，赴美是生活 禁止他人参加election就行啦 但是年级太大了啊。。。 赞同弗莱克说的。<br>床铺当选这一年来，白宫内被他炒鱿鱼的炒他鱿鱼的都是原先对他忠心耿耿到处帮他拉票的，现在有的放弃了，有的死心了，还有的反水了。。。。。。 好棒哦，到美国去了？ 特朗普连任还是很稳的，把他送进白宫的是锈带工人和中产，他信守承诺退出巴黎协定，退出tpp，减税，四季度经济增长近4%，这些人没理由对特朗普失望 看来怕了，才一年就要让对手窒息了。要是八年，还有对手的活路么。可现实不会因对手的诅咒而改变。 找一辆车去碰瓷竞选人的座驾，竞选人就不得不去打官司 好棒哦 3年以后的事情，现在不能证伪，先洗着脑。2016年都投票了，鄙国媒体还是说他不会赢。安倍都赢了，还说人家输了人心。下三滥都这样。 伟大的总统！ 他精力充沛的令人难以置信 成力几为， 教老特一招谁要跟你竞选把他资格取消了就行 支持特靠谱连仼 海外网 就是，隔壁普秃就这么干 特朗普连任还是很稳的，把他送进白宫的是锈带工人和中产，他信守承诺退出巴黎协定，退出tpp，减税，四季度经济增长近4%，这些人没理由对特朗普失望 禁墓,, 果真是反美是工作，赴美是生活 禁止他人参加election就行啦 3年以后的事情，现在不能证伪，先洗着脑。2016年都投票了，鄙国媒体还是说他不会赢。安倍都赢了，还说人家输了人心。下三滥都这样。 但是年级太大了啊。。。 赞同弗莱克说的。<br>床铺当选这一年来，白宫内被他炒鱿鱼的炒他鱿鱼的都是原先对他忠心耿耿到处帮他拉票的，现在有的放弃了，有的死心了，还有的反水了。。。。。。 好棒哦，到美国去了？ 那是因为有犯罪记录，怎么还得为谁开绿灯啊，美国会为谁修改规则么？ 看来怕了，才一年就要让对手窒息了。要是八年，还有对手的活路么。可现实不会因对手的诅咒而改变。 找一辆车去碰瓷竞选人的座驾，竞选人就不得不去打官司 好棒哦 特朗普：能做就做，不能做拉倒，管着这一摊子事，休息都休息不好，少做四年自己轻松多了😄😄😄 ",
        "Reply": 20
    },
    "Article": "（原标题：特朗普连任不易美参议员：他将\"招来\"各方挑战者）弗莱克海外网12月26日电美国共和党参议员弗莱克说，如果美国总统特朗普欲在2020年总统选举中寻求连任，他可能会在共和党内部初选就面临挑战。据CNN报道，弗莱克（JeffFlake）是少数几个曾公开批评特朗普的共和党议员之一。他上周日（24日）接受媒体访问时说：“我确实相信，如果总统要寻求连任，如果他继续保持在现有的途径上，这将促使大批选民寻找替代人选。”此前已宣布会在2018年底卸下参议员职务的弗莱克认为，如果特朗普再次成为共和党候选人，“我们很可能看到独立候选人”的出现。他警告，即使是在共和党内部的初选，特朗普“也可能会面对共和党人的挑战”。他还补充说，他认为特朗普在2020年会“招来”来自各方的挑战者。一般上，现任总统会在首个任期结束前被认定为稳操胜券的候选人。不过，面对党内挑战也并非前所未闻。1980年，民主党籍总统卡特就面对参议员肯尼迪的挑战；1976年，共和党籍的福特则同党内的里根对垒。本文来源：海外网责任编辑：杨强_NN6027",
    "URL": "http://news.163.com/17/1226/13/D6J9GCBG0001875O.html"
}