{
    "Comment": {
        "Total": 360,
        "Reply": 21,
        "Link": "http://comment.news.163.com/news2_bbs/D771IFJ6000187VI.html",
        "Content": "余额宝你放22亿都行，当然在没限额以前。放22万一天有20多的进帐。 离而不断，其祸无穷。。。 支付宝22万？ 幸亏离的早，要不钱更少。 假药停？ 密码要改阿 这总结能力，语文是不是常满分 假药停？ 一个滥赌鬼，离婚了还时不时联系。<br>贱人一个，活该。 怎么去前妻家？人断炮没断？ 离而不断，其祸无穷。。。 支付宝22万？ 余额宝你放22亿都行，当然在没限额以前。放22万一天有20多的进帐。 离婚了就别联系了 幸亏离的早，要不钱更少 假药停？ 😄 这总结能力，语文是不是常满分 离婚竟然不改密码 假药停？ 小编继续编，去年12月后你的支付宝能够超过10万，我算你赢。 如果还款已经到账,不会盗取.应该是还款没有到账的原因. 离了没小孩子就别联系了 余额宝月利率大概有3厘3，挺不错 怎么去前妻家？婚断炮没断？还是逃避债务？ 幸亏离的早，要不钱更少。 玩支付宝 密码要改阿 不够意思耶[暴怒][暴怒][暴怒] 一个滥赌鬼，离婚了还时不时联系。<br>贱人一个，活该。 怎么去前妻家？人断炮没断？ "
    },
    "Title": "男子欠下几十万债务 从前妻支付宝盗取22万被刑拘_网易新闻",
    "KeyWords": "支付宝,盗取,手机,银行卡",
    "Article": "（原标题：欠下几十万债务，他从前妻支付宝盗取22万元）都说“一夜夫妻百日恩”，欠了一屁股债的董某，却将主意打到了前妻小玲的身上。去年12月底，小玲在家玩支付宝时，突然发现自己账户内的22万元存款，全都不见了。“我没用过啊，手机也一直在身上，钱怎么没了？”小玲立即查看了支付宝交易记录，并没有找到任何转账或消费的记录。虽然心里很着急，小玲还是强迫自己冷静下来，仔细回想到底是哪里出了问题。“我前夫昨天来找过我，只有他有机会接触过我的手机，而且密码什么的，他都知道的。”小玲马上把怀疑的目标锁定在前夫董某身上。为了搞清楚事情真相，小玲联系了支付宝客服，发现这笔钱是在前一天的下午，被转到了一张银行卡上。“时间刚好对上，就是他在我家的那段时间。”越想越觉得前夫董某可疑，小玲立即赶到金沙湖派出所报警求助，并将自己的怀疑告诉了办案民警。随即，民警将董某带回派出所调查。一开始，董某坚决否认盗取过小玲支付宝内的钱。不过，当民警拿出调取的银行交易记录后，董某放弃了抵抗，如实供述了盗取小玲钱财的犯罪事实。董某交代，由于沉迷赌博，加上花钱大手大脚，他在外面欠下了几十万元的债务。“我知道她那边有点钱，也问她张口借过钱，她没同意。最后被逼得没办法了，就想到把钱偷过来还债。”虽然离了婚，但两人还有联系，董某时不时也会去小玲的住处看望她。于是，计划好了一切的董某，再次来到小玲的住处，并趁着她离开时，拿起手机打开支付宝实施作案。“她的密码我都知道的，怕她发现，我就把记录都删了。”目前，董某已被金沙湖派出所依法刑事拘留。民警提醒广大市民：支付宝等手机支付软件，关系到自身财产安全，相关密码十分重要。所以大家应当在平日里注意保护支付密码，定期更换密码，以确保账户安全。本文来源：浙江在线-钱江晚报责任编辑：张海桐_NN9053",
    "URL": "http://news.163.com/18/0103/05/D771IFJ6000187VI.html",
    "PublishTime": "01/03/201805:41:56",
    "Source": "Netease"
}