{
    "PublishTime": "12/28/201700:04:11",
    "Source": "Netease",
    "Comment": {
        "Link": "http://comment.news.163.com/news2_bbs/D6MVRQJB00018AOP.html",
        "Total": 93,
        "Reply": 22,
        "Content": "有錢買和駕馭得了是兩碼事，有錢買超跑的大多數根本駕馭不了這樣的野獸！一腳油門下去，方向盤都打不穩 儿子从司机做起 跑车是用来开的，不是用来坐的!怎么能花500万给司机买跑车快呐？! 买跑车请司机？ 这尼玛也算是要闻? 图上这车是法拉利？智商呢 可能司机就是老板的儿子[狗] 买跑车给司机开？什么操作？ 有錢買和駕馭得了是兩碼事，有錢買超跑的大多數根本駕馭不了這樣的野獸！一腳油門下去，方向盤都打不穩 隔壁的新闻标题，duang的一下。 esp关了没 迈凯伦 司机：玛德跟想象中不一样踩了一点油就飞出去撞了我的富康不是这样的啊 图上这车是法拉利？智商呢 买跑车请司机？ 又编故事图片你确定是法拉利？！ 儿子从司机做起 会不会是装X失败撞了？ 敏感的不让报就剩这些了…… 华为定律...贫穷限制了你的想象力...让司机开去洗车保养之类很正常...难不成还自己开去洗车？ 流星月亮地球太阳系有发动机么？没有!他们却高速在宇宙中运行!为什么？因为他们的运行轨道本身就是太空高速时空隧道!他们的运行路线一半为去路一半为来路，周而复始地运行着!地球自转公转着，本就没有东西南北上下左右等方位!谁定的？我们的天父啊!目的只有一个，告诉人类我们天父的星座方位!所以九曲桥的方向始终对着东北方!在宇宙一切物质中，永远是子体围绕母体运动，这是恒定的!所以地球自转并围绕太阳公转!因地球是自转公转的，所以根据地球的东西南北是找不到星外文明的星座方位的!只有找到太阳的上下前后东西南北才能准确地给天父星座方位定位!我们天父星座方位在太阳系东北上方第九颗恒星那里!那里以双伴恒星为中心带动周围108颗恒星运动着! 可能司机就是老板的儿子[狗] 你妈这也上 这网易新闻是要疯啊？这也是要闻？说是法拉利还配个迈凯轮的图。真TM是够了 哈哈，典型中国土暴发户。 司机赔？ 跑车是用来开的，不是用来坐的!怎么能花500万给司机买跑车快呐？! 这尼玛也算是要闻? 哦豁！500的车修起来不便宜撒！ 买跑车给司机开？什么操作？ "
    },
    "Article": "（原标题：老板新买的法拉利司机称操作失误给撞了）新文化讯“亚泰大街103中学附近，有一辆法拉利跑车撞上了路边的路灯杆，车损严重！”27日下午3点左右，长春市民李先生向本报报料，他途经事故发生路段时，交警已经赶到现场，跑车已经被装上拖车，跑车受损严重。新文化记者从李先生发过来的视频中看到，一辆银色的法拉利跑车右前脸受损严重，现场有大量汽车碎片和机油，一名环卫工人正在清扫碎片，现场围着不少人，距离法拉利不远处一根电线杆被撞倒。下午3点30分，记者赶到事发现场，此时受损的法拉利跑车已经被拖离现场，一辆路灯维护单位的工程车正停在现场。“确实是一辆跑车撞到路灯杆上了，具体啥原因我们也不知道，我们把电线杆割断，现在倾斜着太危险了。”车内一名工作人员说。27日下午，记者从长春市公安局交警支队南关大队获悉，开法拉利跑车的小伙子是一个老板的司机，20多岁，车子刚提回来，还没来得及上牌子和上保险，但有临时牌照。“司机没受伤，据他说是因为不太熟悉车子，正好前面有个车子晃了他一下，他操作失误，就撞上了路灯杆。”民警介绍目前已经排除司机酒驾和毒驾。据知情人介绍，该款跑车售价在500万元以上。本文来源：华商网-新文化报。更多精彩内容请登录华商网(http://www.hsw.cn)责任编辑：荀建国_NN7379",
    "Title": "老板花500万新买法拉利 司机不熟悉失误撞路灯杆_网易新闻",
    "URL": "http://news.163.com/17/1228/00/D6MVRQJB00018AOP.html",
    "KeyWords": "法拉利,跑车,路灯杆,电线杆"
}