{
    "Article": "",
    "KeyWords": "网易订阅、rss、新闻、资讯",
    "Source": "Netease",
    "Title": "中国周边一夜冒出六艘航母：这国要紧随日本购F35B战机_网易订阅",
    "Comment": {
        "Link": "http://comment.war.163.com/news_junshi_bbs/D6O77LKP0515DV50.html"
    },
    "URL": "http://dy.163.com/v2/article/detail/D6O77LKP0515DV50.html",
    "PublishTime": "12/28/201711:32:29"
}