{
    "Source": "Netease",
    "PublishTime": "12/26/201713:54:09",
    "KeyWords": "贾跃亭,融资,乐视,乐视网",
    "Title": "乐视网员工看FF融资传闻:只要贾跃亭说的都是谎言_网易科技",
    "Comment": {
        "Link": "http://comment.tech.163.com/tech_bbs/D6JAHLPV00097U7R.html",
        "Total": 2425,
        "Content": "啥也不看，我只看乐视网复牌 我就想问贾跃亭老婆是咋出去的？！有关部门解释一下？ 证券时报上次新闻好像就是你们发的吧，人呢。 所有人怀疑的时候，说明他要成功了！ 原地打转是啥特性。。 说贾跃亭是神的是媒体，说是鬼的也是媒体 证监会喊他回没用的，得是公安部才行 我和小伙伴们都惊呆了 时间总会给个交代，臆测编造有什么意思 希望尽快发布红色通缉令，让我们相信法制，法治，和法律 那个是证券日报，不是证券时报。虽然我也想晓得他们啥关系 证券日报和证券时报掐起来啦....花生瓜子小蚂蚱 下周回国贾跃亭，顺利融资贾跃亭，贾总的头衔是越来越长了，哦，对，还有一个明年量产法拉第 我向大家宣布，向FF注资5000亿。明年清明资金到位！ 下周之后又下周下周之后又下周就快过年了啊 一般春节期间比如正月府银行就可以办理业务了 红通不是给他们准备的。 见到贾跃亭与甘薇夫妇?怎么，老婆孩子都跑出去啦，那更别指望了。 后台强大！ 监管层这都是多余，人家贾布斯走的时候就说负责到底，下周回国。 一看起的名字“法拉第”，就知道是山寨货，人家特斯拉，你就法拉第；人家叫伏特，你就叫安培；人家叫瓦特，你就叫欧姆…… 都出去了啊！这么严格的情况下还能出去，厉害 这恐怕是个假员工吧，是哪路假冒的妖人？ 之前有过报道，当地ZF给FF的期限是12月18号，届时如果再没有资金注入，就会对假药停留在美国产生影响。所以从12月中旬开始这货就开始变着花样玩儿，各种消息各种曝光，但究竟有没有搞到钱、谁给钱却始终含含糊糊闪烁其词，一反平时高调狂妄的做派。按过往惯例，加上不少消息都来源于十句话十句假的“贾丽”之流，FF真融到资的可能性并不大，毕竟信用早破产了。就看这些跳梁小丑的行径当地ZF认不认了，假药停为了留在那边也是挖空了心思，大家坐等看戏吧。 敢问这个员工是谁，恐怕是和顾颖琼一个鸟样吧 vv 要是贾跃亭做到新能源量产回来不得气死 这年头测试一台手机都要图文并茂配视频还第一次见用文字试车的侯小强我看好你的 假药停不要碧莲，啥时候回来 什么叫做只要贾跃亭说的都是谎言？？ 员工就是狗，不信就滚你妈 老假在广州还有亲戚，真不简单。 会写PPT的重要性 应该是自己的钱投进去了 服了这些人，无端诋毁有意思啊 老假还是可以的，水军都用7p，厚道 红色你麻痹，弱智一个 小薇再次相信你了，这一次你让她的触动同样很大，终于可以枕着几百亿安度晚年了。但愿你们下半生幸福，不要受到乐视投资者的追杀的影响，入美国籍，受美国庇护，一辈子的高枕无忧。过好这辈子吧，因为你们下辈子也入不了人道了。 外国人讲诚信你都这样了人还敢融资给你？ 确实有意思 眼看在美国待不下去了，取了10亿，他手里的钱肯定能撑到绿卡拿到手那天 啥也不看，我只看乐视网复牌 原地打转是啥特性。。 乐视是最会讲故事的公司. 证监会喊他回没用的，得是公安部才行 老假还是可以的，水军都用7p，厚道 时间总会给个交代，臆测编造有什么意思 能在乐视工作的员工应该骄傲才对。你们的模式毕竟是创新的，基本也成功的，在这个各方诸侯争夺的网络中，乐视也有自己的一亩二分地，得来不易。<br>前员工有怨气我想还是少数人。 证券日报和证券时报掐起来啦....花生瓜子小蚂蚱 大家不要再冤枉是乐视举报快播涉黄、导致快播公司倒闭了，真实的情况是：腾讯公司举报快播涉黄，深圳南山区文化执法大队查封快播公司服务器，快播公司倒闭。如果还有不相信的，可以调取北京海淀法院庭审快播高管王欣时，坐在原告席上的是腾讯公司的代表律师，而不是乐视的律师。既然庭审时，坐在原告席上的是腾讯公司的律师，那么肯定是腾讯举报快播公司涉黄，导致快播公司倒闭的罪魁祸首也是腾讯公司。大家睁大了眼，一定要看清楚啊！！！<br>真相是这样的：快播公司倒闭三年前，快播公司确实盗播乐视购买的正版影视剧了，为了维护公司利益，乐视举报并起诉快播公司，快播公司最后赔偿了乐视20万元，事情就过去了。三年后，腾讯和快播公司竞争深圳一个高科技企业扶持名额，腾讯就把快播公司涉黄的事举报了。快播涉黄可是政治性的问题，深圳南山区文化执法大队查封了快播公司服务器，快播公司倒闭，后来王欣被抓判刑。腾讯就是想整死快播，为了转移大家的注意力，用QQ弹出广告发布乐视举报快播的消息，全国人民一下子都把愤怒转移到乐视身上了，乐视就成了窦娥了。 同属乐视集团 乐视是一家有背景的公司... 一看起的名字“法拉第”，就知道是山寨货，人家特斯拉，你就法拉第；人家叫伏特，你就叫安培；人家叫瓦特，你就叫欧姆…… 证券时报？ 都出去了啊！这么严格的情况下还能出去，厉害 这恐怕是个假员工吧，是哪路假冒的妖人？ 敢问这个员工是谁，恐怕是和顾颖琼一个鸟样吧 瓦特对焦耳 咸吃萝卜淡操心 老假在广州还有亲戚，真不简单。 红色你麻痹，弱智一个 应该是自己的钱投进去了 眼看在美国待不下去了，取了10亿，他手里的钱肯定能撑到绿卡拿到手那天 他在乐视的时候怎么不说 小薇再次相信你了，这一次你让她的触动同样很大，终于可以枕着几百亿安度晚年了。但愿你们下半生幸福，不要受到乐视投资者的追杀的影响，入美国籍，受美国庇护，一辈子的高枕无忧。过好这辈子吧，因为你们下辈子也入不了人道了。 确实有意思 说贾跃亭是神的是媒体，说是鬼的也是媒体 贾就是诈骗犯 员工就是狗，不信就滚你妈 我和小伙伴们都惊呆了 老贾是被谁玩坏了，是个结结实实的背锅侠！太多人只会锦上添花不会雪中送炭！马斯克当年也很落魄，但他挺过来了！老贾错就错在躲到美国去了，他应该积极面对国内的困局，想办法把钱还上！还有一种可能是某人不让他回来！水太深！ 下周回国贾跃亭，顺利融资贾跃亭，贾总的头衔是越来越长了，哦，对，还有一个明年量产法拉第 我向大家宣布，向FF注资5000亿。明年清明资金到位！ 一般春节期间比如正月府银行就可以办理业务了 红通不是给他们准备的。 乐视还有员工才是重点好吗，这时候了还不辞职出去换工作，等什么呢……… 我就想问贾跃亭老婆是咋出去的？！有关部门解释一下？ 监管层这都是多余，人家贾布斯走的时候就说负责到底，下周回国。 vv 那个什么强的说上千人热火朝天的在造车，我差点就信了，你拍照片发出来大家看看啊！ 假药停不要碧莲，啥时候回来 什么叫做只要贾跃亭说的都是谎言？？ 会写PPT的重要性 服了这些人，无端诋毁有意思啊 要是贾跃亭做到新能源量产回来不得气死 666 希望尽快发布红色通缉令，让我们相信法制，法治，和法律 无图无真相。后台到了，不会死去回升了 证券时报上次新闻好像就是你们发的吧，人呢。 所有人怀疑的时候，说明他要成功了！ 大家不要再冤枉是乐视举报快播涉黄、导致快播公司倒闭了，真实的情况是：腾讯公司举报快播涉黄，深圳南山区文化执法大队查封快播公司服务器，快播公司倒闭。如果还有不相信的，可以调取北京海淀法院庭审快播高管王欣时，坐在原告席上的是腾讯公司的代表律师，而不是乐视的律师。既然庭审时，坐在原告席上的是腾讯公司的律师，那么肯定是腾讯举报快播公司涉黄，导致快播公司倒闭的罪魁祸首也是腾讯公司。大家睁大了眼，一定要看清楚啊！！！<br>真相是这样的：快播公司倒闭三年前，快播公司确实盗播乐视购买的正版影视剧了，为了维护公司利益，乐视举报并起诉快播公司，快播公司最后赔偿了乐视20万元，事情就过去了。三年后，腾讯和快播公司竞争深圳一个高科技企业扶持名额，腾讯就把快播公司涉黄的事举报了。快播涉黄可是政治性的问题，深圳南山区文化执法大队查封了快播公司服务器，快播公司倒闭，后来王欣被抓判刑。腾讯就是想整死快播，为了转移大家的注意力，用QQ弹出广告发布乐视举报快播的消息，全国人民一下子都把愤怒转移到乐视身上了，乐视就成了窦娥了。 下周之后又下周下周之后又下周就快过年了啊 水军速来洗地，不然要等贾回国才结款了 看透人生了 那个是证券日报，不是证券时报。虽然我也想晓得他们啥关系 大家不要再冤枉是乐视举报快播涉黄、导致快播公司倒闭了，真实的情况是：腾讯公司举报快播涉黄，深圳南山区文化执法大队查封快播公司服务器，快播公司倒闭。如果还有不相信的，可以调取北京海淀法院庭审快播高管王欣时，坐在原告席上的是腾讯公司的代表律师，而不是乐视的律师。既然庭审时，坐在原告席上的是腾讯公司的律师，那么肯定是腾讯举报快播公司涉黄，导致快播公司倒闭的罪魁祸首也是腾讯公司。大家睁大了眼，一定要看清楚啊！！！<br>真相是这样的：快播公司倒闭三年前，快播公司确实盗播乐视购买的正版影视剧了，为了维护公司利益，乐视举报并起诉快播公司，快播公司最后赔偿了乐视20万元，事情就过去了。三年后，腾讯和快播公司竞争深圳一个高科技企业扶持名额，腾讯就把快播公司涉黄的事举报了。快播涉黄可是政治性的问题，深圳南山区文化执法大队查封了快播公司服务器，快播公司倒闭，后来王欣被抓判刑。腾讯就是想整死快播，为了转移大家的注意力，用QQ弹出广告发布乐视举报快播的消息，全国人民一下子都把愤怒转移到乐视身上了，乐视就成了窦娥了。 大家不要再冤枉是乐视举报快播涉黄、导致快播公司倒闭了，真实的情况是：腾讯公司举报快播涉黄，深圳南山区文化执法大队查封快播公司服务器，快播公司倒闭。如果还有不相信的，可以调取北京海淀法院庭审快播高管王欣时，坐在原告席上的是腾讯公司的代表律师，而不是乐视的律师。既然庭审时，坐在原告席上的是腾讯公司的律师，那么肯定是腾讯举报快播公司涉黄，导致快播公司倒闭的罪魁祸首也是腾讯公司。大家睁大了眼，一定要看清楚啊！！！<br>真相是这样的：快播公司倒闭三年前，快播公司确实盗播乐视购买的正版影视剧了，为了维护公司利益，乐视举报并起诉快播公司，快播公司最后赔偿了乐视20万元，事情就过去了。三年后，腾讯和快播公司竞争深圳一个高科技企业扶持名额，腾讯就把快播公司涉黄的事举报了。快播涉黄可是政治性的问题，深圳南山区文化执法大队查封了快播公司服务器，快播公司倒闭，后来王欣被抓判刑。腾讯就是想整死快播，为了转移大家的注意力，用QQ弹出广告发布乐视举报快播的消息，全国人民一下子都把愤怒转移到乐视身上了，乐视就成了窦娥了。 大家不要再冤枉是乐视举报快播涉黄、导致快播公司倒闭了，真实的情况是：腾讯公司举报快播涉黄，深圳南山区文化执法大队查封快播公司服务器，快播公司倒闭。如果还有不相信的，可以调取北京海淀法院庭审快播高管王欣时，坐在原告席上的是腾讯公司的代表律师，而不是乐视的律师。既然庭审时，坐在原告席上的是腾讯公司的律师，那么肯定是腾讯举报快播公司涉黄，导致快播公司倒闭的罪魁祸首也是腾讯公司。大家睁大了眼，一定要看清楚啊！！！<br>真相是这样的：快播公司倒闭三年前，快播公司确实盗播乐视购买的正版影视剧了，为了维护公司利益，乐视举报并起诉快播公司，快播公司最后赔偿了乐视20万元，事情就过去了。三年后，腾讯和快播公司竞争深圳一个高科技企业扶持名额，腾讯就把快播公司涉黄的事举报了。快播涉黄可是政治性的问题，深圳南山区文化执法大队查封了快播公司服务器，快播公司倒闭，后来王欣被抓判刑。腾讯就是想整死快播，为了转移大家的注意力，用QQ弹出广告发布乐视举报快播的消息，全国人民一下子都把愤怒转移到乐视身上了，乐视就成了窦娥了。 后台强大！ 汽车员工拖欠奖金都发了，没法黑，靠造谣了？真他吗猪的风格 50W人民币。。。 算外逃吗？ [微笑] 我觉得他可能融资到账了，但是，不想声张，否则就会被大家要求还钱，所以低调，把老婆女儿也接到美国了 之前有过报道，当地ZF给FF的期限是12月18号，届时如果再没有资金注入，就会对假药停留在美国产生影响。所以从12月中旬开始这货就开始变着花样玩儿，各种消息各种曝光，但究竟有没有搞到钱、谁给钱却始终含含糊糊闪烁其词，一反平时高调狂妄的做派。按过往惯例，加上不少消息都来源于十句话十句假的“贾丽”之流，FF真融到资的可能性并不大，毕竟信用早破产了。就看这些跳梁小丑的行径当地ZF认不认了，假药停为了留在那边也是挖空了心思，大家坐等看戏吧。 最近不是有十几个品牌出了纯电动车，包括腾讯、阿里、百度都投资了不同的电动车。有些车都量产了。这几个品牌，随便哪家都轻松碾压贾会计，估计贾会计这趟是赶不上了，等下趟吧。就算有10亿美元的融资，应该也不赶趟了。 这年头测试一台手机都要图文并茂配视频还第一次见用文字试车的侯小强我看好你的 强大就不会跑了，你想想看，这几年是不是有几个山西人倒了之后，假药停就各种水逆了。 他对未来汽车的设想可能是我听过的最好的。一位法拉第未来前员工说。明明是ppt是你听过最好的 舞台中央的不是骗子，就是戏子 见到贾跃亭与甘薇夫妇?怎么，老婆孩子都跑出去啦，那更别指望了。 欠我一千块 外国人讲诚信你都这样了人还敢融资给你？ 星球差距的真实性？<br>在近玩帝国时代2,发现运气好,资源多,没有发生战乱很容易升级到帝国时代,运气差的手背的,有的只升级到城堡时代,有的连封建时代没升到就亡国了<br>回望现实世界<br>300年前欧洲文艺复兴进入工业社会,唯物主义诞生,探索宇宙开始启蒙。而中国还停留在农业社会,处于迷信时代,说明文明.科技差距是存在的<br>在把望远镜朝向太空<br>天上有2000亿个星系.银河系活了80亿年，太阳和地球才出生是事实<br>依据上面几点,由此推测<br>由于运气,资源多或少,战乱,发展快慢等原因,星系文明等级差1亿年是很正常的(而人类整个历史只有1万年),也就是说地球刚打开潘多拉魔盒或脑洞大开时,别星系的人早已发展成究极状态<br><br>科普：<br>宇宙有多大<br>直径900亿光年，以光速前行，需900亿年才能到头<br><br>物质有多小<br>假设把一颗1立方毫米铁粒的三维图像放大到太阳那么大,肉眼看到的原子核也只有1立方毫米大<br>如果有足够压力,整个地球的物质多能塞进一个原子里<br><br>物质的神奇<br>以身体为例.细胞构成身体不同的系统,如动力系统,感官系统<br>而电脑,传感器,人工智能,则是依靠电流来实现<br><br>物质属性神奇应用<br>震动(声音)<br>电磁（发电机→电流→电灯→电报→电脑→数控→人工智能→智能社会）<br>粒子相互作用力(分子聚分→TNT炸弹，核子聚分→核弹，电子移动→电流)<br>相互作用力构建了宇宙万物，否则众分子聚不成一个细胞，也聚不成一个星球<br><br>科技带来了什么<br>800年前,蒙古凭着马与弓箭的发明征服整个欧亚大陆,10万军队屠了90%中国人<br>300年前,欧洲凭着船与枪的发明,称霸了地球，原住民几乎见不到<br>现在宇宙处于生命大爆发时代<br>今天，机枪,核弹,生化武器毁地球分秒的事<br>今天工业革命,自动化革命,生产力是以前的10000倍不是梦想<br>人工智能杀人制造灵敏样样优，而人类就是个渣<br><br>历史明智<br>太阳系很大，宇宙很大，利益体很多。斗不是出路，利益合理分配，共存共赢，共甘共苦。各兄弟，各家庭，各部落，各种族，各国家，各星球，各星球群，各星系，各星系群，各集团，各阶级,才会和谐昌盛，才不会被宇宙淘汰，在400万亿亿星球中才有一席之地<br><br>内斗耗光资源，耗光时间，而在宇宙很遥远且完全陌生的星系，正在联盟成更大更强的组织<br><br>提升全人类意识，需你我共同努力(因婴孩‘白纸’时时在出生) ",
        "Reply": 73
    },
    "Article": "（原标题：独家专访乐视中层：“贾跃亭说的都是谎言，因做了太多没诚信之事。”）文/刘钊圣诞节，贾跃亭形象太过丰富。中午，贾跃亭刚向法拉第未来（简称“FF”）的员工发出圣诞祝福；下午，前盛大文学CEO侯小强就点赞F91，并称在洛杉矶见到贾跃亭与甘薇夫妇；傍晚，曝出泰国国家石油公司（简称“PTT”）称未对FF做出任何投资行为；稍晚，北京证监局下发通告，责令贾跃亭回国履责；不久，乐视系资产再度被冻结与贾跃亭房产被查封的法律文书也被曝出。综合起来，在国外，贾跃亭成为“融资顺利贾跃亭”；在国内，他信任尽失已是人尽皆知。对此，证券时报·e公司记者多方采访在职的乐视网（300104）、乐视系公司员工，离职的乐视网高管以及乐视汽车员工等相关人士，希望能尽量还原一个乐视众人眼中的“贾跃亭”。FF融资顺利？乐视网员工：我不信2017年7月4日，贾跃亭前往洛杉矶，称忙于FF事务，此后一直未归，至今已近半年时间。在7月6日辞去乐视网及其他一切职务后，在国外的贾跃亭，只要发声几乎都是关于FF的融资事宜，少有关心乐视其他事务。不过，FF的融资一直推进不顺利。虽然FF公关多次为融资推进放口风，但是国内外并不买账，对于FF能顺利完成融资始终报以怀疑的态度。记者采访的一位乐视网中层就表示，“没有多个第三方信源证实的关于贾跃亭的消息，我都不信，包括这一次。现在乐视在职员工群和不在职员工群都不相信贾跃亭，而且几乎都形成思维定式了，只要贾跃亭说的都是谎言，因为他做了太多没诚信的事”。直到近日，FF融资顺利的消息开始见诸国内媒体。12月7日，有媒体报道“法拉第未来签署超10亿美元融资协议，贾跃亭绝地求生开始”；12月18日，又有媒体称，“FF内部会议宣布超10亿美元A轮融资落地贾跃亭出任公司CEO”；12月21日，甚至有媒体援引“多方独立信源”称，PTT就是法拉第未来A轮融资的投资方，并且直指蒙牛集团创始人牛根生是双方牵线人。在FF看似迎来转机的情况下，贾跃亭开始了庆祝。昨日午间，贾跃亭现身微博，发布圣诞祝福：“MerryChristmasallFFer！”并配上了一张在美国当地工厂的合影，照片中众多人围着7辆汽车，酷似之前FF91的样车。两小时后，前盛大文学CEO侯小强点赞FF91的截图被曝出。侯小强称，“今天在洛杉矶试了FF91，设计、性能，原地打转，加速…堪称惊艳。见了贾跃亭、甘薇，身为创业者，由衷地为他们高兴。期待量产的一天。”不过剧情反转很突然。昨日晚间，有媒体采访到泰国国家石油公司（PTT），对方称，PTT没有对FF做出任何投资行为。一位负责FF国内公关业务的人士对于记者询问的FF融资顺利与否以及融资来源，都表示不予评论和保持沉默。前述乐视网中层认为，不论这一次贾跃亭的FF融资成功与否，此前的太多次假消息，已经伤害了他的诚信，这次即使融资成功也不能说是一个“喜大普奔”的结果，反而是证明了此前放出来的都是假消息，这已经让贾跃亭作为企业家的人设崩塌。北京证监局三度喊话贾跃亭：回国尽责圣诞节，贾跃亭在国外妻儿团聚，为FF员工送上圣诞祝福；北京证监局下发通知喊贾跃亭回国尽责。12月25日，北京证监局发布《关于责令贾跃亭回国履责的通告》（下称“通告”）。通告责令乐视网实际控制人贾跃亭于今年12月31日前回国，切实履行公司实际控制人应尽义务，配合解决公司问题，稳妥处置公司风险，切实保护投资者合法权益。其实这已经是北京证监局第三次对贾跃亭“隔空喊话”。2017年9月13日，北京证监局向贾跃亭下发了《关于对贾跃亭的监管关注函》，明确要求贾跃亭在见文后立即回国，稳妥处置公司面临的各种风险，此后也通过上市公司多次向贾跃亭传达了回国履责的要求，但至今未见其采取相关行动。12月3日，北京证监局再度下发《关于对贾跃亭采取责令改正行政监管措施的决定》（下称“决定”）。决定称，贾跃亭在上市公司经营困难之际抽回全部借款，拒绝履行承诺，置公司风险于不顾，严重损害上市公司及广大中小投资者的切身利益，社会影响恶劣，并违反相关规定。因此，北京证监局对贾跃亭采取责令改正的监管措施，要求其就违规行为出具书面整改报告。作为一种监管措施，即使最终贾跃亭未能按期回国，监管部门也没有强制手段令其归国。不过，北京证监局还是尽到监管层面的努力，这次通告措辞也少有的强势。通告称，贾跃亭以投资汽车业务及融资为由滞留境外，其控制的相关公司对上市公司存在巨额欠款，至今尚未归还，相关行为严重侵害了上市公司的合法权益及广大投资者的切身利益，社会影响极其恶劣。不过，一位乐视系公司在职员工并不看好贾跃亭会归国，他对记者表示，贾跃亭没有契约精神，怎么可能履约尽责，而且他在国内的债主太多了，回得来也还不起。贾跃亭的信任破产已经不仅停留在债主和员工层面，法律层面他也已经是“失信执行人”。今年12月11日与12月15日，贾跃亭两次被法院列为“失信被执行人”，即通俗上说的“老赖”。乐视人：贾跃亭失信?我们背锅虽然贾跃亭屡屡失信在国内已经是人尽皆知，但是由于其身处国外个人与公司行为并未受到太多影响。不过受乐视相关事件波及的人，并不都能像贾跃亭一样“远走高飞”。一位前乐视系高管对记者表示，“我不想提及自己在乐视的那部分事迹，虽然可能只是结局不完美，但是这已经影响我的个人信誉”。另一位打算另谋他职的乐视网在职员工也证实，“现在自己没有了以前的梦想，股权被清零了，老领导也走了，我已经在和别的公司谈跳槽，但是现在只要履历里有乐视经历的已经成‘黑历史’了，会被别的公司用有色眼光看待，和不诚信挂钩，这些在以前离职的那些同事嘴里听过很多次，为什么老贾（贾跃亭）做的事，要我们用未来背锅呢？”本文来源：证券时报责任编辑：王凤枝_NT2541",
    "URL": "http://tech.163.com/17/1226/13/D6JAHLPV00097U7R.html"
}