{
    "Article": "（原标题：湖南岳阳一超市着火致祖孙4人3死1重伤，消防调查起火原因）#endText.video-infoa{text-decoration:none;color:#000;}#endText.video-infoa:hover{color:#d34747;}#endText.video-listli{overflow:hidden;float:left;list-style:none;width:132px;height:118px;position:relative;margin:8px3px0px0px;}#entText.video-lista,#endText.video-lista:visited{text-decoration:none;color:#fff;}#endText.video-list.overlay{text-align:left;padding:0px6px;background-color:#313131;font-size:12px;width:120px;position:absolute;bottom:0px;left:0px;height:26px;line-height:26px;overflow:hidden;color:#fff;}#endText.video-list.on{border-bottom:8pxsolid#c4282b;}#endText.video-list.play{width:20px;height:20px;background:url(http://img1.cache.netease.com/video/img14/zhuzhan/play.png);position:absolute;right:12px;top:62px;opacity:0.7;color:#fff;filter:alpha(opacity=70);_background:none;_filter:progid:DXImageTransform.Microsoft.AlphaImageLoader(src=\"http://img1.cache.netease.com/video/img14/zhuzhan/play.png\");}#endText.video-lista:hover.play{opacity:1;filter:alpha(opacity=100);_filter:progid:DXImageTransform.Microsoft.AlphaImageLoader(src=\"http://img1.cache.netease.com/video/img14/zhuzhan/play.png\");}if(/(iPhone|iPad|iPod|Android|NETEASEBOBO|blackberry|bb\\d+)/ig.test(navigator.userAgent)||/safari|chrome|firefox/i.test(navigator.userAgent)&&navigator.plugins&&!navigator.plugins[\"ShockwaveFlash\"]){varstr1='<videocontrols=\"controls\"preload=\"auto\"width=\"100%\"poster=\"http://vimg3.ws.126.net/image/snapshot/2017/12/V/2/VD5TM1BV2.jpg\"style=\"max-height:100%\">';varstr2='<sourcetype=\"video/mp4\"src=\"http://flv.bn.netease.com/videolib3/1712/29/zOCNq1232/SD/zOCNq1232-mobile.mp4\">您的浏览器暂时无法播放此视频.</video>';document.getElementById(\"FPlayer1404863609673\").parentNode.innerHTML=str1+str2;}湖南岳阳一超市着火致祖孙4人3死1重伤，消防调查起火原因（来源：~）window.NTES&&function(d){varf=function(c){varb=c.getAttribute(\"flashvars\"),a=c.getAttribute(\"repovideourl\").replace(\".flv\",\"-mobile.mp4\");h=d(c.parentNode.parentNode.parentNode),g='<embedsrc=\"http://v.163.com/swf/video/NetEaseFlvPlayerV3.swf\"flashvars=\"'+b+'\"allowfullscreen=\"true\"allowscriptaccess=\"always\"quality=\"high\"wmode=\"opaque\"width=\"100%\"height=\"100%\"type=\"application/x-shockwave-flash\"/>';if(/(iPhone|iPad|iPod|Android|NETEASEBOBO|blackberry|bb\\d+)/ig.test(navigator.userAgent)){g='<videocontrols=\"controls\"preload=\"auto\"width=\"100%\"height=\"100%\"><sourcetype=\"video/mp4\"src=\"'+a+'\">您的浏览器暂时无法播放此视频.</video>';}h.$(\".video\")[0].innerHTML=g;},e=function(b){vara=d(b.parentNode.parentNode.parentNode);a.$(\"li\").removeCss(\"on\"),b.addCss(\"on\"),a.$(\".video-title\")[0].innerHTML=\"string\"==typeofb.textContent?b.textContent:b.innerText,a.$(\".video-title\")[0].setAttribute(\"href\",b.getAttribute(\"url\")),a.$(\".video-from\")[0].innerHTML=\"（来源：\"+b.getAttribute(\"source\")+\"）\",f(b);};window.continuePlay=function(){vara,b=d(d(\".video-list.on\")[0].nextSibling);3==b.nodeType&&(b=d(b.nextSibling));if(b&&d(\".video-innerinput\")[0].checked){e(b);}},function(){vara={init:function(){if(d(\".video-listli\")[0]){d(d(\".video-listli\")[0]).addCss(\"on\"),this.eventBind();}},eventBind:function(){d(\".video-listli\").addEvent(\"click\",function(b){e(d(this)),b.preventDefault();});}};a.init();}();}(NTES);12月27日凌晨4时，湖南岳阳市岳阳楼区新路口小区门口一超市着火，消防人员证实了，事故造成住在超市二楼的祖孙4人3死1重伤。岳阳市公安消防支队工作人员12月29日上午告诉澎湃新闻，对于疑似线路老化着火的说法目前还不能确定，具体着火原因还在调查。事发时，正在水果店二楼睡觉的刘女士被自家超市传来的噼里啪啦声音惊醒，她出门查看发现超市起火，而公公婆婆和她的两个儿子被困在超市楼上，刘女士赶忙呼喊附近居民展开营救。刘女士告诉澎湃新闻，公公婆婆和孩子住的二楼，是从超市直接上楼，没有别的通道。紧挨着着火处的住户曹女士全程参与了救援，她告诉澎湃新闻，发现火情后立即报警，与孩子母亲刘女士和一个热心市民尝试用灭火器救火。消防人员到达后，由于道路被堵，消防车无法前行，她带领消防人员从小路徒步到达到小卖部后门，将7岁的大孙子救出，两位老人与2岁的小孙子因火势太大不幸身亡。曹女士说，当时7岁的孩子在二楼一直喊着“曹奶奶救我”。遇难老人的女婿范先生12月28日下午告诉澎湃新闻，由于路口施工，阻挡了消防通道，致使消防车无法通行，只能停在对面马路，远距离喷水灭火。最终消防人员以人工爬行的方式，从小卖部后门爬至二楼窗口，剪开防盗窗将7岁的侄儿救出。不过对于路口施工阻碍消防救援工作的说法，前述岳阳市公安消防支队工作人员表示，不影响正常救援。范先生提供给澎湃新闻的现场图片显示，着火小区名叫“新路口住宅小区”，紧挨着小区门口便是着火的超市，从现场图片可以看出，当时小区门口和超市门口确有施工。孩子母亲刘女士28日下午告诉澎湃新闻，孩子现在岳阳市第二人民医院治疗，目前已无生命危险，医院初步定为二至三级烧伤。现在孩子一直处于高烧不退状态，不时出现昏迷情况，如果情况持续恶化将转至重症监护室。本文来源：澎湃新闻责任编辑：李天奕_NN7528",
    "URL": "http://news.163.com/17/1229/17/D6RFG24D0001899N.html",
    "Source": "Netease",
    "KeyWords": "着火,消防,消防人员,超市",
    "Comment": {
        "Reply": 52,
        "Link": "http://comment.news.163.com/news2_bbs/D6RFG24D0001899N.html",
        "Total": 417,
        "Content": "太可怜了，希望各电力部门严查已经老化的电线，无论是城里或乡下，一定要好好检修一番。 放你吗的屁，我家就住附近，凌晨着火，而且这超市就在大马路边上，堵你吗的车，你造这谣有什么意思？ 大门口堵死是因为地下水管更换吧，谁的责任？ 作孽！ 年底了安全第一啊 你真是附近的人吗？说话要有良心！你没有见到现在那里大门依旧在堵死了吗？我就是事故发生者的亲人。要有口德和良好的心态。 消防人员到达后，由于道路被堵，消防车无法前行 家里备点消防用品，应急逃生用品吧。平时多科普点消防知识，有备无患。 走好 凌晨四点怎么失火。<br>可能是有员工早起准备去市场进生鲜。早早开始工作活动失误。<br>或者是电动车类充电出事。 装空调那个小门就行有小孩的平时挂把锁记得钥匙放哪里就行。。。 都过了几天才报 要是没安全窗二楼跳下来应该不至于3死，大家安安全窗一定要安装内部能打开的…… 我家对面也起好大的🔥...电🔥！整个家里的墙壁都炸碎了！起火的时候，居然带着我儿子在家里睡觉！外面啪啪响的声音还以为是谁放烟花！后来才知道是煤气爆炸、还有玻璃炸碎的声音！[石化][石化][石化][石化][石化]现在想来心有余悸！对面家的防盗门都炸变形了[骷髅][骷髅][骷髅] 最近火情较多啊，大家注意防范吧！年底了都不容易！！ 一定要注意安全 希望他们会早点好起来，祝福 这还要等高烧不退才进重症监护室，如果是两死一伤，那个伤者估计早就进重症监护了 湖南一周新闻上就有三次火灾:1.长沙火车站装点墙起火;2.路上车子起火;3就是这例，现在人死了这么多，不知道能否引起什么人注意! 这边老式楼房安全隐患太多. 原文就是这样，你对我吼什么吼？ 年底了安全第一啊 放你吗的屁，我家就住附近，凌晨着火，而且这超市就在大马路边上，堵你吗的车，你造这谣有什么意思？ 最近几天，<br>你就像那一把火<br>熊熊火光照亮了我。<br>祈祷平安。 你真是附近的人吗？说话要有良心！你没有见到现在那里大门依旧在堵死了吗？我就是事故发生者的亲人。要有口德和良好的心态。 来啊退了 哎，悲剧啊 凌晨四点怎么失火。<br>可能是有员工早起准备去市场进生鲜。早早开始工作活动失误。<br>或者是电动车类充电出事。 家里的时候 这还要等高烧不退才进重症监护室，如果是两死一伤，那个伤者估计早就进重症监护了 年底了安全第一啊 [惊讶][惊讶][惊讶]过年了安全第一 装空调那个小门就行有小孩的平时挂把锁记得钥匙放哪里就行。。。 宇宙的探索是离不开我的话的，只有把围绕地球公转的一切物质包括气体计算在地球体积之内才能找到地球真正的边和角，那是反引力汇聚地，是真正的真空隧道，宇宙高速路，太阳系内的动脉!把围绕太阳公转的一切物质包括气体计算在太阳体积之内才能找到恒星与恒星的边和角，那是恒星与恒星之间的真空高速隧道，找到真空隧道以近光速超光速飞行那不是个事!宇宙飞行器也不能按照飞机的二维结构原理制造，飞机是不能高速自转的，但只有高速自转才能产生真空电磁场，以近光速飞行，未来的宇宙飞行器必须按地球原理制造，八层以上结构，你看地球高速自转着前进，我们人坐在地球上有啥不适感觉吗？ 走好 水火无情啊！今天一定要防火做好 兄弟们，烧起来吧 湖南一周新闻上就有三次火灾:1.长沙火车站装点墙起火;2.路上车子起火;3就是这例，现在人死了这么多，不知道能否引起什么人注意! 要是没安全窗二楼跳下来应该不至于3死，大家安安全窗一定要安装内部能打开的…… 火灾猛于虎 擦，我在本地竟然不知道这事 原文就是这样，你对我吼什么吼？ 可怜的娃 太可怜了，希望各电力部门严查已经老化的电线，无论是城里或乡下，一定要好好检修一番。 希望他们会早点好起来，祝福 我也觉得....整个单元的人都跑了！就我跟我儿子在家睡大头觉！！！要命的是起火的地方就是对面对那一户！我觉得我要烧香拜佛了！躲过一劫... 作孽！ 对啊 有小孩的平时挂把锁记得钥匙放哪里就行。。。 宇宙的探索是离不开我的话的，只有把围绕地球公转的一切物质包括气体计算在地球体积之内才能找到地球真正的边和角，那是反引力汇聚地，是真正的真空隧道，宇宙高速路，太阳系内的动脉!把围绕太阳公转的一切物质包括气体计算在太阳体积之内才能找到恒星与恒星的边和角，那是恒星与恒星之间的真空高速隧道，找到真空隧道以近光速超光速飞行那不是个事!宇宙飞行器也不能按照飞机的二维结构原理制造，飞机是不能高速自转的，但只有高速自转才能产生真空电磁场，以近光速飞行，未来的宇宙飞行器必须按地球原理制造，八层以上结构，你看地球高速自转着前进，我们人坐在地球上有啥不适感觉吗？ 最近火情较多啊，大家注意防范吧！年底了都不容易！！ 一定要注意安全 怎么总有挡住救火生命线的 itlight 大门口堵死是因为地下水管更换吧，谁的责任？ 所有堵路的车以过失杀人罪逮捕！ 消防人员到达后，由于道路被堵，消防车无法前行 家里备点消防用品，应急逃生用品吧。平时多科普点消防知识，有备无患。 只有这种不考虑后果的小孩子才敢做好事吧 来我家 岳阳的司机最牛逼、就算6车道都不够用 来， 我家对面也起好大的🔥...电🔥！整个家里的墙壁都炸碎了！起火的时候，居然带着我儿子在家里睡觉！外面啪啪响的声音还以为是谁放烟花！后来才知道是煤气爆炸、还有玻璃炸碎的声音！[石化][石化][石化][石化][石化]现在想来心有余悸！对面家的防盗门都炸变形了[骷髅][骷髅][骷髅] 年末了，要注意防火防盗防诈骗 你心真大 年底了，安全第一啊 真的是这样 这边老式楼房安全隐患太多. 还有防盗窗，也是个害人的东西 应该是殉情自杀 真的 还是平房好逃生 都过了几天才报 "
    },
    "Title": "湖南一超市着火致祖孙4人3死1重伤 起火原因正调查_网易新闻",
    "PublishTime": "12/29/201717:54:34"
}