{
    "Comment": {
        "Link": "http://comment.tech.163.com/tech_bbs/D6L70Q6B00097U7T.html",
        "Reply": 174,
        "Content": "不管怎么说，这是好事，那些喷的是不是别的快递公司的？ 厉害，这可不是玩具哦 2楼你不认钱，你能干什么？ 我家顺丰让房门口顺风都坚决不放一定要送到手或者改时间再送到手 顺丰将来如果改型军工领域，就能看到带SFLogo的弹道导弹了，哈哈 只送你一家的货，当然可以送上楼。别人的货还在车上呢，就不怕小偷光顾了？ 人家又不是搞慈善的，就怕用钱都没人有能力接这活！！ 从安全角度考虑，我还真不想快递送到房间门口。 价格不一样享受的服务也不一样！京东的东西一般比淘宝贵一点。 昨天夜里九点收到京东快递，他们确实辛苦 物流界的楷模 他为什么要提呢？他也没义务非要提供收费上楼服务啊除非是法律规定快递必须送上门 不该给么？公司行为！难道不收等亏损倒闭？ 飞机上的字是自主研究的。 所以京东搞垮他们，我基本能在京东买东西绝不去淘宝，那些快递太烂了！ 二楼就是那种：“你那么有钱，不分我十几亿就是假慈善” 你付十倍的运费肯定给你送上门 放过那些不怎么收快递的土炮吧，人家难得收一两次快递，总要装下大爷的啊 现在的顺丰，接着吹，送货都不送上门。 那更完蛋了，不管是哪家，发动机的核心技术比如活塞这些都是抄几百年前的古人的。那个什么柯尼赛格、兰博基尼、保时捷之类的也要完蛋，特别是柯尼赛格！发动机都是AMG提供，还有各种部件基本都是东拼西凑。至于那个特斯拉就更搞笑，最核心的电池还是松下的技术……你明白了吗？按你的想法，全世界都是山寨的，什么自主不存在的。 13月就能研发出无人机？ 你们北京那逼地方现在是什么情况你们心里没点逼数吗？ 快递员确实不容易。 好像都是用丰巢了吧，反正我这一年快递全部是在丰巢快递柜拿的，不管是谁家快递 二楼说你SB肯定有人给我点赞！ 你想多了顺丰只认钱！ 用来偷渡就牛逼了 认钱就够了,至少,钱认了,活能干好,不像某些......... 挂上导弹就能上战场了 哪就把运费降了!! 砸到小朋友怎么办？ 说的没错，小区门口还不爱等 我不是很懂，但是个人认为，自主研发的话，例如汽车，那么最核心的东西应该是自己做出来的才能叫自主研发，例如发动机。 自主研发包装箱 抗震救灾就能用上了 顺丰有自己的航空公司，还有无人机公司，航线这种都是小事，而且顺丰还是空军后勤部的战略合作伙伴。 一楼二楼接着黑，京东顺丰还是快递非常好的 就算砸不到小朋友，砸到花花草草怎么办？ 只要保证物资能送到手里，保证工具能到达现场。以后各种赈灾我都希望顺丰能派上，从捐的款项出就行。 什么叫自主研发。 行了行了，只要不是莱特兄弟搞的都是山寨飞机好了吧！而且莱特兄弟也是山寨兄弟，他们山寨了滑翔机的外形……这或许可以追究到达芬奇。 客观的说，如果你喷顺丰～中国就没有第二家物流公司能满足你的需求了 你们说的很轻松。对于快寄员来说。上不上楼根本不是什么事。但是把车放楼下。10次可能会被人偷二三次。我以前做电商的，快寄员每年光是因为被人偷拿的快寄就要被扣好多钱。还要求爷爷告奶奶的和客户解释。至于在小区门口不爱等，请参考送快餐的，他们一天多的要送150-200个快寄，晚半天就要扣钱。被投诉一次扣100-200至少。很多时候他们送件的时间都卡在几分钟的误差。你让他等你半小时，可能吗？又不是给你一个人送。 要不要申请航线？还要申请哪些文件才能飞呢？要是偷飞会不会像成都那架大江无人机被罚款？ 我见过打电话让快递员等二三十分钟的。 京东，顺丰，唯品会的快递都很不错！ 而且有些个傻逼说没在家，让一会送过来，人家快递员走了，他回来就开始催！ 京东快递是很快，会送上楼吗？？ 巡航高度6000米，起飞重量3吨，最大载荷1.2吨，这个太牛了吧！！！这些指标比彩虹、翼龙等武装无人机还要牛！！以后顺风就向中东地区出口无人机算了，改行做军火商，比快递更赚钱。 社会责任，厉害了 要不要申请航线？还要申请哪些文件才能飞呢？要是偷飞会不会像成都那架大江无人机被罚款？ 如果哪天你看到一架飞机空投下一个箱子，请不要惊讶，那只是你的快递到了 砸到小朋友怎么办？ 你想多了没等出边境呢就给你轰下来还偷渡！！ 看机型是彩虹系列的，说明中国还有更牛的军用无人机没曝光 13个月就能研制出一台飞机了？ 看看顺丰在做撒，邮政在干撒呢你可是国营企业 不是德邦嗎 为什么他们公司的三轮车可以上路交警视而不见？老百姓的三轮车就不可以上路？就因为他们交了保护费？他们企业三轮车可以上路赚钱老百姓的三轮车上路为了正常生活都不行？ 无人机送快递… 无图无真相 物流界的楷模 这种机型不适合山区复杂地型，能投送的空旷地方别的有人飞机也能进而且载货能力更强。所以这个目前象征意义更强。 吊仓怎么看都像欧洲某款导弹 有资质某？ 我觉得有自己的特点，特色就差不多是自主研发！ 牛逼啊，彩虹无人机是在我们浙江台州生产的 二楼就是那种：“你那么有钱，不分我十几亿就是假慈善” 数据一旦被干扰，掉头直接飞警察局了。不对，固定翼飞机必须有跑道才能降落，不像旋翼机。只能是坠毁。 那更完蛋了，不管是哪家，发动机的核心技术比如活塞这些都是抄几百年前的古人的。那个什么柯尼赛格、兰博基尼、保时捷之类的也要完蛋，特别是柯尼赛格！发动机都是AMG提供，还有各种部件基本都是东拼西凑。至于那个特斯拉就更搞笑，最核心的电池还是松下的技术……你明白了吗？按你的想法，全世界都是山寨的，什么自主不存在的。 一个保密资质就限制了进入该领域，除非你只做配套。因为审核的专家都是国有军工企业的领导。 现在的顺丰，接着吹，送货都不送上门。 你去买个手机自己做个手机套然后手里的机器就叫自主研发。 可以装好几个人 哪就把运费降了!! 你们北京那逼地方现在是什么情况你们心里没点逼数吗？ 你知道得很多[报警] 好像都是用丰巢了吧，反正我这一年快递全部是在丰巢快递柜拿的，不管是谁家快递 你想多了顺丰只认钱！ 用来偷渡就牛逼了 顺丰本来就有飞机，航线肯定要申请。但只是流程问题。现在是先让技术成熟，实用，通过检查一类 灾区有救， 挂上导弹就能上战场了 这个本来就是军用无人机腾顿就是翼龙1的总师把整个团队拉出去单独成立的公司因为这个他们几乎被整个中航给封杀了但是没用背后金主有钱 快点快点，赶快包好，我还有好几个件没收呢，再晚了赶不上别啦！ 这种吨位的飞机啊高速随便降的。2站那些战地机场很简陋的，高速路都不如的一大把。 快递员和送餐员确实很辛苦，但是话说回来了，送不过来为什么接这么多单？ 投导弹吗？ 现在顺丰已经不如以前了，半年前不保价的丢件损坏赔200-500，现在只赔几倍运费了事，反正4通一达丢虽然不包损但丢件都会按1000块以下实际价值赔 说的没错，小区门口还不爱等 因为他们接受管理规范且上了牌照，出事可以追究责任。而那些“老百姓”8成以上开个电动车尾巴就翘上天，一点交通法规都不管，也不想管，出事就跑路走人。 以后顺丰估计要卖飞机了 😱😱😱😱😱😱😱😱😱 我不是很懂，但是个人认为，自主研发的话，例如汽车，那么最核心的东西应该是自己做出来的才能叫自主研发，例如发动机。 抗震救灾就能用上了 不该给么？公司行为！难道不收等亏损倒闭？ 咋了，共同富裕…… 就算砸不到小朋友砸到那些花花草草也是不好的呀 顺丰有自己的航空公司，还有无人机公司，航线这种都是小事，而且顺丰还是空军后勤部的战略合作伙伴。 快递员确实不容易。 什么叫自主研发。 行了行了，只要不是莱特兄弟搞的都是山寨飞机好了吧！而且莱特兄弟也是山寨兄弟，他们山寨了滑翔机的外形……这或许可以追究到达芬奇。 兄弟想去哪?索马里?乌干达?还是刚果金? 做生意的就怕这样的朋友，所以有这种思想的人没背景的只能一辈子给别人打工 楼上讲段子呢？ 社会不和谐就是4楼这样的大爷太多了 你们说的很轻松。对于快寄员来说。上不上楼根本不是什么事。但是把车放楼下。10次可能会被人偷二三次。我以前做电商的，快寄员每年光是因为被人偷拿的快寄就要被扣好多钱。还要求爷爷告奶奶的和客户解释。至于在小区门口不爱等，请参考送快餐的，他们一天多的要送150-200个快寄，晚半天就要扣钱。被投诉一次扣100-200至少。很多时候他们送件的时间都卡在几分钟的误差。你让他等你半小时，可能吗？又不是给你一个人送。 所谓的鼓励自主研发背后真正的原因是如果自己造不了的话真到用的时候他们就要以放弃自己的特权为代价去换取他们不干记住是他们的特权而不是国家主权现在你国力在这放着没有哪个西方国家会为了技术让你放弃国家主权人家要的只是某些领导放弃自己的特权而已 中国的快递运费可是真便宜 物流界的楷模 是呀 京东快递是很快，会送上楼吗？？ 巡航高度6000米，起飞重量3吨，最大载荷1.2吨，这个太牛了吧！！！这些指标比彩虹、翼龙等武装无人机还要牛！！以后顺风就向中东地区出口无人机算了，改行做军火商，比快递更赚钱。 最好的就是jd，其次亚马逊等自建物流。和那些快递的区别就是人员整体素质明显高一个档次，能看出来是一个能维护公司形象，为客户考虑的服务。<br>现在最烂的就是杰克马搞的菜鸟，直接甩货不打电话，这他妈叫快递？那几家费用越来越高，服务却越来越烂，送货上门基本的都做不到。早点死吧。还有顺丰，也别吹了，收费第一，服务一般。我这的这两年明显觉得人员特别慵懒，配送都懒得管。<br>最近倒是某些小快递，或者说新快递还行。比如安能，切身体验不是托，只说我这里。服务态度还行，肯定上门联系你，收费还是以前的正常费用。我8块钱能寄的件，肯定不去12块的，还各种理由涨价，服务做烂的菜通达。 还有导弹挂架。。。 敢把收货地址详细到房号的人心真大！在警察私下的交谈中会告诉你这都是傻子。 顺丰将用无人机送快递 那也用顺丰。。别的快递别提送上门了，能在几天内到货就不错了。。现在200块钱以上的快递我都让卖家发顺丰到付，踏实。而且一般上班的人都会发到单位吧。。我从上班以来基本上就没往家里发过快递了 时效比以前都慢了，大企业不得了了 只送你一家的货，当然可以送上楼。别人的货还在车上呢，就不怕小偷光顾了？ 想要整栋楼的住户信息？很容易就能找到，中国没有隐私的概念。 从来不要快递送上门，都是放服务点自己去，晚上下班，小快递和老婆散个步就取了。还锻炼了身体。大快递自己开车去取。 装上💣，那真的是国际快递了！[骷髅][骷髅] 那你就别吹啊，顺风确实恶心，婊子立牌坊，其他几家做得差起码价格和名声对应，顺风就是一边不要脸一边立牌坊，好几次顺风都是直接放快递柜后才给我打电话，呵呵。现在好点的也就京东，每次都是打电话先问在不在，不在就给我放干洗店。 又来套股票了~这套路真是满满！这无人机明航局能给你飞？？就算给你飞你能飞几架？这飞机硬件软件不就拿彩虹过来改改成自己的呗还自己研发 从安全角度考虑，我还真不想快递送到房间门口。 帅啊 很快，国家就会帮叫停的，抢他们饭碗 天朝的战略运输体系就靠你了 从旁边的人体大小比较来看，好像尺寸不大 他为什么要提呢？他也没义务非要提供收费上楼服务啊除非是法律规定快递必须送上门 还是不一样的，彩虹说无人机没有空中管制，顺丰厉害的不是飞控系统，主要是空中管制和智能系统。 中国人工成本上涨非常迅速，新兴产业和消费者享受低廉人工价格的好日子将一去不复返。 你这种人花了10块钱就当自己是上帝，不用管别人死活了 飞机上的字是自主研究的。 最喜欢吹牛逼了 分清京东和顺丰的区别好吧 你付十倍的运费肯定给你送上门 😖😞😞😰😰😰 现在的顺丰，接着吹，送货都不送上门。 顺丰啊，说实话越来越那么回事了，不如当年了 順豐，順瘋 不知成本比汽车运输如何 现在做无人机，已经不是高科技了 “先生，您的快递到了，麻烦你准备签收”。<br>“在哪呢？没看见”。<br>“抬头往上看”。<br>咚!<br>啊！。。。。HELP！ 他就等着偷呢，快递员不离开他当然不开心。 砸到小朋友怎么办？ 二楼说你SB肯定有人给我点赞！ 这个只有1.5吨，还有更大. 顺丰自己做的，还是买中航的？ 好玩的都在这只是小显身手，就得到了你的赞美。谢谢。只是小显身手，就得到了你的赞美。谢谢。只是小显身手，就得到了你的赞美。谢谢。只是小显身手，就得到了你的赞美。谢谢。只是小显身手，就得到了你的赞美。谢谢。只是小显身手，就得到了你的赞美。谢谢。只是小显身手，就得到了你的赞美。谢谢。只是小显身手，就得到了你的赞美。谢谢。关注“22点tv” 挂上导弹就能上战场了 江浙沪这回更快了 你买了快递费？大多是免快递费吧~~你在家随时点餐淘宝京东的便利，这个钱是商家成本+快递收入平摊的~~~~以前网络不发达也有电话送餐，那个时候商家专门送餐人数有限，就算是楼下的小店，等一个小时也是常有，花多少钱享受多少服务懂不，你当你是富二代，你定个VIP送餐试试？ 都不容易，等自己下楼取就尽量尽快下楼把，让人家等真的不好意 说的没错，小区门口还不爱等 对于快递员来说，真的就是时间就是金钱。 等个屁 菜鸟不都是上门自提吗？ 顺丰没有熟人介绍的，没有关系的刚去不会给你好区域，给你的都是小区，别人不想要的。所以没有上述两点还是不要去了，一个月跑小区也就四五千块，还没有工厂高，不管你吃住，最基本的电话费补助都没有。你不送礼你就一直在这个区域里跑着，当然送礼了也不一定会给你调整区域，拿了钱不办事的大有人在，就像杭州闻堰点部的主管王金波，他调到滨江长河点部做运作主管，就给我们闻堰的有些人说了想调到长河拿高工资的人去找他，据我了解不下六个人给他送了钱，长河啊！人均过万啊！谁不想去。结果钱送了，事没办。大家来评评理，该怎么办？？？ 客户是花钱买了你的上门服务的，你的难处你得自己想办法解决。大家谁没难处？你晚了，投诉你也是天经地义的 13月就能研发出无人机？ 很清楚。<br>然后呢？<br>说的是对送件服务的对比。没提别的。 就算没砸到小朋友，砸到花花草草也不好啊！[窃笑][窃笑][窃笑] 客观的说，如果你喷顺丰～中国就没有第二家物流公司能满足你的需求了 顺丰自主研发？？？顺丰会做飞机？？？？？？？？？？？ 我错了查了一下确实有规定必须送货上门而且还要实名认证 你们说的很轻松。对于快寄员来说。上不上楼根本不是什么事。但是把车放楼下。10次可能会被人偷二三次。我以前做电商的，快寄员每年光是因为被人偷拿的快寄就要被扣好多钱。还要求爷爷告奶奶的和客户解释。至于在小区门口不爱等，请参考送快餐的，他们一天多的要送150-200个快寄，晚半天就要扣钱。被投诉一次扣100-200至少。很多时候他们送件的时间都卡在几分钟的误差。你让他等你半小时，可能吗？又不是给你一个人送。 很快人类驾驶员就牛不起来了，10年后应该都是无人驾驶了 这算不算藏兵于民啊？ 京东，顺丰，唯品会的快递都很不错！ 厉害了👍顺丰 不管怎么说，这是好事，那些喷的是不是别的快递公司的？ 厉害，这可不是玩具哦 我们这也是，除了顺丰京东，都送小区里的超市，还分着，中通圆通一个超市，申通什么的一个超市，问了超市的人，说是放那一个件给超市5毛吧，要是量大好像一块钱3件 砸到小朋友怎么办？ 我这就顺丰和京东上门，其他快递送货距离比我取货距离还短 支持随时技术差点，总比没有好 小区让进么？门禁无卡能进么一群懒B 应该研制新能源大型无人机，这种航空发动机的过于依赖国外技术。 卡里了 不会啊，海淀、朝阳这里顺丰送货上门啊？四通一达的只放在小区门口的格格、E栈之类的。 京东 xh 砸到花花草草也不好啊 自己投资当老板 现在的顺丰，接着吹，送货都不送上门。 自主研发包装箱 现在哪个快递送上门？ 这可不是狗东哦 哪个快递都有不咋地的快递员，整体来讲，顺丰还是好过其他快递很多的 我们这儿还好啊，送货上门，还愿意等 顺丰将来如果改型军工领域，就能看到带SFLogo的弹道导弹了，哈哈 态度不好就是 能不能先把，最基本快递送好呢。 卧槽，顺丰都开始玩这个了？ 康复科 利害了，我的哥。。。。 不会啊，我家就送货上门啊。只有那几个四通一达放在楼下的E栈、格格之类的。 …我换了三个城市顺丰都对我很好……我搬家他都帮我搬。而且走的时候还帮我丢垃圾。还会帮我带吃的虽然是我掏钱 哪个快递都有不咋地的快递员，整体来讲，顺丰还是好过其他快递很多的 空投啊😁 这个用来走私就厉害了 嗯弄 说的没错，小区门口还不爱等 以后城市上空满天的无人机在飞，顺丰的，韵达的，中通的，还有圆通申通，我靠还有UPS联邦热闹，呵呵哒！ 我买的都送，一个人把电视剧扛上7楼 可以做无人轰炸机了 别人家还在搞四轴顺丰已经开始玩固定翼了 就算砸不到小朋友，砸到花花草草怎么办？ 什么叫自主研发。 6666 自主研发我不信，但肯定还是花了不少钱。不过比起新闻的宣传效应，品牌提升，这个钱花得值，估计后面几家快递要跟进！ 我们这只有顺丰还上门 屌爆了 厉害了，，， 我见过打电话让快递员等二三十分钟的。 我们这，除了顺丰，其他都不上门，直接一个短信，小区门口小卖部，自己过来拿。 就算砸不到小朋友砸到花花草草也不好啊。至少他们不用面对这个残酷的世界了。 ",
        "Total": 1462
    },
    "Article": "（原标题：视频｜顺丰大型无人机模拟应急物资快速投递：载重1.2吨）#endText.video-infoa{text-decoration:none;color:#000;}#endText.video-infoa:hover{color:#d34747;}#endText.video-listli{overflow:hidden;float:left;list-style:none;width:132px;height:118px;position:relative;margin:8px3px0px0px;}#entText.video-lista,#endText.video-lista:visited{text-decoration:none;color:#fff;}#endText.video-list.overlay{text-align:left;padding:0px6px;background-color:#313131;font-size:12px;width:120px;position:absolute;bottom:0px;left:0px;height:26px;line-height:26px;overflow:hidden;color:#fff;}#endText.video-list.on{border-bottom:8pxsolid#c4282b;}#endText.video-list.play{width:20px;height:20px;background:url(http://img1.cache.netease.com/video/img14/zhuzhan/play.png);position:absolute;right:12px;top:62px;opacity:0.7;color:#fff;filter:alpha(opacity=70);_background:none;_filter:progid:DXImageTransform.Microsoft.AlphaImageLoader(src=\"http://img1.cache.netease.com/video/img14/zhuzhan/play.png\");}#endText.video-lista:hover.play{opacity:1;filter:alpha(opacity=100);_filter:progid:DXImageTransform.Microsoft.AlphaImageLoader(src=\"http://img1.cache.netease.com/video/img14/zhuzhan/play.png\");}if(/(iPhone|iPad|iPod|Android|NETEASEBOBO|blackberry|bb\\d+)/ig.test(navigator.userAgent)||/safari|chrome|firefox/i.test(navigator.userAgent)&&navigator.plugins&&!navigator.plugins[\"ShockwaveFlash\"]){varstr1='<videocontrols=\"controls\"preload=\"auto\"width=\"100%\"poster=\"http://vimg3.ws.126.net/image/snapshot/2017/12/8/1/VD5NCOJ81.jpg\"style=\"max-height:100%\">';varstr2='<sourcetype=\"video/mp4\"src=\"http://flv.bn.netease.com/videolib3/1712/27/ZlLrO0410/SD/ZlLrO0410-mobile.mp4\">您的浏览器暂时无法播放此视频.</video>';document.getElementById(\"FPlayer1404863609673\").parentNode.innerHTML=str1+str2;}顺丰大型无人机模拟应急物资快速投递（来源：网易）window.NTES&&function(d){varf=function(c){varb=c.getAttribute(\"flashvars\"),a=c.getAttribute(\"repovideourl\").replace(\".flv\",\"-mobile.mp4\");h=d(c.parentNode.parentNode.parentNode),g='<embedsrc=\"http://v.163.com/swf/video/NetEaseFlvPlayerV3.swf\"flashvars=\"'+b+'\"allowfullscreen=\"true\"allowscriptaccess=\"always\"quality=\"high\"wmode=\"opaque\"width=\"100%\"height=\"100%\"type=\"application/x-shockwave-flash\"/>';if(/(iPhone|iPad|iPod|Android|NETEASEBOBO|blackberry|bb\\d+)/ig.test(navigator.userAgent)){g='<videocontrols=\"controls\"preload=\"auto\"width=\"100%\"height=\"100%\"><sourcetype=\"video/mp4\"src=\"'+a+'\">您的浏览器暂时无法播放此视频.</video>';}h.$(\".video\")[0].innerHTML=g;},e=function(b){vara=d(b.parentNode.parentNode.parentNode);a.$(\"li\").removeCss(\"on\"),b.addCss(\"on\"),a.$(\".video-title\")[0].innerHTML=\"string\"==typeofb.textContent?b.textContent:b.innerText,a.$(\".video-title\")[0].setAttribute(\"href\",b.getAttribute(\"url\")),a.$(\".video-from\")[0].innerHTML=\"（来源：\"+b.getAttribute(\"source\")+\"）\",f(b);};window.continuePlay=function(){vara,b=d(d(\".video-list.on\")[0].nextSibling);3==b.nodeType&&(b=d(b.nextSibling));if(b&&d(\".video-innerinput\")[0].checked){e(b);}},function(){vara={init:function(){if(d(\".video-listli\")[0]){d(d(\".video-listli\")[0]).addCss(\"on\"),this.eventBind();}},eventBind:function(){d(\".video-listli\").addEvent(\"click\",function(b){e(d(this)),b.preventDefault();});}};a.init();}();}(NTES);顺丰自主研发的大型无人机在云南进行测试。澎湃新闻编辑秦盛(00:55)澎湃新闻记者欧阳李宁在应急情况下，顺丰将可能利用大型无人机通过空投的方式，进行通讯器材、备件的运输。12月26日，顺丰基于客户的真实业务需求，联合合作伙伴腾盾和京润华创在云南某地，进行国内首次大型无人机应急物资快速投递的演示验证飞行，模拟在紧急情况下，利用大型无人机进行备件运输，组织紧急抢修，快速恢复通讯。澎湃新闻记者在现场看到，一架顺丰的大型无人机从云南某机场起飞，飞行约30分钟后，抵达“受灾地点”附近的基站上空。飞机降低高度至约300米，将吊舱从空中自动投放。约30秒后吊舱缓缓降落在空地上，工作人员从吊舱中取出备件，确保“抢修”工作可以顺利进行，快速恢复通讯。据介绍，本次演示中使用的大型物流无人机翼展20米，机身长10米，起飞重量约3吨，载重1.2吨，是目前全球大型的物流无人机之一。巡航速度可达250千米/小时，航程可达3000千米，升限6000米。该机型研发时间为13个月，集结了国内顶尖无人机研发团队，有国家级技术专家近10人，省部级技术专家82人。顺丰方面介绍，该款无人机除了可以将货物空投到任意区域，还可以运用于机场到机场之间的运输，适用多种物流运输场景，成为顺丰“大型有人运输机+支线大型无人机+末端小型无人机”三段式空运网实现36小时通达全国中的重要组成部分。澎湃新闻记者注意到，算上此次场景试飞的无人机，2017年顺丰已经先后实现了水陆两栖无人机、大吨位无人机的试飞工作。再加上此前对外披露过的各种中小型无人机，顺丰的无人机机队已初现规模。顺丰集团副总裁、丰鸟航空科技有限公司董事长李东起表示，更多吨级物流无人机也会陆续推出，以便适应国内各种业务场景，进一步实现与顺丰航空物流网络干支对接，完成对三线及以下城市的航空网络覆盖。李东起表示，这些支线运输业务使用无人机替代传统货运飞机有诸多好处，“比如为地面基础设施不发达的区域提供便利的物流运输服务，实现偏远地区时效敏感的高价值农产品、医药等货物的快速运输等。此外，在飞行员较为缺乏的中国航空运输市场，还可以节约一笔巨大的人力成本，不仅可以大大简化运营，降低成本，更可以降低因为人员疲劳或单调场景作业所造成的安全隐患。”李东起指出，在军民融合的政策环境下，传统的物流企业在军用领域的探索同样适用于无人机应用。“比如大型无人机可以实现海岛等远距离供给，支持我国边防建设。偏远地区的军民融合项目及哨所供给，也都可以由这些并不需要大型机场起落的无人机完成。在发生重大自然灾害时，运送药品和急救用品至关重要，无人机可以发挥无人员伤亡风险、生存能力强，机动性能好，使用方便等优势，在短时间内抢救生命线，挽救灾情。”目前，无人机在物流行业大规模应用的最后一道阻碍是政策环境和监管法规：一方面是低空空域尚未完全开放，另一方面则是无人机运营的政策法规尚未完善。李东起表示，在无人机大规模商用之前，企业应该提出初步的解决方案。“对于顺丰，无人机也在企业内部引发蝴蝶效应，已经不能简单地称其为物流公司。”贯铄企业CEO、快递专家赵小敏表示，顺丰要打造亚洲航空枢纽的进程已在加速，2012年至今，从广东、陕西、四川、江西再到云南，顺丰在物流无人机领域可谓突飞猛进，从技术、资金投入、人才等都远远走在前列。本文来源：澎湃新闻责任编辑：王凤枝_NT2541",
    "PublishTime": "12/27/201707:30:59",
    "URL": "http://tech.163.com/17/1227/07/D6L70Q6B00097U7T.html",
    "Title": "顺丰大型无人机模拟应急物资快速投递：载重1.2吨_网易科技",
    "KeyWords": "无人机,顺丰,物流,航空",
    "Source": "Netease"
}