{
    "URL": "http://news.163.com/17/1231/11/D6VV41FQ0001899O.html",
    "Article": "【国防部发言人任国强回应中国海军有没有参与执行联合国安理会对朝鲜的制裁】任国强：中方对于朝鲜半岛的原则立场是清晰而明确的。我们坚持实现半岛无核化，坚持维护半岛和平稳定，坚持通过和平谈判协商解决问题。中国政府和军队一贯严格执行联合国有关决议。本文来源：CNR国防时空责任编辑：张宪超_NN9310",
    "KeyWords": "中国海军,任国强,联合国,安理会,国防部",
    "Source": "Netease",
    "Comment": {
        "Reply": 0,
        "Content": "",
        "Total": 3,
        "Link": "http://comment.news.163.com/news2_bbs/D6VV41FQ0001899O.html"
    },
    "PublishTime": "12/31/201711:44:35",
    "Title": "海军是否参与执行安理会对朝鲜的制裁?国防部回应_网易新闻"
}