{
    "URL": "http://news.163.com/17/1228/21/D6P851B50001875P.html",
    "Article": "（原标题：老婆婚内出轨男子离婚后杀害第三者母亲）现代快报讯因前妻与泰州兴化男子李刚有染，宜兴男子王封来兴化找到李刚78岁老母王娟，要求其劝说儿子和自己前妻断绝关系。现代快报记者获悉，遭拒后，恼羞成怒的王封将老人杀死。12月28日，泰州市中级人民法院对该案进行宣判，王封犯故意杀人罪，判处死刑，缓期二年执行，剥夺政治权利终身。△法庭宣判现场经依法审理查明，2016年下半年，王封前妻赵梅与李刚相识，后发展为情人关系，该情况被王封得知后，曾经和李刚打架，并且来兴化找过其家人。2017年2月27日，赵梅和王封离婚后就和李刚顺理成章地在了一起。想到前妻和自己离婚就为了和李刚在一起，气不过的王封3月28日上午特意从宜兴来到兴化，找到李刚母亲，想让其劝说李刚断绝与赵梅的不正当关系。然而王封的要求被老太太一口拒绝，二人发生争执后，王封心生怨愤，采用拳击头面部、卡扼颈部、捂闷口鼻、扎丝勒颈等手段致老人死亡。经法医鉴定，王娟符合卡扼勒颈及捂闷口鼻致机械性窒息死亡。本文来源：现代快报责任编辑：赵亚萍_NN9005",
    "Source": "Netease",
    "PublishTime": "12/28/201721:07:44",
    "KeyWords": "离婚,情人,出轨",
    "Comment": {
        "Content": "想不明白为什么男男女女的一定要结婚干什么？ 有统计数据，中国男的1/3婚内出过轨，女的是1/7婚内出轨，真判刑你有地方关吗？ 社会复杂了哦 人改变的社会 你以后可得把自己的孩子教育好，万一他们犯了什么错，拿你抵命，你就冤死了。不过，按你的说法，那叫死有余辜，不冤。 奸出命案的例子太多了，如果法律能对婚内通奸作出严惩制度，这样的悲剧肯定会减少。 这他妈脑子，这下不但自己挂了，还帮情夫减负，难怪老婆出轨 兄弟你杀错对象了。应砍的是出轨的一对狗男女！ 哈哈，奸夫负罪感一生 量刑过重，子不教父母之过，活该！ 真尼玛蠢，只干一个和全部干完没区别的 老实男人一旦爆发很可怕的 该死，你儿子抢别人老婆你还不管，问题是那两个他也应该一起杀了 如果量刑根据社会危害性原则的话，这个危害性为负！ 应该灭他全家！ 应杀那奸夫淫妇！ 傻逼玩意 说实在的，我是不能接受婚内出轨的。你不想玩了，离婚了玩飞机也没人有屁放。一边占着茅坑不拉屎，一边又到处挖坑，贪，能把人带进深渊。 都他妈选择杀人了，为什么不把男的干掉 冤有头债有主 别不相信，不结婚，男人为了抢女人会天下大乱，结了婚有法律保护会好很多，你看现在婚内出轨杀人的新闻太多了 虽然国内出轨是可耻，不道德得，但看到这男人能从老人身上下手，并且这么残忍，估计生活中真不是什么真男人，脾气暴躁，控制不住自己，老婆肯定也是受够了，要离婚，这货不离，一直拖拉现在。 奸夫淫妇为何不被定罪？杀人者却要被判刑？没有因哪有果？ 量刑过重，子不教父母之过，活该！ 这杀的有点傻狗 ……手段非常狠，但是也是狠角色被逼了 应该出法律了，婚内出轨的一方用刑法来定就不会出那么多的事，否则婚姻法和结婚证毫无意义。 第一，怨自己识人眼拙。第二，你要合格，另一方会出轨? 杀错了，这样正好成全了这对狗男女 要杀也杀那个奸夫，老太婆枉死了 然后呢？你在牢里蹲着，那个婊子和奸夫在床上啪啪啪，你得到了什么？这些人脑子都是潲水么？ 神助攻……正好称了人家的意 一脸懵逼，不是该杀那对奸夫淫妇的吗？？？ 要杀就杀全家，杀一个老人亏了 恐怕管不住吧 奸出命案的例子太多了，如果法律能对婚内通奸作出严惩制度，这样的悲剧肯定会减少。 第三者为何没有浸猪笼？ 这不是个人私生活作风问题吗？，可以谴责的，不用判死刑，要判也要先判第三者啊，有因才有果，如果不是他当第三者破坏别人的家庭，就不会吃到后面的果子，杀的好。可怜了，就被这不公平的法律夺去一条生命了。他这是正当保卫家庭，是英雄。如果这样也有错，那当年日本人打家里，国人还抗什么日啊，还不是为了自己的家庭可以团团圆圆吗，都是一样的道理，都是为了保护自己的家庭不被外来的流氓破坏。哎，这个社会啊，说多了都是泪啊 没错，所以老实男人的老婆不要碰，会要你命！ 看来这位老母亲年轻时候肯定是个骚货抢了别人老公吧同意的点赞 无能的再也找不到女人的男人，一旦失去老婆，就歇斯底里疯狂了。 该杀。有很多这种事情，这些老家伙都推说自己不管。那可是你儿子，你生的你养的你教的。报应。 离婚时觉得出了口恶气，最后发现再也找不到愿意跟他的女人了，气又上来了。 想不明白为什么男男女女的一定要结婚干什么？ 有统计数据，中国男的1/3婚内出过轨，女的是1/7婚内出轨，真判刑你有地方关吗？ 冤有头债有主，你杀人家老母就不对了 支持，杀的好 这他妈脑子，这下不但自己挂了，还帮情夫减负，难怪老婆出轨 奸出命案的例子太多了，如果法律能对婚内通奸作出严惩制度，这样的悲剧肯定会减少。 应该杀你个逼男 这就是三楼老婆出轨的原因 别人碗里的香[微笑] 过不下去就不过，为什么要出轨？出轨自己爽，伤害了对方 那男的估计要愧疚一辈子了 为何穿睡衣。。 奸夫淫妇为何不被定罪？杀人者却要被判刑？没有因哪有果？ 这个社会是生产女婊子的时代 我有个朋友,跟这作者差不多,也是爱编故事，去年走的,走的时候并不安详,尸体在太平间抽搐了三天,火化的时候烧得滋滋响,嘴里还在嚎叫,烧了几个钟头才烧完,烧完以后上了灵车,出门就翻车了,骨灰洒了一地,还被风吹走了不少,刚想把剩下的扫起来,迎面来了一辆洒水车,唉…… 应该杀这男人的下一代 是不是南方比，你们自己说，草泥马南方比整天地狱。让你们尝尝第滋味。。 这样老婆要她干嘛 这是囚衣吗？这么花哨的呢。。 哥咱别和没素质的人一般见识什么地方都有好人坏人心里明白的人很多那一小撮企图分裂祖国的死逼不值得咱动气 可能吗？这男的有一点良心都不会和女的结婚了 杀人没让你偿命算不错的了 老太太也是不怎么样，口头上没必要跟争执他发生争执呀？不是很清醒。 这样的法律叫兽专家律师官员们肯不会制定，制定了也不会通过，原因你懂得 没错，所以老实男人的老婆不要碰，会要你命！ 无能的再也找不到女人的男人，一旦失去老婆，就歇斯底里疯狂了。 说实在的，我是不能接受婚内出轨的。你不想玩了，离婚了玩飞机也没人有屁放。一边占着茅坑不拉屎，一边又到处挖坑，贪，能把人带进深渊。 都不是好东西 这就是三楼老婆出轨的原因 应该灭他全家！ 泰州女的出轨真多，刚才隔壁才看到也是因为妻子出轨，然后当着孩子面杀了妻子的 杀一个也是杀，杀三个也是杀！赶紧去把那对狗男女砍死！ 应该出法律了，婚内出轨的一方用刑法来定就不会出那么多的事，否则婚姻法和结婚证毫无意义。 量刑过重，子不教父母之过，活该！ 该死，你儿子抢别人老婆你还不管，问题是那两个他也应该一起杀了 嫖娼算么😳花钱的 你的评论对得起你的昵称 话糙理不糙 傻逼，不杀婊子去杀别人，活该你去死 二楼说的对 冤有头债有主 哪里出轨了，前妻好不好 有婚外出轨？ 好像很多人有淫妻癖。世界是多样的吧 这年头，出轨倒成了受害者了 老实男人一旦爆发很可怕的 杀错了，这样正好成全了这对狗男女 要杀也杀那个奸夫，老太婆枉死了 然后呢？你在牢里蹲着，那个婊子和奸夫在床上啪啪啪，你得到了什么？这些人脑子都是潲水么？ 一脸懵逼，不是该杀那对奸夫淫妇的吗？？？ 应该出台法律，婚内出轨判刑 恐怕管不住吧 奸出命案的例子太多了，如果法律能对婚内通奸作出严惩制度，这样的悲剧肯定会减少。 管不住是一回事，你哪怕说回来我说他这类的敷衍也行啊！ 看来这位老母亲年轻时候肯定是个骚货抢了别人老公吧同意的点赞 我巴不得老婆离我而去！真的！我他妈有得是女人，我如果离婚了，我的天，女人得把我加门挤爆炸！我一米八五180斤，要车有车要房有房要事业有事业，会哄女人开心，能撩妹，自理能力强，动手能力强，军人退伍，文武双全！长的又不丑，身材匀称肌肉发达，野性十足！我会没女人？女人们都不同意！说到底，你作为男人，把女人看得太重说明你配不上她！ 女人出轨你们就骂的起劲的，男人出轨的新闻不见你们有这么大反应 离婚就行了。 世道不好，干什么都谨慎 你以后可得把自己的孩子教育好，万一他们犯了什么错，拿你抵命，你就冤死了。不过，按你的说法，那叫死有余辜，不冤。 搭上了自己。 真尼玛蠢，只干一个和全部干完没区别的 应该把狗男女都杀了！杀他妈应该不算错吧，自己的儿子没教好，不去死活着干什么！ 漂亮 就是，干嘛把一个女人看的这么重要？没了她就活不了了似的！ 如果量刑根据社会危害性原则的话，这个危害性为负！ 傻逼玩意 虽然国内出轨是可耻，不道德得，但看到这男人能从老人身上下手，并且这么残忍，估计生活中真不是什么真男人，脾气暴躁，控制不住自己，老婆肯定也是受够了，要离婚，这货不离，一直拖拉现在。 奸夫淫妇为何不被定罪？杀人者却要被判刑？没有因哪有果？ 就这么狠的男的，谁特么敢跟他 社会很单纯，复杂的是人 这杀的有点傻狗 这个分析是对的 没有因哪来果，多从自己身上找问题。真的好还会找情人？ 中国好前夫，替出轨前妻铲除障碍，大爱无疆 神助攻……正好称了人家的意 啊啊啊啊啊啊 这招儿围魏救赵吗？ 哈哈，奸夫负罪感一生 傻逼 如果被戴绿帽的是法官呢？会这么判吗 无能无德之辈，应处死刑，立即执行。💔👎 底层自残互残开启 第三者为何没有浸猪笼？ 兄弟你杀错对象了。应砍的是出轨的一对狗男女！ 都他妈选择杀人了，为什么不把男的干掉 应杀那奸夫淫妇！ 真不理解这样的人，老婆跟别人就跟别人，离婚不要她了完事！ 是的，人把社会变复杂了！ 量刑过重，子不教父母之过，活该！ 成全了人家，一对“野鸳鸯”高兴😃 冤有头债有主，能不能杀狗男女，不要殃及他人 为啥不杀那个男的 这跟找到找不到有关系吗？ 杀错了，这样正好成全了这对狗男女 无能的再也找不到女人的男人，一旦失去老婆，就歇斯底里疯狂了。 要杀就杀全家，杀一个老人亏了 人改变的社会 该杀。有很多这种事情，这些老家伙都推说自己不管。那可是你儿子，你生的你养的你教的。报应。 这不是个人私生活作风问题吗？，可以谴责的，不用判死刑，要判也要先判第三者啊，有因才有果，如果不是他当第三者破坏别人的家庭，就不会吃到后面的果子，杀的好。可怜了，就被这不公平的法律夺去一条生命了。他这是正当保卫家庭，是英雄。如果这样也有错，那当年日本人打家里，国人还抗什么日啊，还不是为了自己的家庭可以团团圆圆吗，都是一样的道理，都是为了保护自己的家庭不被外来的流氓破坏。哎，这个社会啊，说多了都是泪啊 何必呢，出轨的女人早晚有一天会让她后悔，自己再找个就行。 杀的越多越好！ 社会复杂了哦 离婚时觉得出了口恶气，最后发现再也找不到愿意跟他的女人了，气又上来了。 冲动是魔鬼。 ……手段非常狠，但是也是狠角色被逼了 ",
        "Total": 830,
        "Link": "http://comment.news.163.com/news_shehui7_bbs/D6P851B50001875P.html",
        "Reply": 108
    },
    "Title": "女子婚内出轨 丈夫离婚后杀死\"第三者\"的母亲_网易新闻"
}