{
    "Source": "Netease",
    "KeyWords": "秋瓷炫,",
    "Title": "秋瓷炫晒与老公圣诞合照 怀孕4个月小腹微隆_网易娱乐",
    "PublishTime": "12/25/201711:45:21",
    "URL": "http://ent.163.com/photoview/00AJ0003/646662.html",
    "Article": "秋瓷炫晒与老公圣诞合照怀孕4个月小腹微隆12月25日韩国女星秋瓷炫在微博晒出与老公于晓光的圣诞照片，怀孕4个月的她小腹微隆，气色不错，配上一身大红色，十分喜庆。",
    "Comment": {
        "Content": "好漂亮的秋瓷炫 一家人永远幸福下去 好想吃那个蛋糕，怀孕了不让吃 圣诞树肯定是于晓光从淘宝买的[狗] 漂酿 夫妻相啊 难道没人觉得她老公斗鸡眼吗 俊男靓女，很般配。秋瓷炫是我最喜欢的韩星之一，祝你们幸福 谁的技术 真漂亮… 她老公怎么感觉眼睛怪怪的 祝宝贝健康成长 羡慕呀，真他么好福气呀…… 又花钱了！ 秋瓷炫不但漂亮而且旺夫，之前于晓光戏红人不红，结婚以后人气飙升 今天是我国传统佳节圣诞节，中国有句老话说的好:平安夜里吃饺子，来年生个胖小子。圣诞饺子包三样，耶稣给你找对象。圣诞饺子包一宿，来年雅思四个九。三鲜饺子过圣诞，来年升官把钱赚。 娶妻当如秋瓷炫 才4个月？感觉已经怀了好几个月了 夫妻相啊 一家人永远幸福下去 不是发文不让过圣诞节吗？ 谁的技术 难道没人觉得她老公斗鸡眼吗 是稍微有一点 羡慕呀，真他么好福气呀…… 秋瓷炫不但漂亮而且旺夫，之前于晓光戏红人不红，结婚以后人气飙升 不要整天上头条秀恩爱，既然已经成为人妻，为人母为人家庭主妇了，就因该好好回家生小孩儿去哇！秋瓷炫恭喜恭喜哈哈 今天是我国传统佳节圣诞节，中国有句老话说的好:平安夜里吃饺子，来年生个胖小子。圣诞饺子包三样，耶稣给你找对象。圣诞饺子包一宿，来年雅思四个九。三鲜饺子过圣诞，来年升官把钱赚。 圣诞快乐！要一直幸福下去！ 喜欢他们 好漂亮的秋瓷炫 真漂亮… 好想吃那个蛋糕，怀孕了不让吃 圣诞树肯定是于晓光从淘宝买的[狗] 哈哈 漂酿 俊男靓女，很般配。秋瓷炫是我最喜欢的韩星之一，祝你们幸福 真好看 她老公怎么感觉眼睛怪怪的 很普通却很温馨的圣诞仪式，没有像其他演员那样浪费。喜欢他们 祝宝贝健康成长 羡慕 又花钱了！ 娶妻当如秋瓷炫 ",
        "Reply": 27,
        "Link": "http://comment.ent.163.com/ent2_bbs/PHOTJNG6000300AJ.html",
        "Total": 490
    }
}