{
    "Title": "跨年未晒与老公恩爱合照被质疑 大S亲自发文解释_网易娱乐",
    "PublishTime": "01/01/201812:06:53",
    "URL": "http://ent.163.com/18/0101/12/D72IPJ3100038FO9.html",
    "Source": "Netease",
    "KeyWords": "大s,汪小菲,老公,烟火",
    "Comment": {
        "Reply": 14,
        "Content": "应该是太老太丑了，不好意思晒。 老百姓操碎了心。啥事都要管 为什么会因你而好？什么意思？ 大s相夫教子挺好的啊 要出来赚钱了 好难啊，不秀就说你离婚，秀了就说你恶心，天天秀恩爱 做个娱乐圈的人可真累 这些网友真是神经病 夫妻相…… 隔壁老王不服 老百姓操碎了心。啥事都要管 为什么会因你而好？什么意思？ 好难啊，不秀就说你离婚，秀了就说你恶心，天天秀恩爱 做个娱乐圈的人可真累 夫妻相…… 这些网友真是神经病 应该是太老太丑了，不好意思晒。 这明明是去年过年的新闻。这也可以？ 要出来赚钱了 可能要出新的美容书了，期待。 大s相夫教子挺好的啊 整天女孩们因你更好，听上去她是手底下有一帮姑娘的妈妈桑 传销的话 隔壁老王不服 ",
        "Total": 168,
        "Link": "http://comment.ent.163.com/ent2_bbs/D72IPJ3100038FO9.html"
    },
    "Article": "大s汪小菲2015年的恩爱照网易娱乐1月1日报道据台湾媒体报道，大S和汪小菲结婚多年，感情依旧幸福甜蜜，不过往年跨年，她都会和老公在101烟火前合照，去年却只有独照，她事后无厘头回应拍歪了，今年更反常连照片都没有，引起热议，她也亲自发文解释了。大S往常迎接新的一年到来时，都会在住家附近观赏101烟火，并和老公汪小菲拍下甜蜜合照，今年她PO出“Hiy！我的宝贝们~新年快乐”，只有文字没有照片，让不少粉丝直呼“没有照片不开心”、“我们都在等妳的烟火照”。而她看到网友的期盼后，也发文解释，因为要抱孩子，很难拍出她想要呈现的好画面，“我状态很好，心情很好”，她也保证2018会让女孩们因她更好，要大家等她。本文来源：网易娱乐责任编辑：陈少杰_b6952"
}