{
    "Article": "（原标题：日本一民宅惊现疑似哑弹物体警方要求居民避难）【环球网报道】12月29日上午9点半左右，日本鸟取市一户民宅内发现类似哑弹的可疑物体。接到报警后当地警署立即展开调查。据日本《朝日新闻》报道，据鸟取警署透露，类似哑弹的可疑物为长度几十厘米的圆锥形。警署已经呼吁周边居民做好避难工作。为确认该物体是否存在危险性，警方要求自卫队协助调查。据县政府表示，目前该物体不存在爆炸危险。由于发现的民宅距离JR鸟取站仅300米，JR的部分列车因此事一度暂停运行，直至下午2时再次出发。本文来源：环球时报-环球网。更多精彩，请登录环球网http://www.huanqiu.com责任编辑：范姜国一_NN9138",
    "PublishTime": "12/29/201713:32:00",
    "URL": "http://news.163.com/17/1229/13/D6R0Q7LB000187V9.html",
    "Comment": {
        "Content": "看情况，它要是炸了宅主就有不可推卸之责任，不炸就是郭家的 看情况，它要是炸了宅主就有不可推卸之责任，不炸就是 看情况，它要是炸了宅主就有不可推卸之责任，不炸就是 看情况，它要是炸了宅主就有不可推卸之责任，不炸就是郭家的 看情况，它要是炸了宅主就有不可推卸之责任，不炸就是郭家的 ",
        "Link": "http://comment.news.163.com/news2_bbs/D6R0Q7LB000187V9.html",
        "Total": 5,
        "Reply": 5
    },
    "Source": "Netease",
    "Title": "日本一民宅现疑似哑弹可疑物体 警方要求居民避难_网易新闻",
    "KeyWords": "日本,警署,哑弹,民宅"
}