{
    "Title": "男大学生称被联合办学老总猥亵:发生不可描述的事_网易新闻",
    "URL": "http://news.163.com/17/1226/20/D6K0J3ER0001899N.html",
    "KeyWords": "大学生,猥亵,学校,毕业",
    "PublishTime": "12/26/201720:19:24",
    "Article": "（原标题：多名男大学生曝被联合办学老总猥亵：让脱光了坐他腿上最后发生了不可描述的事情）#endText.video-infoa{text-decoration:none;color:#000;}#endText.video-infoa:hover{color:#d34747;}#endText.video-listli{overflow:hidden;float:left;list-style:none;width:132px;height:118px;position:relative;margin:8px3px0px0px;}#entText.video-lista,#endText.video-lista:visited{text-decoration:none;color:#fff;}#endText.video-list.overlay{text-align:left;padding:0px6px;background-color:#313131;font-size:12px;width:120px;position:absolute;bottom:0px;left:0px;height:26px;line-height:26px;overflow:hidden;color:#fff;}#endText.video-list.on{border-bottom:8pxsolid#c4282b;}#endText.video-list.play{width:20px;height:20px;background:url(http://img1.cache.netease.com/video/img14/zhuzhan/play.png);position:absolute;right:12px;top:62px;opacity:0.7;color:#fff;filter:alpha(opacity=70);_background:none;_filter:progid:DXImageTransform.Microsoft.AlphaImageLoader(src=\"http://img1.cache.netease.com/video/img14/zhuzhan/play.png\");}#endText.video-lista:hover.play{opacity:1;filter:alpha(opacity=100);_filter:progid:DXImageTransform.Microsoft.AlphaImageLoader(src=\"http://img1.cache.netease.com/video/img14/zhuzhan/play.png\");}if(/(iPhone|iPad|iPod|Android|NETEASEBOBO|blackberry|bb\\d+)/ig.test(navigator.userAgent)||/safari|chrome|firefox/i.test(navigator.userAgent)&&navigator.plugins&&!navigator.plugins[\"ShockwaveFlash\"]){varstr1='<videocontrols=\"controls\"preload=\"auto\"width=\"100%\"poster=\"http://vimg3.ws.126.net/image/snapshot/2017/12/R/J/VU5LR4JRJ.jpg\"style=\"max-height:100%\">';varstr2='<sourcetype=\"video/mp4\"src=\"http://flv.bn.netease.com/videolib3/1712/26/XCbaR8273/SD/XCbaR8273-mobile.mp4\">您的浏览器暂时无法播放此视频.</video>';document.getElementById(\"FPlayer1404863609673\").parentNode.innerHTML=str1+str2;}多名男大学生曝被联合办学老总猥亵（来源：original）window.NTES&&function(d){varf=function(c){varb=c.getAttribute(\"flashvars\"),a=c.getAttribute(\"repovideourl\").replace(\".flv\",\"-mobile.mp4\");h=d(c.parentNode.parentNode.parentNode),g='<embedsrc=\"http://v.163.com/swf/video/NetEaseFlvPlayerV3.swf\"flashvars=\"'+b+'\"allowfullscreen=\"true\"allowscriptaccess=\"always\"quality=\"high\"wmode=\"opaque\"width=\"100%\"height=\"100%\"type=\"application/x-shockwave-flash\"/>';if(/(iPhone|iPad|iPod|Android|NETEASEBOBO|blackberry|bb\\d+)/ig.test(navigator.userAgent)){g='<videocontrols=\"controls\"preload=\"auto\"width=\"100%\"height=\"100%\"><sourcetype=\"video/mp4\"src=\"'+a+'\">您的浏览器暂时无法播放此视频.</video>';}h.$(\".video\")[0].innerHTML=g;},e=function(b){vara=d(b.parentNode.parentNode.parentNode);a.$(\"li\").removeCss(\"on\"),b.addCss(\"on\"),a.$(\".video-title\")[0].innerHTML=\"string\"==typeofb.textContent?b.textContent:b.innerText,a.$(\".video-title\")[0].setAttribute(\"href\",b.getAttribute(\"url\")),a.$(\".video-from\")[0].innerHTML=\"（来源：\"+b.getAttribute(\"source\")+\"）\",f(b);};window.continuePlay=function(){vara,b=d(d(\".video-list.on\")[0].nextSibling);3==b.nodeType&&(b=d(b.nextSibling));if(b&&d(\".video-innerinput\")[0].checked){e(b);}},function(){vara={init:function(){if(d(\".video-listli\")[0]){d(d(\".video-listli\")[0]).addCss(\"on\"),this.eventBind();}},eventBind:function(){d(\".video-listli\").addEvent(\"click\",function(b){e(d(this)),b.preventDefault();});}};a.init();}();}(NTES);【多名男大学生曝被联合办学老总猥亵：让脱光了坐他腿上最后发生了不可描述的事情】24日，河南信阳大三男生自曝上学期间，被与学校联合办学的企业总经理曲某猥亵。曲某还威逼学生，如果不配合就不给毕业。学院多名男生自述有与其相似经历。学院相关负责人称将落实情况。本文来源：一手video责任编辑：张海桐_NN9053",
    "Comment": {
        "Content": "老总是否女性，本文未交待 这年头有钱人流行换重口味吗？ 您好！我是王总的秘书，请留下您的联系方式！ 小四不嫌弃，去找小四！ 呵呵，你可以去了 这有什么，为了利益罢了，如果王思聪不嫌弃我是男的，我也不介意…… 世界上还有没有安全的人！ 浮世多变态，老总好龙阳。<br>当送高墙里，夜夜菊花伤。 这男的不要脸，被强迫不会反抗，居然顺从老总舒服了，简直就是个傻逼 2015年王哲（化名）报考了信阳职业技术学院国际海事管理一专业，当时该专业以6年一百万的薪资，一边船上工作一遍旅游的宣传深深打动了王哲，毫不犹豫的报名了该专业。入校后王哲发现身边的同学都是家庭比较贫困，想改变家庭环境的人。大家于是就成为了无话不说的好朋友。当一个月军训过去之后，王哲跟同学们却发现，这个专业却没有自己想象的那么好，辅导员是一个跟自己同岁的同学，过了几天就当上了自己辅导员。这个专业经常说是以后要出国，英语却没人教，更没有什么传船舶理论课。这让王哲跟同学感到很迷茫。 近日，数名河南信阳职业技术学院（简称“信阳职院”）男性毕业生自曝实习期间遭校企合作公司深圳涉海集团总经理曲某民性骚扰，其中一名男生更遭其下药，不从者则被逼退学。 乱草丛中卧一贼，单枪匹马提俩锤。不吃不喝个也肥，不晒太阳身也黑。对面半山有个鬼，披头散发咧着嘴。一口吞下这老贼，口外只剩两个锤。老贼挣扎几分钟，不退反倒往前冲。进进出出好几回，毛兵毛将来解围。搬来两个黑地雷，黑似张飞赛李逵。恶鬼就是不撒嘴，一个劲还流口水。后悔当初没长牙，要不肯定把贼拿。老贼越冲个越大，眼看地雷要爆炸。恶鬼心里有点怕，难道这厮开了挂？老贼这时有点烦，才知自己非猛男。高喊这事不算完，临走不忘吐口痰，此痰历经二十年，二十年后变小便。 男生们，注意安全啊！ 视频你没看吗[狗] 换做我直接把他鸡儿打骨折 哪所野鸡学院 坐腿上怎么了？说啊，急死我了！ 现在gay太多了，难免你晚上走到大街上会被一伙gay被拖进草丛，赏你嘴里包一根，腋窝里夹一根，尾门上插一根！ 哈哈长的丑的看着确实恶心 难道不是吗？ 换了是我就直接夹断他——节选自《歪掰的历史》 有什么不可描述,爆个菊花 口了还不爽[窃笑] 基佬无处不在！快过年了，易友们出门自己注意安全…… 那就射老总一脸不就行了 这年头，唉 说不定就射了么 最近五年来，没有底线的事情，一再刷新国人的价值观。这要是复兴了，会如何呢？？ [喷水]这年头男的都不安全了 你不描述，怎么立案 恶心，没看视频。。。 就这口味，还能做老总？ 配图真配 肯定别有内情！一个巴掌拍不响！爆菊是极需要默契才能成事的，否则又干又紧又臭门口还堵一坨内痔和几片没消化豆瓣粒烂菜叶金针菇什么的，一个活蹦乱跳的大男人不主动扳开菊花配合后面那个，告诉我怎么捅的进去？ 三楼似乎被搞过？ 你是没有遇到过这种事，年轻人第一次碰到这种事都是一脸懵逼的，反应只要慢一点就逃不出他们的魔掌了 菊花残满地伤，你的笑容也疯狂 受害者说作为一个大一的学生不知道怎么反抗，真尼玛让人笑掉大牙，一个身强力壮的十八岁小伙子不知道怎么反抗？一个上了职业技术学校的学渣不知道怎么反抗？ 那段文字说明了?认真你就输了， 十年前的12月，一个人赞了我，他娶了年轻貌美的女朋友。去年的12月，另一个人赞了我，他中了500万。今年的12月，赞了我的人都娶了年轻貌美的姑娘结婚那天中了500万。别说我不够意思，话已经放这里 基佬....拉拉们无处不在！快过年了，易友们出门自己注意安全… 嗯嗯，文章与下面的痔疮广告无缝对接，浑然天成。 明明说不可描述，可是为什么我还是直接懂了呢？？？ 二楼看来是个有故事的人，来，请讲出你的故事，我等洗耳恭听！ 你个小骚货 弱智啊，交代的还不清楚？ 不可描述啊 其实很干净的不信你试试 这年头有钱人流行换重口味吗？ 那姿势叫啥来着？ 哈哈哈哈😄 我就服这配图！！！ 因为这些禽兽知道怎么搞心理战，用威胁恐吓加利诱，没有社会经验的人根本受不了的 没文化也有那么多钱，这规则咋搞起的？？？？？？？？？？？？？？？？？ 职业技术学院的学生也配称作大学生？ 肯定别有内情！一个巴掌拍不响！爆菊是极需要默契才能成事的，否则又干又紧又臭门口还堵一坨内痔和几片没消化豆瓣粒烂菜叶金针菇什么的，一个活蹦乱跳的大男人不主动扳开菊花配合后面那个，告诉我怎么捅的进去？ 这有什么，为了利益罢了，如果王思聪不嫌弃我是男的，我也不介意…… 小编太有才，放一朵菊花做配文 这是玩女人没成就感，开始征服男性了吗？ 用屌直接捅热屎💩，太特么变态了！就像用擀面杖使劲捣韭菜饺子馅，唉，再说今后不吃饺子了，，，。 不明白基佬的僻好！被xx的男学生估计也是一脸懵比！ 太变态了 这个菊花配图，小边也是神了。 这个是个什么大学？ 男生们，注意安全啊！ 太他妈的恶心耶[羞羞][羞羞][羞羞] 这要是什么社会才会觉得精神上的文化和物质上的金钱打上了等号？！！ [喷水][喷水][喷水][喷水][喷水] 坐腿上怎么了？说啊，急死我了！ 为什么放一张菊花的图 不给毕业就不给毕业。让你干啥你就啥？ 男同性恋怎么…… 强奸男人算故意伤害 有什么不可描述,爆个菊花 基佬无处不在！快过年了，易友们出门自己注意安全…… 基友老师 你他妈一个18岁的大小伙不揍他一顿，你还干啥呢？ 老总脑子里就两个字：卧槽！ 基佬无处不在！快过年了，易友们出门自己注意安全…… 封面不错 为什么感觉现在的男同越来越多，男女都不安全。 这年头男的都不安全了！！！！！！ 在诱奸以前，一般要洗脑，各种威逼利诱，加挑逗，循序渐进的，人家经验丰富，套路多，等着涉事不深的小孩子跳陷阱 已经艾滋了！ 小编在消费一篇男性性侵新闻 难道我是死变态吗，啊哈啊哈啊哈哈 经验？ 一楼请说出你的故事 一楼纯直男，别教坏小孩 不能描述，只能意会 配图过分了[窃笑] 三楼太夸张了，又不是有潘安之貌。 就服配图！！好大好黄的一朵大菊花！！ 两情相悦可以啊，这种强迫的太恶心了，比被异性强奸更伤人 反馈意见~我祝您儿子也被这样 受害者说作为一个大一的学生不知道怎么反抗，真尼玛让人笑掉大牙，一个身强力壮的十八岁小伙子不知道怎么反抗？一个上了职业技术学校的学渣不知道怎么反抗？ 越有文化，越变态。 恁，捞翔，恁褶湿弄煞咧？俺的媾鲶紫……憋爍，嗨診双！ 小编你特么放个向日葵的图片是几个意思？ 基佬....拉拉们无处不在！快过年了，易友们出门自己注意安全… 一看你就没看过《金瓶梅》吧，里面被爆的多了去了，到了那个关头，不愿意也得愿意，只能事后后悔，或者继续奉承，社会的本质并没有变。 看的我都硬了·还有救吗·不过我们的法律不是QJ男人不犯法的吗。。。。 不可描述啊 首页配图是怎么回事？ 只要不是太丑，男的被女的XX基本不会说出来的 你个小骚货 坐腿上怎么了？说啊，急死我了！ 老子帮你描述：突然一根棒子凸进泛红的菊花，露水四溢，惊起啊声一片… 新闻这么短 您好！我是王总的秘书，请留下您的联系方式！ 非处当道，当年的匪就是这么玩的，他们的子孙也这么玩，厉害厉害！ 捡肥皂吧！😂 这有什么，为了利益罢了，如果王思聪不嫌弃我是男的，我也不介意…… 菊花一紧！ 不可描述就别说了 大学越来越象大学了 我日，口味重的可以 他妈的，还是男老总，要是女老总的话还乐此不疲呢 菊花残，满腚伤~你的淫笑己泛黄~[羞羞] 这图配的，好大一朵 这配图无敌了 菊花一阵痛。 疯起来，男人都不放过了，z 变态。。 看新闻不看图片么？？ 就算立案了也没有适用的法律条款，因为这不算强奸。。。。 五千年文明大国变成污七八糟 大学越来越象大学了 可怕 让脱光了坐他腿上最后发生了不可描述的事情……<br><br>传说中的爆菊花？？？ 新闻标题图片的那朵菊花说明一切！ 垃圾学校！公司老总最后咋处理了！！！有钱有势无法无天！！！ 又想骗人投资学校 这年头，唉 这类货越来越多呢 配图亮了 枪毙呀 [喷水]这年头男的都不安全了 感觉有病一会女的一会男的 配图不错，菊花。 菊花残，满地伤[窃笑] 屎gay应该全部隔离强制治疗 垃圾学校！公司老总最后咋处理了！！！有钱有势无法无天！！！ 牛逼，刚的一比 我还以为老总是女的。 这配图很网易 嗯嗯，文章与下面的痔疮广告无缝对接，浑然天成。 签到 遇到这种事，大多数都不知道如何处理面对，唉 下次让他来给我吹～～～～～～～～ [惊讶][惊讶] 就是那个了嘛，明白了吗 坐腿上怎么了？说啊，急死我了！ 老总一脸庄严的带上老花镜，仔仔细细的帮他拔起腿毛来。 说的好像异性恋世界里女的出门很安全似的 在中国，我的菊花只为哒哒开放。。😳😜😜 小四不嫌弃，去找小四！ 房价再翻8倍 标题配的图，菊花亮了 呵呵，你可以去了 这有什么，为了利益罢了，如果王思聪不嫌弃我是男的，我也不介意…… [喷水]这年头男的都不安全了 直接阉割 要是立案，要详细描述的。这个好多干警都会做这样的笔录。 曾经的“同志”是个多么美好的词汇现在被毁了🤕 老总是否女性，本文未交待 配图真配 好有画面感。 真会玩 那年我随中铁在江苏与安徽交界施工，那天夜间有急事我要连夜开车赶去南京，我从安徽天长开车出来夜行金江公路，过了金牛湖就没有路灯了，道路也开始变窄了，但那段公路是新修的，还比较平坦，公路两边都是稻田，沟渠，已是大半夜了，路上见不到一个人，车辆也很少，那天好在月亮挺大，我夹着小心开车，把车速减慢，车灯也调成了远光灯，这时前方公路要穿过一段密林，刚经过密林这时我就听到了一个女子的哭声，但听着这哭声好像就在我附近，就好像有个人坐在我车里在哭泣，我回头看了一眼后座，哭声没有了，但也没人哪，一会又听到我脚下的车轱辘传来嘎吱嘎吱的声音，就感觉好像是路面在啃咬着四个车轱辘，这声音搅的人心里那个难受，我心说，这路是刚修完不久的，不应该有这声音啊？就在我还没醒过闷儿来的时候，突然在我的驾驶门的车窗玻璃上啪的一声出现了一个大手印，我借着月光一看竟是一个还在渗着血的血手印，我精神一下子就变得高度紧张起来，我又不敢停车，这时我右手上戴的那串佛珠竟有些发热，我突然想起了观世音的六字真言，于是大声不断的反复念了起来，这样感觉我心静多了，但只要我一不念，女子的哭声就会自车厢内传来，我赶忙又大声的继续念，这样大约走了有半个多小时前方终于见到路灯了，这时我一侧头见车窗上的血手印没有了，我才刚刚松了口气，一会前方出现了拦截障碍物，有两个警察站在路中央，用手电向我的车子晃了两下，示意我停车接受检查，来到近前我停下车子走了出来，警察让我掏出驾驶本，行驶本，身份证看完后对我说；随车人员都要接受检查，让你车里的人都下来，我说；我这车里就我一个人啊，警察说不对，刚才我们俩都看见了，坐你车后座的还有一个长头发的女人，我说根本没有，两个警察跟我来到车前，将车门都打开了，连后备箱的门都打开了，确实一个人都没有，两个警察嘴里还念叨着，刚才确实看到了后座有人，真是活见鬼了。 鸟校鸟事儿多。 曰男的……真的下得去屌？ 难道不是吗？ 这次总算没那些脏心烂肺的污蔑受害者自己轻浮了 学校早就沦陷了…… 就不能使劲放个屁把对方从热屎上打出去吗！ 基佬无处不在！快过年了，易友们出门自己注意安全…… 肯定是玩完了不给钱,所以才曝光的 麻痹的 房价再翻8倍 我照了一下镜子放心的出门了[大笑] 可你的痔疮.......... 腐败官员几乎都涉性，涉案教师性也被调动 南大说:这锅我不背 这么大人了不懂？自己主动脱衣服现在说那时候傻，骗谁呢 [喷水]这年头男的都不安全了 你不描述，怎么立案 看菊花 描述了也不会立案，咱们没哟男男的法律 悲哀！基佬们你们不仅变态还作死 小便真调皮😜 有老点的联系方式吗[疑问]让他来口我[色色]射他一嘴[大笑] 菊花残，满腚伤。 男同 真的拼刺刀么？？！！ 世界上还有没有安全的人！ 我靠，都有老婆孩子了，还搞这种恶心的东西，你妈。真的恶心的。 是经理不兑现承诺！ 菊花配图就很灵性 多名男大学生曝被联合办学老总猥亵：让脱光了坐他腿上最后发生了不可描述的事情）；联合办学的企业老总是男性还是女性呢？？！！！ 恶心，支持男同，抵制女同 心理变态！丧心病狂！ 配图为什么是菊花🌸 死基佬！ 男的 弱智啊，交代的还不清楚？ 这些老总难道需要采阳术满足妖精的需求？ 你不描述，怎么立案 “学院多名男生自述有与其相似经历。学院相关负责人称将落实情况。”————什么法治？公安呢？这是“学校”！不要他妈的装聋作哑！ 这个肮脏的世界 傻逼……这种事也幸灾乐祸？你家没儿子没弟弟吗？如果你家儿子或是弟弟，这样被人羞辱猥亵了，你特么还能嫌事儿不够大吗 封面配图可以啊 浮世多变态，老总好龙阳。<br>当送高墙里，夜夜菊花伤。 现在的人为什么这么变态了啊 [喷水][喷水][喷水]这。。。。基佬在崛起吗？ 这男的不要脸，被强迫不会反抗，居然顺从老总舒服了，简直就是个傻逼 呵呵，主要是来看热闹的，没想那么多。不好意思。 乱草丛中卧一贼，单枪匹马提俩锤。不吃不喝个也肥，不晒太阳身也黑。对面半山有个鬼，披头散发咧着嘴。一口吞下这老贼，口外只剩两个锤。老贼挣扎几分钟，不退反倒往前冲。进进出出好几回，毛兵毛将来解围。搬来两个黑地雷，黑似张飞赛李逵。恶鬼就是不撒嘴，一个劲还流口水。后悔当初没长牙，要不肯定把贼拿。老贼越冲个越大，眼看地雷要爆炸。恶鬼心里有点怕，难道这厮开了挂？老贼这时有点烦，才知自己非猛男。高喊这事不算完，临走不忘吐口痰，此痰历经二十年，二十年后变小便。 你来学校是学东西的，还是来毕业的？ 大惊小怪，你情我愿......装逼…… 坐腿上怎么了？说啊，急死我了！ “他”，真的有上小学？ 流星月亮地球太阳系有发动机么？没有!他们却高速在宇宙中运行!为什么？因为他们的运行轨道本身就是太空高速时空隧道!他们的运行路线一半为去路一半为来路，周而复始地运行着!地球自转公转着，本就没有东西南北上下左右等方位!谁定的？我们的天父啊!目的只有一个，告诉人类我们天父的星座方位!所以九曲桥的方向始终对着东北方!在宇宙一切物质中，永远是子体围绕母体运动，这是恒定的!所以地球自转并围绕太阳公转!因地球是自转公转的，所以根据地球的东西南北是找不到星外文明的星座方位的!只有找到太阳的上下前后东西南北才能准确地给天父星座方位定位!我们天父星座方位在太阳系东北上方第九颗恒星那里!那里以双伴恒星为中心带动周围108颗恒星运动着! 我是进来看菊花的！[挨揍] 描述了不能公开，不描述又不能立案，咋整 口了还不爽[窃笑] 孩子还是很有勇气的，其实男的也不安全，但是以前遇到这种事都没人敢说，要面子么，但是越没人敢说，这些罪犯就越猖狂 这样的学校也不知道是怎么死审下来的。 那就射老总一脸不就行了 大环境 有种来骚扰我啊，我是不会反抗的 被鸡奸 我觉得吧，你们这帮人在这里义愤填膺全是因为那老总是男的，万一要是女的，这评论可就是另一幅画面了 所以说gay全部枪毙 还是那句话长的丑的很安全 关键是干的不可描述之事、怪我咯？ 哎！怎么越来越多变态的男人了？以后的人生儿子女儿都不敢放心了！ 这个老总很辛福。 基佬！？可恶！ 说不定就射了么 [喷水]这年头男的都不安全了 就这口味，还能做老总？ 我不嫌弃你[狗] 出去玩的都知道，洗浴场所口活800不还价！这家伙不出钱还这么多话…… 怎么说呢，有趁没人要强吻你的，有一次在林则徐纪念馆，在大庭广众之下摸你下体的。（还好我反应快，感觉不对就立马逃跑。）年轻人一定要记好了，自己的身体任何人都不可以碰碰捏捏的，就算没有一巴掌扇对方脸上的底气也要有赶快逃离危险的地方的勇气。 把东北人说这么屌 这样的学校也不知道是怎么审批下来的。 坐他腿上，你说是男是女？ 老总是否女性，本文未交待 你是没有遇到过这种事，年轻人第一次碰到这种事都是一脸懵逼的，反应只要慢一点就逃不出他们的魔掌了 这有什么，为了利益罢了，如果王思聪不嫌弃我是男的，我也不介意…… :44<br>奥巴马、特朗普好象都有中国有、欧洲的投资 那段文字说明了?认真你就输了， 十年前的12月，一个人赞了我，他娶了年轻貌美的女朋友。去年的12月，另一个人赞了我，他中了500万。今年的12月，赞了我的人都娶了年轻貌美的姑娘结婚那天中了500万。别说我不够意思，话已经放这里 认真你就输了。我也没看视频，， 不可描述是？ 二楼看来是个有故事的人，来，请讲出你的故事，我等洗耳恭听！ 前面几个都没说什么，你倒是装纯。 可王思聪介意啊！ 老子下面有点硬 弱智啊，交代的还不清楚？ 人渣 男人都畜生到对同类下手了？ 这新闻标题加一个封面图就明白了，很形象啊，花中间都红了。 娘火包礻皮弓虽女干。 有钱有权真的很好.... 你是没有遇到过这种事，年轻人第一次碰到这种事都是一脸懵逼的，反应只要慢一点就逃不出他们的魔掌了 王思聪太丑了，王健林可以考虑考虑 配图赞一个 [喷水]这年头男的都不安全了 这有什么，为了利益罢了，如果王思聪不嫌弃我是男的，我也不介意…… 还是描述一下，网友都很纯洁。再给想歪了，，，歪了没？你说 真恶心 菊花残满地伤，你的笑容也疯狂 这男的不要脸，被强迫不会反抗，居然顺从老总舒服了，简直就是个傻逼 还是描述一下，网友都很纯洁。再给想歪了，，，歪了没？你说 舒服吗 坐上来，自己动 这配图6 哪所野鸡学院 不走正门非要走后门 我要听描述[喷水] 换了是我就直接夹断他——节选自《歪掰的历史》 那就射老总一脸不就行了。 用嘴对着我下面 可怕的变态！ 乖乖。。。 爆菊 好刺激 这件事情在学生中如同炸开了锅，很快就传的大家都知道了，公司为了稳定学生情绪，法人王洪海，总经理曲*民连番来给学生洗脑（以给学生上专业课的理由），洗了足足一个星期。他们甚至请回了正在培训的学长帮着他们说好话，忽悠着王哲这些学生。王哲他们毕竟是刚踏入大学的青年，心智还不太成熟，这些事情就这么被公司领导们忽悠过去了，但是却在王哲跟同学们心里埋下了种子。后来公司找了六七个学生，其中包括王哲，说是大学生课外实践，要带他们下去招生。当时王哲考虑到这个专业就业无望，当时跟几个朋友想都没想就下去招生了。没想到这一下去就是两年，大三的时候，王哲如释重负，终于可以不用在这家公司待着了，虽然三年了自己没在大学学到什么东西，但至少拿个毕业证再脱身是可以的。王哲没想到的是身边的同学跟自己却是一个想法的。同学们要走，王哲带着大家去唱歌，去喝酒。因为大家都是年轻人，心里有事大家都憋不住。大家酒后都说出自己在这个公司经历的难忘的过往。。。 还是描述一下，网友都很纯洁。再给想歪了，，，歪了没？你说 请小编描述一下不可描述的事！ 你是男生还是男的女生，同情你。 [惊讶][惊讶][惊讶][惊讶][惊讶][惊讶] 哈哈 最近五年来，没有底线的事情，一再刷新国人的价值观。这要是复兴了，会如何呢？？ 我觉得这个配图真的挺赞的 信阳就个信阳师范，估计就是信阳师范的吧！ 配图真的灵性 这是特色 版本 (°_°)…不可描述 没有祸害女孩子，已经不错了啊 换做我直接把他鸡儿打骨折 禽兽 明明说不可描述，可是为什么我还是直接懂了呢？？？ ",
        "Total": 5269,
        "Link": "http://comment.news.163.com/news2_bbs/D6K0J3ER0001899N.html",
        "Reply": 258
    },
    "Source": "Netease"
}