{
    "URL": "http://news.163.com/17/1228/09/D6O0C4K600018AOQ.html",
    "Comment": {
        "Reply": 8,
        "Content": "[微笑][疑问] 这…… 这算什么。要是中国大陆主办，持有球票的人一律落地签。当然，人大在此之前，应该通过一个有时效期的临时法案，对此放行。 我爱梅西这是我的全球通用证件 破公共卫生 [疑问][疑问][疑问][疑问] 应该是，持有球票的人，棉签。 我是 [微笑][疑问] ",
        "Total": 10,
        "Link": "http://comment.news.163.com/news2_bbs/D6O0C4K600018AOQ.html"
    },
    "Title": "俄罗斯通过世界杯观众凭球迷护照免签入境法案_网易新闻",
    "Source": "Netease",
    "KeyWords": "世界杯,免签,护照,俄罗斯",
    "PublishTime": "12/28/201709:23:00",
    "Article": "（原标题：俄政府通过世界杯观众凭球迷护照免签入境法案）中新网12月28日电据俄罗斯卫星通讯社报道，俄罗斯政府网站当地时间12月27日发布消息称，政府通过关于规定世界杯观众凭球迷护照免签停留期限的法案。消息称，法案规定，世界杯观众凭纸质球迷护照和电子版球迷护照免签停留期限相同，均为从世界杯揭幕战打响前10天开始至最后一个比赛日。此外，拥有采访资格的媒体代表还可凭身份证件和采访证件免费乘坐增开列车。此外，法案还规定了国际足联人员往返机场、火车站、训练基地、体育场、球队基地和下榻地之间的礼宾路线。2018年世界杯将于2018年6月14日至7月15日在俄罗斯境内的11座城市举行。本文来源：中国新闻网责任编辑：程钢_NN7377"
}