{
    "Article": "（原标题：\"巴铁\"接连遭美威胁霸气回:不在乎中俄支持足矣）巴基斯坦军人进行反恐训练。(资料图)海外网12月31日电有美媒透露，近几个月来，随着美国和巴基斯坦关系不断恶化，特朗普政府正在考虑掐断对巴基斯坦的反恐资金援助。巴基斯坦外交部发言人30日就此回应称，巴基斯坦不在乎美国的资金援助。据《阿拉伯新闻报》报道，因不满巴基斯坦在反恐方面的作为，特朗普政府正在考虑掐断对巴基斯坦2.55亿美元的反恐资金援助。而当地时间周六(30日)，巴基斯坦外交部发言人在接受媒体采访时，就此事指责美国忽视巴基斯坦在反恐方面采取的有效行动，称巴基斯坦无需美国的资金援助。报道称，巴基斯坦外交部发言人费萨尔表示，“如果美国想要掐断对我们的资金援助，我们会大声回答‘悉听尊便’，我们不在乎，我们不需要美国的资金援助。”费萨尔称，巴基斯坦从美方获得了反恐援助，但援助资金微不足道，如果特朗普政府想要撤回，那对巴基斯坦不会产生丝毫影响。他还驳斥了美国关于“巴基斯坦在反恐方面无作为”的言论，称近几年来，巴基斯坦安全部队对恐怖主义和极端主义采取了有效的打击措施。巴基斯坦前外交官阿亚兹?维奇尔当天也回应称，巴基斯坦是一个主权国家，这不是特朗普政府通过掐断资金援助的方式就能破坏的事实。阿亚兹说，近几年来，巴基斯坦与中国以及俄罗斯的关系显著改善，在处理国内或者国际事务中，巴基斯坦已无需美国的支持。值得一提的是，美国副总统彭斯21日曾指责巴基斯坦“包庇极端分子”，并称美国总统特朗普已经对其进行了“警告”。对此，巴基斯坦参议院主席拉巴尼发表强硬表态，称巴基斯坦不会听从于任何人的“警告”，尤其是美国。27日，美国务卿蒂勒森在《纽约时报》上发表了一篇名为《我为美国外交骄傲》的文章，他在文章中再向巴基斯坦施压，“巴基斯坦必须表现出与美国合作的意愿，防止阿富汗成为恐怖分子的避风港”，他还提到，特朗普政府将为此推出新的“南亚战略”。对此，巴基斯坦军方发言人阿西夫?加富尔少将强硬回应称，巴基斯坦军方不会受美国“胁迫”，“我们不会再被迫做任何事”。本文来源：海外网责任编辑：李曦_NN2587",
    "Title": "特朗普欲切断对巴基斯坦反恐援助 巴方：不在乎_网易军事",
    "PublishTime": "01/01/201810:43:10",
    "Source": "Netease",
    "Comment": {
        "Content": "本拉登就是在巴基斯坦被美国的特种部队干掉的。在此之前，他已经在巴生活很多年了。巴基斯坦政府真不知道本拉登就在其眼笔底下吗？ 反正有人掏钱 这就来 那能说啥，求求你我很在乎？ 谁害怕谁在乎呗 当年美国是怎么援助你？没有美国，你建国之初就被印度灭了。 窝藏恐怖分子有理？ 区区2.5亿美金就想对一个国家指手画脚啊…… 现在都看得见了！二楼猪猡 早就有大靠山了，还在乎料帝那点小钱？呸 你从哪里知道的？ 文章最后一段话实在啊，原来打击恐怖分子都是被迫的，这下可以理解了。 川普是商人，商人以诚信为本。政客呢，翻脸不认是本能。 49以后就不知诚信为何物 《我为美国外交骄傲》——这题目煽情~ 这里就需要这样的容易糊弄的傻帽存在 支持 有中国在，美国对巴铁的威胁就变成了世界笑话。 以前就有吗？诚信是建立在法治基础上的！ 煞笔，好不好，过几年再看效果！ 我支持楼上 黔之骡的笑话天下人皆知！ 巴基斯坦嘲讽道：哎呀呀，吓死老子了，才二点五亿美元，你大爷的，不够别人塞个牙缝的！！！ 脑子是用来思维判断正义与斜恶，遗憾你是驴头猪脑披着一张人皮 你活着就是你父母的耻辱。 哈哈😄 川普大爷好眼力，认清了扒鸡不是什么好东西.... 从今天网站发的照片看，烟烟的脸型、气色、眼神都变了，麻烦大了。 巴:“喂，打钱打钱” 就是，不要他的钱有更多的钱到账 “如果美国想要掐断对我们的资金援助，我们会大声回答‘悉听尊便’，我们不在乎，我们不需要美国的资金援助。”<br>卧槽，这丐帮真是硬气呀。 剩下三年岂不是毫无作为？？？！！哈哈 我们嘲笑川普的最大理由就是——上任一年就完成了80%的承诺，会不会玩啊。 美帝的那点钱还得议会批准 引的太监想起了自己的主子 草泥马的一个任性没有政治素养的大嘴老头都能让低贱的狗喷子赞扬！喷子真是些低贱的垃圾人渣！ 我就知道为了打一个恐怖分子美国无人机会误杀很多巴国百姓! 想有作为得负增长，逆幸福啊，川普学着点，小学生都比你强。 傻了吧，这就体现了欧美的全球政策，天下乱则欧美安，中东的混乱更加体现的完美。 美帝在巴基斯坦，成事不足败事有余！ 川普确实靠谱没得说 🐔国在，谁稀罕你。 特朗普做的每一件事都是100分！ 靠，这几个字说的很标准哦。 美国支持谁，就要被它控制。 川普大爷好眼力，认清了扒鸡不是什么好东西.... 文章最后一段话实在啊，原来打击恐怖分子都是被迫的，这下可以理解了。 掐断的话就鼓励恐怖分子给老美多闹事，很好平衡的事！ 当年美国是怎么援助你？没有美国，你建国之初就被印度灭了。 毛，是性格使然，老美的总统上位之前各行各业的都有，律师、农场主、演员、商人等等 老美不扶植恐怖分子，这个世界就安宁了。陪着老美玩，肯定被拖下水。 从今天网站发的照片看，烟烟的脸型、气色、眼神都变了，麻烦大了。 都是政治 这里就需要这样的容易糊弄的傻帽存在 支持 你活着就是你父母的耻辱。 以前就有吗？诚信是建立在法治基础上的！ 满满的自豪啊！ 我支持楼上 巴基斯坦嘲讽道：哎呀呀，吓死老子了，才二点五亿美元，你大爷的，不够别人塞个牙缝的！！！ 。。巴，美，友好关系很重要。。。 巴:“喂，打钱打钱” 就是，怎么不吹泡沫呢 反恐部队也带钢锯? “如果美国想要掐断对我们的资金援助，我们会大声回答‘悉听尊便’，我们不在乎，我们不需要美国的资金援助。”<br>卧槽，这丐帮真是硬气呀。 不过这是假的吧，不可能的 我就知道为了打一个恐怖分子美国无人机会误杀很多巴国百姓! 是性格使然 傻了吧，这就体现了欧美的全球政策，天下乱则欧美安，中东的混乱更加体现的完美。 美帝在巴基斯坦，成事不足败事有余！ 卑贱无耻的美狗垃圾人渣们，他把美国治理得好不好与你们有何关系？难道好了会格外赏你们美狗喷子们几根骨头？ 特朗普做的每一件事都是100分！ 本拉登就是在巴基斯坦被美国的特种部队干掉的。在此之前，他已经在巴生活很多年了。巴基斯坦政府真不知道本拉登就在其眼笔底下吗？ 利益 绕口令呢。一句我们美国从此支持老恐不就简单明了表达到位。 相反每做一件事儿都扣一百分！ 那不是负负得正的意思？ 能拿双份不是更好 毛，是性格使然，老美的总统上位之前各行各业的都有，律师、农场主、演员、商人等等 窝藏恐怖分子有理？ 你从哪里知道的？ 区区2.5亿美金就想对一个国家指手画脚啊…… 别切了再切真是全包围了 早就有大靠山了，还在乎料帝那点小钱？呸 美狗们真是些蠢货贱民！ 人穷必然志短？ 黔之骡的笑话天下人皆知！ 煞笔，好不好，过几年再看效果！ 无奸不商，这是古人多年总结的经验。那你知道无奸不商本意吗？无奸不商原来是这样写的“无尖不商”，只不过后人没文化，变成无奸不商了。 脑子是用来思维判断正义与斜恶，遗憾你是驴头猪脑披着一张人皮 （多做好事，必有好报）美攻朝中收台战略对冲平衡（加快发展繁重工作替代性智能机器，不用延迟退休）公司上市后业绩异常下降，依法赔偿遏制骗钱（当务之急大小限减持和再融资要挂钩分红或回购，违则重罚，促进长期良好经营，缓解套现压力）尽快开征股指期货的印花税，才能降低杠杆及高频风险，限制其乱影响股市（基金只有盈利才收管理费，真正为投资者服务）连续2天涨跌停就限仓交易，共同受益，利国利民！ 商人是以利为本，不奸不商。政客也是以利为本，有道是政客都是骗子。川普即是商人又是政客。 一楼黔驴也。 草泥马的一个任性没有政治素养的大嘴老头都能让低贱的狗喷子赞扬！喷子真是些低贱的垃圾人渣！ 2楼，给你个骨头。 剩下三年岂不是毫无作为？？？！！哈哈 我们嘲笑川普的最大理由就是——上任一年就完成了80%的承诺，会不会玩啊。 美帝的那点钱还得议会批准 引的太监想起了自己的主子 49以后就不知诚信为何物 哈哈，其实我要写的是无奸不商，只不过打错了字，你还顺杆爬上来了。不过这个杆本身就是错的。 想有作为得负增长，逆幸福啊，川普学着点，小学生都比你强。 正确，美国让华盛顿之流糟蹋了。 就是，不要他的钱有更多的钱到账 有中国在，美国对巴铁的威胁就变成了世界笑话。 川普是商人，商人以诚信为本。政客呢，翻脸不认是本能。 和为贵 输出地又不是它，当然不在乎 谁想统治世界，谁就会解体，历史无不如此 这就来 老美要过时！ 哈哈😄 巴:“喂，打钱打钱” 那能说啥，求求你我很在乎？ 反正有人掏钱 谁害怕谁在乎呗 《我为美国外交骄傲》——这题目煽情~ 有本事撤掉在华企业 🐔国在，谁稀罕你。 ",
        "Reply": 78,
        "Link": "http://comment.war.163.com/news_junshi_bbs/D72E09VB000181KT.html",
        "Total": 2106
    },
    "KeyWords": "巴基斯坦,特朗普,援助,反恐",
    "URL": "http://war.163.com/18/0101/10/D72E09VB000181KT.html"
}