{
    "Title": "沙特\"爱国者\"反导难挡胡塞\"火山\"弹道导弹袭击_网易军事",
    "URL": "http://war.163.com/17/1225/09/D6GA0736000181KT.html",
    "Source": "Netease",
    "Comment": {
        "Total": 3499,
        "Reply": 175,
        "Content": "你这傻逼东西，沙特哪来的东风21？ 谁是胡塞武装背后的金主？ 反导不行，打战斗机不行，可是打客机牛的一比呀！ 因为空军不如人家，苏联一直重视防空导弹的发展，当年苏联解体后美国第一时间从俄罗斯采购的武器就是S300防空导弹和Su-27战斗机。因为这是当时苏联少数几种对美国货有技术优势的武器。美国因为空军强大不大重视防空导弹的发展，美国的爱国者主要是用来反弹道导弹的和防空反导多用途的S400比性能上确实比不过。 5年了你还没出来！当年你只是去摸了几下六十岁外婆就弄得判这么重它们太狠[大笑][大笑][大笑][大笑][大笑][大笑][大笑][大笑] 俄罗斯的五代机就是三代机美国没当回事俄罗斯说到底保命的就是核武了 我爱你母亲 “爱囯者”到底是爱沙特还是爱胡塞？ 我想知道科威特、阿联酋和沙特是民主国家吗？ 沙特大概在2007年购的了东风21导弹替代80年代购的快退役的东风3型导弹， 这就囧了，一边是也门胡塞武装和伊朗，一边是也门沙特苏丹巴基斯坦科威特阿联酋，老朋友这么多，红咖啡乐们也只能谁反美就挺谁了。。。。。。 楼上脑残又来秀你脑残的比狗不如的智商？<br>懂不懂什么叫战略武器？没用过的武器多着了，以色列还有核武器呢，这么多在威胁他的国家他怎么不拿出来用了？？<br>另外沙特买中国的武器多着了，没看写了购了DF-21替代DF-3了？最近就是花巨资购中国的各种攻击无人机等 不是天朝30年前为此挣了几十亿美元吗? 爱国者本来是防空的，海湾战争临时客串了反导，效果还不错，之后又搞出了2和3两个升级版强化防空反导能力。不重视防空那是美国陆军因为没那个需求谁能干过美国空军啊？但海军的标2,3,6还是很强的。 现在国王和王储肯定没住皇宫了 别把它放出来。。。 二楼太无聊了！你无缘无故爱人家的母亲～找死啊～ 不一定要看新闻，看评论挺好玩。 海湾战争中爱国者拦截飞毛腿成功率低的可怜，只有9%。美国也从那以后开始重视反导系统的研究，开发了改进型的2、3型。后期特别是爱国者3主要功能就是反导。但实战拦截率还是不行，必须多枚导弹同时拦截一个目标才能保证拦截成功。 沙特用东21回应啊！ 记得海湾战争的时候是百分之七八十吧，后来修正为百分之六十，主要向国会要钱升级的。真的命中率鬼知道呢。 吹上天的S400末端拦截弹道导弹时，其模式完全是山寨多年前的爱国者-3。 人家公布90的拦截率不承认也就算了，你400拦过啥，f16？战斧？777？ 你这阉狗昨晚帮你美爹站了一晚上岗，圣诞又得继续，悲催哦 这是在给爱国者打广告么 该尼玛出狱了 垂发关系不大，400公里是防空距离不是反导距离，用的弹道都不一样。S400系统各种型号的导弹挂得圣诞树一样从一个侧面反映出这种系统的辣鸡。 其实这是个数字游戏，如果是单枚导弹彻底击毁来袭导弹的概率，当时可能还真不高。<br>如果是单枚飞毛腿造成伤害的概率，那也不高，比较飞毛腿乃是一种辣鸡导弹。 你准备替你洋主子咬死他？ 如果胡赛武装能从伊朗那里在弄一大批巡航导弹……或者更先进的飞毛腿D。沙特惨大了。但伊朗不会给这么先进的给胡赛的。要不沙特真的为了干胡赛玩命了。弄点突防高一些的飞毛腿C对于伊朗清库存吓沙特，何乐而不为。 无知者无畏，不要秀你的智商下限了！ 打客機是沒問題的 [微笑]你们啊，何必跟这种人计较，直接屏蔽就行了。我现在已经看不到他的信息了，实在受不了。 跟贴被火星网友带走啦~ 看着网友整天吵吵，真是无语。 王宫不能住了！指不定那一颗导弹没拦住~ 就和那些成天高喊做狗不做人一样智障。 垂帘听政还明主得太多了？跳大神啊，什么都敢骗 比俄罗斯连反应都没有的S-400强多了。 400更惨，昏睡百年不醒 你个反人类的魔鬼！ 跟贴被火星网友带走啦~ 三十多年之间为何沙特从不使用？为何沙特从那次之后就不再买中国武器？ 80年代用30多亿美刀购的是东风3型导弹，不过现在应该已经退役了，已经30多年了，因此大约又在07年购了东风21替代东风3型，已经证实了 爹400的反导水准基本可以忽略不计。 听打狗酱回忆他妈妈讲诉那过去跟鹅毛子的往事）。麻麻：1945年，鹅毛子兵打进了瞒州郭。两个高大魁梧的鹅毛子来到咱家，二话不说，把你碟刺倒在地，把麻麻按倒在炕上，动作虽然粗鲁，但麻麻感觉很爽，至少比你碟强多了.....后来就有了你。说完，麻麻深情地望着北方，两眼含泪忍不住抽泣了起来..你爸什么时候能再来呢？打狗酱麻麻严肃的叫道，你要记住，你虽为钟郭人，但你的根在酥鹅，你身体内流着鹅罗斯民镞的血，千万不要忘了这一点。你能保证么？打狗酱泪流满面，坚定地点了点头。此后，打狗酱“战地菊花分外香”和他的钟鹅混血儿子“君臨天下之中華帝國的反擊”便下定决心，发誓要更卖力的食屎减刑贡献力量。 伊朗和叙利亚才是？ 我知道它是智障，驴的智商也就是撂撅子，见一次骂一次！ 一群傻逼的脑残穷屌丝，在谈论反导武器，呵呵 二楼定律真准 一百次实战成功战绩呀！如果只有9%，那就说说失败了几次？为何只说一次？ 你和喷狗较真呢 一个斜射一个垂直发射，一个射程两百一个射程400，其他的我就不说了。 伊朗和叙利亚比霉帝某些盟友明主得太多了，霉帝的某些盟友完全就是封建国家，主要是交了保护费+听话 你这种智商都没法回应你。。。 你这傻逼东西，沙特哪来的东风21？ （多做好事，必有好报）美攻朝中收台战略对冲平衡（加快发展繁重工作替代性智能机器，不用延迟退休）公司上市后业绩异常下降，依法赔偿遏制骗钱（当务之急大小限减持和再融资要挂钩分红或回购，违则重罚，促进长期良好经营，缓解套现压力）尽快开征股指期货的印花税，才能降低杠杆及高频风险，限制其乱影响股市（基金只有盈利才收管理费，真正为投资者服务）连续2天涨跌停就限仓交易，共同受益，利国利民！ 湖塞天天发射导弹不犯罪吗？ 胡塞武装是政府行为还是恐怖组织？ 美帝天天发射导弹也没犯罪啊 谁是胡塞武装背后的金主？ 分得清哈迪和萨利赫吗？ 一个斜射一个垂直发射，一个射程两百一个射程400，其他的我就不说了。 然后你就在没有必胜把握的时候教会别人进攻才是最好的防守这个道理吗？ 哈哈，当年也有人像你这样洗地说汪精卫可以联合日本，建设什么共荣来着啦？ 奴才 呵呵 我爱你母亲 不知道金主无法掌握自己的钱还要延迟退休？ 哥啊爱国者是美国的防空导弹呀！沙特买了不少，不是被洗过脑的所谓“爱国者”（碍国者）！ “爱囯者”到底是爱沙特还是爱胡塞？ 沙特大概在2007年购的了东风21导弹替代80年代购的快退役的东风3型导弹， 太特么贵了，拿这么多钱到他们家撒掉估计也不用打仗了 这就囧了，一边是也门胡塞武装和伊朗，一边是也门沙特苏丹巴基斯坦科威特阿联酋，老朋友这么多，红咖啡乐们也只能谁反美就挺谁了。。。。。。 那是，中国出了不少冤枉钱 还得是咱们的红旗九 本来萨纳就是也门胡赛与政府争夺地区……胡赛武装主力压根没事。 沙特人真有钱，连打五枚导弹比那一颗弹道导弹成本高了不止百倍 王宫不能住了！指不定那一颗导弹没拦住~ 也门都是贫民窟。。用导弹亏到死，说难听点用重炮炮弹都亏死了~ 可惜了，应该把沙特这个美杂狗腿子打残才好。 问题是也门那种地方，比阿富汗还穷，而胡塞武装跟塔利班差不多的游击队，你用东风21打他的什么目标？<br><br>花几亿去打几个帐篷？ 胡塞能制造改进型导弹？呵呵 到底是什么样的人，才会为这些发射导弹袭击平民目标的空不分子叫好？ 胡赛武装每次只发一枚，这样很容易拦截，应该弄几枚导弹一起发射 叙利亚、伊朗、胡赛等等能闹起来，也是因为美帝页贝岩技术后，全新的能源秩序之下，中东再洗牌罢了，毛熊参与算是多倒了碗浑水进来罢了。其实，这帮家伙都是闪米特人，被宗教分割成各个派系，让他们闹吧，冷眼旁观看看热闹捞捞利益就是 反正恐怖分子，基本上都是逊尼派； 我最喜欢看帖子、各其所言：观点不同看法不同、吵吵嚷嚷甚是开心😃……<br>我支持以色列🇮🇱！我去过以色列🇮🇱三次、每年三个月探亲旅游、亲眼目睹以色列的民主制度、看到市中心反总理贪污公款的示威游行、这就是中东地区唯一民主国家、362集体农庄、相当于共产主义的人民公社、人人平等、没有工资，一切费用都是农庄负责任，社员人均收入一样的、幸福指数很高、有𡋾墅、有车、但去世后、房产归属集体农庄、<br>以色列是多元化民主国家、百姓安居乐业、不要战争的、一夫一妻的、在以色列的阿拉伯人，也是很好的，尊纪守法的、他们今天取得的成果最主要是军民团结一致！全民皆兵百万……想着马克思、列宁、许多高端杰出科学家都是犹太人为人类作出贡献而努力💪！让我觉得値得敬重⋯以色列对中国人非常友好、感恩中国🇨🇳……<br>我参加过中国驻以色列🇮🇱大使馆国庆宴会、犹太人、阿拉伯人、华人欢庆中国🇨🇳的节日、由此可见、我们不要战争、希望和平！让人民生活更加美好！我的所见所闻，谨供读者参考？ 沙特用东21回应啊！ 以色列的穹工防空导弹一枚几十万美金！来拦截几千美金甚至几百美金的火箭弹和迫击炮呢！ 伊朗，所以沙特宁愿跟以色列联手 哦哦 你准备替你洋主子咬死他？ 如果胡赛武装能从伊朗那里在弄一大批巡航导弹……或者更先进的飞毛腿D。沙特惨大了。但伊朗不会给这么先进的给胡赛的。要不沙特真的为了干胡赛玩命了。弄点突防高一些的飞毛腿C对于伊朗清库存吓沙特，何乐而不为。 我给沙特支一招。用东风21等所有远程武器瞄准以色列，雇人弹包围以色列，不出兵就开打。以色列打胡塞就像虐菜 我们赶紧卖武器 乱炸伤害无辜于事无补啊！ 花萎吃屎？ 无知者无畏，不要秀你的智商下限了！ 华定，居然把中国比作也门斜角国家！ 反导本来就很难 以色列很好，但是美国人挑动阿拉伯人和以色列人死磕实在不是东西 东风21是证实了的，2L这傻🐶喷子不学无术罢了。毕竟一贴半块钱请来的东西 干死伊朗，胡塞武装 现在国王和王储肯定没住皇宫了 爱国者对于这种粗做烂造的低速导弹都力不从心，你就别给美利坚洗了 联合国解散，天天谈判现在结果是谈判让巴沙尔地盘越谈越大 吹上天的S400末端拦截弹道导弹时，其模式完全是山寨多年前的爱国者-3。 亲，也门政府军是和胡塞一起干前总统叛军，别搞混了 比俄罗斯连反应都没有的S-400强多了。 不是一个教派的会和当年天主教和新教pk起来一样 以色列一点一点蚕食阿拉伯世界，阿拉伯世界内部自己先打得不可开交。 楼上的机智也没谁了，牙好胃口就好吃饭忒香口味忒重 。。。。 如果拦截率这么底，那不知道会被打死多少人，要知道这些导弹都是瞄准城市的。 啥狗屁反导？全是美杂这畜牲忽悠美狗的。 我想知道科威特、阿联酋和沙特是民主国家吗？ 沙特阿拉伯滴八旗兵，木有战斗力滴，跟意大利军队是一模一样的。 以色列可以乘机联合沙特打下也门瓜分之！建成文明国家，也是件大好事！ 宁夏好像是什叶的多 如果爱国者没用那日本自卫队为什么要买呢？ 目标是啥啊 你这种智商都没法回应你。。。 21是用来震慑伊朗伊拉克的，还舍不得拿来打胡赛的帐篷，毕竟估计差不多一枚得一亿刀 80年代用30多亿美刀购的是东风3型导弹，不过现在应该已经退役了，已经30多年了，因此大约又在07年购了东风21替代东风3型，已经证实了 如果没拦住，那损失的更加大，真是被它击中，沙隆巴斯会后悔没把一个营的导弹全打出去 火星网友是屏蔽不了的，你进入不了他的页面。但有名有号的，你点进去，有个屏蔽键选了就好了，从此与他在网易绝缘。 你这傻逼东西，沙特哪来的东风21？ 美狗，这导弹不是应该叫碍国贼导弹吗 以这个拦截比来看。沙特以后要要饭了。 美狗，这导弹不是应该叫爱国贼导弹吗 谁是胡塞武装背后的金主？ 5年了你还没出来！当年你只是去摸了几下六十岁外婆就弄得判这么重它们太狠[大笑][大笑][大笑][大笑][大笑][大笑][大笑][大笑] 美国国会统计部门也公布了类似的统计结果，认定战争期间，“爱国者”对“飞毛腿”的拦截成功率仅为9% 俄罗斯的五代机就是三代机美国没当回事俄罗斯说到底保命的就是核武了 美帝什么时候把沙特这老毒菜给干掉啊不然美触们每天睡不着觉 我爱你母亲 喷子就这素质 “爱囯者”到底是爱沙特还是爱胡塞？ 有个福州的动不动就骂娘和地域攻击，我屏蔽了它N次了，没用。 之前说胡赛打到沙特的是我们生产的，沙特拦截的导弹也是我们生产的，现在直接说是美帝的爱国者，专家就沉默了 美狗，这导弹不是应该叫爱国贼导弹吗，或者叫碍国大粪导弹 这就囧了，一边是也门胡塞武装和伊朗，一边是也门沙特苏丹巴基斯坦科威特阿联酋，老朋友这么多，红咖啡乐们也只能谁反美就挺谁了。。。。。。 沙特大概在2007年购的了东风21导弹替代80年代购的快退役的东风3型导弹， 伊朗，再背后毛子 中国已经想沙土豪提供了df21弹道导弹，价格不详.估计是天价. 楼上脑残又来秀你脑残的比狗不如的智商？<br>懂不懂什么叫战略武器？没用过的武器多着了，以色列还有核武器呢，这么多在威胁他的国家他怎么不拿出来用了？？<br>另外沙特买中国的武器多着了，没看写了购了DF-21替代DF-3了？最近就是花巨资购中国的各种攻击无人机等 二楼定律真准 沙特这拦截也太费了，不划算，这样下去总有一天会击中目标。 不知道但伊朗是个神棍掌权的国家 你们不是抓狂的呛那毛子了吗？好事，狗咬狗 法兰西也有文哥破四旧吗 伊朗 别把它放出来。。。 不一定要看新闻，看评论挺好玩。 还不如91年的爱国者 沙特用东21回应啊！ 吹上天的S400末端拦截弹道导弹时，其模式完全是山寨多年前的爱国者-3。 东风21是进攻型武器，不是反导武器。 你这阉狗昨晚帮你美爹站了一晚上岗，圣诞又得继续，悲催哦 考一下大家智力假如地球同一了有什么好处？ 该尼玛出狱了 一狼！！！ 2×2也很准。 我是汉奸你就是汉奸之子 一有人喷毛子，你就跟死了亲爹一样，为啥呢？ 沙特要出头嫩了点 傻逼二楼，S400拦截弹道导弹能达到400公里？搞清楚再来装X 不能一次发射几十枚？ 三十多年之间为何沙特从不使用？为何沙特从那次之后就不再买中国武器？ 这导弹不是应该叫碍国贼导弹吗 看着网友整天吵吵，真是无语。 那就600！再不行6000！随意加编号 楼上的头像也是醉了，标准黄俄汉奸 跟贴被火星网友带走啦~ 比俄罗斯连反应都没有的S-400强多了。 400更惨，昏睡百年不醒 你个反人类的魔鬼！ 伊朗和叙利亚比霉帝某些盟友明主得太多了，霉帝的某些盟友完全就是封建国家，主要是交了保护费+听话 打吃猪肉的沙特?支持。 连胡塞都能造导弹 我想知道科威特、阿联酋和沙特是民主国家吗？ 专家沉默，教授流泪。。。 某些人的信息是屏蔽不了的。 俄国的打不了几下就要说核武了几十年了俄罗斯的飞机就没打赢过每种都差两代又打不赢又没人帮核武是它唯一敢在中东做个样子的了 腐败的君主专制国家 一百次实战成功战绩呀！如果只有9%，那就说说失败了几次？为何只说一次？ 俄罗斯的那些和美国差70年 一个斜射一个垂直发射，一个射程两百一个射程400，其他的我就不说了。 这些人小号一大堆。轮流发 你这傻逼东西，沙特哪来的东风21？ 他是反你们狗类，你还把自己当人了 你们也只剩下骂这点本事了，能骂到主子的绿卡？<br><br>人家唐公公天天舔成那个逼样都没混到绿卡，你们心里还没点逼数么？ 喂鸡白客上有详细内容自己去看。 别人掐架，关中国屁事，你非得认个主子，真是狗性不该啊 沙特真有DF21，是早期款的。不过这些导弹是沙特的战略武器，不可能用于对付胡赛武装。 用爱国者的沙特和用S400的叙利亚真是同人不同命。 吹上天的S400末端拦截弹道导弹时，其模式完全是山寨多年前的爱国者-3。 谁是胡塞武装背后的金主？ 30多年前卖的是DF3，听说一颗导弹价格一亿美元。因为价格太贵其他国家都以为这导弹是带核弹头的，保了沙特30年平安。现在退役的又采购了一批DF21，价格不清楚。 我爱你母亲 你自己才是傻逼啊 “爱囯者”到底是爱沙特还是爱胡塞？ S400你是设计者对么？ 胡赛果然是流氓家族的<br><br>这个家族发射导弹，从来只报道已经发射<br><br>你永远不知道它飞到哪里去了！ 你妈已死有事烧纸 就你知道的多 这就囧了，一边是也门胡塞武装和伊朗，一边是也门沙特苏丹巴基斯坦科威特阿联酋，老朋友这么多，红咖啡乐们也只能谁反美就挺谁了。。。。。。 美国武器真的挺差劲的 祝大家圣诞快乐! 祝大家圣诞快乐! 有戏看 不是天朝30年前为此挣了几十亿美元吗? 听打狗酱回忆他妈妈讲诉那过去跟鹅毛子的往事）。麻麻：1945年，鹅毛子兵打进了瞒州郭。两个高大魁梧的鹅毛子来到咱家，二话不说，把你碟刺倒在地，把麻麻按倒在炕上，动作虽然粗鲁，但麻麻感觉很爽，至少比你碟强多了.....后来就有了你。说完，麻麻深情地望着北方，两眼含泪忍不住抽泣了起来..你爸什么时候能再来呢？打狗酱麻麻严肃的叫道，你要记住，你虽为钟郭人，但你的根在酥鹅，你身体内流着鹅罗斯民镞的血，千万不要忘了这一点。你能保证么？打狗酱泪流满面，坚定地点了点头。此后，打狗酱“战地菊花分外香”和他的钟鹅混血儿子“君臨天下之中華帝國的反擊”便下定决心，发誓要更卖力的食屎减刑贡献力量。 你这傻逼狗还敢龇牙，打得轻 这充分说明了爱国者反导系统是成功的，并没有失误啊 你个反人类的魔鬼！ 我想知道科威特、阿联酋和沙特是民主国家吗？ 伊朗和叙利亚才是？ 这个重要吗，沙特狂轰乱炸也门快两年了，也门为啥就没有反击的权力了？既然主动打别人，挨了打就别叫冤 我知道它是智障，驴的智商也就是撂撅子，见一次骂一次！ 听打狗酱回忆他妈妈讲诉那过去跟鹅毛子的往事）。麻麻：1945年，鹅毛子兵打进了瞒州郭。两个高大魁梧的鹅毛子来到咱家，二话不说，把你碟刺倒在地，把麻麻按倒在炕上，动作虽然粗鲁，但麻麻感觉很爽，至少比你碟强多了.....后来就有了你。说完，麻麻深情地望着北方，两眼含泪忍不住抽泣了起来..你爸什么时候能再来呢？打狗酱麻麻严肃的叫道，你要记住，你虽为钟郭人，但你的根在酥鹅，你身体内流着鹅罗斯民镞的血，千万不要忘了这一点。你能保证么？打狗酱泪流满面，坚定地点了点头。此后，打狗酱“战地菊花分外香”和他的钟鹅混血儿子“君臨天下之中華帝國的反擊”便下定决心，发誓要更卖力的食屎减刑贡献力量。 舔美的国王是民主的国王 沙特用东21回应啊！ 该尼玛出狱了 一个斜射一个垂直发射，一个射程两百一个射程400，其他的我就不说了。 这是在给爱国者打广告么 二楼太无聊了！你无缘无故爱人家的母亲～找死啊～ ",
        "Link": "http://comment.war.163.com/news_junshi_bbs/D6GA0736000181KT.html"
    },
    "Article": "（原标题：难上加难：沙特“爱国者”反导难挡胡塞“火山”弹道导弹袭击）参考消息网12月25日报道近日，据德新社报道，当地时间12月19日，也门胡塞武装“火箭营”向位于沙特首都利雅得的雅玛玛皇宫发射了一枚“火山H-2”型弹道导弹。导弹后来被沙特防空军的“爱国者”防空导弹成功拦截，没有造成人员伤亡。这已是两个月内，胡塞武装向利雅得第2次发射导弹，另据网传视频显示，沙特在拦截胡塞导弹时，共打出5枚“爱国者”拦截弹，场面较为罕见。那么胡塞武装的“火山H-2”型导弹究竟性能如何？为何沙特需要在一次拦截行动中使用如此多的“爱国者”导弹？本文就此为您解析。据德新社援引胡塞武装高层领导人阿里·卡胡姆的话称，此次胡塞武装向利雅得发射导弹有两大“目的”：一是19日当天正值沙特领导的联军打击胡塞武装行动整1000天，发射导弹是作为对沙特联军最近空袭也门北部的报复；另一目的则是胡塞武装获得“线人”情报，得知沙特国防部领导层正在雅玛玛皇宫内开会，其试图用导弹实施“斩首行动”。另据位于首都利雅得的目击者称，他们听到剧烈的爆炸声，并看到了城市上空的导弹烟迹。此次袭击行动是“火山H-2”型弹道导弹在2个月内的第2次发射，上次是在11月4日，打击目标是位于利雅得以北35千米的哈立德国王国际机场，也是胡塞武装首次向沙特首都发射导弹。图为胡塞武装网站发布的19日，向利雅得发射“火山H-2”型弹道导弹视频截图。“火山H-2”（另译“火山2H”）是一种可采用机动式TEL（运输起竖发射）车发射的新型中程弹道导弹，首次为外界所知是在2017年7月22日。当时胡塞武装声称他们当天向位于沙特西部的延布石油精炼厂（位于沙特2大产油地）发射了一枚“火山H-2”导弹，导弹不仅成功命中目标且引燃大火，当地居民上传的视频也显示油田发生重大火灾。然而，沙特官方给出的说法却是因空气湿度过大，造成油田电机短路故障而引发火灾。美国《华盛顿邮报》援引西方军事专家的分析称，“火山H-2”可能基于伊朗的“起义”-1型（原型为“飞毛腿”-C）弹道导弹改进而来，后者采用液体燃料推进，最大射程超过750千米，而“火山H-2”的最大射程可达1400千米，可覆盖沙特80%的国土。从网络上公开的图片显示，“火山H-2”的弹头头锥经过优化设计，可增强导弹在弹道末端的稳定性和俯冲速度，专家猜测其可能还采用了在弹道飞行中段与弹体分离的设计，无疑大幅提升了“火山H-2”的突防能力，更难被反导系统拦截。这点已在11月4日针对沙特国际机场的袭击行动中得到了证实。据美国《纽约时报》分析称，当天沙特防空军为拦截这枚“火山H-2”共发射了5枚“爱国者”PAC2GEM-T（制导增强型战术）型防空导弹，沙特官方声称“成功拦截并摧毁了来袭导弹”。但根据社交网络上流传的照片和视频显示，在利雅得市内的很多地区都发现了疑似来袭导弹的弹体部件和残骸，却未发现最重要的弹头部分。调查人员认为，该导弹在接近目标时，弹头就与弹体分离，“爱国者”导弹可能只追踪到了抛弃掉的弹体部分，而弹头则畅通无阻地突破反导防御网，成功命中了哈立德国王国际机场的国内航站楼附近地区并爆炸。据网传视频显示，有旅客在听到巨响后吓得从椅子上跳了起来，并跑到落地窗附近围观。图为胡塞武装此前公开的“火山H-2”型弹道导弹资料图。看到这里，可能很多人会有疑问，“爱国者”防空导弹（以下简称“爱国者”）曾在1991年海湾战争和2003年伊拉克战争中成功拦截过伊拉克军队的“飞毛腿”导弹，为什么还会出现这种失误？实际上，当年有关“爱国者”成功拦截“飞毛腿”的报道都经过了美军的夸大处理。以美军在海湾战争战后公开的统计数据为例，开战前，伊拉克军队共拥有819枚“飞毛腿”型及远程改进型“侯赛因”、“阿巴斯”战术弹道导弹（最大射程为600至900公里，射程要小于“火山H-2”型）。海湾战争期间，伊军共发动93次“飞毛腿”导弹袭击，其中43次针对以色列，50次针对沙特。实战统计数据表明多国部队防空导弹系统处于全面下风，远未达到美军宣传的“90%拦截率”。到1993年最后认定极其准确的拦截次数只有10次。美国国会统计部门也公布了类似的统计结果，认定战争期间，“爱国者”对“飞毛腿”的拦截成功率仅为9%，而在以色列境内的成功拦截次数仅有1次。需要强调的是，这还是在“爱国者”得到美军“国防支援计划”（DSP）导弹预警卫星（可在90秒内完成从探测敌方弹道导弹尾焰升空到计算导弹飞行路线和轨迹、推算即将攻击目标的全过程）支援情况下所取得的战果。“爱国者”在战时最典型的一次失败事例发生在1991年2月25日，当天1枚“飞毛腿”成功命中了美军位于沙特的达兰军营，造成美军28人死亡，100多人重伤，是“沙漠风暴”行动期间美军最大的一次伤亡事件。这次“爱国者”拦截失败的原因，竟然是因为控制系统的时钟装置设计存在缺陷，造成导弹软件系统会在连续运行100小时后产生343.3毫秒的积累误差，进而造成的距离偏差会达到687米。从“爱国者”在海湾战争中的表现，我们不难看出反导系统的难度之大以及局限性。当时在美军DSP导弹预警卫星的支援下，美军可以在卫星发现导弹升空后，马上将相关数据传送给驻扎在沙特和以色列的“爱国者”反导部队，为部队争取到5至7分钟的预警时间，这对反导系统来说至关重要。而今天的沙特防空军能否在第一时间获得来自美军“天基红外监视”导弹预警卫星提供的预警信息，尚不得而知。图为“爱国者”PAC2GEM-T导弹发射资料图。假设在没有卫星支援的情况下，沙特防空军仅依靠“爱国者”系统自身的AN/MPQ-53相控阵雷达（最大探测距离超过160千米，在经过PAC-2GEM-T后期升级后，探测性能、数据带宽和识别能力均有所提升，可同时制导9枚拦截弹），在预警时间有限的情况下，拦截胡塞导弹的难度无疑会大幅提升。尽管根据沙特军方提供的数据显示，自2015年1月至2017年4月，沙特“爱国者”部队已成功拦截超过100枚弹道导弹，其中超过90次都是由“爱国者”PAC2GEM-T导弹取得的，但要从根本上解决胡塞武装的导弹威胁，可能还是要通过沙特空军战机和地面部队完成类似海湾战争期间多国部队“猎杀飞毛腿”那种级别的大规模空地协同作战才行。然而，对于目前萨利赫死后的也门乱局，沙特领导的联军内部都存在着不同声音，实现这种作战的可能性已十分渺茫。（文/黄晋一）图为美军曾在海湾战争期间使用过的“国防支援计划”（DSP）导弹预警卫星。本文来源：参考消息网责任编辑：姚文广_NN1682",
    "PublishTime": "12/25/201709:46:53",
    "KeyWords": "弹道导弹,爱国者,胡塞,沙特"
}