{
    "Title": "驴友穿越原始森林被困 向导提前离开:剩下的路不远_网易新闻",
    "PublishTime": "01/01/201813:48:06",
    "URL": "http://news.163.com/18/0101/13/D72OITEV0001875P.html",
    "Source": "Netease",
    "KeyWords": "森林,驴友,毕棚沟,徒步",
    "Comment": {
        "Reply": 48,
        "Content": "带个北斗卫星设备很有必要 人家是找不到下山的路，并不是没有GPS 2楼，难道gps只能用在道路上导航吗？ 向贝爷看齐 森林里用GPS导航？居然还有人点赞[鄙视][鄙视] 感觉这是软文，三棵树平台已经在毕棚沟景区里面了，顺着景区的路往下破走就行了，哪还会迷路，而且都可以坐景区的电动车了。 真的很不付责任 差点笑喷了！这也忒笨了呢！我还以为手机没电了不能gps，结果他还能打电话。就这还吹嘘有户外经验，估计把向导也吹蒙了，觉得剩下这点路对有户外经验的人根本不算个事 他们也是带了向导的，估计也不是自不量力的那种人。 希望全国多建无人区，谁进死了不管 这个向导太坏了吧 向导要处理首先带路费归还还要罰款， 装B失败打野炮 你看看那照片是不见天的森林吗？ 这个爱好真是添乱啊 你荒山中用GPS找路线，那个公司的导航有啊， 深山老林向导也敢走…… 肯定的，就这点本事，也好意思来爬雪山，还是滚回去老实爬公园里的山吧。很多人野外技能，尤其认路和对山体的体型什么都感觉很差，偏偏要去充驴友，曾经和一个嘴巴说自己多能爬山的家伙一起去爬小山，结果我能明显根据山势判断前面肯定是断崖，他却死活不信，非要说抄近路，然后走到悬崖边上不得不掉头，总之驴友装逼的太多太多了，然后让人误判他们 被嚮導坑！ 这野炮，够酸爽 那领导爱好嫖幼女又算什么呢？ 带个GPS很重要啊 到了新疆的大山里连信号都没有怎么办， 真是做死 这样的驴只配杀了吃肉 😓😓以为带个北斗就能驴！你这个也就报警时有个准确位置。 带个北斗卫星设备很有必要 画面感太强， 你看看那照片是不见天的森林吗？ 向导要走跟着他啊 森林里用GPS导航？居然还有人点赞[鄙视][鄙视] 真的很不付责任 差点笑喷了！这也忒笨了呢！我还以为手机没电了不能gps，结果他还能打电话。就这还吹嘘有户外经验，估计把向导也吹蒙了，觉得剩下这点路对有户外经验的人根本不算个事 他们也是带了向导的，估计也不是自不量力的那种人。 希望全国多建无人区，谁进死了不管 装B失败打野炮 向导要处理首先带路费归还还要罰款， 作死！ 现在好多自称驴友的花几千块买身装备，在网上发帖召集队员，大致都是，来次说走就走的旅行，再不走就老了之类的话，网线另一头也跟着热血澎湃，逃学，辞职，，定好时间，路线还得是无人区，原始森林啥的，说白了就是痴男怨女找借口约出去打野炮找刺激，钟点房费都省了，一帮烂人而已，真尼玛服了！ 这种人也只能是驴了。 1楼居然还有这么多人顶，你以为风景区的大山吗？真正的大山深处GPS只能看到遥远的大方向，比太阳定位准一点外几乎没有什么作用 这野炮，够酸爽 就是，没那水平改装 这向导好奇葩，这么把人一丢 到了新疆的大山里连信号都没有怎么办， 真是做死 没有导航定位吗？ 😓😓以为带个北斗就能驴！你这个也就报警时有个准确位置。 太作 人家是找不到下山的路，并不是没有GPS 向贝爷看齐 这个爱好真是添乱啊 感觉这是软文，三棵树平台已经在毕棚沟景区里面了，顺着景区的路往下破走就行了，哪还会迷路，而且都可以坐景区的电动车了。 那领导爱好嫖幼女又算什么呢？ 这个向导太坏了吧 没有用，指南针都不管事，后来是犬哥嗅到的 你荒山中用GPS找路线，那个公司的导航有啊， 深山老林向导也敢走…… 肯定的，就这点本事，也好意思来爬雪山，还是滚回去老实爬公园里的山吧。很多人野外技能，尤其认路和对山体的体型什么都感觉很差，偏偏要去充驴友，曾经和一个嘴巴说自己多能爬山的家伙一起去爬小山，结果我能明显根据山势判断前面肯定是断崖，他却死活不信，非要说抄近路，然后走到悬崖边上不得不掉头，总之驴友装逼的太多太多了，然后让人误判他们 被嚮導坑！ 这是坏？自己没水平 卫星照片地图 带个GPS很重要啊 没穿越成功啊,半路返回来了只爬到一个山顶往前一看,天啦连绵不绝的山峰,望不到边,加上我们准备不是很充分,第一次穿越啊,上山下山一共走了八小时.准备下次准备充分一些再去 就是吃饱撑的、这些人死了活鸡吧该！ 相信我，原始森林里带GPS没用的 2楼，难道gps只能用在道路上导航吗？ 卧槽 这样的驴只配杀了吃肉 这种不用管 我感觉也是 这偏偏不是大山深处 ",
        "Total": 664,
        "Link": "http://comment.news.163.com/news_shehui7_bbs/D72OITEV0001875P.html"
    },
    "Article": "（原标题：向导提前离开跨年夜广州驴友穿越毕棚沟被困）“前面不远就是毕棚沟，剩下的路可以自己走。”原始森林徒步穿越9小时后，向导以为接下来的路程不远了，给出了这样“坑爹”的建议后自己提前离开了。结果，两位广东来的驴友被困原始森林。1日中午，记者从四川理县警方了解到，跨年夜两名外地游客被困当地原始森林，执勤民警立即上山搜寻，31日晚上成功将人找到，两名游客身体无大碍。向导私自离开广东驴友被困森林据被困驴友李佟介绍，他来自广州，平常爱好户外活动，也多次参加过各类户外活动。因为对位于四川阿坝小金县境内的四姑娘山向往已久，因此趁着元旦假日，就计划到四姑娘山进行徒步穿越。12月29日下午，李佟通过户外论坛计划相同的李娜相约结伴后，一起到达了四川小金县，准备第二天徒步穿越。两人的徒步穿越路线是从小金县四姑娘山岔子沟到理县的毕棚沟。30日上午9时，他们在聘请的高山向导带领下来到岔子沟营地。31日凌晨1点多，他们开始从岔子沟营地出发前往毕棚沟。两人经过了9个小时的艰苦跋涉后，终于到达垭口下面的第三个平台处。这个时候，向导以为主要行程走完了，剩下的路也不远，私自决定提前离开，对他们俩说：“前面不远就是毕棚沟，剩下的路可以自己走。”李佟透露，当时已经走到毕棚沟范围内，眼前风景心旷神怡，向导这么一说，当时他俩开始没太多顾虑，也自信能很快结束余下的行程。但正如当地俗语：“看山跑死马”，这两位来自沿海地区的游客，大大低估了川西高原原始森林环境的复杂性。结果，在向导返回后的10点40分一直到下午的15点36分之间近4个小时内，两人到达三棵树平台后，无论如何也找不到下山的路，本来已经筋疲力尽的二人感觉到了绝望无助和懊悔，无奈之下找到有信号的地方，拨打了110求救。民警进山搜寻5小时受冻游客被找到记者联系理县110指挥中心民警了解到，31日下午接警后，报警人李佟说不清楚身处什么地方，周围是茫茫森林，附近有一个冰瀑布。他们二人又冷又饿，身心非常疲惫。理县公安局派执勤民警和毕棚沟管理人员对被困地点进行了分析，组织了5位民警和4名景区工作人员携带干粮和水，徒步进山展开搜救。当天下午，毕棚沟山内有雨雪天气，浓雾弥漫，气温很低，搜寻工作异常艰难。由于搜救沿途安大多是灌木丛林，搜寻人员身体多处被荆棘划伤。由于手机只能在山脊高处才有信号，为了快速准确的找到被困二人，民警沿途只能寻找有手机信号的山脊，爬到山脊高处与被困人员电话联系，同时要求被困者尽量到宽阔地带，如果看到搜寻人员就第一时间用电筒光线进行提示。搜寻工作一直持续到31日晚上8点半，正在深山中行进的搜寻队伍终于看到前方有一束光线在不停地晃动，搜寻人员成功找到两位游客，此时李佟二人已经冻的浑身发抖，简单了解情况后，他们被搜寻队伍护送出山，安全脱险。民警告诉记者，《四川省登山管理条例》已于2016年1月1日起正式实施。其中规定，未经主管部门批准擅自进行登山活动的，将由县级以上人民政府体育主管部门给予警告，并可处500元以上2000元以下罚款。经初步调查，李佟二人出发前买了门票，但没有对穿越行为进行报备。目前，两人已经妥善安置，认识了自己的错误，民警对其进行了批评教育。（文中李佟、李娜为化名）本文来源：封面新闻责任编辑：谷莹_NN6577"
}