{
    "PublishTime": "01/02/201802:29:18",
    "Comment": {
        "Total": 6477,
        "Link": "http://comment.news.163.com/news2_bbs/D7469RHD00018AOR.html",
        "Reply": 250,
        "Content": "嘿嘿。 人民不好过，政府就要倒台 老百姓日子好过，四分五裂那又有什么呢。大一统关你什么屁事，那是统治者忽悠屁民的手段。 哪里有不公哪里就有反抗 跟贴被火星网友带走啦~ 尼玛,四分五裂人民还能安居乐业，还能幸福生活，你脑子是长在菊花里吗？ 鲁哈尼表示，“这个身在美国却来同情我们的人民的人，忘记了几个月前他曾称伊朗为支持恐怖主义的国家。这个反对伊朗人的人，没有权利同情伊朗人。”<br><br><br>反对伊朗不等于反对伊朗人民，偷换概念是独裁者的惯用伎俩 官媒能信？ 可以信，不过向警察开枪这货是什么人很值得研究 看样子又是颜色革命啊，但愿伊朗不要乱，伊朗乱了，整个中东就全乱套了！ 你在影射啥 邪恶势力、不该将人民的血汗钱送给叙利亜、也门挑起战争、现在后院起火燃烧🔥、毒菜不得人心、以色列民主国家、人民质疑国家邻导，游行示威、军队从不打击百姓、而且是保护人民、亲眼目睹事实！ 伊朗人不是好惹的<br><br>这民族有暴乱的传统上一次暴乱导致神棍上台 结果和利比亚伊拉克一样 终于看到网易报道了！这就是新年伊始——新年从伊朗开始！ 估计很快和乌克兰一样中心开花大卸八块 绞死哈梅内衣这个神棍，然后用猪油焚尸！ 二楼，你爹喊你回家吃药啦 凡有有强烈强迫行为的“国家”，都是流氓“国家”，这种“国家”根本就是一个“团伙”，这种团伙口口声声必说他们就是“国家”，必定把别人反对他们团伙行为污成别人反对他们的“国家” 可以预见今后乌克兰的经济将迎来强势复苏，一如伊拉克和阿富汗，不信走着瞧 预祝美帝阴谋得逞，伊朗人民赶走神棍集团 装神弄鬼糊弄百姓，自己过着腐化的生活、 估计是生活在新闻联播里 混在人群中搞打砸抢的往往是官方便衣，这样才有武力镇压的借口。 估计很快和乌克兰一样民主的四分五裂了 乌克兰不用担心了…国家已经开放，人民获得了“自由”，连国土都“自由”地投靠俄罗斯了 推翻哈姆雷特 鲁哈尼不允许特朗普支持反对？哈哈哈哈哈哈哈 老百姓日子不好过，大一统又如何！各过各的也比流氓在头上拉屎作威作福强，还逼着你学他讲话 伊朗人后悔了，要是跟着巴列维，现在得多富有，绞死哈梅内伊 分裂总比当狗强，死也是为自己死 你这个菊花脑袋会认为地球就一个国家人民生活一定幸福? 那个开枪的绝对是伊朗政府派的人，然后把人民正义的举动，引导成非法举动！ 哈哈，好。把神棍推翻 开枪的人决对是美国人安排的，加速伊朗内乱。你信不信伊朗政治体崩溃后5年左右你家老小全会挨饿 苏联那么大老百姓老百姓生活的也就那样 你能向人民开枪！人民就有权结束你的性命！因为是人民养着你！你去恩将仇报！ 现在觉得神棍不如国王？ 利比亚伊拉克现在不好吗？别的没说了，老是拿这说事，陈词滥调。 坏人一直都是用这种手段 伊朗人民要当家做主了 乌克兰分裂是俄狗干的好事 这些人民真有血性，不畏惧强暴，敢于面对壮烈的行动，争取希望，真棒 它认为在蒙元时当奴才献老婆初夜权屁民生活情绪要稳定！ 自己一屁股屎擦不干净赖美国?地球上200多个国家怎么颜色革命就在几个垃圾国家那里发生呢?而且居然还深得民心?统治者自己不应该反思么？😂 现在全球民族主义盛行，到中国就变样成区域主义 为了自由！支持伊朗人民！ 老百姓日子好过，四分五裂那又有什么呢。大一统关你什么屁事，那是统治者忽悠屁民的手段。 哪里有不公哪里就有反抗 中东地区就是代理人之间的战争，民众没有选择权，而且很多事情之前还有点法律程序，现在直接乱套，人民民不聊生，这就叫民主式的胜利？社会是在退步的。 尼玛,四分五裂人民还能安居乐业，还能幸福生活，你脑子是长在菊花里吗？ 熟悉的配方 说个笑话，伊拉克人民当家了，利比亚人民当家了，叙利亚人民当家了。 受苦的还是老百姓 千万被给塔利班洗地，看看侣行，塔利班拿伊拉克人当什么？ 拭目以待：伊朗从保守走向开放 僭越的君主没有法律制约也就没有法律责任感，所以是“和尚打伞，无发无天”。法律公示的君主是有法律责任的法定代表人，在法律上对国家负有不可推卸的责任的。所以古往今来，冒充的国王通常都是流氓出生，一生作为比绅士出生的国王还要坏！“神棍不如国王”是对的。 说错了，是阿富汗 支持伊朗人民 信奉伊斯兰教的国家。 终于看到网易报道了！这就是新年伊始——新年从伊朗开始！ 那不就是俄罗斯干的好事么？ 克里米亚的知识阶层已经开始外逃了，人心所向一目了然 伊拉克居无定所？你确定你没有在讲笑话？ 那叫哪里有压迫，哪里就有反抗 伊朗人民当家做主了 呵呵，国王换了神棍 乌克兰克里米亚何时回归？拜托你掐指或动脑“预见”一下 嗯嗯，阿富汗伊拉克利比亚叙利亚乌克兰人民发来贺电。 全国都是恐怖分子 网友还是清醒的多 楼猪只看新闻联播，不该来网易。 普通民众知道个啥？一经煽动立马给打了鸡血一样，个别的可能会浑水摸鱼捞点好处，大部分的被当枪使了，苦果还是转嫁到自己身上去了。 它们觉得CCTV就是生活 克里米亚哪去了？ 谁都想安居乐业，既然闹到这步，说明根本没法安居乐业，只能拼死一搏 估计很快和乌克兰一样民主的四分五裂了 独裁者惯用伎俩:蒙上你的眼精 人民真啥，好好日子不过。伊拉克当时听美国闹事，现在过的居无定所。国不国。还有今天评论好多美国狗。维空天下不乱 标题充分暴露了《嗨歪网》反伊朗人民的、支持伊政府的立场 乌克兰不用担心了…国家已经开放，人民获得了“自由”，连国土都“自由”地投靠俄罗斯了 你很有生活 “大一统”就是有利于中央集权再扩大权力，是专制统治者的需要。地方自治，公民自治前提下百姓权利才可以得到有效保障。人类历史证明，任何强大的政权，都是对国民权利的最大敌人。 那你快去伊拉克吧！把全家都带上，浪费什么时间在不自由的网上bb？当活雷锋吗？那签证很好签的！ 你这个菊花脑袋会认为地球就一个国家人民生活一定幸福? 伊朗有完备的选举制度，只要把神棍赶出政坛就好了 那你快去叙利亚，伊拉克享受啊！那签证很好签，别忘了把全家带上！浪费时间在网上bb什么？ 乌克兰的克里米亚没被狗熊偷走？亲狗熊分子没建立两个国家？狗熊山毛榉没打客机？你是眼瞎，还是聋子。为利益临时联合狗熊没问题，当它狗熊是朋友的不是煞笔就是奴才 伊朗人挺尿性 以为是你呢 狗东西上海人就像自己过自己的吧？ 独裁专制者必死 这世界有没有比我们好的国家，有没有在发展进步的国家？如果有，你为什么还不带着全家去享受，在这里发什么贴啊！ 用个自媒体句型——这国干这种事儿更在行 你这逻辑是吃屎的吗？1979年那次乱成啥样也没四分五裂吧？ 现在觉得神棍不如国王？ 欧洲也分裂，没看人家过的不好 推翻神棍理所应当 为自由而战！ 怎么区别评论区的发言是来自机器人还是活人？ 跟贴被火星网友带走啦~ 伊朗人民要当家做主了 反革命了，敢向革命卫队开枪 那你先把长期在伊拉克的中资企业和中国商人劝回来 那个开枪的绝对是伊朗政府派的人，然后把人民正义的举动，引导成非法举动！ 真搞笑，伊拉克现在不如啥大幕时代？去百度一下吧，今年的人均收入是啥大幕时代的十倍了！ 学习委员叛变了副班长还硬挺着班长你还坐的住吗？ 人民不好过，政府就要倒台 乌克兰四分五裂，请问乌克兰分裂成了几个国家呀？ 欧洲无核的国家多了，怎么没挨揍？一楼肯定会说他们都是美帝的走狗，可他们中很多国家的老百姓日子过得比美帝还好，看来仆人比主人过得好这是国际惯例啊。 看这报道走向，把自由的呼声当做混乱的缘由，说明快镇压了，在做伏笔 2002年伊拉克人均收入只有625美元，通货膨胀率高达三位数。在后萨达姆时代，根据世界银行的资料，伊拉克的人均收入在2004年是1373美元，2009年是3702美元，2010年是4613美元，2011年是6019美元，2012年是6625美元，2013年达到了6670美元，比萨达姆时代提高了十倍。但是五毛认为，要算就应该从1990年海湾战争以前算起，因为萨达姆统治后期的经济大倒退是西方制裁的结果。这是流氓逻辑，西方为什么要制裁萨达姆？是西方的错吗？那是萨达姆侵略科威特的结果，是他咎由自取。他的巨大犯罪得来的后果，却要算在制裁他的人头上，不是很荒唐吗？如果这种逻辑能够成立的话，那么，一个贪污犯或抢劫犯在被捕入狱并被没收个人全部财产之后的家庭经济倒退，也不是他本人的错了，而是警察与法院的错，谁让他们逮捕此人并没收他的钱财呢！<br>海湾战争前两年，伊拉克的人均收入大约为2304美元，就算是从海湾战争前两年算起，2013年的伊拉克人均收入达到6670美元，也提高了近三倍。<br>可以搜搜处决萨达姆后伊拉克人民上街欢庆游行，和美军撤军时伊拉克老百姓欢送美军，甚至堵路不让美军走的图片，当然CCTV是不会报道这些的<br>阿富汗更别说了，摆脱塔利班统治后，经济教育政治发生了翻天覆地的变化，堪称从奴隶社会一步跨入现代社会，爆炸？按照CCTV的逻辑难道因为反动恐怖组织的爆炸威胁就应该屈服开倒车吗？ 跟贴被火星网友带走啦~ 尼玛,四分五裂人民还能安居乐业，还能幸福生活，你脑子是长在菊花里吗？ 华为定律 回楼上，14年底伊拉克的GDP就已经远超战前水平了，当然这些是国内绝对不会让你见到的新闻 这他妈什么逻辑狗日的 清朝完蛋找谁背锅我很好奇 看样子又是颜色革命啊，但愿伊朗不要乱，伊朗乱了，整个中东就全乱套了！ 当初你们不就这样上台的吗？ 流氓兔干得出来。 没分裂成无数国家才悲剧的！绝对民主就是分裂不断的分裂毕竟人和人意见不统一没人妥协唯一和平的办法就是各自独立！！当然还可以死战到没有任何不同声音！ 阴毛，绝对美帝阴毛。 哎。可怜。 八国联军 美国又有机会在伊朗搞颜色革命了 内部攻破！<br>美国又成功了！ 你的预言肯定会四分五裂，因为你忘记吃药啦 这些人民真有血性，不畏惧强暴，敢于面对壮烈的行动，争取希望，真棒 没有上过高中？辩证法知道不？内因外因如何起作用不知道？连马克思的东西都没有弄明白凭什么指责他人？谁给你的勇气？无知不是错，显摆无知就是蠢！ 自由不是大水冲来的，不想付出任何代价，只有永远做奴隶 二楼，你爹喊你回家吃药啦 居然穿短袖，真暖和啊 傻的了，现在需要伊朗挺住 嗯嗯，阿富汗伊拉克利比亚叙利亚乌克兰人民发来贺电。 这故事好像有人玩过啊 套路 那个开枪的绝对是伊朗政府派的人，然后把人民正义的举动，引导成非法举动！ 小米加步枪呢 枪杆子下出政权 相反的版本 伊朗人不是好惹的<br><br>这民族有暴乱的传统上一次暴乱导致神棍上台 凡有有强烈强迫行为的“国家”，都是流氓“国家”，这种“国家”根本就是一个“团伙”，这种团伙口口声声必说他们就是“国家”，必定把别人反对他们团伙行为污成别人反对他们的“国家” 估计很快和乌克兰一样民主的四分五裂了 民主自由是世界潮流!你们害怕吗? 这些人民真有血性，不畏惧强暴，敢于面对壮烈的行动，争取希望，真棒 JC不死不好动手啊 鲁哈尼不允许特朗普支持反对？哈哈哈哈哈哈哈 霉锅叙利亚玩好了，换到伊朗了，落后就要挨打，无核就会挨揍。 CCTV，我们只制作专业的新闻 你这个菊花脑袋会认为地球就一个国家人民生活一定幸福? 有枪？ 楼猪应该想想某些国家为什么贫穷落后？再想想某些国家为什么富裕先进。想清楚这个问题，你脑子里的屎就少些了。 杂种，我给你出机票，你自己去看，不要做天天看新闻联播的煞笔 轮到伊朗了 开枪的人决对是美国人安排的，加速伊朗内乱。你信不信伊朗政治体崩溃后5年左右你家老小全会挨饿 嗯嗯，乱了好，把老美拖入战争，我国加速发展。 利比亚跟伊拉克现在很好吗？ 伊朗有希望了 觉醒的人民对自己权利的认识，与真主至上、我代表真主管理人民的矛盾 够乱的 你知道的太多了 伊朗人民要当家做主了 一定是美国的阴谋 哈梅内伊，哈哈。 煞笔们除了看新闻联播，还会看啥？ 结果和利比亚伊拉克一样 伊朗人民上一次赶走了国王，后来赶走了美国傀儡，这会要赶走俄国傀儡吗 自己一屁股屎擦不干净赖美国?地球上200多个国家怎么颜色革命就在几个垃圾国家那里发生呢?而且居然还深得民心?统治者自己不应该反思么？😂 那才是可怕！ 官煤也就只能靠颠倒黑白自慰了 嘿嘿。 你确定 哪里有不公哪里就有反抗 跟贴被火星网友带走啦~ 尼玛,四分五裂人民还能安居乐业，还能幸福生活，你脑子是长在菊花里吗？ 鲁哈尼表示，“这个身在美国却来同情我们的人民的人，忘记了几个月前他曾称伊朗为支持恐怖主义的国家。这个反对伊朗人的人，没有权利同情伊朗人。”<br><br><br>反对伊朗不等于反对伊朗人民，偷换概念是独裁者的惯用伎俩 一定是美国的阴谋 iran陆军没有战车？ 只要过的好，何必在乎是在一起 看样子又是颜色革命啊，但愿伊朗不要乱，伊朗乱了，整个中东就全乱套了！ 标题是不是搞反了？ 东西路，南北走，出门看见人咬狗，拿起狗来打砖头，砖头咬了狗一口。 坐等好消息 那不是暴乱，那是对独裁的血泪控诉！ 有畜生搞鬼，只要亲美就没事不然就坐等呵呵，谁让美是狗权呢！ 伊朗这次很危险！首先美国要推翻之前签订的美伊协议，其次中国和世界其他国家减少对伊朗石油的需求、这为美国布局规划打下基础，最后美国做其他西方国家的工厂，然后就对伊朗下狠手！不信等着瞧？ 小范围战乱可以维护世界和平！ 准备删专题了 sb， 一定又是美帝的阴谋，我说的没错吧 谁挑起了伊朗的内乱？ 觉醒了 这种开枪能说明什么呢 人民万岁 一楼这套路很熟悉啊 我也同意1口第二句话，分呗！不给你过还幸福点！！！ 因为它们不知道人民是不是真的爱它们 神棍找人开枪的 这是真的吗？有个地方好没有啊 一周内再不强力镇压，伊朗神权政府就要灭亡了。 估计是生活在新闻联播里 伊朗人不是好惹的<br><br>这民族有暴乱的传统上一次暴乱导致神棍上台 混在人群中搞打砸抢的往往是官方便衣，这样才有武力镇压的借口。 开门，快递 一个婊子，一个嫖客，一拍即合啊，谁都想自己当皇帝，反对派就是这么回事，难道还真指望他为百姓谋福利？美国去非洲能搞到什么好处？ 支持伊朗人民！ 估计很快和乌克兰一样民主的四分五裂了 反对独裁是自然法则、不要用革命这样令人毛骨悚然白骨成山的词！ 支持....伊。朗🇮🇷人。。。民 关你屁事 不顾国内民众，整天在外面耀武扬威，早死早灭。 一楼脑子装满了屎 你这个菊花脑袋会认为地球就一个国家人民生活一定幸福? Doyouhearthepeoplesing?<br>Singingasongofangrymen？ 都跑了？ 一楼估计县城都没出去过 它认为在蒙元时当奴才献老婆初夜权屁民生活情绪要稳定！ 苏联那么大老百姓老百姓生活的也就那样 利比亚跟伊拉克现在很好吗？ “那个家伙藏好了吧？...嗯，好的，告诉他最近决不能露面，他的任务已经完成，他为国立了一大功...这次的事情结束后，会让他升职的，让他放心...” 伊朗应警惕，橙色革命——阿拉伯之春的延续。 伊朗人民要当家做主了 还不错，以后会越来越好 结果和利比亚伊拉克一样 那个开枪的绝对是伊朗政府派的人，然后把人民正义的举动，引导成非法举动！ 自己一屁股屎擦不干净赖美国?地球上200多个国家怎么颜色革命就在几个垃圾国家那里发生呢?而且居然还深得民心?统治者自己不应该反思么？😂 再这样下去，下一个伊拉克就出现了！可怜的民众，哪里看的透政治！ 嘿嘿。 伊朗不能乱，伊朗是中国在中东地区一个重要支点 背后要是没有美国佬就奇怪了 觉醒 大新年就开枪打学生，真不是个好东西!老美制裁它！ 伊朗政府可不能倒啊 看样子又是颜色革命啊，但愿伊朗不要乱，伊朗乱了，整个中东就全乱套了！ 明明是警察向示威者开枪 邪恶势力、不该将人民的血汗钱送给叙利亜、也门挑起战争、现在后院起火燃烧🔥、毒菜不得人心、以色列民主国家、人民质疑国家邻导，游行示威、军队从不打击百姓、而且是保护人民、亲眼目睹事实！ 反政府就是恐怖主义？国民党反动派推翻清朝政府也是恐怖分子？下一个不敢说。 美帝阴谋。。。。。。 呵呵 逗比，警察打死多少人？ 独裁者的末日 神棍太多老百姓受不鸟了 绞死哈梅内衣这个神棍，然后用猪油焚尸！ 熟悉的配方 想法一样 不学就是走狗，学了就是奴才，这是有态度的网易，不是无态度的腾讯 伊朗人民站起来了 找到幕后策划人，直接干掉 扯什么呢？这是造舆论准备动大招了。 山姆笑了！ 估计很快和乌克兰一样民主的四分五裂了 麻烦了，放出风声是示威者先开枪，这是要残酷镇压的节奏啊。 呵呵 支持伊朗人民正义斗争 伊朗人反宗教政府而已，中国绿大爷多，不敢这么说。 老百姓日子不好过，大一统又如何！各过各的也比流氓在头上拉屎作威作福强，还逼着你学他讲话 乌克兰东部独立运动是俄罗斯小绿人过去内外勾结的一次侵略战争，扯什么民主 套路都被你学会了，666 伊朗又要开始混乱了…… 终于被美帝搞乱了！ 美国是推手伊朗人民不要上当受骗否者就是下一个伊拉克！！！ 你忽视了伊朗人民的团结，就像足球一样可以干得中国队人仰马翻 喔喔 嫁祸于人 你能向人民开枪！人民就有权结束你的性命！因为是人民养着你！你去恩将仇报！ 坏人一直都是用这种手段 支持伊朗人民、提高生活水平！ 伊朗人民要当家做主了 乌克兰分裂是俄狗干的好事 警察：装备比我先进 这国家只要俄🐶不惦记着领居家那一亩三分地，想分裂不大可能。 那个开枪的绝对是伊朗政府派的人，然后把人民正义的举动，引导成非法举动！ 自己一屁股屎擦不干净赖美国?地球上200多个国家怎么颜色革命就在几个垃圾国家那里发生呢?而且居然还深得民心?统治者自己不应该反思么？😂 我擦，伊朗不禁枪吗？ 岂是一个爽字了得👍 伊朗经济差跟美国的封锁有没有关系？ 哪里有不公哪里就有反抗 这还用说？当年巴列维的目标可是世界五大国之一。 美国是幕后黑手 波斯人不需要阿拉伯人的神！ 可以信，不过向警察开枪这货是什么人很值得研究 历害 终于有媒体报道了！ 你在影射啥 伊朗人不是好惹的<br><br>这民族有暴乱的传统上一次暴乱导致神棍上台 中东已经够乱的了，你那伊朗还要添堵！ 民主社会 中东地区真乱 又一轮“颜色革命”开始了？ 伊朗的天要亮了 什叶派早就融入波斯人的民族主义中了 醒醒吧！充当西方国家的搅屎棍，看看伊拉克，叙利亚人民现在的生活环境！ 估计很快和乌克兰一样中心开花大卸八块 估计很快和乌克兰一样民主的四分五裂了 预祝美帝阴谋得逞，伊朗人民赶走神棍集团 的确不应该趟浑水 美国人要来当家作主了 文明社会，从理性发贴开始。谢绝地域攻击。 什么意思啊 估计很快和乌克兰一样民主的四分五裂了 有两方抗议者的…… 这种政权死得越快越好！ 装神弄鬼糊弄百姓，自己过着腐化的生活、 在外充大头，对内号召大家勤俭艰苦，卡疯子的菊花模式在招手 重新拜火教（明教）？ 呵呵哒 橙色革命 扣帽子戏法 推翻哈姆雷特 颜色革命开始了 伊朗人后悔了，要是跟着巴列维，现在得多富有，绞死哈梅内伊 什么意思啊 官媒能信？ 鸡蛋：怪我咯？ 哈哈，好。把神棍推翻 美国又唆使走狗闹事儿了！ 现在觉得神棍不如国王？ 然后就有理由出动重装备了？ 伊朗人民要当家做主了 万恶的美帝又要派兵咯 世界上哪里动乱，哪里就有美国影子 神棍是脖套还是菊花？请高人预测下 西方国家经常有抗议市委，那就是民主，到了伊朗这里就成了不公反抗了，双重标准玩的真溜。 "
    },
    "Article": "（原标题：外媒：伊朗抗议者向警方开枪致警察1死3伤）伊朗示威者。海外网1月2日电据路透社1月1日消息，伊朗纳杰法巴德市的示威者在抗议中向警察开枪，造成1名警察死亡，另有3名警察受伤。据报道，伊朗警方发言人于周一(1月1日)表示，一名警察被纳杰法巴德市的抗议人士开枪打死，另有三名警察在袭击中受伤。这是自上周反政府示威活动开始以来，伊朗官方首次通报其安全部队的死亡人数。报道称，一名抗议者利用纳杰法巴德市的混乱局势，在抗议活动中用猎枪向警方开枪，造成1死3伤。报道没有说明这起袭击事件发生的具体时间。据海外网此前的报道，伊朗民众反政府示威愈演愈烈，目前已经蔓延至全国各地。英国《镜报》援引伊朗国家电视台的报道称，这场全国范围的抗议活动已经造成了至少12人死亡。伊朗总统哈桑·鲁哈尼于2017年12月31日晚间首次公开回应这场抗议活动。鲁哈尼当晚对全国民众发表讲话，称伊朗是个自由的国家，民众有权就社会议题发出声音，但不应破坏公共财产，不得非法集会，制造骚乱者将面临严惩。鲁哈尼还回应了美国总统特朗普支持伊朗抗议活动的言论。他表示，“这个身在美国却来同情我们的人民的人，忘记了几个月前他曾称伊朗为支持恐怖主义的国家。这个反对伊朗人的人，没有权利同情伊朗人。”伊朗内政部长日前向抗议民众发出严厉警告，称那些引起公共混乱的抗议者们将面临法律追责，他们会为此“付出代价”。(编译/刘亚伟)本文来源：海外网责任编辑：官平_NN4892",
    "Source": "Netease",
    "Title": "愈演愈烈！伊朗示威者向警方开枪 致警察1死3伤_网易新闻",
    "KeyWords": "抗议者,伊朗,警察,示威者",
    "URL": "http://news.163.com/18/0102/03/D7469RHD00018AOR.html"
}