{
    "Title": "大摩再批比特币价值为零 上次这么说后价格涨了6倍_网易科技",
    "URL": "http://tech.163.com/17/1226/08/D6IP04SP00097U7R.html",
    "Source": "Netease",
    "Comment": {
        "Total": 38,
        "Reply": 9,
        "Content": "洗钱，出逃过境资金，行贿受贿，支付黑色交易等都是最好的选择 洗钱是很好用的 央行还天天批呢，结果呢？一万倍有了吧？ 大多数人搞不清货币的基本概念 总说比特币是不可追踪但总感觉就是美国搞出来钓鱼犯罪集团的不然不可能这么久了还不知道中本聪是谁 洗钱，出逃过境资金，行贿受贿，支付黑色交易等都是最好的选择 主要问题是银行对其的认可（非国内），不然这东西还是有早晚崩盘的可能性，毕竟和黄金不同 央行还天天批呢，结果呢？一万倍有了吧？ 比特币终有一天会跌到5.6美元。 你就是六十倍价值也为零呀 洗钱是很好用的 切地完了赶快出手吧听听话吧 ",
        "Link": "http://comment.tech.163.com/tech_bbs/D6IP04SP00097U7R.html"
    },
    "Article": "（原标题：大摩再度评论比特币实际价值为零，上次这么说后价格涨了6倍）摩根士丹利在最近的一份研究报告中指出，比特币的实际价值基本为零。视觉中国资料澎湃新闻记者周炎炎虽然比特币在交易所的价格仍然高居14000美元之上，但是国际投行摩根士丹利在最近的一份研究报告中指出，比特币的实际价值基本为零，而这一判断是基于其作为支付手段的市场接受程度而做出的。根据美国商业内幕网站报道，摩根士丹利分析师詹姆斯·弗洛斯特（JamesFaucette）及其团队近期向客户发送了一份名为《解码比特币》的研究报告，并没有给出比特币价格的估值，却直指比特币的实际价值为零。“比特币不像货币，也不像黄金，也很难大规模推广普及，”弗洛斯特的判断是基于以下几个点的：一是比特币可以像货币一样估值吗？不能，因为比特币没有汇率。二是比特币像数字黄金吗？也许是的，但是不像黄金在电子设备和珠宝中有实际用途，它的价值是被投资者附加上去的。三是比特币是一个支付网络吗？是的，但是规模小，也不收取交易费用。比特币在过去的30天平均每日交易量为30亿美元，而外汇市场则为5.4万亿美元；比特币每日买入的量都小于3亿美元，而Visa是170亿美元。但弗洛斯特似乎低估了比特币的交易量。Coinmarketcap的数据显示，弗洛斯特的数字并不正确，比特币的日均交易量为115亿美元，整个加密货币市场的日交易额将近270亿美元。弗洛斯特还画了一张表格，显示支持比特币支付的在线零售商几乎为零。这可能是有史以来最悲伤的比特币图表。弗洛斯特说：“如果没有人接受比特币支付，那么它的价值将是零”。接受比特币支付的全球TOP500的零售商。?制图：弗洛斯特弗洛斯特早在今年7月就曾研报称，一年前，在互联网零售业500强中，有5个商家接受比特币，可是今年愿接受的商家只剩3个。几乎没有商家愿意接受比特币，与比特币的狂涨形成了一个鲜明的对比，比特币可能只是一场投机游戏。当时比特币的价格为2400美元左右，是现在的六分之一左右。无独有偶，高盛在今年6月迫于客户要求也开始覆盖比特币研究，但是认为短期涨势到头，顶部应该是3134美元左右。但比特币支付较为发达的日本，观点比较独树一帜。野村证券在今年上半年曾表示，比特币在数字货币市场中仍占有50%以上的市场份额，对于马太效应巨大的货币市场来说，该币仍然是最具有投资价值的货币。在摩根士丹利发最新报告的时期，比特币价格正经历一轮回调。根据Coindesk数据，受比特币期货上市消息影响，在12月17日逼近2万美元之后，比特币一周内最低探底到12616美元，跌幅超过35%。在22之后，比特币价格倒是一路回升，截止到发稿前，价格为14068美元。根据《今日俄罗斯》网站报道，也有人长期看好比特币。比如大量持有比特币的McAfee杀毒软件公司的创始人JohnMcAfee表示，尽管加密货币市场出现调整，但没有任何理由恐慌。但是前Fortress基金经理、对冲基金传奇人物、亿万富翁迈克尔·诺沃格拉茨（MichaelNovogratz）修改了预测，公开表示比特币到年底可能降至8000美元。此前，他预测到2019年比特币的价值将达到4万美元。这位传奇人物此前在比特币和以太币上下了重注，声称将自己10%的净资产都投入了这个领域。本文来源：澎湃新闻责任编辑：白鑫_NT4464",
    "PublishTime": "12/26/201708:47:28",
    "KeyWords": "比特币,货币,摩根士丹利,外汇市场"
}