{
    "Source": "Netease",
    "KeyWords": "乌克兰,出售武器,美国,明斯克",
    "URL": "http://war.163.com/17/1224/09/D6DO3JRE000181KT.html",
    "PublishTime": "12/24/201709:55:41",
    "Comment": {
        "Content": "无比敬仰美利坚。 还有它傻儿！ 想走正路，就远离毛子。 驱赶鹅杂，人人有责。 苏联解体后，美俄中均表示只要乌克兰销毁核武器就会给他安全上的保护，貌似现在履行承诺的只有美国。 穷兵黩武是俄罗斯的一贯德行 普俄有什么资格指责美国已越底线。派出装备精良、训练有素的野战部队冒充东乌民间武装公然进攻乌克兰国防军是什么行为？ 饿毛子人类公敌、狗类希望！ 凡是踩你的，都是俄毛子的子孙！ 我出动军队占领克里米亚是正义行为。你买武器反抗就是踩红线。 越什么线？你们边界都越过了，俄佬手上全是M17的冤死者的血。 华主取宠，伪虎做娼 俄罗斯有普京什么都不怕。 乌克兰应该开个抗俄众筹，虽说不多，但百元还是愿意给的 支持老美重当地球警察，文明明灯永放光芒 看看俄罗斯历史上干了什么，再看看俄罗斯现在在干什么，我只能用一个词来评价它——流氓。 能代替你祖先吗 看来你永远不能痛快！哈哈 那些中多数美国的水军，都发了水果机 对于乌东和克里米亚问题，还真不能帮鹅说话，对于领土问题，好矛盾，赞同鹅等于打自己嘴巴了。 两逼玩的嗨 你的祖先不就是马恩列斯吗？ 二战以后一直就是、挽救了人类 抄尼玛的，对你这种俄杂不爆粗口不行了，滚回摸屎科去！ 世界上最不要脸的国家非俄罗斯莫属！ 支持美帝，干死鹅毛！！！！！ 迟早与前苏联一样彻底崩溃. 只许你抢别人的土地,就不许别人买武器自卫吗？ 美对付鹅毛最好的办法就是拖死他，用强大的经济实力拖死他！ 支持乌克兰国家统一领土完整 得道多助失道寡助！ 消灭俄狗 滚回，莫斯科，让屎大林复活，好好爱护一下这些鹅毛! 俄乌冲突前美国信誓旦旦，冲突后美国强烈谴责，乌克兰克里米亚收回来了吗？ 俄罗斯抢夺了我国两百多万平方公里的土地。 两个主权国家交易武器，关你俄毛子什么鸟事？没有你这个流氓邻居，乌克兰完全可以省下这笔钱。 你不就是汉奸吗？ 中国人民应该联合美国，消灭俄罗斯，夺回我们的国土！ 卖给乌克兰？老美疯了，一卖中国就有了[窃笑] 你这谎言已经骗不了谁了， 那你还不滚回俄罗斯去？ 人家特朗普不想当警察了！ 只许你抢别人的土地,就不许别人买武器自卫吗？ 顶你， 包括挽救了中国民族。 把美日从地球上抹掉去！这是最痛快的事情。 外蒙古和唐努乌梁海就是这样被分裂和吞并滴～谁敢删我此帖，必是汉奸无疑！ 美国是世界上最流氓的国家 我发现好多跟贴的朋友都支持美国，说实在的我也讨厌俄罗斯，但宏观来说我国还是要支持他们的战略。只有把美国的眼光拖在欧洲，我国周边才能稳定一点，才可以更好发展经济。你们眼中的乌克兰也不是好东西，他们卖我们的好多东西其实也卖给美国了，不信百度。认为我说的有道理的给个赞。 越了你能怎样？要不是奥黑子那个软蛋，乌克兰的领土能被你鹅毛侵略占领？ 伟大的美国万岁！伟大的美国人民万岁！民主国家万万岁！ 川普卖给乌克兰210枚标枪反坦克导弹，老鹅的T系列就等着被劈头盖脑打一顿。 两条线拖叙利亚，乌克兰，或可以增加格鲁吉亚，这样下去俄毛只能求中国送点山寨粮食过日子了，趁机可以收复东北失地 隐约之中已经听到了俄毛在发出绝望的哀嚎。。。 不会有了。看看在克里米亚上的态度。人家知道谁才是真正的朋友。 一个人能挽救一个国家?这只是封建帝王自吹自擂的废话而已。。。 无比敬仰美利坚。 因为印第安人没人了啊 驱赶鹅杂，人人有责。 苏联解体后，美俄中均表示只要乌克兰销毁核武器就会给他安全上的保护，貌似现在履行承诺的只有美国。 穷兵黩武是俄罗斯的一贯德行 迟早与前苏联一样彻底崩溃. 理智的支持俄罗斯 指定的才能当代表 我出动军队占领克里米亚是正义行为。你买武器反抗就是踩红线。 萨卡什维利的悍马车、M4都在毛子仓库里生锈了，你这210枚标枪有点不够分啊😄 看到双方刚刚停顿美国坐不住了 毛子也可以出钱出枪支出印第安人跟美国白人干啊！为什么毛子不这么做呢？难道毛子良心发现啦？还是什么别的原因？ 克里米亚公投了的。说到派军，美国在伊拉克，叙利亚，利比亚。没有派军？美国日杂真他妈的可以去死了。美国发的就是死人财。伊拉克，叙利亚，利比亚死了多少人？ 毛子能放火，但对别人点个灯他都很生气 二战以后一直就是、挽救了人类 能代替你祖先吗 无耻的老毛子 一楼这话曹人都开始不信了叛逃的士。兵说明一切 那些中多数美国的水军，都发了水果机 毛子这话不地道，有因才有果嘛。 两逼玩的嗨 和自去叙利亚开战相比.这回这家门口开战.省路费了. 猪奴黑美国，人类挺美国。 你说的正确 美国政客：仗不能停！仗不能停！仗不能停 俄罗斯人的本性就是贪婪，一有机会就会到处霸占，跟这样的损友合作永远都是亏。 支持老美重当地球警察，文明明灯永放光芒 1楼啥逻辑，为什么卖给你的东西就不准卖给别的国家乌克兰又不是你的盟友。 老美也好不到哪去。 前苏联还要把核弹头往古巴运呢。 没错啊，美国好多超级英雄呢，美队、钢铁侠、浩克、托尔、超人、闪电侠……这么多都拯救过世界呢！没毛病！ 在俄国狗腿子眼里，俄国是中国的宗祖国 在俄国狗腿子眼里，俄国是中国的宗祖国 可笑的人类！ 普京都在叙利亚假期尾巴了，俄杂还不悄悄 美对付鹅毛最好的办法就是拖死他，用强大的经济实力拖死他！ 俄罗斯派武装人员越线乌克兰开战不算越线？ 把老毛子拖得进一步解体... 俄罗斯崩溃，对我们有什么好处吗? 滚回，莫斯科，让屎大林复活，好好爱护一下这些鹅毛! 俄乌冲突前美国信誓旦旦，冲突后美国强烈谴责，乌克兰克里米亚收回来了吗？ 喷子们信口开河无底线！！！让人叹为观止 美要把俄拖入俄乌战争中东战争，也要把天朝拖入朝鲜战争!美国得利! 美国履行承诺个毛啊，地都被分出去了一大块，怎么履行的？履行就是卖武器赚钱？ 你是一個反人類文明的異類，極端分子，種族狂熱份子。 不得不说美国这招挺损，卖出了军火，扶持了小弟，遏制了俄罗斯。叙利亚普京刚撤军，还没恢复元气，山姆又怂恿普京隔壁邻居，你揍他，别怕，我给你撑腰[大笑] 你不就是汉奸吗？ 乌克兰老百姓会被美国佬玩死，受苦的永远是乌老百姓i 老传统。反对的不许投票。 看到双方又要打起来，美国悄悄乐了 你这谎言已经骗不了谁了， 美俄相争，中国得利。偷着乐吧。 武力统一乌克兰，俄罗斯加油 骂俄罗斯就是不喜欢中国？ 按照二楼的说法，我们也让台湾人民自己选择一次？ 隐约之中已经听到了俄毛在发出绝望的哀嚎。。。 外蒙古和唐努乌梁海就是这样被分裂和吞并滴～谁敢删我此帖，必是汉奸无疑！ 特朗普已经意识到这点了！马上要把输血的一起整了！ 都是一路货色，利益至上的流氓国家。 美国是世界上最流氓的国家 我发现好多跟贴的朋友都支持美国，说实在的我也讨厌俄罗斯，但宏观来说我国还是要支持他们的战略。只有把美国的眼光拖在欧洲，我国周边才能稳定一点，才可以更好发展经济。你们眼中的乌克兰也不是好东西，他们卖我们的好多东西其实也卖给美国了，不信百度。认为我说的有道理的给个赞。 托他不等于间接托我们么？鹅毛没钱了问谁要 毛子已经半死不活，你美爹的霸权也长不了了 美国就是喜欢战争啊 川普卖给乌克兰210枚标枪反坦克导弹，老鹅的T系列就等着被劈头盖脑打一顿。 都是主权国家，本性如此。 俄毛给乌东分子武器就不越线？ 畜生，乌克兰抗击侵略者一个主权国家买武器管你俄毛p事，况且联合国已经把恶毛定义为侵略国，你这狗居然替邪恶说话 在俄国狗腿子眼里，俄国是中国的宗祖国 乌克兰不是斯拉夫人的龙兴之地吗？ 在俄国狗腿子眼里，俄国是中国的宗祖国 你这种愚民不适合来这里！ 俄给力点，把老美的手拖在欧洲，这边猥琐发育 能改变自己种族以及自己祖先的，只有网易的MEIGOURIZA可以做到。喷中国，没有他们做不到的。舔美国，只有我们想不到。 俄乌冲突前美国信誓旦旦，冲突后美国强烈谴责，乌克兰克里米亚收回来了吗？ 你说的正确 苏联解体后，美俄中均表示只要乌克兰销毁核武器就会给他安全上的保护，貌似现在履行承诺的只有美国。 翘首以待的也很多，因为他们被压迫。 不许别人买武器自卫吗？ 245245 乌克兰历史上死过几百万人，查查是什么时候，谁干的，为什么苏联解体的时候叶利钦那么挽留乌克兰都要独立 只许你抢别人的土地,就不许别人买武器自卫吗？ 印第安人要突破棺材板找楼上的谈谈三观。 家族企业 川普卖给乌克兰210枚标枪反坦克导弹，老鹅的T系列就等着被劈头盖脑打一顿。 美所到之处，必起战火！ 二战以后一直就是、挽救了人类 😱标枪啊，那可是一发炮弹一辆坦克的战损比。毛子惨了 认了洋祖宗的马猎子孙 乌克兰真悲催，一边是双头鹰，一边是北极熊。一个背信弃义，一个贪婪无厌。 北美洲印第安人飘过…… 不好吧 嗯… 日本说老美援助中国抗日已经越过了红线 支持老美重当地球警察，文明明灯永放光芒 乌克兰可以卖给中国吗？ 这个世界的秩序就是美国建立的，不喜欢的可以滚出地球。 就是啊，全文喷了半天老美，就是不敢提卖给乌克兰的是反坦克导弹！这反坦克导弹用来打什么东西的，以及这些东西谁支持的，不是纯傻逼都应该明白！ 倒霉的事乌克兰百姓 没毛病 出来混迟早要还的，霸占人家领土，就要有挨揍的心理准备 已被美国分裂的国家不下20个，美国为什么喜欢分裂别的国家 俄乌冲突前美国信誓旦旦，冲突后美国强烈谴责，乌克兰克里米亚收回来了吗？ 川普卖给乌克兰210枚标枪反坦克导弹，老鹅的T系列就等着被劈头盖脑打一顿。 只许你抢别人的土地,就不许别人买武器自卫吗？ 美对付鹅毛最好的办法就是拖死他，用强大的经济实力拖死他！ 知道了 外蒙古和唐努乌梁海就是这样被分裂和吞并滴～谁敢删我此帖，必是汉奸无疑！ 你可以出钱出枪支持美国的印第安人跟美国的白人干啊！看看印第安人会不会响应你的号召！！！ 那个大国说答应保护乌克兰，但在发生乌克兰危机后就没声音了！当然它是战在俄罗斯一边的...... 你说说自己 。。 黄恶的正宗爹是输廉，现在的爹恶骡屎是继承来的 11 你不就是汉奸吗？ 乌克兰老百姓会被美国佬玩死，受苦的永远是乌老百姓i 挽救人类的好像是英国，政治制度科技发明文化传播体育 美国本来就是联邦制不存在解体一说，三哥是邦联制何来解体？ 俄乌冲突前美国信誓旦旦，冲突后美国强烈谴责，乌克兰克里米亚收回来了吗？ 那你录一个例子，说明是因为美国的拦阻而不能实现和平统一的国家？ 喷子有三类：一类是美日网络间谍，妄想主导舆论，喷的本质是对中国进行舆论战、诛心战。他们妄图瓦解中国人的斗志。喷，是美日网奸谋生职业；第二类是美日网奸的下线，它们拿黑心钱办龌鹾事，出卖良心，诋毁民族英雄，污蔑中国人，打击民族自信。第三类是西方文化入侵造就了的，带着有色眼镜跪着看世界的“自卑洋奴”，没思想，没头脑，没文化，既狂妄又无知。被人“当枪使”还不自知，掘自己祖坟了还沾沾自喜。 乌克兰真悲催，一边是双头鹰，一边是北极熊。一个背信弃义，一个贪婪无厌。 不喜欢中国的可以滚出去啊，中国人民相信自己的选择是正确的，如果不认同那就是中国人！ 弄个破船整天吹。。。 这个世界的秩序就是美国建立的，不喜欢的可以滚出地球。 外蒙古和唐努乌梁海就是这样被分裂和吞并滴～谁敢删我此帖，必是汉奸无疑！ 乌克兰的武器不值得购买，太差了！ 可惜鹅毛有个好干儿子输血 普特勒去拜见禅师：“就美国向乌克兰出售武器问题，希望大师指点。”禅师笑而不语，随手抓来一只鸡，在鸡腿上缠了根线，他一拉线，鸡立即跌倒，鸡挣扎起来继续走，禅师又一拉，鸡又跌倒，如此反复八次之多。普特勒若有所悟：“大师您是让我欲擒故纵，放长线钓大鱼？”禅师一笑：“傻哔，我是让你拉鸡八倒吧......” 如果分开会使两边过的安宁，那就分开好了 集体农庄，收粮队，怕没？ 必须彻底消灭巴沙尔IS塔利班才行， 嚯，这架势，是要打蒙古报仇？ 那你录一个例子，说明是因为美国的拦阻而不能实现和平统一的国家？ 没有美国世界警察，流氓早就一统天下 收养仆从小分队，不就这目的？说什么唐努乌梁海？破了你的四旧、根斩了你文化根、没文化传承的自然一盘散沙，没有凝聚力，自此南方无忧。 隐约之中已经听到了俄毛在发出绝望的哀嚎。。。 俄亥俄：我是好看的？ 别动不动就代表我。 俄罗斯你也向朝鲜提供先进武器 挨着俄毛的，哪个不倒霉，我们不也被占了许多土地。 我只允许你发展核武器，不允许你的邻居发展防御武器自卫。 俄罗斯有绝活能让你武器库不停自爆，你有再多武器能吃得消吗？ 普俄有什么资格指责美国已越底线。派出装备精良、训练有素的野战部队冒充东乌民间武装公然进攻乌克兰国防军是什么行为？ 越了你能怎样？要不是奥黑子那个软蛋，乌克兰的领土能被你鹅毛侵略占领？ 傻逼 俄国只有一艘破旧不堪的航母,只有800多架战斗机机,GDP总值1.3万亿美元，国防预算不到500亿美元;美国有12艘10万吨级以上的航母战斗群,一个航母战斗群包括巡洋舰、护卫航、导弹驱逐舰、潜艇、补给舰达到9艘之多,三代以上战斗机(含三代)达到5000多架,如军用所有飞机加在一起近万架,GDP总值18万亿美元，国防最新预算达到7000亿美元,全世界（2.5万吨级以上才算）所有航母加在一体的总和都不如美国多，相加总吨位都不够美国一半，俄罗斯打口炮赢美国我信,俄罗斯凭那一件能与美国抗衡??????这实力排在那里，是看得见，摸得着，是真家伙，这不象玩统计数字游戏那样，外人看不见，也摸不着，你自个儿玩得转，军事实力这个没真材实料你是玩不灵的，这拼的是实力，不是拼嘴硬，狂妄自大，不自量力，自欺欺人是会吃大亏的，切记。 二楼的，前苏联咋从古巴滚回来了？ 一脉相承啊 乌克兰已经被俄罗斯整惨了，也只能怪乌克兰自己命苦，紧靠俄罗斯。 美向主权国家售武，某国称已越线，和其干儿一个套路。从来没听说过爷俩卖武器卖的不对的，美的不管怎么卖都是在犯罪，这是为什么 川普卖给乌克兰210枚标枪反坦克导弹，老鹅的T系列就等着被劈头盖脑打一顿。 俄罗斯一艘核潜艇就能灭了美国，一颗核弹就能灭了法国。。。怎么个死法，同归与尽？？ 二战以后一直就是、挽救了人类 你们妈b老美打伊拉克的时候，你们不说，打阿富汗，利比亚，的，你们妈b的在干嘛 你是疯狗，我还能咋滴？打死炖肉 联合国都已经认为俄罗斯侵占乌克兰了，盟友支援进攻性武器理所当然 对于乌东和克里米亚问题，还真不能帮鹅说话，对于领土问题，好矛盾，赞同鹅等于打自己嘴巴了。 美国这搅屎棍，到处搞事，一直没闲着。。 俄罗斯可能要发飙了，乌克兰要小心啦 反美还在美国？够贱啊。 伟大的普京大帝。中国人民顶你！ 你就是额杂碎 支持老美重当地球警察，文明明灯永放光芒 标枪命中率达到97%，这下饿鬼子支持的乌克兰东部分裂分子要么写遗书，要么逃跑，要么被炸得血肉横飞，自己选 毛子就没干过什么正事，除了抢别人的土地，然后从抢来的土地上开采石油天然气再卖给别人，就没其他谋生技能了 尤里？ 又有一大堆“俄式乌龟”要归西了～ 哦哦 你怎么这么能哔哔，到时候会有另外的武器专门攻这批导弹 看的出来，藏这里美狗还是那么多，俄杂力量不行啊 乌克兰哪里有内战 双重标准，一贯如此。 强盗还有脸吗？ 美国在挑事。 跟贴被火星网友带走啦~ 川普一边摸着北极熊的毛，一边不停地逗弄着这头奄奄一息的熊，希望它愤怒暴跳，以便加速它的死亡。呵呵，堪称逗熊高手。 普京你不知道他们欠揍吗？也只有你敢揍他，加油！死佬怕烂佬反正一穷二白干嘛？ 要是有账号就好了，尽点微薄之力拖死毛子 美国人嫌钱捣乱 美国就是搅屎棍国家。 这家伙回头要卖武器给韩国日本台湾了，你看吧😂😂 只许你抢别人的土地,就不许别人买武器自卫吗？ 俄罗斯是侵略者美国支持乌克兰为其提供武器有什么不要 鬼话，会有人信 支持 日本称美国援华武器已越线，不利于华北地区和满洲的和平。 公决应该是13亿中国人投票表决台湾归属，不是就台湾那几个人。。。叙利亚巴沙尔的去留，应该是叙利亚人民投票说了算，不是美国说谁必须下台谁就必须下台。。。。同样，唐人街表决是无效的，要全体美国人民表决，否则印第安人早就独立了，印第安独立领袖估计你不知道其下场吧，问问中情局吧。。。查查，克格勃对车臣独立领袖的态度，英国军情六处对北爱独立领袖的态度，还有美国中情局对印第安人独立领袖的态度，还有最近那个加泰罗尼亚独立领袖的下场，中国对蔡英文已经够意思了，按照国际惯例，她应该到头了。 美国是世界上最流氓的国家 干死美国世界就和平了 朝鲜越南中东与阿富汗数百万被美国残杀的冤魂笑了。[不屑] 鬼话自然是鬼才信。 普特勒的再次当选将是苏俄毛子加速垮台的催化剂，有利于毛子的加速败亡，立贴为证！呵呵 互怼 和当年日本人的《天羽声明》一个德行 美国就是挑事，你能怎么地 美国的决定是正确的，早该如此了。原来俄奥巴马太过软弱，造成了普京的冒险军事决策。 实践已证明全世界哪有小霉国，哪里就会有冲突和灾难，全世界应联合起来击杀此贼 无所谓的，眼光看开点，俄罗斯不死，乌克兰迟早要吃亏的 无比敬仰美利坚。 还有它傻儿！ 俄国只有一艘破旧不堪的航母,只有800多架战斗机机,GDP总值1.3万亿美元，国防预算不到500亿美元;美国有12艘10万吨级以上的航母战斗群,一个航母战斗群包括巡洋舰、护卫航、导弹驱逐舰、潜艇、补给舰达到9艘之多,三代以上战斗机(含三代)达到5000多架,如军用所有飞机加在一起近万架,GDP总值18万亿美元，国防最新预算达到7000亿美元,全世界（2.5万吨级以上才算）所有航母加在一体的总和都不如美国多，相加总吨位都不够美国一半，俄罗斯打口炮赢美国我信,俄罗斯凭那一件能与美国抗衡??????这实力排在那里，是看得见，摸得着，是真家伙，这不象玩统计数字游戏那样，外人看不见，也摸不着，你自个儿玩得转，军事实力这个没真材实料你是玩不灵的，这拼的是实力，不是拼嘴硬，狂妄自大，不自量力，自欺欺人是会吃大亏的，切记。 美国擅长做挂羊头卖狗肉的生意！ 同感. 环球委婉了？上午的报道是---美国售乌武器，普京：将血流成河 在叙利亚被陶氏揍得天灵盖都飞了[微笑] 5楼说了很多人想说的话了呀！ 嗯，任凭饿欺压邻国就好？是吧 解释回复--只要儿子活着，哪能看着重病的父亲拔管呢 中国人民应该联合美国，消灭俄罗斯，夺回我们的国土！ 能代替你祖先吗 一个肯买，一个肯卖，关你屁事 你的祖先不就是马恩列斯吗？ 坚决支持 只要好儿子不死，就不会给拔管，活着还是能顶事的，一家3口总比一家2口多个人吧 支持老美重当地球警察，文明明灯永放光芒 不不不，我支持4楼的，人家都说了，不认同的就是中国人。注意哦，不认同的才是中国人。如果认同4楼的就不是中国人了。 还没卖中子弹已给普俄留了面子。这种冷战时代，美国时任总统里根集全美科技精英不惜工本研制的战木武器，专门针对前苏联大规模坦克装甲集群，伤人不伤物，杀伤面积是1平方公里。该技术全世界只有美国拥有，其最亲密的的盟国一英国都没转让。 往易千万条猪，此情此景，我也诗兴大发，做了一首诗给美狗日杂。……啊～龟儿石沙壁，暮幽晓寂寂，硕花厢房僻，酒绘虾碧碧。 俄毛的理念就是：我放火的没问题；你点灯的不准！ 美对付鹅毛最好的办法就是拖死他，用强大的经济实力拖死他！ 狗太多了 消灭俄狗 乌克兰政府在进行反恐行动，完全可以理解。 美国人有可能真是这种想法 美国在挑事。 你不就是汉奸吗？ 美国搅的一把好屎 把美日从地球上抹掉去！这是最痛快的事情。 那你还不滚回俄罗斯去？ 爱民如己嫉恶如仇治国有道理政有方言出必行里表如一浩然正气刚正不阿举止若定谈笑风生...川普好样的！ 因该出其不义给美国一千个元子弹，转眼就到石器年代。 还在上饶集中营吗 喷子有三类：一类是美日网络间谍，妄想主导舆论，喷的本质是对中国进行舆论战、诛心战。他们妄图瓦解中国人的斗志。喷，是美日网奸谋生职业；第二类是美日网奸的下线，它们拿黑心钱办龌鹾事，出卖良心，诋毁民族英雄，污蔑中国人，打击民族自信。第三类是西方文化入侵造就了的，带着有色眼镜跪着看世界的“自卑洋奴”，没思想，没头脑，没文化，既狂妄又无知。被人“当枪使”还不自知，掘自己祖坟了还沾沾自喜。 哟西 隐约之中已经听到了俄毛在发出绝望的哀嚎。。。 俄罗斯不是说在东乌克兰没有俄罗斯军队吗？<br>普京为什么反对美国提供武器？<br>这很矛盾啊 美国自川普上台后好戏连台 俄草泥马ヽ(‘⌒´メ)ノ你想干什么(ﾟoﾟ;都行。杂种！ 外蒙古和唐努乌梁海就是这样被分裂和吞并滴～谁敢删我此帖，必是汉奸无疑！ 俄狗，俄罗斯霸占别国的领土就是应该的吗？霸占了我国大片领土就不受报应吗？乌克兰爱买哪国的武器关这个强盗什么事，乌克兰不是一个主权国家吗？ 饿毛子人类公敌、狗类希望！ 川普卖给乌克兰210枚标枪反坦克导弹，老鹅的T系列就等着被劈头盖脑打一顿。 哥们👏👏👏 哈哈哈 只有汉奸败类才会认马恩列斯那一套东西，真正想要强国强民，我们需要重试自唐以前的尚武精神，但凡谁敢动我华夏点滴领土，必让其付出惨痛代价，而不像现在，两句抗议一句谴责完事大吉 乌东部顿涅茨克与卢甘斯克两州自行宣布成立“人民共和国”，并各自组织武装力量。……又是人民，又是共和国的，一定是正义的嘛，乌克兰政府就是反动派喽。 中国俄杂哭爹喊娘了。 普京气急，怒目圆睁，一股金戈铁马的怒火蓬勃而出：“汪儿~”<br><br>美国：“真乖~” 往易千万条猪，此情此景，我也诗兴大发，做了一首诗给美狗日杂。……啊～龟儿石沙壁，暮幽晓寂寂，硕花厢房僻，酒绘虾碧碧。 什么逻辑 流氓的朋友只能是大流氓！ 穷兵黩武，堤内危急堤外补漏打夯。普金如意算盘仅仅是为维稳保权。骑虎到现在想下来都难了，要保命就算永远骑下去，究竟如何下，下来的结局如何就只有听天由命了！ 我觉得应该让美国的唐人街去表决一下。表决后就是中国领土了。。嘎嘎。。。。 维护了美国利益也维护了世界的利益 你这样想就错了 直接卖核武器多好 俄罗斯反普高潮又要来了～ 俄罗斯已经有了那么广袤的国土，为什么还要夺走乌克兰的一块土地，这是该民族的劣根性，侵略成性且贪得无厌 穷兵黩武是俄罗斯的一贯德行 小朋友我问下！如果中国和加拿大是盟友请问美国怎么办！直接在加拿大建军事基地配备核导弹！ 确实，芝麻大的脑仁可以冒出该言论。 我弟弟信上帝.他认为他的存在就是在帮助上帝拯救人类.每次打完电话他都会说愿上帝保佑你,各种为我祈祷.他很乐意与我谈论信上帝的好处.并全身心投入工作和关爱家人,只因他觉得主耶稣是他学习的榜样--我不认为他们的信仰会造成交流障碍.即使我认真问他:上帝是否存在?而他总会回答:若爱存在,上帝就存在.因为上帝就是创造爱的源头上帝永远住在爱里，上帝爱世界上所有人包括想悔改的罪人想要信耶稣的可以到本地教堂买一本圣经看看每个地方都有教堂的信耶稣此生平安来世得永生有所信仰就会有所敬畏，有所敬畏就会知何事可为与何事不可为，知道了什么事可为什么事不可为，就不会干出背理天意人伦的逆天大错，遵从了天意人伦的法则就会一生安宁幸福这就是大道之法则，也就是爱的法则，神之道！ 鹅毛不哭，我们卖坦克给你们就扯平了。 背后中国的大力支持购买了大量的美国国债一定能将恶螺丝拖进地沟 二战以后一直就是、挽救了人类 看看俄罗斯历史上干了什么，再看看俄罗斯现在在干什么，我只能用一个词来评价它——流氓。 抄尼玛的，对你这种俄杂不爆粗口不行了，滚回摸屎科去！ 哪个普啊，没毛那个吗 重点是有包容的心和爱 很大程度也维护了中国老百姓的利益，稍微有点智力的人应该看得透 打吧 美国军事预算近7000亿美元…俄罗斯穷兵黩武？？？ 支持老美重当地球警察，文明明灯永放光芒 直接卖核武器多好 那些所谓走正道的人总是不甘心灭亡的命运，就算是要死了也要哀嚎两声。 俄罗斯有普京什么都不怕。 美国的武器就是给俄国武器量身定做的。 唯恐天下不乱 你们继续 美对付鹅毛最好的办法就是拖死他，用强大的经济实力拖死他！ 乌在俄美身上跳舞，到底那个更踏实确忘记了，找死的节奏 3L你以为星期六让你休息是国家开恩赏赐给你的？你以为雾霾这2个字是屎报先说的？还不足够？做人要知道感恩，特别是在重大身体健康和合法权益上 顶你， 美国世界最正义的国家。 不是冲牛逼！美国才是真能打的国家 有10块拿9块搞军事就叫穷兵黩武美国gdp18万亿美金才几千军费 两个主权国家交易武器，关你俄毛子什么鸟事？没有你这个流氓邻居，乌克兰完全可以省下这笔钱。 你不就是汉奸吗？ 特郎普就是任性。他可能是管二代。 被欧美武器禁运的国家，也就那么几个了。 虽然对老毛子没有好印象，但就凭这点专事挑拨离间唯恐天下不乱且为恐怖邪恶轴心国美国提供的210就能劈头盖脸一通老毛子，我看你不是吃错了药就是脑袋里都是大粪！所以说你老还是去搞点希拉里绿帽子给你狗爸戴上，反倒比你在这无知的疯吠要实惠还可满世界显摆，不用到这丢人现眼！ 唯一的两次就是杜二货和奥黑这两垃圾，一个害了中国，一个害了全世界 人家特朗普不想当警察了！ 拖死它！ 毛子的惨叫 我觉得应该让美国的唐人街去表决一下。表决后就是中国领土了。。嘎嘎。。。。 俄罗斯抢夺了我国两百多万平方公里的土地。 打死俄狗。 外蒙古和唐努乌梁海就是这样被分裂和吞并滴～谁敢删我此帖，必是汉奸无疑！ 乌克兰快被你等美畜搞没了 美国是世界上最流氓的国家 傻逼整天都在划线 川普卖给乌克兰210枚标枪反坦克导弹，老鹅的T系列就等着被劈头盖脑打一顿。 俄罗斯唯一正确的选择是继续分裂成若干小国，然后融入欧洲和亚洲，否则，只能做北极熊自己玩。 都是在虚张声势耍嘴皮子，没有一个真正有能力的元首。 貌似人家一直是吧！ 一个人能挽救一个国家?这只是封建帝王自吹自擂的废话而已。。。 ",
        "Total": 21947,
        "Link": "http://comment.war.163.com/news_junshi_bbs/D6DO3JRE000181KT.html",
        "Reply": 411
    },
    "Article": "图为乌克兰军队资料图片中新社莫斯科12月23日电(记者王修君)针对美国决定向乌克兰提供武器一事，当地时间12月23日，俄罗斯方面表示，美国做法已“越线”，对和平解决乌东部地区问题造成了破坏。俄副外长里亚布科夫23日通过外交部网站发表声明称，此前美国通过公司以商业合同的形式向乌克兰提供武器。而现在美国直接向乌出售武器，其举动已经“越过了线”。里亚布科夫说，美国被反俄情绪“蒙蔽了眼睛”，“乐于为乌克兰民族主义者鼓掌”。里亚布科夫认为，美国试图在调解乌东部问题中扮演中间人的角色，但实质上扮演的是“挑起战争的帮凶”的角色。俄副外长卡拉欣当天表示，美国的这一决定实际上中断了明斯克协议的执行工作，“把赌注下到了武力解决顿巴斯(乌东部)地区问题的政治力量一边”。卡拉欣说，国际社会应全力促使乌克兰当局与乌东部地区展开对话。俄联邦委员会(议会上院)主席马特维延科说，美国这一决定是错误的，把自己卷入了乌克兰内战当中。对和平解决乌东部地区问题造成了破坏。美国国务院22日宣布，美国已决定向乌克兰提供装备，增强防御能力，并称美国对乌克兰的协助完全属于“防御性质”，美国依然支持通过明斯克协议解决乌东部地区问题。2014年乌克兰爆发政治危机。乌东部顿涅茨克与卢甘斯克两州自行宣布成立“人民共和国”，并各自组织武装力量。乌克兰政府军随后对两个“人民共和国”展开了军事行动，但未取得预期效果。后在俄罗斯、德国等方面协调下，乌克兰当局与两个“人民共和国”在白俄罗斯首都明斯克达成了明斯克协议。协议规定各方停火并逐渐降低冲突等级。协议签署后，双方仍不时爆发冲突。本文来源：环球时报-环球网。更多精彩，请登录环球网http://www.huanqiu.com责任编辑：马超_NBJ9865",
    "Title": "美向乌克兰出售武器引俄关注 俄称举动已越线 _网易军事"
}