{
    "Article": "（原标题：尼日利亚一教堂遭不明武装分子袭击致21人丧生）海外网1月2日电据外媒报道，一伙不明武装分子袭击了尼日利亚南部河流州一座教堂，造成21人丧生。据俄罗斯卫星通讯社援引当地媒体“PremiumTimes”消息，当地时间周一(1日)，尼日利亚河流州奥莫库地区突然出现一伙不明武装分子，向从教堂中返家的人群开火。尼日利亚海事管理与安全局代表彼得赛德称，事件造成21人死亡，具体的伤亡情况还待确认。目前尚无组织宣布对此起袭击负责。彼得赛德指出，此次事件或是由持不同宗教信仰的团伙间的争斗导致的。据此前报道，2017年11月15日，4名极端组织武装分子携炸弹闯入迈杜古里近郊的一座清真寺，引爆了炸弹，当场炸死18名祈祷者，这4名武装分子也当场被炸死，另有29人受伤。本文来源：海外网责任编辑：程钢_NN7377",
    "Title": "尼日利亚一教堂遭不明武装分子袭击 致21人丧生_网易新闻",
    "PublishTime": "01/02/201812:48:03",
    "Source": "Netease",
    "Comment": {
        "Content": "今天你们清真了吗 今天你们清真了吗 这很三青真 这一定不是爱好和平的敌对分子干的 清真寺？真主的家哦？为啥子 ",
        "Reply": 4,
        "Link": "http://comment.news.163.com/news_guoji2_bbs/D757HM470001875O.html",
        "Total": 6
    },
    "KeyWords": "武装分子,尼日利亚,教堂",
    "URL": "http://news.163.com/18/0102/12/D757HM470001875O.html"
}