{
    "Title": "美国科罗拉多州枪击案造成1死6伤 枪手被击毙_网易新闻",
    "PublishTime": "12/31/201723:52:46",
    "URL": "http://news.163.com/17/1231/23/D718PCDF0001875O.html",
    "Source": "Netease",
    "KeyWords": "科罗拉多州,警局,枪杀,美国",
    "Comment": {
        "Reply": 333,
        "Content": "我真没看出来人家那里在黑美剧，只不过人家想说的是美国现实中的FBI和美剧中的是二回事。这算黑么？ 歧视黑色人种、歧视农名工，警察也该受报复！ 你看没看过美剧啊？美剧里除了主角，警察死的比黑帮都多都快。 小李:已经通知台长了 这是一片娱乐到死的土地，大家只关注明星的绯闻，科比的最后一战，太阳后裔的大结局和现在的90后18岁……却不记得今天这个重要的日子曾经发生过什么......遗忘意味着背叛，这个民族太让人失望了。<br>---沉痛纪念东莞扫黄1460天 民主带来的死亡最多，， 即使禁枪的国家，谋杀案也不少 新年快乐 这名枪手因不满道格拉斯县治安官们的一份报告(domesticdisturbance)，故而发动了这次袭击。此前，该县治安官正计划为一些因事故而流离失所的人设立紧急避难所。为啥救助流离失所的人会引起不满？ 美国类似新闻真滚的话就算每天四十八小时连轴滚也不会重样。美国到今天这个地步全是社会逼的。 跟贴被火星网友带走啦~ 美国再不做出改变就等着开启自毁模式。希望美国人有智慧和能力战胜自己的顽疾。 支持美国人民，，为了民主自由，杀杀杀杀！！ 不知道这路货是不是真喷子，倒是看得出来真没脑子，整天说来说去就是滚动播出，不嫌烦啊？喷也行，喷点儿有营养的，玩儿WY一年多，一看标题就知道它们要喷什么，真特么无聊 你看的哪个美剧报个名好吗？刚刚看完一部美剧，fbi都快死了一个连。别特么黑美剧。黑美国随便黑，黑美剧你提鞋都不配 有枪案必报道，谁也别拦着我[微笑] 美国死点人国内的报道速度估计比美国都快。 一楼sb，哪次枪击案像你们bb的那样滚播了。再说了，按照这频率根本滚播不过来 很明显，恰恰God没管闲事儿 这是民主的枪声 报道虎头蛇尾，对于它们来说这不重要，只要是美帝发生枪击事件就一律报道成枪击案就行 真替你美爹操碎了心 这是恐怖的枪声 让说话吗？ 跟贴被火星网友带走啦~ 跟贴被火星网友带走啦~ 看美剧里的警察个个都是神勇无比的。这些警察怎么这么容易就被干掉了？ 美帝不太平啊 其他的不发表意见。拿枪跟车比，车祸伤亡99%是意外事故，枪支伤亡99%是故意杀人。完全相反的两种东西拿来类比不合适吧。 造谣广播电台 CCTV赶紧滚动起来啊 拉倒吧瞎忽悠，200年前美国枪击绝对比现在密，200年后也少不了。国家因此崩溃了？汽车诞生以来比枪杀案杀死的人多得多，现在有人提议禁车绝对会被当神经病。枪文化和轮子文化成了他们固有的一部分，多数人愿意为此权利承受一定代价你忧心忡忡个啥劲。 跟贴被火星网友带走啦~ 不过我也感觉啊，黑美国啥都没关系，黑美剧的话，中国不止是底气不足吧 大号、黑体字，版面报眼位置，醒目，滚屏，跟踪报道！ 这是博爱的枪声 这是自由的枪声，这是威慑美国的权势人物作决策时不得不考虑的枪声。 godblessAmerica 美太差了，连咱的中学生都不如：云南多名中学生持刀斗殴致2死7伤 天佑，美利坚！？ 新闻里的美国好像一直生活在水深火热之中、但是为什么那么多人还要去美国定居呢？新闻里的中国那真是前途一片光明、人民幸福指数史无前例的高高高！为什么还有那么多人要出国呢？ “200年前美国枪击绝对比现在密”？张口就来，贴出数据来给大家开开眼？ 太平是老百姓冤屈换来的，又怎样？ 这是文明的枪声 数据在它的口中。 跟贴被火星网友带走啦~ 别跟发贴拿工资的人理论 CCTV一秒钟多少钱？活动播这玩意儿？得少挣多少钱？ 告诫警察要敬畏百姓！ 跟贴被火星网友带走啦~ 万恶的资本主义国家 你看没看过美剧啊？美剧里除了主角，警察死的比黑帮都多都快。 1死6伤，比传销害的人数量少多了 这是善良的枪声 全世界每年因为球迷骚乱死的人也不少，谁敢说禁球？飞机空难就禁飞机？拿刀砍人就禁刀？ 切~~每次枪击案，枪手能活？这就是有枪的好处！放其他国家，抓住了最多终身监禁~~~~还不如直接毙了省事 在看国土安全， 民主带来的死亡最多，， 人家美国人自己大部分都支持拥枪，3楼你歪歪个啥？？？？ 那就坐等美国人自相残杀！！！杀光他们！！！ 枪就是美国人权利的象征SB 美国再不做出改变就等着开启自毁模式。希望美国人有智慧和能力战胜自己的顽疾。 支持美国人民，，为了民主自由，杀杀杀杀！！ 这是革命的枪声 禁枪也是有必要的 你看的哪个美剧报个名好吗？刚刚看完一部美剧，fbi都快死了一个连。别特么黑美剧。黑美国随便黑，黑美剧你提鞋都不配 我没有说拥枪不合理啊。。我只是觉得拿车做类比论证枪支的必要性不太恰当啊。车从发明到现在都只是作为交通工具，致人伤亡只是无可奈何的副作用，没有多少车祸是作为谋杀工具故意撞死对方的吧。而枪支无论是用来攻击还是用来正当防卫，都是直接以杀死对方为目的的。性质完全不同的两种东西，怎么能拿来当论据呢。 放心了 这是胜利的枪声 水深火热 很明显，恰恰God没管闲事儿 你是智力有问题还是咋了。这件事情是枪击案这种难道不是特大新闻？不该报道了？我们说过他们水声火热了吗？现在网络这么发达美国什么样有点文化谁不知道什么样。至于很多人去美国能说明什么。美国目前是第一强国。去那边学习发展有错？还有像你这智力的去美国有什么用？ 这是无语的枪声 必须滴~！~镁认希 这是民主的枪声 疑犯追踪系列不错。 谢谢 真的允许大家持枪害怕的还是网上的喷子，因为事实证明了喷子才是行动的矮子，网上发泄完了也就海阔天空了。 24小时，疑犯追踪。里面警察死的不多啊。 庆祝新年么，☺☺ 腾出位置给移民 米国全世界杀的人更多，罪恶深重，，， 意思是N名警察与歹徒枪战，1死多伤，歹徒战力蛮强大的 恐怖袭击 真乱 god放假了 又枪杀了，一死六伤。美国到底是天堂还是地狱？谁能告诉我！ 看美剧里的警察个个都是神勇无比的。这些警察怎么这么容易就被干掉了？ 美国那么多人拥枪是有原因的。主要是70年代末一直到80年代，巡回法院对两起案件（一件是关于两个女子发现邻居被一男子绑架并报案，但警察迟迟没来或者打酱油路过，最后导致这俩女子一同被歹徒强奸第二件是离异母亲的孩子被前夫绑架，母亲去警局寻求帮助但警察没有帮忙，最后前夫带小孩儿在警局门口和警察火拼，小孩儿被杀）判定警察无罪，从此确认警察有逮捕罪犯的责任，但没有保护公民的义务。所以美国才有那么多人拥枪，因为他们需要保护自己。 铁了心想杀人，工具多的是 女大十一变女大十一变女大十一变女大十一变女大十一变女大十一变女大十一变一十大女变一十大女变一十大女变一十大女变一十大女变一十大女变一十大女变一十大女变一十大女变。。。。。。看起来斜的吗？。。。。。。点赞字会变直哟………… 这是反对暴政的枪声 那你怎么不拿拉斯维加斯枪击案做对比？这边是开阔地，云南是车站有多少人？混淆视听！ 我只是说拿车来举例子来论证枪支的必要性完全没有说服力。看把你急得。那你是能移民成为美国人还是能让中国通过拥有枪支法案？都不能的话你又在这里歪歪个啥？？？？ 这是恐怖的枪声 这是反对暴政的枪声 枪声让安宁碎了一地 对于你们的自相残杀。喜闻乐见！ 这是博爱的枪声 godblessAmerica 一个歹徒，五个警员一死四伤，这歹徒不会是变种人吧 推荐你看一部美剧。疑犯追踪。 抗日神剧，以一敌百。 刚看到2死7伤是学生群殴……一个是一个人射，一个是一群人互殴，有可比性吗 新闻里的美国好像一直生活在水深火热之中、但是为什么那么多人还要去美国定居呢？新闻里的中国那真是前途一片光明、人民幸福指数史无前例的高高高！为什么还有那么多人要出国呢？ 没得爱滋、癌症人也会死，你怎么还不得爱兹和癌症？你们美狗喷子真的只会瞎扯。 这是文明的枪声 也保佑你这样的人 美国去见上帝，感觉还贴切些。 拉倒吧瞎忽悠，200年前美国枪击绝对比现在密，200年后也少不了。国家因此崩溃了？汽车诞生以来比枪杀案杀死的人多得多，现在有人提议禁车绝对会被当神经病。枪文化和轮子文化成了他们固有的一部分，多数人愿意为此权利承受一定代价你忧心忡忡个啥劲。 美国就是不一样，枪声都这么清脆悦耳。。。。。乌拉！ 还要弹窗！ 拉倒吧瞎逗比，200年前美国警察系统都完备那，全是靠民兵自卫！ 如果美国人民都有枪就不会发生这样的惨案了，因为大家可以持枪反击 錯了,是因為黑道黑鬼墨狗根本不可能乖乖交出槍械,你法律禁又怎樣?好人的槍都被你收了,想犯罪的白鬼,黑道只會辦事更方便,其他人更等死,毒品也是犯法的,你去美國找毒品比中國找小姐更方便 即使禁枪的国家，谋杀案也不少 这是民主的枪声 美国真的太不安全了，在美帝卧底的二代官太赶紧回来吧，快过年了， 这是自由的枪声。 “云南多名中学生持刀斗殴致2死7伤疑因争夺篮球场”god有时间多关心一下天朝也不错😔😔😔 nnd这大过年的今天纽约安检特严美国人民自由惯了很多路人和警察发生争吵 这是人权的枪声 云南多名中学生持刀斗殴致2死7伤疑因争夺篮球场 美国再不做出改变就等着开启自毁模式。希望美国人有智慧和能力战胜自己的顽疾。 今天纽约安检特严美国人民自由惯了很多路人和警察发生争吵 这是自由的枪声 这枪声是美国新年的礼炮声！ 2018一开年，就有好消息！！！！！ 这是胜利的枪声 很明显，恰恰God没管闲事儿 肇庆张红梅从业14年屡破大案要案检验超千具尸骨但求铁证如山----这么小的城市命案也不少 今天纽约安检特严美国人民不习惯很多路人和警察发生争吵 sb也不想想200年前美国是什么鸟样 这楼主特么有才了。哈哈。 这是反抗暴政的枪声 开局一张嘴，故事全靠编 2018年美国人打响了第一枪。美国就不是人呆的地方。 滚动播出 bless你老娘啊，怎么不问问枪手为什么要作恶？他到底承受了什么不公？一定是有原因的。 执法时死的不多，多半都是休息时 5名警察出警，一个死了，4个受伤，对方一个人，哈哈。美国警察果然牛逼。 俄罗斯控枪的，前几天也发生枪击案了。 看美剧里的警察个个都是神勇无比的。这些警察怎么这么容易就被干掉了？ 又一烈士！！！！！！！！！！！ 可惜死的都是屁民 枪文化？好吧～很多美国民众为这种文化牺牲～伟大的民族～朝闻道夕死，足矣～ 云南多名中学生持刀械斗2死7伤。。。 5名警察出警，一个死了，4个受伤，对方一个人，哈哈。美国警察果然牛逼。 我只想说，看警察不爽还可以这么干！ 枪杆子里面出政权 200年前連duel都容許的,槍案怎可能少?10美元上的建國功勳,年輕的天才財政部長,未來總統大熱AlexanderHamilton就是死于跟政敵AaronBurr的duel,國務卿HenryClay又能跑去duel參議員JohnRandolph,連上流社會都這樣你猜平民決斗有新聞會報道統計?自己不懂就多學習歷史 usingthegun？ 这是霸气的枪声 大号、黑体字，版面报眼位置，醒目，滚屏，跟踪报道！ 这是博爱的枪声 godblessAmerica 万恶的美帝出事后拍照总是这种角度，MMP 好，祝贺，你又赢了！ 乌鲁木齐还没断网？ 这是文明的枪声 200年前美国枪击是为了什么？现在呢？美分轮子 你看没看过美剧啊？美剧里除了主角，警察死的比黑帮都多都快。 这是M16的枪声 拉倒吧瞎忽悠，200年前美国枪击绝对比现在密，200年后也少不了。国家因此崩溃了？汽车诞生以来比枪杀案杀死的人多得多，现在有人提议禁车绝对会被当神经病。枪文化和轮子文化成了他们固有的一部分，多数人愿意为此权利承受一定代价你忧心忡忡个啥劲。 这是进步的枪声 CNN又得播好几天 呵呵，这条新闻下面就是云南中学生持刀互砍2死7伤 这是灯塔的枪声！ 世界潮流浩浩荡荡，顺者昌逆者亡。 你看没看过美剧啊？美剧里除了主角，警察死的比黑帮都多都快。 一楼是看抗日剧太多了 这是民主的枪声 不奇怪 即使禁枪的国家，谋杀案也不少 为死者默哀 这是民主的枪声，也是自由的枪声。 美国再不做出改变就等着开启自毁模式。希望美国人有智慧和能力战胜自己的顽疾。 去吧美国欢迎你 没词了，怎么接？ 这是朴实呃呃呃 人民起来反抗暴政了 致哀,鲜活的生命啊 美国死点人国内的报道速度估计比美国都快。 很明显，恰恰God没管闲事儿 这是平等的枪声 呵呵 sb吧你… 没了枪，猴子就能称霸王了 其实别人有多少钱我不关心，我现在月薪5000，一个人完全够用，因为我几乎没有任何欲望，不抽烟不喝酒，甚至不去任何娱乐场所，可是有老婆孩子，感觉杯水车薪，觉得对不起他们 死黑鬼 抗议者的枪声 他YY的 这是新年的枪声 2亿多人会没几个精神病人吗？ 看美剧里的警察个个都是神勇无比的。这些警察怎么这么容易就被干掉了？ 垃圾 美帝不太平啊 你是有多冤屈！你被杂了？ 很明显，根本就没有啥子GOD，那玩意儿就不存在 现在的美国不好了吗？怎么这么多戾气过重的事发生啊？要完蛋了吗？ 这是自由的枪声 明珠又胜利了 拉倒吧瞎忽悠，200年前美国枪击绝对比现在密，200年后也少不了。国家因此崩溃了？汽车诞生以来比枪杀案杀死的人多得多，现在有人提议禁车绝对会被当神经病。枪文化和轮子文化成了他们固有的一部分，多数人愿意为此权利承受一定代价你忧心忡忡个啥劲。 这是平等的枪声 因为种族低劣 这是博爱的枪声 godblessAmerica 中或赢 哈哈哈，自由的美国万砕。 正果仁啥时发明火药？歪果仁啥时发明火药枪？ 愿逝者安息 太平是老百姓冤屈换来的，又怎样？ 一个非常不安全的地方😭 苦、空、无常、无我 这是文明的枪声 能把车祸和枪击类比，脑子也该治治了 愿神祝福你们 自由枪击的美国 禁枪的国家，枪也不少。 这是正义的枪声，没有词说明你傻 私人持枪还是可怕😱 😍😍😍😍😍😍😍 小概率事件，就当出车祸罢了 你看没看过美剧啊？美剧里除了主角，警察死的比黑帮都多都快。 小李:已经通知台长了 好象是哪里，随便个疯子杀起人来比人枪击案也不会少。 伊朗药丸 这是一片娱乐到死的土地，大家只关注明星的绯闻，科比的最后一战，太阳后裔的大结局和现在的90后18岁……却不记得今天这个重要的日子曾经发生过什么......遗忘意味着背叛，这个民族太让人失望了。<br>---沉痛纪念东莞扫黄1460天 自作孽啊哦你过 新年快乐 这名枪手因不满道格拉斯县治安官们的一份报告(domesticdisturbance)，故而发动了这次袭击。此前，该县治安官正计划为一些因事故而流离失所的人设立紧急避难所。为啥救助流离失所的人会引起不满？ 感谢有信仰的人们，你推特名是什么？ 砸头，砍脖子，决定死亡。 不相关的警察存活时间不会超过1分钟 美狗使出浑身吃屎的劲头 有枪案必报道，谁也别拦着我[微笑] 这是和平的枪声 这是文明的枪声 一楼sb，哪次枪击案像你们bb的那样滚播了。再说了，按照这频率根本滚播不过来 到处都有仇视社会的人 很明显，恰恰God没管闲事儿 美国大片 为死者默哀让凶手伏法 这是民主的枪声 报道虎头蛇尾，对于它们来说这不重要，只要是美帝发生枪击事件就一律报道成枪击案就行 Dog管，咋啦？ 你可以禁止我打炮，但是你不能禁止我打枪的权利！ 二0一八，二零一机捌！ 这是博爱的枪声 尽木是明智的，川普老头伟大！ 看美剧里的警察个个都是神勇无比的。这些警察怎么这么容易就被干掉了？ 增素/ 奥巴马笑了 造谣广播电台 CCTV赶紧滚动起来啊 啊，三天 推特炸了 群死群伤。孤独的人，胜利。 太危险了 kk 垃圾 迎<br>新<br>年<br>！ 宇宙的探索是离不开我的话的，只有把围绕地球公转的一切物质包括气体计算在地球体积之内才能找到地球真正的边和角，那是反引力汇聚地，是真正的真空隧道，宇宙高速路，太阳系内的动脉!把围绕太阳公转的一切物质包括气体计算在太阳体积之内才能找到恒星与恒星的边和角，那是恒星与恒星之间的真空高速隧道，找到真空隧道以近光速超光速飞行那不是个事!宇宙飞行器也不能按照飞机的二维结构原理制造，飞机是不能高速自转的，但只有高速自转才能产生真空电磁场，以近光速飞行，未来的宇宙飞行器必须按地球原理制造，八层以上结构，你看地球高速自转着前进，我们人坐在地球上有啥不适感觉吗？ godblessAmerica 美帝乱了 新年第一枪， 哈哈哈 特朗普的锅 对，击毙枪手的才是主角，主角身边的人中枪、死亡几率100%。所以，要远离主角。 还没习惯么？？隔几天来一起，看都看麻木了 这是强大的美国，穷人向往的地方，在这片自由的土地上，到处都有民主的阳光 不能吧v才出现 好险，幸亏没有去美国旅游 真的危险 正常新闻报道，以平常心看就好，别太激动 武警无权调动，急 枪和车的文化已经到骨子里了。很多都是十三四岁开始玩枪。车更不用说了。我这边有兼职的学生，组装车操作起来，比国内的师傅还专业… 这就叫皇帝不急太监急！！！！ 你看没看过美剧啊？美剧里除了主角，警察死的比黑帮都多都快。 多看新闻. 美国再不做出改变就等着开启自毁模式。希望美国人有智慧和能力战胜自己的顽疾。 美帝 很明显，恰恰God没管闲事儿 你妈的就服你这样的傻逼，这几个逼字挂你嘴上了，美国佬也不长脸，天天逼事儿这么多 吐了，网易美分 这是民主的枪声 集权下苟且偷生的猪怎么会懂呢😌 人民要革命。。。 看一电视剧也激发了这么多？zㅋ 看抗日神剧鬼子还能撕呢，后代还以为故意打8年抗战呢 能播到春节前 新年快乐 神马情况，小霉国真的快不行了 美国很多民间枪手都达到军事水平的，还有好些爱好者从小就练这些。警察只是职业。 美太差了，连咱的中学生都不如：云南多名中学生持刀斗殴致2死7伤 你得这么看，公路带来的经济收益比枪支高多少百倍 傻逼也是分等级的，而他是极品傻逼，我猜要么是初中文化要么就是五六十岁的老顽固。 看美剧里的警察个个都是神勇无比的。这些警察怎么这么容易就被干掉了？ 也不安全 哎，今晚我们都是美国人!😁😁😁 美帝不太平啊 真替你美爹操碎了心 那美分呢？ GodblessAmerica CCTV赶紧滚动起来啊 拉倒吧瞎忽悠，200年前美国枪击绝对比现在密，200年后也少不了。国家因此崩溃了？汽车诞生以来比枪杀案杀死的人多得多，现在有人提议禁车绝对会被当神经病。枪文化和轮子文化成了他们固有的一部分，多数人愿意为此权利承受一定代价你忧心忡忡个啥劲。 用秤砣砸死人的地方太平？ 智障能看懂美剧吗、别高抬他了 这是自由的枪声，这是威慑美国的权势人物作决策时不得不考虑的枪声。 godblessAmerica 美帝不哭，美帝加油，今夜我们都是美帝的人！ 智障挺多 是发展中国家 美国的房子怎么看都没中国的安全。连防盗窗都没有。怎么能防住拿枪的匪徒呢 。。。 别跟发贴拿工资的人理论 宇宙的探索是离不开我的话的，只有把围绕地球公转的一切物质包括气体计算在地球体积之内才能找到地球真正的边和角，那是反引力汇聚地，是真正的真空隧道，宇宙高速路，太阳系内的动脉!把围绕太阳公转的一切物质包括气体计算在太阳体积之内才能找到恒星与恒星的边和角，那是恒星与恒星之间的真空高速隧道，找到真空隧道以近光速超光速飞行那不是个事!宇宙飞行器也不能按照飞机的二维结构原理制造，飞机是不能高速自转的，但只有高速自转才能产生真空电磁场，以近光速飞行，未来的宇宙飞行器必须按地球原理制造，八层以上结构，你看地球高速自转着前进，我们人坐在地球上有啥不适感觉吗？ 才知道…原来糗百是有内幕的…那些赞多得都是花钱雇的枪手…我们这种不花钱的根本就没人点赞 美帝一天比一天乱！悲催(っ╥╯﹏╰╥c) 说你撒比肯定有人顶 尿憋醒了起来尿尿 新年第一天很不幸 ",
        "Total": 5968,
        "Link": "http://comment.news.163.com/news_guoji2_bbs/D718PCDF0001875O.html"
    },
    "Article": "（原标题：美科罗拉多州枪击案造成1死6伤枪手被击毙）"
}