{
    "PublishTime": "12/31/201712:26:00",
    "Comment": {
        "Total": 576,
        "Reply": 55,
        "Link": "http://comment.news.163.com/news2_bbs/D701Q3R2000187VE.html",
        "Content": "碰到补蛇🐍人你死定了 领导:大吉大利，今晚吃蛇！ 比人🐮多了，这霸王餐吃的，爬着来吃完了八抬大轿锣鼓喧天的送！ 许仙这家伙断炊了，把夫人饿成原形出来觅食了 那鸡谁赔呢？吃了我的鸡就因为他是保护动物就这么算啦？不留下几斤蛇肉就想走？ 大吉大利，今晚吃鸡！ 这蛇是谁的？有主的赔我鸡来，没主的就熬汤了。 怪鸡投错胎～ 放生后再去吓唬和危害别人吗？？对于蛇之类的爬行动物一律除之！！ 如果国家保护动物吃了国家的主人，怎么办？[狗] 还好，海南从广东划分出去了 再属于保护动物也不能侵害别人利益，该正当防卫！ 银角大王将宝葫芦倒置，喊了一声：“周鸿祎。”周鸿祎应了一声，嗖地便被吸了进去。银角大王查看时，里面除了周鸿祎，还有360杀毒、360压缩、360浏览器、360安全卫士、360游戏大厅等熙熙攘攘一干人。银角大王惊讶道：“怎的来了这许多。”宝葫芦开口言道：“我就只点了个‘下一步’。”这时马化腾在旁边呵呵的笑，银角大王怒了，刚要将宝葫芦倒置，马化腾嗖的一声已经飞进了宝葫芦，银角大王查看时，除了马化腾，还有疼询扣扣，疼询伪信，扣扣浏览器，坑害青少年的游戏等等黑压压上万人，银角大王大惊怎的比周鸿祎还多！宝葫芦摇摇头我什么都没点😓😓😓 许仙这家伙断炊了，把夫人饿成原形出来觅食了 还是官兵护送，看着官兵还在笑呢 这些村民挺善良的，愚昧的地方就悬了 保护动物人人有责！ 赔鸡 被吓死宝宝了 三尺剑斩白蛇 那鸡谁赔呢？吃了我的鸡就因为他是保护动物就这么算啦？不留下几斤蛇肉就想走？ 领导:大吉大利，今晚吃蛇！ 比人🐮多了，这霸王餐吃的，爬着来吃完了八抬大轿锣鼓喧天的送！ 感觉是妖怪耶[微笑][微笑][微笑] 这蛇是谁的？有主的赔我鸡来，没主的就熬汤了。 呵呵，有没有听过拿透明的鱼线绑着，拍好视频之后…… 如题抗日跳空就 放生后再去吓唬和危害别人吗？？对于蛇之类的爬行动物一律除之！！ 捕获放生是对的。 如果国家保护动物吃了国家的主人，怎么办？[狗] 许仙这家伙断炊了，把夫人饿成原形出来觅食了 控就 蟒蛇是国家一级保护动物，那人呢？有时候人还比不上动物，还说人是高级哺乳动物 保护动物人人有责！ 好家伙太大了。 砍一尺下来，其余两段缝上让其自行离开 小鸡炖蘑菇！ 说好今晚吃鸡的呢 那鸡谁赔呢？吃了我的鸡就因为他是保护动物就这么算啦？不留下几斤蛇肉就想走？ 被消防队再次空降 大吉大利，今晚吃鸡！ 放生也要按照基本法啊 打死了，犯不犯法？ 我觉得不应该放生， 我是生活在一个动物园里吗？ 还是官兵护送，看着官兵还在笑呢 怪鸡投错胎～ 被吓死宝宝了 以前的乐器二胡是用蟒蛇皮做的吗？ 把鸡吃了以后它能消化吗？ 许仙这家伙断炊了，把夫人饿成原形出来觅食了 开热水机 感觉如何退 这蛇不冬眠吗 吃了白吃！送客！ 山区的村民怕蟒蛇？这倒是新鲜事 把鸡吐出来再走… 再属于保护动物也不能侵害别人利益，该正当防卫！ 那鸡谁赔呢？吃了我的鸡就因为他是保护动物就这么算啦？不留下几斤蛇肉就想走？ 那鸡谁赔呢？吃了我的鸡就因为他是保护动物就这么算啦？不留下几斤蛇肉就想走？ 怕蛇的还真多 那鸡谁赔呢？吃了我的鸡就因为他是保护动物就这么算啦？不留下几斤蛇肉就想走？ 这个还要麻烦119？ 这蛇幸福在他没有在广东呗逮到 即热你他们 赔鸡 碰到补蛇🐍人你死定了 银角大王将宝葫芦倒置，喊了一声：“周鸿祎。”周鸿祎应了一声，嗖地便被吸了进去。银角大王查看时，里面除了周鸿祎，还有360杀毒、360压缩、360浏览器、360安全卫士、360游戏大厅等熙熙攘攘一干人。银角大王惊讶道：“怎的来了这许多。”宝葫芦开口言道：“我就只点了个‘下一步’。”这时马化腾在旁边呵呵的笑，银角大王怒了，刚要将宝葫芦倒置，马化腾嗖的一声已经飞进了宝葫芦，银角大王查看时，除了马化腾，还有疼询扣扣，疼询伪信，扣扣浏览器，坑害青少年的游戏等等黑压压上万人，银角大王大惊怎的比周鸿祎还多！宝葫芦摇摇头我什么都没点😓😓😓 [挨揍] 已撸 这些村民挺善良的，愚昧的地方就悬了 叫法海来收了 炖炖吃了[色色] 还好，海南从广东划分出去了 三尺剑斩白蛇 [骷髅] "
    },
    "Title": "70多斤重蟒蛇偷鸡吃被村民围困 消防捕蛇后放生_网易新闻",
    "Source": "Netease",
    "KeyWords": "大蟒蛇,消防,蟒蛇,消防官兵",
    "URL": "http://news.163.com/17/1231/12/D701Q3R2000187VE.html",
    "Article": "（原标题：70多斤重大蟒蛇偷鸡吃被抓住琼海消防官兵将其移交农林部门放生）被抓获的大蟒蛇本报讯12月29日17时43分，琼海消防支队指挥中心接到村民报警称：嘉积镇彬山村金星小区附近有一条蟒蛇，被村民围困在草地上，请求消防部门处理。29日8时04分，消防官兵赶到蟒蛇所在地，发现它体型之大实在吓人，附近数十名村民正驻足围观。村民表示，26日中午时分，有人在一养鸡场发现这条蟒蛇偷吃鸡后，爬到附近的菠萝地，不过等其召集附近村民赶到时，它却跑掉了。29日，有村民在事发地点草丛里再次发现这条蟒蛇。村民们虽然对它感到好奇，可谁也不知道它温顺还是凶猛，束手无策，只好拨打119求助。消防官兵用捕蛇器将该蟒蛇抓获。随后，消防官兵与村民将其抬出草丛，放入当地村民拿来的一个铁笼中。这条蟒蛇全身布满褐色花斑，身上最大的地方有成人的大腿般粗，经现场测量，这条“贪吃蛇”长达4米左右，体重70多斤。蟒蛇属国家一级保护动物，消防官兵已将其移交给当地农林部门放生。本文来源：海南特区报作者：樊骁钟起的责任编辑：李天奕_NN7528"
}