{
    "Title": "厉害！全球首段光伏高速公路亮相 路面即\"充电宝\"_网易新闻",
    "URL": "http://news.163.com/17/1229/01/D6POH8N30001875N.html",
    "Source": "Netease",
    "Article": "（原标题：厉害！全球首段光伏高速公路亮相！路面就是“充电宝”汽车边跑边充电）",
    "PublishTime": "12/29/201701:54:02",
    "Comment": {
        "Total": 1578,
        "Content": "高速三车道，又不用全铺[微笑][微笑][微笑] 时间说话 单晶硅太阳能板，一平方公里的价格150万，加上施工等等 跑高速真能见到，那叫一个慢啊，超个车十分钟不一定能超过去，我就在后面看着毫无办法 那个啥几巴铁，忘了，不是一开始也炒得那么火吗？ 应该不会比手机基站辐射大，受得了手机辐射，自然受得了这个 他们意思是带棚的停车位吧，如果我没猜错！ 两位，车停上面还怎么接收太阳能？ 跟贴被火星网友带走啦~ 经济性如何?得投入多少钱?一度电10元要吗? 就这么短一条路对于光伏来说很便宜，又能做足噱头，至于发电，别说车子这么大体积了，树叶掉上去都会影响发电效率，要是车流大点基本发不了多少电，这么几百米路，还不一定比居民家里屋顶那几块板子发电多。 第二天就被压烂 会限制货车通行的，否则一个月就得更换 如果高速路旁、城市高架等路旁边的隔音板能用光伏板还靠谱点，这个尼玛就是用概念在骗烧纳税人的血汗钱！ 不可行，骗钱的项目。不信睁大眼睛看 光伏电是成本昂贵的能源，脆弱昂贵光伏面板制造成可承载车辆行使的坚固的适合公路铺设的面板，材料工艺及价格可想而知，这样的道路和充电工能只能是实验玩噱头。信息化充电公路是吧，随手拉根高压线就解决电能供应问题 超载货车是这种路的克星 感觉有比较大的安全隐患，看着容易视觉疲劳，为什么不干脆把太阳能电板立在路边？ 实用性如何？耐用性如何？经济吗？环保吗？ 现实和理想的距离太远 这才是真正的实用 如果停车位大小的太阳能板能为汽车充电提供足够的电源，那为什么不直接把汽车顶部做成太阳能板？ 坐在一个超大的磁力线圈里,边跑边充?有懂的吗？谁能解释一下辐射大概有多大? 不看好这玩意。目前太阳能的瓶颈不是没有地方安装，而是效率低费用高和寿命短。在公路上装太阳能不但没有解决瓶颈问题，而且透明水泥会造成效率的更加低。一个新事物应该是解决旧问题，而不是强化了旧问题。 你知道手机幅射多大吗，百万分之一毫瓦的功率，你汽车动力够不够 二位是来喷的，不是看文章的 停车位确实不错 我没见过载货的重车高速超车，不知道你在哪见过，估计那是擎天柱。 这路的成本是多少 厉害是真厉害，就不知道路费能不能降一点 你没爹也修呢，还喷么？ 你爹喜欢让人喷，你护爹何必如此心切？ 内行人看重点：1.投入成本大于效益2.日后维护成本被忽视3.高速高路光伏发电透光差，发电量低 他们会投资控股那些光伏发电企业的，放心好了 小李啊，这个投资很大，准备上马 真的是搞不懂弄这些干嘛哦，我觉得汽油车开着很方便啊。电也不一定环保的 你这是恶意提问，重型超载货车会不会把路压坏也不是你该考虑的问题 停车位上弄这个不错，可以给车充电 噱头 4楼没跑过高速？ 要能充电，怎么算电费 几个大货车就给你压碎了呵呵 二位仔细看文章了没？ 肯定不会是免费 在可见的未来，所有汽车都是电动汽车，所有道路都是光伏发电道路，两桶油怎么办 你太低估大货车了，经常遇见大货车最内侧超车的 高速三车道，又不用全铺[微笑][微笑][微笑] 巴铁还记得么 不是鸡的屁需要是套投资好吧 路费要升 跑高速真能见到，那叫一个慢啊，超个车十分钟不一定能超过去，我就在后面看着毫无办法 那个啥几巴铁，忘了，不是一开始也炒得那么火吗？ 因为转化效率不够，现在按高了算20%的转化率，车顶那点面积最多能够推得动自行车。 现在最好的卫星上用的单晶硅太阳能电池光电转换效率才25%左右，民用量才的20%就顶天了，也就是一平方米的电池才有20%左右转换成电，还要考虑输送中的损耗。你做电池不用能源吗？车来车往能照多久，又不是美国地广人稀。明显是鸡的屁需要。 应该不会比手机基站辐射大，受得了手机辐射，自然受得了这个 停车位上弄这个不错，可以给车充电 应该做了实验，才会搞了这么长的路。现在是路测 能读取车辆信息，还不能收费？ 参见巴铁项目。 他们会投资控股那些光伏发电企业的，放心好了 坐在一个超大的磁力线圈里,边跑边充?有懂的吗？谁能解释一下辐射大概有多大? 收费站是不是要翻好几倍 内行人看重点：1.投入成本大于效益2.日后维护成本被忽视3.高速高路光伏发电透光差，发电量低 不可行，骗钱的项目。不信睁大眼睛看 而且停车通常是晚上。 真的是搞不懂弄这些干嘛哦，我觉得汽油车开着很方便啊。电也不一定环保的 光伏电是成本昂贵的能源，脆弱昂贵光伏面板制造成可承载车辆行使的坚固的适合公路铺设的面板，材料工艺及价格可想而知，这样的道路和充电工能只能是实验玩噱头。信息化充电公路是吧，随手拉根高压线就解决电能供应问题 哈哈哈哈 有办法他也不爱超车，都不超车那不堵路上了。 超载货车是这种路的克星 小李啊，这个投资很大，准备上马 你就是一个傻逼！！！没事就认爹玩儿，你妈知道么？ 超载火车急刹会不会震短里面机构？ 骗经费 如果高速路旁、城市高架等路旁边的隔音板能用光伏板还靠谱点，这个尼玛就是用概念在骗烧纳税人的血汗钱！ 渣土车是这种路的克星 跟那个什么巴铁一个套路， 有个毛用，还不如费点心治理雾霾 太阳能板不一定环保，但石油不是再生能源 普锐斯的车顶就有太阳能，不过那点电量只够带动车内的风机。 先低调点儿中不，省的到时候打脸 不看好这玩意。目前太阳能的瓶颈不是没有地方安装，而是效率低费用高和寿命短。在公路上装太阳能不但没有解决瓶颈问题，而且透明水泥会造成效率的更加低。一个新事物应该是解决旧问题，而不是强化了旧问题。 赔得起吗？ 你知道手机幅射多大吗，百万分之一毫瓦的功率，你汽车动力够不够 敢让货车开上去吗？😀 停车位确实不错 所以说预留线圈位置了，没敢真使用，因为这样车去切割磁力线，车体都可以带电，边开边充这样的设想目前恐怕技术实现不了，磁悬浮列车的成本，负担不起 先投钱上车，后投钱接盘。 这路的成本是多少 你这是恶意提问，重型超载货车会不会把路压坏也不是你该考虑的问题 你没爹也修呢，还喷么？ 你爹喜欢让人喷，你护爹何必如此心切？ 跟贴被火星网友带走啦~ 感觉以后会不会又像铁路一样了。要走专门的轨道。 按照我们的大货车载重，能不能坚持一个月呀 载货的卡车最多也就能跑个70-80，除非前面有个更慢的。 没车停的时候接收太阳能，车上来就充电，储电不够就不充 我刚跑过两车道的常台高速，经常有大货走左道超车，甚至在隧道也超，三车道的也有大货占超车道，有时要跟很长一段距离才让 厉害是真厉害，就不知道路费能不能降一点 想上路，先交费！ 车主为了赚回充电费，高速变慢速[窃笑] 要能充电，怎么算电费 高速路，收过路费就好了 八达岭高速上坡那段路经常遇见时速65公里超60公里的，能超半小时 太慢会吃牛肉干 然并卵，依然是半幅通行。 肯定不会是免费 辐射等于动力。。。好牛逼的理论 问题是除了那个跑得最慢的，其他车都比他快啊，都要超车啊？所以你这个除非是大概率的普遍事件啊！ 收费站可就吃香了 在可见的未来，所有汽车都是电动汽车，所有道路都是光伏发电道路，两桶油怎么办 太阳辐射你都能受得了，还在乎这点？ 两位，车停上面还怎么接收太阳能？ 好思路 这么高端的路让不让跑车啊，不会就在哪晒这发电吧 让我们的大卡车跑一圈试试！ 这个也不是首创。 始终觉得电动车依旧会被太阳能汽车代替。<br>毕竟废旧电池的危害更大。而这个黑科技，用在太阳能似乎更妥当 经济性如何?得投入多少钱?一度电10元要吗? 关键是充电会不会遭遇乱收费 就这么短一条路对于光伏来说很便宜，又能做足噱头，至于发电，别说车子这么大体积了，树叶掉上去都会影响发电效率，要是车流大点基本发不了多少电，这么几百米路，还不一定比居民家里屋顶那几块板子发电多。 感觉有比较大的安全隐患，看着容易视觉疲劳，为什么不干脆把太阳能电板立在路边？ 山东的光照时间长不长？ 谁知道花了多少银子 安全不？ 多了一种碰瓷的手法：走在路上触电 可以搞这种光伏的停车场 光是沥青路面还是比较简单的吗 超载货车是这种路的克星 会限制货车通行的，否则一个月就得更换 算在高速费里面了呀 高速的基础，只是路面不铺沥青改太阳能板了，这特么得多少钱…… 卡车千万别上，不然来不及修 充分利用空间 你想多了，这也可以制造成特供道路…… 实用性如何？耐用性如何？经济吗？环保吗？ 又可以加收高速费了， 这才是真正的实用 提高高速公路收费标准 肯定分开的 出现交通事故后一段路全毁了要重新维修 山东交通厅为了立新项目也算脑洞开的够大了，厉害厉害 二位是来喷的，不是看文章的 成本太高了 这种车十年之内能造出来？五年这路就要翻新了吧 呵呵，以为天上能掉馅饼，看来你是吃惯免费的东西了 跑高速的货车哪有不超载的 第二天就被压烂 大货车在想你修得起吗？ 原本的柏油路变成了更高科技的，你说降一点？只是不知道会不会经常被压坏，在国内实在信不过那些质量 厉害是真厉害，就不知道路费能不能降一点 按每公里多少钱计费，出口收费，就跟高速公路一样！ 加过路费里边 噱头 要能充电，怎么算电费 二位仔细看文章了没？ 肯定不会是免费 还需要经常地刷地，否则灰尘和轮胎印会影响透光。 有这钱不如研究一下续航5万公里的可燃冰汽车项目[狗] 新科技，历害 使用效果如何？ 厉害是真厉害，就不知道路费能不能降一点 小时候胡思乱想到的事实现了，话说电动车如果能边走边充电，会不会要收费啊。 估计还没发电就要扒了重修了 在超重的天朝能推广吗 。。 呵呵，比沥青贵多了，过路费又要涨 几个大货车就给你压碎了呵呵 单晶硅太阳能板，一平方公里的价格150万，加上施工等等 以后走省道也得收钱了 高科技 时间说话 现实和理想的距离太远 好滴好也 算起来也不是很贵哟！普通公路一公里都要几千万呢。。 ",
        "Reply": 128,
        "Link": "http://comment.news.163.com/news_guonei8_bbs/D6POH8N30001875N.html"
    },
    "KeyWords": "光伏,太阳能,电动汽车,高速公路"
}