{
    "Title": "又变了!台当局改口承认印错\"护照\" 全数回收重印_网易新闻",
    "URL": "http://news.163.com/17/1226/20/D6K26A6J0001899N.html",
    "KeyWords": "机场,美国,印错,台湾",
    "PublishTime": "12/26/201720:47:22",
    "Article": "（原标题：又变了!台当局改口承认印错\"护照\"全数回收重印）台外事部门召开记者会说明为何错误使用美国机场图案。图片来自台湾联合新闻网。图为台湾第二代晶片“护照”内页。（图片来源：绿媒）图为美国弗吉尼亚州的华盛顿杜勒斯国际机场海外网12月26日电台外事部门发行新版“护照”内页底图遭质疑误用美国机场图样。经过三次改口，台湾外事部门“领务局”26日晚间召开新闻发布会，终于坦诚表示误植美国机场图样，向民众致歉，并将回收已发出的285本护照，重新印制发行。据台湾“中央社”消息，台发行第二代芯片“护照”遭网友爆料内页图片错植，把美国杜勒斯机场当成桃园国际机场印在内页。台外事部门晚间举行记者会，发言人李宪章表示，图片误植，向民众表示歉意。“领务局”副局长蔡幼文说，将请合作厂商中央印制厂重印，在新印好的护照出来前，误植的护照不会再用，目前新二代芯片护照已发出285本，之后印好后会逐一通知，让这些民众免费更换。蔡幼文在记者会上出示中印制厂美工人员当初拍的照片，强调该员机场航厦照片的确是改建前的桃园机场第一航厦，但为了让画面更丰富，加了飞机和塔台。尤其是，美工人员考虑到著作权问题，有更改建筑物线条，“但很不幸地激发他灵感的图片，是网络上误植为桃机的杜勒斯机场”。蔡幼文表示，新的护照出来前，不会再用这批护照，目前申请换发护照的民众，会用第一代护照的安全存量，印好的会送回去看技术上如何做到抽换，至于产生的成本，就依照合约来执行，事情告一段落后，才会讨论惩处，并再次表示歉意，以后会更注意类似事情。有意思的是，对于是否用错美国杜勒斯机场图样，台外事部门的是否几经更易：26日一早，台涉外部门公众会副执行长欧江安郑重澄清表示，那“百分之百是桃园机场”，绝对不是美国机场。但当天下午，就有台涉外部门官员私下已坦承“用错了”，并表示他们正在查证流程何处出错，后续补救措施则要“回去想想办法”。晚间，台外事部门“领务局”再次出面解释，称底图是桃园国际机场，但涉及手绘时参考了网络图片，被误导为桃园机场图片。对于已经印错的20万本护照如何处理，台外事部门的说法也前后不一，据“中央社”晚间稍早报道，台“领务局”称，第一批新版“护照”已印制20万份，“领务局”未来会设计新图案，待20万本发完后，会发行新图案版本。现有版本不会收回。但随后的记者会消息则透露，误植的“护照”将悉数回收重印。据海外网早前消息，台涉外部门“领事事务局”开始发放第二代晶片“护照”，新“护照”升级防伪技术，包括增加持照人第3影像、防伪胶膜采用金属化表面凸起等，并全面更新“护照”内页图案，纳入台湾各县市特色景点地标及风土民情等主题，但新换发的“护照”内页被指竟然使用美国杜勒斯国际机场的照片作为背景，被网友嘲讽“很棒，台湾要成为美国第51州了”。对于台外事部门的回应，有网友讽刺称，照片根本不是桃园机场，还用解释吗？设计者一定是偷懒，网上随便下载一张照片以为是桃园机场。另有台湾网友批评，台当局这种做法太可笑，简直是自欺欺人。桃园机场的第一航站楼落成于1979年，是当年十大建设之一的重大工程，深受当局关注。建筑师章翔设计桃机第一航站楼就是效仿杜勒斯机场所建，屋面部分以曲面造型处理，由结构专家林同棪运用当时最新的预力结构所建造，两个机场因为长相雷同而经常被误认。本文来源：海外网责任编辑：张海桐_NN9053",
    "Comment": {
        "Content": "搞笑 民主社会笑话多 你可以选择不回来，这样就不用付钱了 免簽100多個國家也是笑話？ 100+免签，而且还是好多发达国家。 华为傻逼 只有武统，别无出路！ 可是人家护照好使 蔡幼文又是谁，弯弯有这么多卖国贼 和台湾建交的国家不足20个，还在削减中。 打引号就不是护照了？ 要看你有钱没钱，你有钱月球都可以上去，你没钱连大陆都来不了，你能去的地方与护照基本没任何关系，主要是与你的资产（钱）的关系。<br>湾湾绝大多数人现在已经成井底蛙了，基本大陆都没来过，更不要说其它国家了。 打出租车，和一对情侣拼车，情侣貌似吵架，女的说，你以后不要硬着头皮来找我了，我要和你分手。那男的说：“那我硬着什么来找你？”我噗嗤哈哈笑出来了，司机看看我一愣，也笑了 请用沙普艾斯 临时工干的 免签一百多个国家，打脸不 又没有找到亲爹！ 自己看看台湾多少国家免签再看看自己的出个国审核时间比在外时间还久...... 放屁的話！ 蔡业文跟蔡英文是否有一腿？杜勒斯跟杜蕾斯是否发音相同？ 收一本，以后肯定老值钱了，首先以后没了台湾，还是错版的 路面干净，人文素质较高，模式化的礼貌虽然感觉怪怪的但是有比没有好。真是干净，找不到垃圾桶啊，每次都带着垃圾，问了说人家好多是把垃圾带回家丢弃的。。一双破鞋准备穿脏了丢了，结果十天下来，更干净。。还下雨，真是奇怪。。 好静的频道。 贱卖稀土的是不是卖国贼 就因为他可以使用，就必须大陆官方承认他是护照了？ 护个鸡毛照，在外面出事有人罩？<br>像上次泰国那啥，中国包机载人回来。台湾有人管吗？ 这样的低级错误，台湾是多乱，可想而知 弯弯菜菜就是来搞笑的，台湾现在连个像样的机场图片都没有了吗？哎～悲哀啊！ 能拿来吹的也就剩下这么点了。巴厘岛火山喷发的时候，咋不出来秀秀4V护照的优势呢？中华民族的崛起是势不可挡的，也是循序渐进的，随着中国经济实力的逐步增强，对中国开放免签的国家也在逐步增多。不知道再过几年，你们连这点可吹的地方都没有了之后，还能拿什么来吹。 表子到处倒贴还不见好 这么烂的一政府还有什么作为，能给老百姓带来多少福祉，从上到下培养了一大批骗子。 错别字，是蔡英文，不是蔡幼文 搞笑？台湾香港澳门护照100多个国家免签，大陆护照30多个国家免签，主要还是非洲那些国家 实话 有20个国家跟他们建交的呢太厉害了呢 没有外交关系，那“台湾”护照是如何免签的？ 就说护照丢失暗中收藏值钱啊 我听说中国包机回来是要收乘客全价机票钱的。。 华为，哈哈哈 知错就改还是好同志嘛！啊，哈哈！ 你没去过台湾你没资格评论 应该印北京机场 去香港还要签证 他们的护照能直接去好多国家 幼稚 好的，今天你领一块！ 不如搞成“火星”的，没人管。 香港的也是！免签可以想去哪里就去哪里！ 民主社会笑话多 你可以选择不回来，这样就不用付钱了 免簽100多個國家也是笑話？ 比如？ 说得好，不成熟的民主社会，时常闹出笑话。 和台湾人一起出国是很尴尬的 华为傻逼 香港也没有外交关系啊，也可以免签的！！1以前有国内有部分省市去有些国家也是免签的！！免签和外交关系没有直接关系！！！ 宁愿跟美的也不愿跟。。。？这其中很多不为人知的秘密啊 有错必纠，不是我们一直倡导的实事求是作风吗？ 做美国🐶好处还是很多的，我也想做，汪汪汪。 和台湾建交的国家不足20个，还在削减中。 劳民伤财，还不如将错就错 坐飞机给钱不是很正常吗？？？ 打引号就不是护照了？ 要看你有钱没钱，你有钱月球都可以上去，你没钱连大陆都来不了，你能去的地方与护照基本没任何关系，主要是与你的资产（钱）的关系。<br>湾湾绝大多数人现在已经成井底蛙了，基本大陆都没来过，更不要说其它国家了。 有卵用？去了有事还是要靠大陆 没有外交关系，那“台湾”护照是如何免签的？ 就那几个流动的人，全世界都可以棉签儿 你们两个也没有钱去，SB 怎么也用中文？干脆用日文或英文得了 以前杨白劳的女儿-喜儿是宁死不从黄世仁<br>现在杨白劳的女儿-喜儿恨不得和杨白劳解除父女关系做黄世仁的女人<br>做老婆不行做小也行再不济就当养个外宅每月来几次给钱就行 值得拥有 你也没谁了 给你本美国护照，买得起机票么 一群鸟人，还能不能干点人事了。 蔡幼文是什么东东？蔡英文她亲戚？ 免签一百多个国家，打脸不 岂止实话，如果你是一个喜欢旅游又有电闲钱的人你会发现，一个护照能让你的旅游体验从地狱到天堂，最最最最最直观的就是当你过关的时候你收到的态度都不一样。 就因为他可以使用，就必须大陆官方承认他是护照了？ 在网易说华为傻逼就有人顶再一次证明了网易是美狗集中营的特性 欢迎新代理加入，祝老板生意兴隆[玫瑰][玫瑰] 不收钱？给你免费旅游？！傻逼 南宋小朝廷马上就要完蛋了！ 能拿来吹的也就剩下这么点了。巴厘岛火山喷发的时候，咋不出来秀秀4V护照的优势呢？中华民族的崛起是势不可挡的，也是循序渐进的，随着中国经济实力的逐步增强，对中国开放免签的国家也在逐步增多。不知道再过几年，你们连这点可吹的地方都没有了之后，还能拿什么来吹。 面子和里子若不可兼得，舍面子而取里子。。。 错了就改，改了再犯嘛，嘿嘿嘿嘿 台湾护照可以去很多地方，是那些国故意办大陆难看的，主要是政治因素。并不是台湾多强大，多牛X，小筹码而已。 你先看看台湾免签多少国家吧，说个最简单的例子，新加坡一个外国去香港随便去，大陆内地一个国家的去要签证，呵呵。 有包机给你就不错了，还想免费 小便，封面给看看啥样 还有这种操作 哈哈哈 实话 土鳖！该更新了 可惜邦交国家没有几个。。。 华为，哈哈哈 这些年，台湾越来越像小丑了。<br>主要是经济停滞，没了吸引人的地方了，要是经济还是人均中国的几十倍还有可能。<br>尽管我们的收入都是被平均的。但却是钱毛了，收入变多了。 他们的护照能直接去好多国家 张口就来 不知道是谁在吹，人家的免签国是实实在在的，你就那几个没人去的对所有国家都免签的还有脸说 他们的护照能直接去好多国家 路面干净，人文素质较高，模式化的礼貌虽然感觉怪怪的但是有比没有好。真是干净，找不到垃圾桶啊，每次都带着垃圾，问了说人家好多是把垃圾带回家丢弃的。。一双破鞋准备穿脏了丢了，结果十天下来，更干净。。还下雨，真是奇怪。。 这个还得问一楼 民主社会笑话多 台湾的笑话挺多 流氓也是一伙一伙的。 光头党真是没吊用。丢了大陆不说连个鱼岛也守不住，丢人现眼！ 😜😜😜 免簽100多個國家也是笑話？ 蔡幼文？ 100+免签，而且还是好多发达国家。 124个国家免签，中国免签的有巴哈马、厄瓜多尔、斐济、格林纳达、毛里求斯、塞舌尔、圣马力诺、汤加8国，基本没听说过的国家，（官方说有很多很多免签的，可惜指的是外交护照或公务护照和公务普通护照，和我等小民没一毛关系） 大陆护照只有8个国家免签，你说的30多个，是包括落地签，落地签和免签是二回事， 华为傻逼 手机歧视的垃圾。 做美国🐶好处还是很多的，我也想做，汪汪汪。 只有武统，别无出路！ 并不影响他们去海外 可是人家护照好使 台湾总想认美国鬼子当亲爹，印个美国机场以为自己就是美国孙子啊？太可笑了，想把台湾划给美国版图，可美国鬼子敢要吗？ 要那么多邦交国干嘛！捐款？？ 蔡幼文又是谁，弯弯有这么多卖国贼 和台湾建交的国家不足20个，还在削减中。 打引号就不是护照了？ 和谐，民主，文明，富强😑 需要你承认？你不承认的120+个国家免签，你自己的能有多少免签？？？ 二楼定律，全民选出的民主人士面对专业问题的时候就是弱智，我们的民主是专业人士之间选出的办事就是靠谱。 没有外交关系，那“台湾”护照是如何免签的？ 免签能说明什么问题吗？说明流氓一般是一伙一伙的。 蔡幼文是谁? 护照的事儿没搞定，还有稀土的事儿？（￢㉨￢） 台湾是一个省，没有台湾护照，他们的是中华民国护照 自己看看台湾多少国家免签再看看自己的出个国审核时间比在外时间还久...... 用钱换来的外交关系真的好吗 又没有找到亲爹！ 不如你和美国鬼子断交如何？ 与华为有什么关系？你出口成脏 年纪大的才是爹 可悲的湾湾一直还自我感觉良好！很多东西可笑致极，不知外部世界有多大？名符其实的井底湾湾蛙/ 贱卖稀土的是不是卖国贼 就因为他可以使用，就必须大陆官方承认他是护照了？ 政客说起瞎话谎话来就是666还义正言辞脸不红心不跳 护个鸡毛照，在外面出事有人罩？<br>像上次泰国那啥，中国包机载人回来。台湾有人管吗？ 虽然你们的护照可以在全世界很多国家免签但是知错能改是好事·· 你没去过台湾你没资格评论 还得大陆帮忙带回来，一下飞机就骂大陆，流氓都这德行 弯弯菜菜就是来搞笑的，台湾现在连个像样的机场图片都没有了吗？哎～悲哀啊！ 真的不强大，脸也没那么大，也没那么多的朋友，就是老百姓免签的地区可真多，好用。 124个国家免签，中国免签的有巴哈马、厄瓜多尔、斐济、格林纳达、毛里求斯、塞舌尔、圣马力诺、汤加8国，基本没听说过的国家，（官方说有很多很多免签的，可惜指的是外交护照或公务护照和公务普通护照，和我等小民没一毛关系） 这种低级错误确实不应该发生 这次把白宫黄五角大楼印上去 呵呵！湾湾 没朋友别人会给你免签？花钱买朋友的最后结果还不是四面楚歌 杀光台湾狗，我们只要国土 这么烂的一政府还有什么作为，能给老百姓带来多少福祉，从上到下培养了一大批骗子。 有区别吗？免签没钱照样去不起，拿个大陆护照有点钱的还不是满世界去 想当年，四小龙时候，很风光，大多数国家都给免签的。。。 台湾公务员和网易小编一样容易当 实话 你只能当看门门 搞笑？台湾香港澳门护照100多个国家免签，大陆护照30多个国家免签，主要还是非洲那些国家 可惜邦交国家没有几个。。。 我听说中国包机回来是要收乘客全价机票钱的。。 你听说？再说了，包机不用花钱？这是救你命你都不舍得花？ 流氓一般朋友多。 嗯嗯 有，黑叔叔那边都免签的！ 嗯，好使。上次撤侨还是坐大陆飞机回的，一下飞机就骂大陆，忘恩负义的东西。 他们的护照能直接去好多国家 这是一种政治补偿。 印上南京机场吧，那个适合你的。 两个机场因为长相雷同而经常被误认。整天笑话大陆这边只会山寨只会抄袭，原来4V自己也是这幅鸟样。 印个北京机场上去 一群美帝走狗 台湾当代尽是一群无知的鱼虾！ 那干嘛不自己跑回来 免签 哈哈哈！真的哈美呀！ SB在三楼，有钱欧美照样给拒签，人家欧美澳全免签。 太儿戏了，弯弯 这跪舔的。 蔡幼文蔡英文再来个部长蔡语文 收一本，以后肯定老值钱了，首先以后没了台湾，还是错版的 台湾护照飞美免签 打引号就不是护照了？ 又变了 打出租车，和一对情侣拼车，情侣貌似吵架，女的说，你以后不要硬着头皮来找我了，我要和你分手。那男的说：“那我硬着什么来找你？”我噗嗤哈哈笑出来了，司机看看我一愣，也笑了 请用沙普艾斯 一会儿认日本为祖宗，一会儿又认美国为祖宗，你们台湾人究竟知不知道谁是你们祖宗？ 大陆弄一个特别护照剔除福建东三省和山东等美签敏感区，护照一样好用许多，别说我地域黑，这得问美国人为啥对这些地方敏感 蔡幼文在记者会上出示中印制厂美工人员当初拍的照片，强调该员机场航厦照片的确是改建前的桃园机场第一航厦，但为了让画面更丰富，加了飞机和塔台。尤其是，美工人员考虑到著作权问题，有更改建筑物线条，“但很不幸地激发他灵感的图片，是网络上误植为桃机的杜勒斯机场”小编，错别字，是蔡英文，不是蔡幼文 这样的低级错误，台湾是多乱，可想而知 有错误不怕，好歹人家勇于承认错误并及时改正。 可笑，爹、妈、女人、男人……都能认错吗？ 蔡幼文是蔡英文同又异母的哥哥么? 我听说中国包机回来是要收乘客全价机票钱的。。 错别字，是蔡英文，不是蔡幼文 收回台湾！ 好像你能去的起一样 幼年时的哥哥 护照这么重要的东西居然搞错？当初做在野党时，千方百计找机会骂国民党。如今在执政，却屡屡犯低级错误！为何？民进党就会骗人！ 就因为他可以使用，就必须大陆官方承认他是护照了？ “领务局”副局长蔡幼文说 還真亂！不過亂中有序。最亂的是大陸有人文章把台灣寫的像天堂，台灣人看了都想哭。 引号，也表示说的话，都是谎言 说真的台湾有这样的领导班子，真的也是活的不容易啊。 呵呵 你身份证也是，留一份 12 湾湾已经腐朽了，就等大陆过去摧枯拉朽 吓尿了 我们的护照能非洲自由行 实话 他们的护照能直接去好多国家 有20个国家跟他们建交的呢太厉害了呢 台湾人好可怜啊！ 这就是不给提供图片的后果，设计网上一顿找，找个图片自己也不知道是哪的，结果较真起来说不清了 真几把随便 开玩笑的，别介意 去香港还要签证 悉数 这个＂蔡幼文＂是谁？ 湾巴子没人要了 两岸一家亲 没人注意里面的是蔡幼文吗 想认干爹，可惜人家现在不鸟你了！ 国民党不争气啊 设计师呢？出来，锅到了！ 做了那么久的日奴，现在又想做美奴，问过民众答应吗？…… 故意的 收一本，以后肯定老值钱了，首先以后没了台湾，还是错版的 两岸一家亲 中华民国护照 呵呵 啥意思 这他妈还想独立，别说是个地区组织，连个大型公司都不如。 蔡幼文和蔡英文有什么关系没？ 请继续你的表演 又没有找到亲爹！ 厉害 你跑不出中国 😁😁😁😁😁😁😁 果然有经济头脑 你是要解放台湾的劳苦大众?人家可是真的傻真心不愿过大陆似的幸福生活。 ┗┐ヽ(′Д、`*)ﾉ┌┛ 这地方的人怎么这么没有立场，一会儿跟日本摇尾乞怜，一会儿跟美国嗦了脚趾头 该死啊 苏州江南意造视觉文化传媒有限公司--专业制作工业流程动画，机械动画 搞错??? 还有什么用？ 弯弯菜菜就是来搞笑的，台湾现在连个像样的机场图片都没有了吗？哎～悲哀啊！ 台湾没文化，没自信 呵呵 民主社会笑话多。 台北好多地方像城乡结合部似的 算不算侵权？ 实话 那些做事的人可以彻底消失了 可以理解 护照这么重要的东西，就没有审核吗？ 到处找干爹，亲爹一直在 想当美国海外领土 官方出尔反尔， 呵呵 蔡业文跟蔡英文是否有一腿？杜勒斯跟杜蕾斯是否发音相同？ 菜包子！你该印东京的啊！ 他们的护照能直接去好多国家 啊啊啊啊啊啊 我大杜勒斯机场是你想印上就印上去的 表示强调 请记住这个数字：2019 戏精！ 印错了就是错版啊，赶紧收藏，等着增值啊 做错了的事，数不胜数～～弯弯本来就是弯弯！ ？？ 台湾也想成为美国人，没毛病 那台湾值得收藏的东西可多了 收一本，以后肯定老值钱了，首先以后没了台湾，还是错版的 不打引號就是護照了？ 打引号就不是护照了？ 还好，毕竟没有强词夺理、颠倒黑白。 认美爹之心昭然若揭！！ 临时工干的 那是什么呢？ 港澳通行证…… 放屁的話！ 没见多少繁体字啊！不是台湾繁体字吗？ 呵呵 小编你自己数数短短一篇写错了多少地方 亲爹不要了，可怜 错了就改吧，，，😊 幼文、英文? 这些事处理起来都是一脉相承的！😂😂 直接印美国护照多好 港澳台特别行政区 为什么不放护照封面，看看写着什么 立即启动《反分裂国家法》，早日完成祖国统一大业！ 收藏价值出来了，天下只有二十本 是我就不会去换 打个引号诅咒你 呵呵 错版老值钱 台当局就是个笑话 哈哈哈哈哈 一个菜英文，一个菜幼文⋯⋯ 哈哈 一个省份哪里来的护照 就说护照丢失暗中收藏值钱啊 交通费谁付？ 应该印北京机场 呵呵 哈哈哈 ",
        "Total": 3960,
        "Link": "http://comment.news.163.com/news2_bbs/D6K26A6J0001899N.html",
        "Reply": 288
    },
    "Source": "Netease"
}