{
    "Article": "（原标题：马华裔男子因外形被女友抛弃整成型男后感叹“世界太现实”）史蒂文·杨整容前后对比【环球网综合报道】香港东网1月2日报道称，马来西亚一名华裔胖子曾因眼睛小和外形太“抱歉”而遭校园欺凌甚至被女友抛弃。这令他决心走上整容之路，改头换面成为清新小鲜肉。现为婚礼化妆师的他，变帅后人缘和生意也一起变好，令他不禁感叹“世界太现实”。已整成型男的史蒂文·杨这位名叫史蒂文·杨(StevenYong)的男子近日在“脸书”上分享其经历和整容演化过程。从照片上可见，他整容前眼睛很小，脸蛋和身形都比较肉感，整容后两颊消瘦，鼻子挺直，双眼炯炯有神。他改变穿衣风格后，摇身一变成为外人眼中的潮男。史蒂文发文忆述，他整容前曾遭校园欺凌，还被女友抛弃，令他自信尽失，不再相信这个以貌取人的社会。他写道：“为什么样子不好看，就要受到这些对待？我不想就这样认命，我要去整容，在这世界活得更精彩。”整容后，其婚礼化妆的生意也兴隆起来。他表示婚礼化妆师需特别注重外观以给客人信心，但不建议别人都步他的后尘。本文来源：环球时报-环球网。更多精彩，请登录环球网http://www.huanqiu.com责任编辑：王征_NN7526",
    "Title": "男子因外形被女友抛弃 整成型男后感叹世界太现实_网易新闻",
    "PublishTime": "01/02/201809:43:00",
    "Source": "Netease",
    "Comment": {
        "Content": "长这逼样还怪社会现实？？呵呵呵 这叫“型男”？化妆像人妖，不化妆吓死你 没钱的时候是看脸，有钱就不用在意这些了。 想骗网友去整形？特么你以为广场草坪上座的那些波屎酸反光脸的“美女”老子看不出来？ 胖的时候感觉很猥琐，瘦了变成个死人妖一样，这转化有点大啊 这居然是环球时报的新闻，让我不敢相信呀 有钱的世界 这个社会就是看脸的时代 看脸的社会啊 每当看见这样的新闻，我都会为孩子的生命安全担心，不知道为什么。接回去后又会真心对孩子好吗？ 连减肥都做不到，只能靠整容，真没出息 长这逼样还怪社会现实？？呵呵呵 这不算遗弃罪？ 想骗网友去整形？特么你以为广场草坪上座的那些波屎酸反光脸的“美女”老子看不出来？ 胖的时候感觉很猥琐，瘦了变成个死人妖一样，这转化有点大啊 这居然是环球时报的新闻，让我不敢相信呀 看脸的世界，不对，还是个看瘦的世界。。。 下一代还要整吗 没钱的时候是看脸，有钱就不用在意这些了。 对该图片的最佳猜测：整形外科学 这叫“型男”？化妆像人妖，不化妆吓死你 ",
        "Reply": 15,
        "Link": "http://comment.news.163.com/news2_bbs/D74T7EHM000187V9.html",
        "Total": 71
    },
    "KeyWords": "女友,整容,婚礼",
    "URL": "http://news.163.com/18/0102/09/D74T7EHM000187V9.html"
}