{
    "URL": "http://news.163.com/18/0101/17/D736HLN80001899N.html",
    "Title": "两兄弟停车堵住警务站出入口 推搡辱骂警察后被拘_网易新闻",
    "KeyWords": "警务站,警察,停车",
    "Article": "（原标题：两兄弟停车堵住警务站出入口，还推搡辱骂民警）#endText.video-infoa{text-decoration:none;color:#000;}#endText.video-infoa:hover{color:#d34747;}#endText.video-listli{overflow:hidden;float:left;list-style:none;width:132px;height:118px;position:relative;margin:8px3px0px0px;}#entText.video-lista,#endText.video-lista:visited{text-decoration:none;color:#fff;}#endText.video-list.overlay{text-align:left;padding:0px6px;background-color:#313131;font-size:12px;width:120px;position:absolute;bottom:0px;left:0px;height:26px;line-height:26px;overflow:hidden;color:#fff;}#endText.video-list.on{border-bottom:8pxsolid#c4282b;}#endText.video-list.play{width:20px;height:20px;background:url(http://img1.cache.netease.com/video/img14/zhuzhan/play.png);position:absolute;right:12px;top:62px;opacity:0.7;color:#fff;filter:alpha(opacity=70);_background:none;_filter:progid:DXImageTransform.Microsoft.AlphaImageLoader(src=\"http://img1.cache.netease.com/video/img14/zhuzhan/play.png\");}#endText.video-lista:hover.play{opacity:1;filter:alpha(opacity=100);_filter:progid:DXImageTransform.Microsoft.AlphaImageLoader(src=\"http://img1.cache.netease.com/video/img14/zhuzhan/play.png\");}if(/(iPhone|iPad|iPod|Android|NETEASEBOBO|blackberry|bb\\d+)/ig.test(navigator.userAgent)||/safari|chrome|firefox/i.test(navigator.userAgent)&&navigator.plugins&&!navigator.plugins[\"ShockwaveFlash\"]){varstr1='<videocontrols=\"controls\"preload=\"auto\"width=\"100%\"poster=\"http://vimg3.ws.126.net/image/snapshot/2018/1/K/T/VU65CSVKT.jpg\"style=\"max-height:100%\">';varstr2='<sourcetype=\"video/mp4\"src=\"http://flv.bn.netease.com/videolib3/1801/01/rqHDb0306/SD/rqHDb0306-mobile.mp4\">您的浏览器暂时无法播放此视频.</video>';document.getElementById(\"FPlayer1404863609673\").parentNode.innerHTML=str1+str2;}两兄弟停车堵住警务站出入口，还辱骂推搡民警（来源：original）window.NTES&&function(d){varf=function(c){varb=c.getAttribute(\"flashvars\"),a=c.getAttribute(\"repovideourl\").replace(\".flv\",\"-mobile.mp4\");h=d(c.parentNode.parentNode.parentNode),g='<embedsrc=\"http://v.163.com/swf/video/NetEaseFlvPlayerV3.swf\"flashvars=\"'+b+'\"allowfullscreen=\"true\"allowscriptaccess=\"always\"quality=\"high\"wmode=\"opaque\"width=\"100%\"height=\"100%\"type=\"application/x-shockwave-flash\"/>';if(/(iPhone|iPad|iPod|Android|NETEASEBOBO|blackberry|bb\\d+)/ig.test(navigator.userAgent)){g='<videocontrols=\"controls\"preload=\"auto\"width=\"100%\"height=\"100%\"><sourcetype=\"video/mp4\"src=\"'+a+'\">您的浏览器暂时无法播放此视频.</video>';}h.$(\".video\")[0].innerHTML=g;},e=function(b){vara=d(b.parentNode.parentNode.parentNode);a.$(\"li\").removeCss(\"on\"),b.addCss(\"on\"),a.$(\".video-title\")[0].innerHTML=\"string\"==typeofb.textContent?b.textContent:b.innerText,a.$(\".video-title\")[0].setAttribute(\"href\",b.getAttribute(\"url\")),a.$(\".video-from\")[0].innerHTML=\"（来源：\"+b.getAttribute(\"source\")+\"）\",f(b);};window.continuePlay=function(){vara,b=d(d(\".video-list.on\")[0].nextSibling);3==b.nodeType&&(b=d(b.nextSibling));if(b&&d(\".video-innerinput\")[0].checked){e(b);}},function(){vara={init:function(){if(d(\".video-listli\")[0]){d(d(\".video-listli\")[0]).addCss(\"on\"),this.eventBind();}},eventBind:function(){d(\".video-listli\").addEvent(\"click\",function(b){e(d(this)),b.preventDefault();});}};a.init();}();}(NTES);河北石家庄，两兄弟去到警务站处理违章，将车辆乱停，堵住了通道口，民警要求他们挪车，2人竟对民警辱骂推搡，大闹警务站。目前，2人因涉嫌妨碍公务，已被刑事拘留。本文来源：一手Video责任编辑：李杭_BJS4645",
    "Source": "Netease",
    "PublishTime": "01/01/201817:52:05",
    "Comment": {
        "Link": "http://comment.news.163.com/news2_bbs/D736HLN80001899N.html",
        "Reply": 54,
        "Content": "跑到人家那一亩三分地里撒野，脑子有毛病。 一对傻哈 这尼玛往美国扯，强拆的时候怎么不跟人家比？ 我们办公室闹得比这厉害的多，结果也是屁事没有 30米内就给电击枪放到了 美国民间有几亿支枪，1楼二楼你有枪没有 多关几天！我们没意见！大家都想过个清净的年关 作死 刑拘，哈哈，进去后让里面横同学教教他俩怎么做人。 你今天事大了！哈哈哈哈，堵路了还嚣张傻逼 刑拘了 什么叫作死，这就是榜样！！！碰到这个温柔的警务人员是他兄弟运气好，如果是在我的地盘，我会让他兄弟好好试试这个事捅大了的后果。 嚣张惯了 这种傻逼兄弟，谁把他们惯坏的，真是见鬼了。 新的一年，新的脑残。 卧槽，我平时路过坟地的时候都小心翼翼的，你在人家警务室还那么嚣张？ 茅厕里打灯笼，找屎 脑子？ 南宁有一警亭被砸，过好几个月，没什么后续消息，这是为什么？警察这么弱，社会怎么有安全感？ 不是很清楚，但如果动手袭警很可能被枪毙 平时装装b就算了在👮‍♀️面前还敢装 捅大了没？ 本来是个放屁的事，结果拉了一裤子 平时牛X惯了吧，撒野也不看看地方，这种就是欠收拾 如果在美国发生这事，这俩人会是什么结果 缺心眼儿~ 违法的理直气壮，守法的苟且求全，是这个社会的悲哀！ 警察有辣椒水，知道不？ 有其他原因吧 警察执业保障太差 智商堪忧。 在理，我觉得普通民警的执法能力太弱全靠人多、配枪不现实、搞个电击枪啊、又不会有生命危险又有威慑力，视频这种瞎bb的直接放到再说 起因是什么？ 傻子吗？ 该，中国对警察的敬畏太缺乏了，虽然和个别的害群之马有关，但也不应该这么不把警察当回事。 这就厉害了查查后台 刁民 脑残二傻，真是欠啊 一对傻哈 想多了。美国警察五大三粗的他们就怂了 本来是个放屁的事，结果拉了一裤子 违法的理直气壮，守法的苟且求全，是这个社会的悲哀！ 多关几天！我们没意见！大家都想过个清净的年关 南宁有一警亭被砸，过好几个月，没什么后续消息，这是为什么？警察这么弱，社会怎么有安全感？ 刑拘了 卧槽，我平时路过坟地的时候都小心翼翼的，你在人家警务室还那么嚣张？ 你今天事大了！哈哈哈哈，堵路了还嚣张傻逼 捅大了没？ 兄弟这次你哥俩能爬着出来算你哥俩命大！ 傻逼 捅大了拳头那么大 装逼装过头了 呵呵！又两个傻逼！ 欺软怕硬的结果 警察有辣椒水，知道不？ 有其他原因吧 警察执业保障太差 仔细看刑事拘留，哈哈哈过两天就可以判了。 傻子吗？ 该，中国对警察的敬畏太缺乏了，虽然和个别的害群之马有关，但也不应该这么不把警察当回事。 这兄弟两个是被网络里的喷子教坏了。咱们喷子天天骂这骂那，这两兄弟有些事儿还真信了，哈哈，咱们喷子躲在一边笑吧 事的確大了，這兄弟倆很有自知之明啊。 心中有槍自然處處是槍，不必拘泥於表面。 美国民间有几亿支枪，1楼二楼你有枪没有 什么叫作死，这就是榜样！！！碰到这个温柔的警务人员是他兄弟运气好，如果是在我的地盘，我会让他兄弟好好试试这个事捅大了的后果。 我们办公室闹得比这厉害的多，结果也是屁事没有 30米内就给电击枪放到了 在理，我觉得普通民警的执法能力太弱全靠人多、配枪不现实、搞个电击枪啊、又不会有生命危险又有威慑力，视频这种瞎bb的直接放到再说 刑拘，哈哈，进去后让里面横同学教教他俩怎么做人。 这是碰到没有后台的警务人员了，如果有后台的警务人员，这两兄弟估计都躺医院了。 新的一年，新的脑残。 不是很清楚，但如果动手袭警很可能被枪毙 茅厕里打灯笼，找屎 脑子？ 做的漂亮 我也就嘴巴上骂骂，兄弟胆子肥 平时牛X惯了吧，撒野也不看看地方，这种就是欠收拾 如果在美国发生这事，这俩人会是什么结果 缺心眼儿~ 警察，为人民服务滴，懂不？ 这种傻逼兄弟，谁把他们惯坏的，真是见鬼了。 这就厉害了查查后台 嚣张惯了 刁民 跑到人家那一亩三分地里撒野，脑子有毛病。 起因是什么？ 智商堪忧。 平时装装b就算了在👮‍♀️面前还敢装 作死 真有你的 ",
        "Total": 658
    }
}