{
    "Title": "刘嘉玲穿西装 眼神凌厉尽显女王范儿_网易娱乐",
    "URL": "http://ent.163.com/photoview/00AJ0003/646714.html",
    "Source": "Netease",
    "Comment": {
        "Total": 58,
        "Reply": 20,
        "Content": "鼻孔杀 很像蜡像 像牛魔王 眼神杀 老了还是老了 老了 女王很有干练 狮子鼻 老了好多 都大妈了，还女王 很像蜡像 像牛魔王 超想上，硬了 女王范 很有气质，大姐的风范 眼神杀 鼻孔杀 祖籍苏州的 鼻孔杀 气质 老了还是老了 都大妈了，还女王 女王很有干练 感觉不到美 老了还是老了 老了 女王很有干练 狮子鼻 ",
        "Link": "http://comment.ent.163.com/ent2_bbs/PHOTJNHQ000300AJ.html"
    },
    "Article": "刘嘉玲穿西装眼神凌厉尽显女王范儿近日，刘嘉玲现身电视剧《半生缘》发布会，眼神凌厉尽显女王范儿，",
    "PublishTime": "12/26/201707:50:11",
    "KeyWords": "刘嘉玲,"
}