{
    "PublishTime": "12/30/201708:54:00",
    "Source": "Netease",
    "Comment": {
        "Content": "这秃瓢不过是个要摸样没摸样要个头没个头要啥没啥的矬老头要人品没人品要能力没能力但却天天露脸真他妈的招人烦 啥呀必须雇好几个小伙人家是教练不上场只是指挥小伙子们攻击 人家很累的。加班要几个女的一起。不是真男人都不行啊。 连跟了他大半辈子的老婆都不要了的野心家，阴谋家，他还会有真正的亲友吗。 普京加班费究竟是多少有人知道吗 特朗普休假，这帮SB加班 这秃瓢不过是个要摸样没摸样要个头没个头要啥没啥的矬老头要人品没人品要能力没能力但却天天露脸真他妈的招人烦 这几个字也是新闻？发这是啥用意啊？ 辛苦了吗，有** 人家很累的。加班要几个女的一起。不是真男人都不行啊。 连跟了他大半辈子的老婆都不要了的野心家，阴谋家，他还会有真正的亲友吗。 普京加班费究竟是多少有人知道吗 特朗普休假，这帮SB加班 啥呀必须雇好几个小伙人家是教练不上场只是指挥小伙子们攻击 ",
        "Link": "http://comment.news.163.com/news2_bbs/D6T36POJ000187V9.html",
        "Total": 69,
        "Reply": 8
    },
    "Article": "（原标题：克里姆林宫：普京将与亲朋好友一起跨年不排除假期加班）【环球网综合报道】俄罗斯卫星网12月29日报道称，俄罗斯总统新闻秘书佩斯科夫12月29日表示，依照传统，俄总统普京将与亲朋好友一起迎接新年。佩斯科夫说：“按照传统，他(普京)通常在家中与亲朋好友一起欢度新年。要知道，这对于他来说是一个如果不发生与工作直接相关的事件，就可以与亲友一同庆祝的家庭节日。这个传统今年也会延续。”不过，克里姆林宫不排除普京或将于1月假期期间重返工作。本文来源：环球时报-环球网。更多精彩，请登录环球网http://www.huanqiu.com责任编辑：张宪超_NN9310",
    "URL": "http://news.163.com/17/1230/08/D6T36POJ000187V9.html",
    "Title": "克里姆林宫:普京将与亲友一起跨年 不排除假期加班_网易新闻",
    "KeyWords": "普京,克里姆林宫,假期,佩斯科夫"
}