{
    "URL": "http://news.163.com/17/1228/10/D6O2S6OM00018AOQ.html",
    "Comment": {
        "Reply": 28,
        "Content": "不希望全部靠向中国起码做到中印平衡 外媒就外媒，你参考消息跟着起什么哄 外媒？ 跟贴被火星网友带走啦~ 三天后怕是翻脸 中国的影响力越来越大，一路一带开花结果，这就是中国力量！ 为什么现在很多国家都不亲印日美了？我想你们懂的。 数学题/合并同类项。 跟贴被火星网友带走啦~ 难讲 欢迎一切友好的朋友！ 都还没建交吧？ 远离印度,拒绝亡国! 不丹马上发来贺电 谁跟你自己人 跟贴被火星网友带走啦~ 其实还是保持真正的中立好。 但愿对得起他们的热情！ 跟贴被火星网友带走啦~ 犀利！👍 靠过来你就死定了 又来一个要钱的能不能把钱用到自己人身上？ 不希望全部靠向中国起码做到中印平衡 小编比尼泊尔总理还先知道以后会靠向中国，你应该去尼泊尔当总理。 外媒？ 本人就在这个地方那天这位准总理做直升机来的我们电站 这是趋势！ 尼泊尔发展经济只有一个选择。 中国的影响力越来越大，一路一带开花结果，这就是中国力量！ 为什么现在很多国家都不亲印日美了？我想你们懂的。 中立？美国同意吗？ 数学题/合并同类项。 难讲 中或赢？ 欢迎一切友好的朋友！ 都还没建交吧？ 印度才真正是没有跟一个邻国和平共处 远离印度,拒绝亡国! 不丹马上发来贺电 谁跟你自己人 永远都是赢。 聪明的选择 三天后怕是翻脸 又来一个要钱的能不能把钱用到自己人身上？ 但愿对得起他们的热情！ 好啊！ 犀利！👍 靠过来你就死定了 外媒就外媒，你参考消息跟着起什么哄 其实还是保持真正的中立好。 ",
        "Total": 1356,
        "Link": "http://comment.news.163.com/news2_bbs/D6O2S6OM00018AOQ.html"
    },
    "Title": "外媒称尼泊尔将组建亲中政府 届时或向中国靠拢_网易新闻",
    "Source": "Netease",
    "KeyWords": "尼泊尔,中国,印度",
    "PublishTime": "12/28/201710:11:06",
    "Article": "（原标题：日媒称尼泊尔新政府将向中国靠拢：已展现对华合作姿态_《参考消息》官方网站）点击图片进入下一页12月19日，有望出任尼泊尔新一届政府总理的奥利(前左三)在与中国接壤的拉苏瓦堡口岸视察。(尼泊尔《共和国报》网站)参考消息网12月28日报道日媒称，亲中的在野党联盟“左派联盟”在11、12月进行的尼泊尔议会选举中取得了压倒性胜利。议席分配将于近几日内敲定，预计尼泊尔共产党（联合马列）领导人奥利将出任总理，组建一个亲中的政府。处于中国和印度夹缝中的尼泊尔届时或将向中国靠拢。据日本《东京新闻》12月27日报道，在已经出票的小选举区中，尼泊尔共产党（联合马列）与尼泊尔共产党（毛主义中心）组成的左派联盟获得了116个议席，在总计165个议席中约占七成。亲印度的执政党尼泊尔大会党则以23席惨败。据当地媒体报道，在总共110个比例代表制议席中，左派联盟预计将获得过半数的58席，而尼泊尔大会党为40席。报道称，尼泊尔的进口大部分依赖印度。在2015年到2016年奥利担任总理期间，边境地区的印度裔居民因要求提高地位而与政府发生对立。印度随即停止向尼泊尔供应燃料，事实上封锁了边境。两国关系因此恶化。之后，尼泊尔大会党政府上台。但当地记者比斯瓦斯·巴拉尔指出，执政党对印度态度暧昧，这让大部分国民感到屈辱，左派联盟此次大胜或也与之有关。另一方面，报道认为，与印度存在领土争端的中国在“一带一路”倡议经济圈构想指导下正在援助尼泊尔完善基础设施建设，包括修建铁路。19日，奥利突访中尼边境尼方一侧的拉苏瓦堡口岸，明确展现出对华合作姿态。报道称，尼泊尔政局连年动荡，2006年以来已有10人次先后出任总理。2015年尼泊尔大地震发生后，重建工作也进展缓慢。对于新政府，京都大学教授藤仓达郎预计“将会进一步向中国靠拢，获得的援建项目也会更多”。他的观点是，能否在中印之间实现平衡将决定尼泊尔今后稳定与否。本文来源：参考消息网责任编辑：程钢_NN7377"
}