{
    "Comment": {
        "Total": 148,
        "Reply": 17,
        "Link": "http://comment.ent.163.com/ent2_bbs/PHOTJNUQ000300AJ.html",
        "Content": "自媒体不嫌事大，人家真出轨了嘛？我看未必，相信李小璐的人品 看你还骂姚笛。现在知道姚笛多好了吧。 忘记给你拴链子，妈的你又跑出来了 夜宿男人家里，通宵研究业务，人品真棒。 这是我第一次悬着心看娱乐圈的丑事不要深追究了还有小甜馨呢卓伟拿点钱闭嘴吧 妈呀，被突然出现的黄子韬吓了一跳 璐宿one夜，贾装没事[微笑] 这是跨年那天的新闻吧 自媒体不嫌事大，人家真出轨了嘛？我看未必，相信李小璐的人品 看你还骂姚笛。现在知道姚笛多好了吧。 你不是辞职了吗？ 这是我第一次悬着心看娱乐圈的丑事不要深追究了还有小甜馨呢卓伟拿点钱闭嘴吧 这是跨年那天的新闻吧 不错 璐宿one夜，贾装没事[微笑] 忘记给你拴链子，妈的你又跑出来了 全世界估计只有你跟贾乃亮相信 狗仔队恨不得所有男艺人，女艺人都出轨！[窃笑]有事可写啦！ 第五张图什么鬼？辣眼睛…… 亮亮好大度，[狗][狗][狗] 你不是辞职了吗？ 图5那恶心鬼 夜宿男人家里，通宵研究业务，人品真棒。 妈呀，被突然出现的黄子韬吓了一跳 下盘还亮亮玩了 "
    },
    "Title": "李小璐疑出轨pgone后 带甜馨与贾乃亮秀恩爱_网易娱乐",
    "KeyWords": "李小璐,",
    "Article": "李小璐疑出轨pgone后带甜馨与贾乃亮秀恩爱近日，李小璐的态度就360度大转变，带着女儿甜馨牵着丈夫贾乃亮出现在媒体前，甜蜜的秀起恩爱。",
    "URL": "http://ent.163.com/photoview/00AJ0003/647130.html",
    "PublishTime": "01/03/201811:13:00",
    "Source": "Netease"
}