{
    "Source": "Netease",
    "KeyWords": "中国海警,钓鱼岛,舰船,海警船",
    "URL": "http://war.163.com/17/1224/09/D6DOANIG000181KT.html",
    "PublishTime": "12/24/201709:59:34",
    "Comment": {
        "Content": "对日寇要绝对的冷酷，杀无赦！ 越闹越成常态化 这个一定要点一个赞 要常态化，以前一年到几个月去一次，现在最好一个礼拜去一次，还要从4艘慢慢曾加到，10艘，20艘，30艘去钓鱼岛那里行航 钓鱼岛中国的。 钓鱼岛已经在我实际控制中，小日本认了吧！ 厉害👍了我的国！ 中国维护领土主权和海洋权益的决心和意志坚定不移 威武的中国海警2306、2502、2106舰船编队在中国钓鱼岛领海内巡航，扬我国威。 步步为营！ 对日寇要绝对的冷酷，杀无赦！ 钓鱼岛中国的。 钓鱼岛已经在我实际控制中，小日本认了吧！ 钓鱼岛已经在我实际控制中，小日本认了吧！ 常态化。 要常态化，以前一年到几个月去一次，现在最好一个礼拜去一次，还要从4艘慢慢曾加到，10艘，20艘，30艘去钓鱼岛那里行航 今后要多开展有关巡航执法活动 最好一个礼拜去一次 好！ 钓鱼岛已经在我实际控制中 钓鱼岛已经在我实际控制中，小日本认了吧！ 点赞 支持支持 要常态化，以前一年到几个月去一次，现在最好一个礼拜去一次，还要从4艘慢慢曾加到，10艘，20艘，30艘去钓鱼岛那里行航 钓鱼岛是中国的！ 看着标题心里就舒服，中国威武 钓鱼岛中国的。 对日寇要绝对的冷酷，杀无赦！ 必须的巡航 👍 支持常态化 钓鱼岛已经在我实际控制中，小日本认了吧！ 我为你骄傲 钓鱼岛已经在我实际控制中，小日本认了吧！ 钓鱼岛已经在我实际控制中，小日本认了吧！ 这是我军人的责任和担当，同志们辛苦了！ 我为你骄傲 对日寇要绝对的冷酷，杀无赦！ 越闹越成常态化 这个一定要点一个赞 要常态化，以前一年到几个月去一次，现在最好一个礼拜去一次，还要从4艘慢慢曾加到，10艘，20艘，30艘去钓鱼岛那里行航 钓鱼岛中国的。 钓鱼岛已经在我实际控制中，小日本认了吧！ 支持 中国维护领土主权和海洋权益的决心和意志坚定不移 威武的中国海警2306、2502、2106舰船编队在中国钓鱼岛领海内巡航，扬我国威。 对日寇要绝对的冷酷，杀无赦！ 对日寇要绝对的冷酷，杀无赦！ 钓鱼岛中国的。 钓鱼岛已经在我实际控制中，小日本认了吧！ 钓鱼岛已经在我实际控制中，小日本认了吧！ 常态化。 要常态化，以前一年到几个月去一次，现在最好一个礼拜去一次，还要从4艘慢慢曾加到，10艘，20艘，30艘去钓鱼岛那里行航 今后要多开展有关巡航执法活动 最好一个礼拜去一次 好！ 钓鱼岛已经在我实际控制中 钓鱼岛已经在我实际控制中，小日本认了吧！ 点赞 支持支持 要常态化，以前一年到几个月去一次，现在最好一个礼拜去一次，还要从4艘慢慢曾加到，10艘，20艘，30艘去钓鱼岛那里行航 钓鱼岛是中国的！ 看着标题心里就舒服，中国威武 步步为营！ 必须的巡航 钓鱼岛中国的。 👍 支持常态化 钓鱼岛已经在我实际控制中，小日本认了吧！ 我为你骄傲 钓鱼岛已经在我实际控制中，小日本认了吧！ 钓鱼岛已经在我实际控制中，小日本认了吧！ 这是我军人的责任和担当，同志们辛苦了！ 我为你骄傲 厉害👍了我的国！ ",
        "Total": 1188,
        "Link": "http://comment.war.163.com/news_junshi_bbs/D6DOANIG000181KT.html",
        "Reply": 38
    },
    "Article": "【环球网军事综合报道】据国家海洋局网站12月24日发布的通知显示，当日，中国海警2306、2502、2106舰船编队在中国钓鱼岛领海内巡航。在12月23日，日本NHK电视台网站曾报道日本海上保安厅第11管区保安总部称，中国海警派出4艘海警船23日在钓鱼岛西南偏西约34公里处到39公里处进行巡航。通报并未提到中国海警船的舷号等信息。日本海上保安总部无理警告中国海警船勿靠近其所谓的“领海”，并持续进行监视。这是进入12月以来，中国海警船第二次在钓鱼岛海域外侧进行巡航执法，在12月22日时，中国4艘海警船进入钓鱼岛附近海域进行巡航。而更早的一次则是在11月29日和11月28日。当时，中国海警2401、2166、35115号三舰编队在我钓鱼岛领海内巡航，这也是中国2017年第27次在钓鱼岛领海内巡航。中国外交部发言人华春莹曾就钓鱼岛问题表示，钓鱼岛及其附属岛屿自古以来就是中国领土。中国政府公务船在有关海域的巡航执法正当合法。中国维护领土主权和海洋权益的决心和意志坚定不移，今后将继续开展有关巡航执法活动。本文来源：环球时报-环球网。更多精彩，请登录环球网http://www.huanqiu.com责任编辑：马超_NBJ9865",
    "Title": " 中国海警3舰船编队进入我钓鱼岛领海巡航_网易军事"
}