{
    "URL": "http://news.163.com/17/1231/08/D6VKBVM20001875O.html",
    "Article": "（原标题：土耳其签署购俄S400导弹合同美称应购美导弹）【环球网军事报道】据俄罗斯卫星网12月30日报道，土耳其国防工业秘书处周五发表声明称，莫斯科和安卡拉签署的S-400防空导弹系统供应协议规定要进行技术合作。周五早些时候，俄罗斯和土耳其在安卡拉签署了供应S-400的贷款协议。根据土耳其国防工业秘书处的声明，土耳其购买两套S-400，它们将有土方人员维护。在文件中称，“协议规定，在项目框架内要进一步开展技术合作。我们会在满足我们自行生产防空导弹条件的方向上继续努力，为此正在与感兴趣的国家和公司进行谈判。”双方决定不透露协议中付款和技术方面的相关信息。消息称：“第一批导弹系统将于2020年第一季度运抵。土耳其总参谋部将负责监督使用，维护由土耳其技术人员负责。”土耳其国防部长加尼克里早前表示，土耳其和俄罗斯已经敲定购买四个营的S-400防空导弹系统。俄罗斯国家技术集团公司总裁切梅佐夫27日表示，俄罗斯将向土耳其出售4个营的S－400防空导弹系统，总额25亿美元，其中55%合同金额将用俄方贷款支付。对于俄土导弹交易，美国国防部回应称，符合北约标准的反导系统可更好满足土耳其的要求，并且有意尽快向土方供应美国系统。美国国防部新闻处代表表示：“符合北约标准的反导防御系统是土耳其防范该地区所有方面威胁的更好选择。为了自己在防空领域更加广阔和长期的需求，土耳其应继续坚持北约国家的反导系统，包括美国的‘爱国者’系统。美国有意尽可能加快对土耳其所购设备的供应。”本文来源：环球时报-环球网。更多精彩，请登录环球网http://www.huanqiu.com责任编辑：李天奕_NN7528",
    "KeyWords": "土耳其,导弹,俄罗斯,美国",
    "Source": "Netease",
    "Comment": {
        "Reply": 17,
        "Content": "这个埃尔多安猫一阵狗一阵的，前天高调声称巴沙尔是恐怖分子，鹅毛大概是狗咬尿泡空欢喜了... 看来世界格局从新划分是需要武力解决的了！ 美国狗 希望世界各国的脑袋是清醒的， 到底跟谁好？ 土耳其脑袋被驴踢了。买东西靠美国 呵呵，也不记得当时是谁对土耳其放弃红旗九骂土狗没良心的。 2017年冷笑话，天天干涉他国内政的美国，喊出了本国内政不容别国指指点点。让人心寒，野心已经昭告天下——让地球只存在一个国家。 土鸡可不是性能不佳才放弃。相反，当时测试的几个反导系统红旗9是表现最好的，不过土鸡是利用中国对北约施压，增加自己谈判的筹码，而且胃口极大要求转让技术。 这个和美国以国家之名对各国指手画脚一样？ 福州有驴？ 之前土耳其中标的好像是红旗9吧？被搅黄了，原来是毛子干的？ 能去美帝，一个比一个跑得快…找跟老墨一样，在美墨边境偷渡过去…被移民局抓的东躲西藏也不愿意回来 又一个世俗的国家被宗教挟持了。 福州有驴？ 这个埃尔多安猫一阵狗一阵的，前天高调声称巴沙尔是恐怖分子，鹅毛大概是狗咬尿泡空欢喜了... 肯定是舍不得，土耳其是光脚的不怕穿鞋的，土耳其的地理位置决定了，北约非常需要土耳其，土耳其无所谓，爱加不加，不加我投俄，让北约的围堵俄罗斯的计划成泡影，看你咋办。 美国狗 希望世界各国的脑袋是清醒的， 买卖俄罗斯的400导弹不行俄罗斯就应该买给土耳其原子弹 能去美帝，一个比一个跑得快…找跟老墨一样，在美墨边境偷渡过去…被移民局抓的东躲西藏也不愿意回来 肯定是舍不得，土耳其是光脚的不怕穿鞋的，土耳其的地理位置决定了，北约非常需要土耳其，土耳其无所谓，爱加不加，不加我投俄，让北约的围堵俄罗斯的计划成泡影，看你咋办。 之前土耳其中标的好像是红旗9吧？被搅黄了，原来是毛子干的？ 看来世界格局从新划分是需要武力解决的了！ 呵呵，也不记得当时是谁对土耳其放弃红旗九骂土狗没良心的。 2017年冷笑话，天天干涉他国内政的美国，喊出了本国内政不容别国指指点点。让人心寒，野心已经昭告天下——让地球只存在一个国家。 土鸡可不是性能不佳才放弃。相反，当时测试的几个反导系统红旗9是表现最好的，不过土鸡是利用中国对北约施压，增加自己谈判的筹码，而且胃口极大要求转让技术。 土、肯定要被坑 这个和美国以国家之名对各国指手画脚一样？ 三姓家奴。 土耳其脑袋被驴踢了。买东西靠美国 到底跟谁好？ 又一个世俗的国家被宗教挟持了。 ",
        "Total": 228,
        "Link": "http://comment.news.163.com/news_guoji2_bbs/D6VKBVM20001875O.html"
    },
    "PublishTime": "12/31/201708:36:41",
    "Title": "土耳其签署购俄S400导弹合同 五角大楼:应购美导弹_网易新闻"
}