{
    "Article": "（原标题：宁夏发改委原主任张八五被双开：十八大后仍不收敛不收手）据宁夏回族自治区纪委消息：日前，宁夏回族自治区纪委对自治区发展和改革委员会原党组书记、主任张八五严重违纪问题进行了立案审查。经查，张八五违反组织纪律，不如实报告个人有关事项；违反廉洁纪律，收受礼金；违反生活纪律，与他人发生不正当性关系；违反国家法律法规规定，利用职务上的便利，为他人谋取利益，收受财物，涉嫌受贿犯罪。张八五身为党员领导干部，严重违反党的纪律和国家法律法规规定，且在党的十八大后仍不收敛、不收手，情节严重，性质恶劣，应予严肃处理。依据《中国共产党纪律处分条例》等有关规定，经自治区纪委常委会议研究，并报自治区党委批准，决定给予其开除党籍处分；经自治区监察厅研究，并报自治区人民政府批准，决定给予其开除公职处分；收缴其违纪所得；将其涉嫌受贿犯罪问题、线索及款物移送司法机关依法处理。张八五资料图张八五简历张八五，男，汉族，1962年4月出生，大学学历，1983年7月参加工作，1988年12月加入中国共产党。2000年4月至2003年12月，任自治区原计委社会事业处处长。2003年12月至2005年5月，任石嘴山市副市长。2005年5月至2007年9月，任自治区发改委副主任、党组成员。2007年9月至2011年2月，任自治区发改委副主任、党组副书记。2011年2月至2013年1月，任自治区发改委副主任、党组副书记（正厅级）。2013年1月至2013年12月，任自治区发改委主任、党组书记。2013年12月，任自治区发改委主任、党组书记兼宁夏内陆开放型经济试验区建设领导小组办公室主任。第十一届自治区人大代表，第十二届全国人大代表。本文来源：澎湃新闻责任编辑：李天奕_NN7528",
    "PublishTime": "12/29/201721:19:00",
    "URL": "http://news.163.com/17/1229/21/D6RRDLHM000187VE.html",
    "Comment": {
        "Content": "这名字响亮 贪婪之官必须严惩。 杀无赦 鸟人 这个名字太可怕 继续加大力度 该杀 一听这名字！就不像好人！ 支持反腐 严肃处理 严惩不贷！ 抓住的好，就该严惩贪官 支持严查 看这个孙子一脸奸相。绝对不是什么好东西 加油，中纪委 严肃处理杀 严厉打击违法犯罪行为 还他妈八五 这名字响亮 贪婪之官必须严惩。 杀无赦 鸟人 这个名字太可怕 继续加大力度 该杀 一听这名字！就不像好人！ 支持反腐 严肃处理 严惩不贷！ 抓住的好，就该严惩贪官 支持严查 看这个孙子一脸奸相。绝对不是什么好东西 加油，中纪委 严肃处理杀 严厉打击违法犯罪行为 还他妈八五 ",
        "Link": "http://comment.news.163.com/news2_bbs/D6RRDLHM000187VE.html",
        "Total": 1578,
        "Reply": 18
    },
    "Source": "Netease",
    "Title": "宁夏发改委原主任张八五被双开:发生不正当性关系_网易新闻",
    "KeyWords": "发改委,反腐,纪委"
}