{
    "Article": "（原标题：俄议员斥美国撒谎：俄空军基地遭袭是你们支持的）海外网12月29日电俄罗斯联邦委员会国防与安全委员会第一副主席克林采维奇表示，没有美国参与的话，武装分子恐怕无法袭击俄罗斯驻叙利亚赫梅米姆空军基地。早前俄外交部发言人扎哈罗娃表示，12月27日武装分子发射数枚火箭袭击拉塔基亚机场和俄军驻赫梅米姆空军基地。其中2枚被俄罗斯“铠甲”防空系统击落。她指出，武装分子袭击赫梅米姆空军基地是挑衅行为，目的是破坏叙利亚全国对话大会。克林采维奇在脸书上发文称，“我完全相信，美国不参与的话武装分子无法袭击俄驻叙基地。无论是直接参与还是故意保持中立”。他表示，叙利亚政府军控制的地区不可能有武装分子的存在。他指出，“一方面，美国领导的联军宣布彻底战胜恐怖分子。也就是说，叙利亚境内不应当存在有实力的武装分子，但根据实际情况来看，他们却是存在的”。克林采维奇还说：“美国在背后为他们撑腰，并且说谎。很可能，这些是美方培训和武装的武装分子”。他还强调说，武装分子发起的袭击再次证实了，俄武装力量总参谋部不久前提出美驻叙基地培训“伊斯兰国”恐怖分子的消息。克里姆林宫28日也向记者表示，俄美在叙利亚问题上从未有过特别紧密的合作。俄罗斯总统新闻秘书佩斯科夫说：“我们很遗憾，俄美两国在叙利亚问题上从未有过特别紧密的合作。因此在这种情况下没有什么可破裂的。双方存在信息交流渠道，我们希望能够继续合作。”佩斯科夫还称：“必须有政治意愿为解决叙利亚问题。目前双方还没有这种合作。”叙利亚武装冲突始于2011年，叙总统巴沙尔·阿萨德的支持者、叙利亚反对派、库尔德自卫部队和一系列恐怖组织参与其中。本文来源：海外网责任编辑：何雨芳_NN5632",
    "URL": "http://news.163.com/17/1229/07/D6QBQU2800018AOR.html",
    "Source": "Netease",
    "KeyWords": "美国,武装分子,叙利亚,俄罗斯",
    "Comment": {
        "Reply": 30,
        "Link": "http://comment.news.163.com/news2_bbs/D6QBQU2800018AOR.html",
        "Total": 579,
        "Content": "强词夺理 马拉列车，迟早药丸 saidsdalin：“killeveryonekillalliedamry”american：“idonothing，youdokillnow” 比起真理报，我还是宁愿相信洋葱网一些。 进去容易出来难，赶快增兵，耗死俄罗斯 刚才的新闻不是说是三枚导弹嘛，而且大吹被俄罗斯的防空系统拦截了，怎么一会儿又变成三枚火箭弹了？ 俄毛就会吹牛逼，要是换成老美飞行员被杀将军被杀还不把叙利亚炸翻天！ 撒谎成性的流氓痞子还指责别人撒谎？ 没有出现好毛子吗？ 刚才屎报还在大吹三枚导弹被俄罗斯的防空系统拦截了，蛾爹无敌，怎么一会儿变成三枚火箭弹了？ 真的很美丽的哦 尼玛看见清楚干净了是吧 俄罗斯总想俄美合作，若真俄美合作，你们将把中国反美的俄狗们往那里搁啊！ 俄孙们，该你们上战场了，快去炸死美军 越来越发现，俄国熊跟朝鲜逼崽子一个德行 反应那么迟钝呢，才发现？？ 已经将叙军控制区内的恐怖分子已经清除了，而美军控制区域内没有清除干净，甚至可以说都跑美军控制区内区避难去了，自然俄军一走，这些龟孙就出来做妖咯。 普京不是在叙利亚扬言彻底消灭了恐怖分子，然后俄军胜利撤军吗？这咋又有恐怖分子了？那之前扯谎的吗？ 俄罗斯人民志愿军出国作战，是为了保护世袭政权。 有能耐你也干他！ 我也想支持，捐钱 马拉列车，迟早药丸 saidsdalin：“killeveryonekillalliedamry”american：“idonothing，youdokillnow” 刚才的新闻不是说是三枚导弹嘛，而且大吹被俄罗斯的防空系统拦截了，怎么一会儿又变成三枚火箭弹了？ 呵呵 在网易上还怕骂不成？网易上很多人吐槽铁血和腾讯一味舔，可是网易却走到另一头也在一味舔另一方而已，早习惯了。根本不怕什么喷，其实这种低级喷只是证明了其无能反驳，只能靠骂来表达自己不满而已，这种标榜自己无能的人我怕个球呀 刚才屎报还在大吹三枚导弹被俄罗斯的防空系统拦截了，蛾爹无敌，怎么一会儿变成三枚火箭弹了？ 撒谎成性的流氓痞子还指责别人撒谎？ 现在的确有两种人，舔起来真让人吃不下饭。。一种舔内，一种舔外。。只以主观意识为偏向，忘记了平常心，忘记了天下乌鸦一般黑，忘记了非我族类，其心必异。。忘记了无论是国内还是国外的口号都在骗人。。 越来越发现，俄国熊跟朝鲜逼崽子一个德行 反应那么迟钝呢，才发现？？ 有能耐你也干他！ 进去容易出来难，赶快增兵，耗死俄罗斯 我也想支持，捐钱 强词夺理 比起真理报，我还是宁愿相信洋葱网一些。 而且是拦截两枚，另一枚造成了什么损害结果不知道 俄毛就会吹牛逼，要是换成老美飞行员被杀将军被杀还不把叙利亚炸翻天！ 我弟弟信上帝.他认为他的存在就是在帮助上帝拯救人类.每次打完电话他都会说愿上帝保佑你,各种为我祈祷.他很乐意与我谈论信上帝的好处.并全身心投入工作和关爱家人,只因他觉得主耶稣是他学习的榜样--我不认为他们的信仰会造成交流障碍.即使我认真问他:上帝是否存在?而他总会回答:若爱存在,上帝就存在.因为上帝就是创造爱的源头上帝永远住在爱里，上帝爱世界上所有人包括想悔改的罪人想要信耶稣的可以到本地教堂买一本圣经看看每个地方都有教堂的信耶稣此生平安来世得永生有所信仰就会有所敬畏，有所敬畏就会知何事可为与何事不可为，知道了什么事可为什么事不可为，就不会干出背理天意人伦的逆天大错，遵从了天意人伦的法则就会一生安宁幸福这就是大道之法则，也就是爱的法则，神之道！ 没有出现好毛子吗？ 真的很美丽的哦 我弟弟信上帝.他认为他的存在就是在帮助上帝拯救人类.每次打完电话他都会说愿上帝保佑你,各种为我祈祷.他很乐意与我谈论信上帝的好处.并全身心投入工作和关爱家人,只因他觉得主耶稣是他学习的榜样--我不认为他们的信仰会造成交流障碍.即使我认真问他:上帝是否存在?而他总会回答:若爱存在,上帝就存在.因为上帝就是创造爱的源头上帝永远住在爱里，上帝爱世界上所有人包括想悔改的罪人想要信耶稣的可以到本地教堂买一本圣经看看每个地方都有教堂的信耶稣此生平安来世得永生有所信仰就会有所敬畏，有所敬畏就会知何事可为与何事不可为，知道了什么事可为什么事不可为，就不会干出背理天意人伦的逆天大错，遵从了天意人伦的法则就会一生安宁幸福这就是大道之法则，也就是爱的法则，神之道！ 俄罗斯总想俄美合作，若真俄美合作，你们将把中国反美的俄狗们往那里搁啊！ 俄孙们，该你们上战场了，快去炸死美军 已经将叙军控制区内的恐怖分子已经清除了，而美军控制区域内没有清除干净，甚至可以说都跑美军控制区内区避难去了，自然俄军一走，这些龟孙就出来做妖咯。 普京不是在叙利亚扬言彻底消灭了恐怖分子，然后俄军胜利撤军吗？这咋又有恐怖分子了？那之前扯谎的吗？ 俄罗斯人民志愿军出国作战，是为了保护世袭政权。 还有一位你不敢说是吧😂 "
    },
    "Title": "俄议员斥美国撒谎：俄空军基地遭袭是你们支持的_网易新闻",
    "PublishTime": "12/29/201706:55:38"
}