{
    "URL": "http://news.163.com/18/0101/15/D72TIESF00018AOQ.html",
    "Title": "俄罗斯否认绕过制裁对朝供油:西方媒体打\"信息战\"_网易新闻",
    "KeyWords": "俄罗斯,信息战,朝鲜,联合国",
    "Article": "（原标题：俄罗斯否认绕过制裁对朝供油：西方一些媒体打“信息战”_《参考消息》官方网站）2017年12月22日，在位于纽约的联合国总部，安理会对涉朝决议进行表决。新华社记者王迎摄参考消息网1月1日报道俄媒称，西方媒体报道称，莫斯科似乎绕过联合国安理会的制裁对朝鲜供应石油。对此俄罗斯外交部称，俄完全遵守对朝制裁制度。据俄新社12月30日报道，早前路透社援引欧洲安全机构消息人士的话称，俄油船在10月和11月数次向朝鲜船只输送石油。但消息人士指出，无法提供证据。俄外交部解释称，“想提醒各位的是，在对朝供应燃料上无疑有配额，但没有完全的禁令。联合国第1718号决议所设的委员会负责监督制裁制度是否得到遵守”。俄总统下属国家间关系委员会成员波格丹·别兹帕利科称，外国媒体的报道是“信息战”的一部分。这位专家认为，“媒体上正在进行大规模宣传运动，如今朝鲜问题也成了其中一部分。没有任何证据和确凿的事实。这是在向俄施压，目的是抹黑俄，但这次不是把俄妖魔化为乌克兰问题中的‘侵略者’，而是违反制裁规定的国家”。不过别兹帕利科指出，莫斯科无意让美国借朝鲜危机扩大在地区的军事存在。另据俄罗斯卫星通讯社12月30日报道，俄外交部新闻办公室发布消息表示，俄罗斯一直全面遵守关于朝鲜的制裁政策。俄外交部同时对媒体关于俄罗斯船只疑似进入朝鲜、不顾联合国安理会制裁规定向其提供石油的消息进行了评论。此前路透社曾有消息表示，10月和11月发现俄罗斯疑似向朝鲜进行石油供应。这些消息没有任何证据，路透社本身也无法确认这些消息的真实性。俄外交部表示：“俄罗斯将全面且毫不动摇地遵守关于朝鲜的制裁政策。”报道称，12月，联合国安理会对朝鲜进行了新一轮的国际制裁。本文来源：参考消息网责任编辑：范姜国一_NN9138",
    "Source": "Netease",
    "PublishTime": "01/01/201814:56:00",
    "Comment": {
        "Link": "http://comment.news.163.com/news2_bbs/D72TIESF00018AOQ.html",
        "Reply": 0,
        "Content": "",
        "Total": 1
    }
}