{
    "Title": "环保部批海南向海要地 从卫星图看海岸线变了多少_网易新闻",
    "URL": "http://news.163.com/17/1226/20/D6K21MBD000187VE.html",
    "KeyWords": "环保部,自然保护区,卫星图,防护林",
    "PublishTime": "12/26/201720:16:00",
    "Article": "（原标题：地图湃｜环保部批海南向海要地：卫星图看海岸线变了多少？）12月23日，环保部发布中央第四环境保护督察组向海南省反馈的督察意见，表示“不少领导同志反映，一些地方和部门对全省得天独厚的生态环境沾沾自喜，盲目自满，认为自然环境好就是工作做得好”，同时，“一些市县重经济发展、轻环境保护，热衷于搞速效政绩工程，财政过分依赖房地产，房地产企业指到哪儿，政府规划跟到哪儿，鼓了钱袋、毁了生态”。督察意见点名批评了海花岛、日月湾等违规违法填海造地问题，以及高隆湾、棋子湾等沿海防护林破坏明显问题。澎湃新闻根据环保部官网通报及《海南日报》报道整理了本次督察组点名批评的、对海域岸线自然生态和风貌破坏明显的项目地点，看看卫星图呈现了哪些变化。儋州市政府及海洋部门化整为零违规审批海花岛填海项目，项目施工造成大面积珊瑚礁和白蝶贝受损。万宁市日月湾综合旅游度假区人工岛月岛项目于2015年10月未批先建，直至督察进驻时才实际停止违法填海行为，周边岸滩已出现大面积淤积并形成连岛沙坝，破坏了海洋自然风貌。据财新此前报道，日月湾人工岛项目中，日岛建设填海造地共计48.046公顷，月岛建设填海造地共计49.112公顷。大规模的人工填海势必为周边生态环境带来诸多影响。三亚市凤凰岛填海项目以国际客运港和邮轮港名义取得海域使用权，但实际主要用于房地产和酒店开发，由于填岛造成水流变化，三亚湾西部岸线遭到侵蚀，为修复岸滩不得不斥巨资对三亚湾进行人工补沙。此外，一些部门和地方不作为、乱作为。三亚市政府2012年至2015年多次干预相关部门正常执法活动，导致位于三亚珊瑚礁国家级自然保护区和海岸带200米范围内的小洲岛度假酒店项目持续违法建设。文昌麒麟菜省级自然保护区作为海藻场被盲目开发，原生麒麟菜已濒临灭绝，文昌市政府不仅疏于管理，甚至违规填海造地，建设清澜半岛、东郊椰林、南海度假村等项目，侵占保护区174公顷。昌江县在编制棋子湾旅游度假区控制性详细规划时，擅自放宽海岸带和沿海防护林保护要求，将沿海防护林地规划为建设用地，侵占破坏200多亩海岸带。文昌市自2012年以来对沿海防护林采取托管方式交由企业管理，仅高隆湾片沿海防护林就托管给13家企业，放任企业随意占用，造成沿海防护林破坏严重。本次督察组提及到的、但难以在地图上观测到的还有：-南海度假村人工岛填海项目违规开展竣工验收；-琼海市对沿海防护林内违法建设不监管、不制止，并于2015年11月集中为13宗海岸带内违法建筑物补办临时手续；-清澜省级红树林自然保护区内鱼虾养殖面积多达760公顷，分别侵占保护区核心区、缓冲区面积的31.4%和20.3%。-文昌市将铜鼓岭国家级自然保护区1333公顷的陆域范围全部划入生态旅游区开发范围，涉及核心区468公顷、缓冲区171公顷。2014年又将该自然保护区41.3公顷现状林地规划为酒店用地，并侵占5.5公顷林地开展旅游道路建设。在调整规划过程中，省国土、林业、住建等部门把关不严，大开方便之门。-三亚珊瑚礁国家级自然保护区2932公顷陆域面积长期未纳入实际管护，人类活动频繁的鹿回头片区大洲岛海域和小东海海域活体珊瑚盖度分别从2013年的42%和18%下降到2016年的20%和5%。-白蝶贝省级自然保护区成立以来未纳入有效管理，2013年以来，临高县政府在保护区内违规审批用海项目54个、办理海水养殖证77个，截至督察时保护区内仍存在167家海水养殖单位，白蝶贝已濒临灭绝。督察强调，海南省应根据《环境保护督察方案（试行）》和督察反馈意见要求，抓紧研究制定整改方案，在30个工作日内报送国务院。整改方案和整改落实情况要按照有关规定及时向社会公开。督察组还对发现的生态环境损害责任追究问题进行了梳理，已按有关规定移交海南省委、省政府处理。本文来源：澎湃新闻责任编辑：张海桐_NN9053",
    "Comment": {
        "Content": "腐败没办法。 我想去海南看看我们祖国的海岸线 房地产挂帅 那当然了建个海景房多少钱啊 海南现在的温度应该不冷不热吧，打算这段时间去海南 好好爱护环境 海南岛有着得天独厚的生态环境。 听说七十年 我们这里黄河湿地被盖了旅游小镇。 一个台风过来全没了 地产强国，茂泰强军 就是应该严厉处置，你们觉得海里的房子能质量保证多少年？ 三亚一年短裤内裤上街没人查 我相信有钱就能摆平，恒大牛 永远都有新的海景房 就没有一个两全的方案吗。 填海造土恒大创举 谁批准的谁负责！且可追查到其自然死亡！ 好! 应该加大填海力度，把所有海岸线向大海推进100公里，打造一个新海南！这样可以建更多房子，卖更多的钱！ 打算去海南过年了 你去一次绝对不想去第二次，景色和空气那绝对的好，但是那的人就差远了，尤其东北人在那的特别多，吃住玩都特别贵，你去一趟海南够你去泰国3次的 应该加大填海力度，把所有海岸线向大海推进100公里，打造一个新海南！ 这些个市县领导要追职 正常的填海到没什么，关键是不能破坏环境 6666 我看到了谷歌地图 深圳填这么多也没查过，海南撞枪口上了 哈哈，填啊填，我左边填到越南岛，填啊填，右边填到菲律宾 能不能把破坏环境的人，干下来，发配看海 破坏生态环境断绝子孙生存应该让那些罪魁祸首永世不得翻身 南海填成海南 海口二十左右度，三亚二十多度 应该看这个项目谁批的吧 责任人被抓起来了吗，否则没用 第一个是海花岛吧 有的垄断企业，领导岗位放个狗也挣钱。 关键是后续你怎么处置？ 那管不着，只要卖了就行。 知足不能长乐 海花岛、日月湾等房地产填海项目也不是一天两天了为什么环保部不在项目初建时制止查处，要到今天项目完工既成事实以后才发声？到头来还不是罚点钱就收场了？但是对环境的破坏是不可逆转的。这是不是可以理解为只要企业花钱就可以达到目的？ 青山绿水就是金山银山 当时审批的时候就没有考虑过这些问题么？ 好好爱护环境 三亚市天涯区政府棚改办工作人员和律师在答复被拆迁户质问时回答：“一面看海的房屋不算海景房，四面看海才是海景房！”，语出惊人，让人瞠目结舌，心惊肉跳！ 环保真的要重视 房地产还是主力 近海填海建岛，阻隔了洋流，使唤洋流转向，这样当然会破坏原来的生态。 世界上都是海洋面积大，所以填海不算什么 关键是后续你怎么处置？ 发展和环境的平衡很重要，希望政府重视 发展经济的同时也要保护环境，这些海景房都老牛逼了 我只想说，现在想起来了。。。。 其实我觉得要多方面看待这个问题 深圳那边很多都是开山建房，大梅沙小梅沙那边很多都是 环境是第一位 现在要加紧治疗生态环境了么 金山银山不如青山绿水 应该加大填海力度，把所有海岸线向大海推进100公里，打造一个新海南！这样可以建更多房子，卖更多的钱！ 关注生态环境，保护我们的地球家园 应该加大填海力度，把所有海岸线向大海推进100公里，打造一个新海南！ 填海不是很正常吗？那么对海滨城市的建设不都是最后靠填海外扩吗 两手抓，两手都要硬啊 有这种事情还是可惜了 发展确实会影响到环境，需要保护的同时也要看看怎么补救 深圳填这么多也没查过，海南撞枪口上了 哪里不是向海要地？ 严查！ 谁负责？ 海景房，也要保护环境，谨慎发展 人与自然和谐发永远是城市建设的永恒话题 这是稀缺资源了 经济的发展和环境的保护要找到一个平衡点，尽量能两手抓 海南电动车、摩托车可以不用遵守交规没人管 环节保护是重点 7536 海南是个好地方，每年过年都会去那里 呵呵，谷歌EARTH， 好好保护环境吧 现在是越来越重视环保了呢 环境与经济平衡发展，不能偏颇 环境与城市和谐发展一直是城市建设的永恒话题 这地图感觉好高大上有点大片的赶脚 填海无非是带动房地产的增长，带动GDP的增长，只要不影响环境，还是可以支持的 房地产挂帅 希望发展和环保和谐吧 永远都有新的海景房 我前年开的海景就这样被挡住了 台风也会跑去广西 我咋觉得填的好看些呢 你去一次绝对不想去第二次，景色和空气那绝对的好，但是那的人就差远了，尤其东北人在那的特别多，吃住玩都特别贵，你去一趟海南够你去泰国3次的 国际旅游岛啊土豪能不高消费么？你觉得贵我们土著是吃空气饱的你不知道。如果你买房保证一定天天住在这吹牛逼赚钱又回大陆。 全世界那么多人工岛，相信能处理好发展和环境的关系 海口二十左右度，三亚二十多度 责任人被抓起来了吗，否则没用 有的垄断企业，领导岗位放个狗也挣钱。 一个项目多少钱？ 去年去海南旅游，感觉海南还不错。 海花岛、日月湾等房地产填海项目也不是一天两天了为什么环保部不在项目初建时制止查处，要到今天项目完工既成事实以后才发声？到头来还不是罚点钱就收场了？但是对环境的破坏是不可逆转的。这是不是可以理解为只要企业花钱就可以达到目的？ 腐败没办法。 我想去海南看看我们祖国的海岸线 海南现在的温度应该不冷不热吧，打算这段时间去海南 正常的填海到没什么，关键是不能破坏环境 海南岛有着得天独厚的生态环境。 发展重要，生态也平衡 就是应该严厉处置，你们觉得海里的房子能质量保证多少年？ 三亚一年短裤内裤上街没人查 弄的好高科技啊 保护环境人人有责 就没有一个两全的方案吗。 严惩主要责任人 打算去海南过年了 我相信有钱就能摆平，恒大牛 这些个市县领导要追职 那管不着，只要卖了就行。 青山绿水就是金山银山 环保我们要重视起来 我看到了谷歌地图 发展与保护不是对立的，关键在于政府扮演的角色，现目前还能调整的赶紧调整，已经开展的工程加紧修复环境工作。加大资金投入到保护环境的工作上，既要金山银山更要绿水青山。 大连也是填海崛起的呢 科学的可持续发展才是王道 南海填成海南 听说七十年 海南是不是经常有台风啊？ 好几年没去海南旅游了 真的是为了利益可以不顾任何一切啊！ 卫星高科技厉害了 冬天还想去三亚住几天 靠海吃海新招数 海花岛，海上的童话世界。 在土地资源匮乏的时候，向海要地也是一项很有思想的想法 那你把海南恢复成解放前多好 人和自然应该和谐相处。 生态环境保护义不容辞，希望大家能够关注与参与 只要有良好的规划，以一个新面貌来带给我们惊喜。 什么事情都是两面性的，这个不好说。 社会经济发展带来必然产物 变化是挺大的，不过我倒是感觉从样子上变好看了，勿喷啊，我不是太了解这些东西 说法太片面了。经济发展都有优缺点。 环境问题确实重要，毕竟可持续发展才是真正的发展嘛 城市发展和环境保护同步进行！ 这房指定爽啊，真正的海景房 发展的同时还是要注意保护生态才对 应该看这个项目谁批的吧 现阶段要做到人与自然和谐共生着实不易 保护生态还是要继续加强的啊 这就需要求一个好滴平衡点，所有事都不能一概而论 之前不是鼓励填海造陆的吗，记得中学地理课本上还写了 打算去海南度个假 相信建设和环保能协调好的 国家应该出台政策保护地球保护海洋人人有责 哈哈，填啊填，我左边填到越南岛，填啊填，右边填到菲律宾 海南还是得好好保护 现在其实破坏环境的很多，但是现在的科技这么发达，科学开发也不是不可能 其实挺漂亮啊 吹沙造岛 真想去那边看看，填海是拿什么填的 再怎么说人家使用实力说话，有能耐你也把中国足球带到亚冠啊 相信可持续发展，为了中国综合国力提升努力，加快现代化进程 环境保护要及时跟上做好，要为子孙后代造福 小编你这写的是真的假的呀 合理开发，可持续发展。 不管怎么说，保护生态系统平衡还是很重要的！！ 发展经济和环保一直困扰着这个社会 环境和经济发展谁说的清楚，我比较看重经济发展 房地产带动了海南的经济发展只要不破怪生态就行 经济的发展与环境的保护在当今中国社会还是处于矛盾之中，怎么样才能和谐共处还需要全社会的共同努力。 这也是为了发展经济呀 相互选择，都不会选错的。期待 主要是适度，可以有一些，但是环境更重要 谁批的项目？调走或没调走是不是都该问责？ 确实还好好整整，但也不能全盘否定，毕竟经济的发展也是需要的 做一个有良心的开发商 不能以牺牲环保为代价来求当地的发展 房子正在建设中相中能处理好与周围环境的关系的毕竟是这么大的公司有保障 保护环境，人人有责！守护好我们美丽的家园！ 如果世界各国不阻止中国可以填平全世界的海洋 生态不容破坏，为后代留下青山绿水 确实需要审慎对待，马虎不得。 地区要发展肯定是要牺牲点环境，但具体的度要把控好，过度了肯定是不行的 海南岛啊。。。。这让本地人何地何从 海南是个好地方，多和海南要地啊，多多开发 不能破环境啊，真是的 青山绿水，福吉子孙后代。 人与自然到底怎样才能和谐相处，说着容易，做着难 那些污染环境的就该接受正义的制裁，不可竭泽而渔的道理不懂么 我地理学的不好，来，小编给我讲一讲海岸线你是怎么量的？ 海南正经历历史性的建设，翻天覆地的变化必不可少，机会很多 环境和发展要同步，破坏而发展不可取 发展有两面性，带动当地经济的同时，也可能会产生类似这种坏的结果，主要的还是要保证平衡！ 海南的生态问题还是需要好好保护啊，不要为了发展而牺牲生态啊 真的要重视生态保护了 填海造土恒大创举 金山银山不如绿水青山 不应该破坏环境寻求发展的 青山绿水就是钱！给子孙后代留下一片蓝天！ 规划好了，前途一片都市，阔我海岸边界 保护环境人人有责，加大管理力度！ 生态大省被房地产开发商蚕食 金山银山比不了青山碧水 海南岛快成第二个东北了 经济跟环境相适应是现在时代大发展的经济规律，不按照规律办事总会收到惩罚的。经济发展还是要从实际出发。 绿水青山才是给子孙后代的金山银山 经济发展，有利有弊 好的环境，可以造就美好的生活，支持。 希望这次能引起相关部门的重视，尽快恢复好生态环境！ 要金山银山更要绿水青山前人栽树后人乘凉支持环保 环保是我们每一个人的事！利国利民的好事！ 人与自然要和谐共处，才能永久发展 既要发展经济，也要保护好生态自然环境，这两个东西是矛盾统一的，如何统一就需要智慧去探索啦。 破坏环境就是毁灭自己，千万不要断了自己的后路 海南的发展又要进一步了，但是希望还是能好好保护好本地的生态啊 房地产开发与环保并不冲突 确实应当严抓严控 环保是国家大事，企业也应该当成大事，就像恒大一样。 唉，谁为此负责，做一个有良心的人。 大家一起爱护环境，共建美好家园。 你懂工程吗，还有跨海大桥呢，也没见踏呀，不懂就别说 以保护环境为前提再发展啊 保护环境，确实应该得到重视 就是应该严厉处置，你们觉得海里的房子能质量保证多少年？ 应该合理的开发，当然不能破坏生态环境 要地是一回事，我觉得应该做好环保工作，让海南可持续发展 只有海南是这样吗？不见得吧，沿海这么多省份都好好查一遍，相信会有更多发现 海南是我国重要战防要地 不能以牺牲环境来换。 眼光超前 经济发展，不能以牺牲环境为代价 其实这个就是看政府如何监管了，毕竟企业也要看政府脸色看，支持环保 发展重要，生态环保更重要！ 发展经济是好的，但不能盲目的发展。 深圳不也是填海的 环保是整个国家的事，希望环境越来越好 想要发展，但更应要保护环境，国家应加大管理力度。 确实不应该以破坏生态来寻求发展 至少带动了当地经济，功不可没！ 环境保护也是迫在眉睫的问题啦不然哪来的将来呢 破坏自然生态，大自然会给你们送礼物的 两年前我就预见有这个结果。 去看了他们几个楼盘，项目的绿化和市政做的不错， 不注重生態綠貌結果都難以吸引大眾 开发固然重要，还是要重视环境保护， 与自然和谐共处，环保部是时候出来当个法官了 经济发展的必然，地产有贡献 第一个是海花岛吧 海南生态环境破坏惊人，不是珊瑚死，人都快不行了，以前的海南人感冒不用吃药一个星期准好，现在的海南人一到冬天85%以上患流感且不打针一星期别想好！ 是该好好管管了 海南这几年的经济都靠房地产振兴 青山依在，绿水长流，这样的环境才能长远发现，环境保护迫切啊！ 保护环境方能福泽后代 问题的关键还是在规划审批部门 ",
        "Total": 2209,
        "Link": "http://comment.news.163.com/news2_bbs/D6K21MBD000187VE.html",
        "Reply": 229
    },
    "Source": "Netease"
}