{
    "URL": "http://ent.163.com/17/1227/17/D6M8I12600038FO9.html",
    "Comment": {
        "Total": 9,
        "Reply": 3,
        "Link": "http://comment.ent.163.com/ent2_bbs/D6M8I12600038FO9.html",
        "Content": "美国队长？ 你是男还是女你想让他和你复合吗去说重新来过 美国队长？ 和她哥复合了把 "
    },
    "Article": "网易娱乐12月27日报道近日，有传出克里斯·埃文斯和珍妮·斯雷特（《天才少女》《疯狂动物城》）的复合消息？虽然还是没有新合影。埃文斯的弟弟斯科特·埃文斯发布了他和斯雷特的合影，称与她一起过圣诞节：“和我最喜欢的犹太人一起过圣诞！”克里斯·埃文斯和斯雷特此前交往一年后在今年2月分手，但10月女方又和男方社交媒体互动，引发复合猜想，也有人称看到他们在亚特兰大（埃文斯在当地拍摄《复仇者联盟3》）一起出街，互动亲密，还有人称他俩和小罗伯特·唐尼夫妇四人约会。近一个月前，两人被媒体称已经复合，且女方已为男方寻找新住所。不过这段关系一直低调，是否复合至今也没有来自双方的确定说法。本文来源：网易娱乐责任编辑：陈恺_NK4686",
    "KeyWords": "克里斯·埃文斯,复合,小罗伯特·唐尼",
    "Source": "Netease",
    "Title": "美队克里斯·埃文斯与女友确认复合？ 弟弟发合影_网易娱乐",
    "PublishTime": "12/27/201717:17:06"
}