{
    "Title": "应采儿晒Jasper新发型 小小春超欢脱高歌向前奔_网易娱乐",
    "URL": "http://ent.163.com/17/1227/11/D6LL0K4N00038FO9.html",
    "KeyWords": "jasper,应采儿,发型",
    "PublishTime": "12/27/201711:35:33",
    "Article": "Jasper新发型截图网易娱乐12月27日报道12月27日，应采儿晒出一则视频，并以儿子Jasper的口吻写道：“出发啦！不知道为什么daddy要在去冷的地方前，带我剪了一个看着就冷的发型？”并切换到自己的视角，吐槽道，“爸爸的思维，妈妈不懂。”视频中Jasper背着一个黄绿蓝色的书包，顶着新理的发型，十分欢脱地向前奔跑，一边跑一边唱着自编的歌曲，整个人那叫一个春光明媚，让人看了心情也会不自觉地变好。本文来源：网易娱乐责任编辑：李彤_NK4455",
    "Comment": {
        "Content": "下回发一清楚点的图 下回发一清楚点的图 ",
        "Total": 3,
        "Link": "http://comment.ent.163.com/ent2_bbs/D6LL0K4N00038FO9.html",
        "Reply": 1
    },
    "Source": "Netease"
}