{
    "URL": "http://news.163.com/17/1228/10/D6O4QQIV000187V9.html",
    "Comment": {
        "Reply": 2,
        "Content": "当初为何要签呢？当时签署是怎么通过的呢？ 多关心关心活着的老百姓吧👍😁 当初为何要签呢？当时签署是怎么通过的呢？ ",
        "Total": 7,
        "Link": "http://comment.news.163.com/news2_bbs/D6O4QQIV000187V9.html"
    },
    "Title": "文在寅就日韩政府慰安妇协议表态:心情很沉重_网易新闻",
    "Source": "Netease",
    "KeyWords": "文在寅,慰安妇,韩国,日本",
    "PublishTime": "12/28/201710:39:00",
    "Article": "（原标题：要被废除？！文在寅严正表态日韩政府慰安妇协议：心情很沉重）【环球网综合报道】韩国外交部专门设立的韩日“慰安妇”问题协议审查专案组于27日公布调查结果。韩联社称，韩国总统文在寅28日对此表示：“虽然该协议是两国首脑达成的政府间正式承诺，但我作为总统和国民一起再次声明，这个协议不能解决慰安妇问题。”青瓦台发言人朴洙贤在吹风会上表示，总统看完韩日慰安妇问题协议工作组(TF)发布的审查结果后，心情很沉重。据报道，这是文在寅首次对工作组(TF)发布的审查结果表态，明确说明韩日两国政府间过去达成的协议不能解决慰安妇问题。有分析认为，这暗示往后有可能会进行再协商乃至废除协议。文在寅还表示，政府将在以受害者为中心、与国民一道的外交原则下，尽快采取后续措施。文在寅称，历史问题按历史问题，在不损害真相和原则的情况下解决。同时，韩日两国在解决历史问题时，为了两国未来的合作，恢复正常外交关系。2015年底，朴槿惠政府和日本政府达成关于解决慰安妇受害者问题的所谓“永久”“不可逆”的协议。协议签署后，引发包括韩国幸存慰安妇受害者群体在内的韩国民众的极大不满。韩国民众称协议为“卖国协议”，并持续举行抗议示威。文在寅执政后也曾表示，相关慰安妇协议不能被大多数国民接受，韩日应共同携手，妥善解决相关问题。本文来源：环球时报-环球网。更多精彩，请登录环球网http://www.huanqiu.com责任编辑：黄哲程_B9302"
}