{
    "Article": "（原标题：海南五指山“月亮帮”涉黑案一审宣判：“帮主”获刑25年）庭审现场。黄叶华图12月29日上午，海南一中院对五指山“月亮帮”涉黑案件进行了一审宣判。该案37名被告，今年11月连续5天公开开庭审理。法院以组织、领导黑社会性质组织罪、故意杀人罪、敲诈勒索罪、强迫交易罪等罪名，数罪并罚，判处主犯黄图望有期徒刑25年，剥夺政治权利4年，并处没收个人财产15万元和罚金2万元；其他36名被告分别被判处有期徒刑23年至缓刑不等，部分被告人并处没收个人财产和罚金。欺行霸市收保护费，插手拆迁工程所谓“月亮帮”，其实是五指山特大涉黑团伙。因为这个“帮主”黄图望额头上有块形似月亮的疤，因此得名“月亮帮”。检察机关起诉书指控：20世纪90年代被告人黄图望等人，在五指山市陆续加入了以蔡某某（另案处理）为首的“黑鬼帮”，2001年因蔡某某被砍伤，该帮人员随之解散。2005年，黄图望返回五指山市，重新纠集社会闲散人员及宗族势力，实施强迫交易、故意伤害、聚众斗殴等犯罪活动。2010年前后，被告人梁某某、王某某等人相继加入该组织，并陆续吸纳了五指山市一批无业青年、在校和辍学学生，形成以黄图望、梁某某为头目，成员有40余人，骨干成员较为固定、层级分明的黑社会性质组织，号称“月亮帮”。该组织大肆实施聚众斗殴、故意伤害、寻衅滋事等犯罪活动，利用组织恶名和势力在五指山市新市场一带开设赌场，通过采取暴力、威胁、滋扰等手段对按摩店、商铺索取“保护费”、替人追债，插手五指山市新市场拆迁工程，非法控制五指山市加气砖市场、吊车市场，非法获取巨额利益。起诉书长达100页庭审持续5天今年9月30日，海南省检察院第一分院对以黄图望为首的“月亮帮”的37人涉嫌组织、领导、参加黑社会性质组织、故意杀人、故意伤害、强迫交易等犯罪一案提起公诉。11月21日至25日，该案在海南省第一中级人民法院开庭审理。据了解，该案涉及黑社会组织成员多达40余人，涉及违法犯罪事实59起，涉及罪名13个。侦查机关专案组经过长达一年的侦查，形成卷宗材料二百余本，公诉机关起诉书长达100页。在长达5天的庭审中，公诉人一改以往“宣读证据”的举证方式，充分运用“出庭一体化平台”，以视听同步播放、图文同步显示、声像同步呼应的方式，讯问了各被告人，出示了被告人供述、证人证言、扣缴的枪支刀具清单等物证、保护费收据等书证、现场勘验笔录及鉴定意见等大量证据材料。12月29日，省一中院一审宣判，“月亮帮”头目黄图望获有期徒刑25年，剥夺政治权利4年，并处没收个人财产15万元，罚金25万元；头目梁某某获有期徒刑23年，剥夺政治权利3年，并处没收个人财产12万元，罚金23万元；其他成员分别获有期徒刑1年至20年不等。本文来源：南海网-南国都市报责任编辑：王征_NN7526",
    "PublishTime": "12/30/201712:40:00",
    "URL": "http://news.163.com/17/1230/12/D6TGL8SU000187VE.html",
    "Comment": {
        "Content": "或许60年前，1楼你的祖先还在挥舞着鞭子抽打着佃户的脊背，让他们赶紧交租。或许在工厂的办公室计算着从工人手上又压榨出多少钱。或许拿着枪从各地抓着劳力让他们骨肉分离去充当炮灰。但是从1949年，这一切成为了历史。虽然你的含沙射影出你高级黑的本事，但是这是当时四万万五千万中国人的选择。如果不是这个正确的选择，想想现在的台湾，我觉得我现在的生活很好，我感谢我的祖国。 脑门有月亮的不止你一个人家怎么就名垂青史了 对这帮那么的就得用83年的好办法进行彻底铲除！ 现在发展到第五代了怎么管 还有一个“太阳帮”你们管不管？早期租条船成立。。。 代表月亮消灭你们，这就是月亮帮的故事 或许60年前，1楼你的祖先还在挥舞着鞭子抽打着佃户的脊背，让他们赶紧交租。或许在工厂的办公室计算着从工人手上又压榨出多少钱。或许拿着枪从各地抓着劳力让他们骨肉分离去充当炮灰。但是从1949年，这一切成为了历史。虽然你的含沙射影出你高级黑的本事，但是这是当时四万万五千万中国人的选择。如果不是这个正确的选择，想想现在的台湾，我觉得我现在的生活很好，我感谢我的祖国。 脑门有月亮的不止你一个人家怎么就名垂青史了 应该全部杀掉 对这帮那么的就得用83年的好办法进行彻底铲除！ 现在发展到第五代了怎么管 还有一个“太阳帮”你们管不管？早期租条船成立。。。 四大名爹唱的“我爱万泉河我爱五指山”音犹在耳！ 代表月亮消灭你们，这就是月亮帮的故事 ",
        "Link": "http://comment.news.163.com/news2_bbs/D6TGL8SU000187VE.html",
        "Total": 68,
        "Reply": 8
    },
    "Source": "Netease",
    "Title": "海南\"月亮帮\"涉黑案一审宣判:\"帮主\"获刑25年_网易新闻",
    "KeyWords": "罚款,涉黑案,起诉书"
}