{
    "Article": "（原标题：老母30年后见到被拐女儿：我的乖乖肉）#endText.video-infoa{text-decoration:none;color:#000;}#endText.video-infoa:hover{color:#d34747;}#endText.video-listli{overflow:hidden;float:left;list-style:none;width:132px;height:118px;position:relative;margin:8px3px0px0px;}#entText.video-lista,#endText.video-lista:visited{text-decoration:none;color:#fff;}#endText.video-list.overlay{text-align:left;padding:0px6px;background-color:#313131;font-size:12px;width:120px;position:absolute;bottom:0px;left:0px;height:26px;line-height:26px;overflow:hidden;color:#fff;}#endText.video-list.on{border-bottom:8pxsolid#c4282b;}#endText.video-list.play{width:20px;height:20px;background:url(http://img1.cache.netease.com/video/img14/zhuzhan/play.png);position:absolute;right:12px;top:62px;opacity:0.7;color:#fff;filter:alpha(opacity=70);_background:none;_filter:progid:DXImageTransform.Microsoft.AlphaImageLoader(src=\"http://img1.cache.netease.com/video/img14/zhuzhan/play.png\");}#endText.video-lista:hover.play{opacity:1;filter:alpha(opacity=100);_filter:progid:DXImageTransform.Microsoft.AlphaImageLoader(src=\"http://img1.cache.netease.com/video/img14/zhuzhan/play.png\");}if(/(iPhone|iPad|iPod|Android|NETEASEBOBO|blackberry|bbd+)/ig.test(navigator.userAgent)||/safari|chrome|firefox/i.test(navigator.userAgent)&&navigator.plugins&&!navigator.plugins[\"ShockwaveFlash\"]){varstr1='<videocontrols=\"controls\"preload=\"auto\"width=\"100%\"poster=\"http://vimg3.ws.126.net/image/snapshot/2018/1/4/I/VD681664I.jpg\"style=\"max-height:100%\">';varstr2='<sourcetype=\"video/mp4\"src=\"http://flv.bn.netease.com/videolib3/1801/02/dQESU8426/SD/dQESU8426-mobile.mp4\">您的浏览器暂时无法播放此视频.</video>';document.getElementById(\"FPlayer1404863609673\").parentNode.innerHTML=str1+str2;}老母30年后见到被拐女儿：我的乖乖肉（来源：~）window.NTES&&function(d){varf=function(c){varb=c.getAttribute(\"flashvars\"),a=c.getAttribute(\"repovideourl\").replace(\".flv\",\"-mobile.mp4\");h=d(c.parentNode.parentNode.parentNode),g='<embedsrc=\"http://v.163.com/swf/video/NetEaseFlvPlayerV3.swf\"flashvars=\"'+b+'\"allowfullscreen=\"true\"allowscriptaccess=\"always\"quality=\"high\"wmode=\"opaque\"width=\"100%\"height=\"100%\"type=\"application/x-shockwave-flash\"/>';if(/(iPhone|iPad|iPod|Android|NETEASEBOBO|blackberry|bbd+)/ig.test(navigator.userAgent)){g='<videocontrols=\"controls\"preload=\"auto\"width=\"100%\"height=\"100%\"><sourcetype=\"video/mp4\"src=\"'+a+'\">您的浏览器暂时无法播放此视频.</video>';}h.$(\".video\")[0].innerHTML=g;},e=function(b){vara=d(b.parentNode.parentNode.parentNode);a.$(\"li\").removeCss(\"on\"),b.addCss(\"on\"),a.$(\".video-title\")[0].innerHTML=\"string\"==typeofb.textContent?b.textContent:b.innerText,a.$(\".video-title\")[0].setAttribute(\"href\",b.getAttribute(\"url\")),a.$(\".video-from\")[0].innerHTML=\"（来源：\"+b.getAttribute(\"source\")+\"）\",f(b);};window.continuePlay=function(){vara,b=d(d(\".video-list.on\")[0].nextSibling);3==b.nodeType&&(b=d(b.nextSibling));if(b&&d(\".video-innerinput\")[0].checked){e(b);}},function(){vara={init:function(){if(d(\".video-listli\")[0]){d(d(\".video-listli\")[0]).addCss(\"on\"),this.eventBind();}},eventBind:function(){d(\".video-listli\").addEvent(\"click\",function(b){e(d(this)),b.preventDefault();});}};a.init();}();}(NTES);2017年12月29日，江苏南京，陈桂华终见阔别30多年的母亲和哥哥。陈桂华18岁时被人贩子拐到安徽，儿女长大后凭记忆想找回老家，终在派出所民警帮助下找到亲人。本文来源：澎湃新闻责任编辑：范姜国一_NN9138",
    "Title": "老太时隔30年见到被拐女儿:我的乖乖肉总算回来了_网易新闻",
    "PublishTime": "01/02/201818:33:30",
    "Source": "Netease",
    "Comment": {
        "Content": "人贩子可恶、可恨！ 人贩子呐？遭报应死了没？ 恕我直言看到这句话我也乐了本来是个感动事情 巡#視讲的那个爱存不存的银行近親繁#殖严偅 人贩子就应该死刑，买卖同罪。千万不要再有人说什么人贩子死刑孩子就危险的智障言论了，说这话的时候先动动脑 18虽被拐骗，凭着什么记忆。。。。。 老妈妈都驼背白发苍老，听到女儿的名字还能马上意识到是自己女儿～～ 被拐的女儿回来已经快五十了，她也是老母亲的乖乖肉啊～泪目了～ 贩、买同罪！！ 看哭了 身为安徽人，我都生气，不论哪里的人贩子该枪毙！！！！ 视频中说当年精神不佳，可能有精神障碍。 人贩子该重判！ 养父母呢？ 感人至深 每每看到这个样泪止不住的流 说那种话的就是人贩子的同党，此地无银三百两，刚好一起枪毙 养父母？直接卖给人家当媳妇了 还算幸运，自己母亲有生之年还能见到她！最怕最后找到了，与亲人阴阳两隔了！ 买和卖都不得好死 当时当年还是小儿童，没有陪你玩耍，没有看你成长，在心中永远是乖乖肉…… 该死的人贩子 唉，看不得这种新闻，难受😭 母女分别30年是什么感受。人贩子就应该枪毙！ 人贩子怎么能枪毙呢？凌迟多好啊！ 骨肉分离，人间至痛！！ 乖乖肉[大哭][大哭][大哭] 人贩子真的应该死刑！ 人贩子，杀！！！！ 假大空民族啊应该清洗 该死的人贩子，给别人带来多大痛苦。 卧槽，老太一句乖乖肉把我看哭了 该死的人贩子，不得好死，报应生生世世，永不轮回，下18层地狱，全身溃烂死 有些罪行不能容忍！必须以最高刑罚！否则没有威慑力，改变很多人一生的幸福！ 最看不得的就是老泪纵横！ 说是“世界第二大经济体、崛起现代化富强国”，但经常会出现弃婴、婴儿买卖、拐卖人口等这些残忍而古老的罪行。。。。。百思不得其解~~ 千刀万剐难解心头恨！ 你们没注意到18岁被拐卖凭记忆找回这几个关键字么.... 那还是养大了啊，不管了？ [大哭] 恕我直言看到这句话我也乐了本来是个感动事情 看哭了 每每看到这个样泪止不住的流 巡#視讲的那个爱存不存的银行近親繁#殖严偅 有可能是灌药以后的后遗症，毕竟当年买她的是她闺女的爹 哭了 养父母呢？ 18虽被拐骗，凭着什么记忆。。。。。 千刀万剐难解心头恨！ 说那种话的就是人贩子的同党，此地无银三百两，刚好一起枪毙 还算幸运，自己母亲有生之年还能见到她！最怕最后找到了，与亲人阴阳两隔了！ 该死的人贩子 唉，看不得这种新闻，难受😭 人贩子呐？遭报应死了没？ 人贩子怎么能枪毙呢？凌迟多好啊！ 该死的人贩子，不得好死，报应生生世世，永不轮回，下18层地狱，全身溃烂死 假大空民族啊应该清洗 18啦，成人啦 该死的人贩子，给别人带来多大痛苦。 卧槽，老太一句乖乖肉把我看哭了 当时当年还是小儿童，没有陪你玩耍，没有看你成长，在心中永远是乖乖肉…… 有些罪行不能容忍！必须以最高刑罚！否则没有威慑力，改变很多人一生的幸福！ 我是个男人，我哭了！！！三十年啊，一辈子啊！！！！一个母亲失去了他的儿子，一些杂碎就为了几张钞票，杀人不过头点地，但这是杀心啊！！！杀了一个母亲的心！这痛苦比要了她的命要痛苦百倍！！！！！ 你们没注意到18岁被拐卖凭记忆找回这几个关键字么.... 为啥不修改法律人贩子贩卖一个无期，贩卖二个以上枪毙，估计就会杜绝很多悲剧 人贩子可恶、可恨！ 希望你朋友的女儿早点找回来 嫩孩儿真范儿、回来我请他吃饭 人贩子就应该死刑，买卖同罪。千万不要再有人说什么人贩子死刑孩子就危险的智障言论了，说这话的时候先动动脑 老妈妈都驼背白发苍老，听到女儿的名字还能马上意识到是自己女儿～～ 贩、买同罪！！ 人贩子，杀！！！！ 身为安徽人，我都生气，不论哪里的人贩子该枪毙！！！！ 视频中说当年精神不佳，可能有精神障碍。 人贩子该重判！ 被拐的女儿回来已经快五十了，她也是老母亲的乖乖肉啊～泪目了～ 养父母？直接卖给人家当媳妇了 人贩子要判死刑啊，而且要打一梭子子弹，收三十倍子弹费。 18了，还回不去啊？ 感人至深 母女分别30年是什么感受。人贩子就应该枪毙！ 骨肉分离，人间至痛！！ 乖乖肉[大哭][大哭][大哭] 人贩子真的应该死刑！ 买和卖都不得好死 最看不得的就是老泪纵横！ 说是“世界第二大经济体、崛起现代化富强国”，但经常会出现弃婴、婴儿买卖、拐卖人口等这些残忍而古老的罪行。。。。。百思不得其解~~ 那还是养大了啊，不管了？ [大哭] ",
        "Reply": 49,
        "Link": "http://comment.news.163.com/news_shehui7_bbs/D75RA7HC0001875P.html",
        "Total": 1084
    },
    "KeyWords": "人贩子,安徽,拐卖",
    "URL": "http://news.163.com/18/0102/18/D75RA7HC0001875P.html"
}