{
    "Source": "Netease",
    "KeyWords": "中国海军,特种部队,反恐,蛟龙突击队",
    "Title": "中国海军特种部队发宣传片:包括破袭作战实施斩首_网易新闻",
    "PublishTime": "12/25/201709:08:00",
    "URL": "http://news.163.com/17/1225/09/D6G8PV4B000187VE.html",
    "Article": "（原标题：视频丨中国海军特种部队首部官方宣传片发布）#endText.video-infoa{text-decoration:none;color:#000;}#endText.video-infoa:hover{color:#d34747;}#endText.video-listli{overflow:hidden;float:left;list-style:none;width:132px;height:118px;position:relative;margin:8px3px0px0px;}#entText.video-lista,#endText.video-lista:visited{text-decoration:none;color:#fff;}#endText.video-list.overlay{text-align:left;padding:0px6px;background-color:#313131;font-size:12px;width:120px;position:absolute;bottom:0px;left:0px;height:26px;line-height:26px;overflow:hidden;color:#fff;}#endText.video-list.on{border-bottom:8pxsolid#c4282b;}#endText.video-list.play{width:20px;height:20px;background:url(http://img1.cache.netease.com/video/img14/zhuzhan/play.png);position:absolute;right:12px;top:62px;opacity:0.7;color:#fff;filter:alpha(opacity=70);_background:none;_filter:progid:DXImageTransform.Microsoft.AlphaImageLoader(src=\"http://img1.cache.netease.com/video/img14/zhuzhan/play.png\");}#endText.video-lista:hover.play{opacity:1;filter:alpha(opacity=100);_filter:progid:DXImageTransform.Microsoft.AlphaImageLoader(src=\"http://img1.cache.netease.com/video/img14/zhuzhan/play.png\");}if(/(iPhone|iPad|iPod|Android|NETEASEBOBO|blackberry|bb\\d+)/ig.test(navigator.userAgent)||/safari|chrome|firefox/i.test(navigator.userAgent)&&navigator.plugins&&!navigator.plugins[\"ShockwaveFlash\"]){varstr1='<videocontrols=\"controls\"preload=\"auto\"width=\"100%\"poster=\"http://vimg3.ws.126.net/image/snapshot/2017/12/6/0/VD5IGCI60.jpg\"style=\"max-height:100%\">';varstr2='<sourcetype=\"video/mp4\"src=\"http://flv.bn.netease.com/videolib3/1712/25/yCIAT6441/SD/yCIAT6441-mobile.mp4\">您的浏览器暂时无法播放此视频.</video>';document.getElementById(\"FPlayer1404863609673\").parentNode.innerHTML=str1+str2;}中国海军特种部队首部官方宣传片发布（来源：~）window.NTES&&function(d){varf=function(c){varb=c.getAttribute(\"flashvars\"),a=c.getAttribute(\"repovideourl\").replace(\".flv\",\"-mobile.mp4\");h=d(c.parentNode.parentNode.parentNode),g='<embedsrc=\"http://v.163.com/swf/video/NetEaseFlvPlayerV3.swf\"flashvars=\"'+b+'\"allowfullscreen=\"true\"allowscriptaccess=\"always\"quality=\"high\"wmode=\"opaque\"width=\"100%\"height=\"100%\"type=\"application/x-shockwave-flash\"/>';if(/(iPhone|iPad|iPod|Android|NETEASEBOBO|blackberry|bb\\d+)/ig.test(navigator.userAgent)){g='<videocontrols=\"controls\"preload=\"auto\"width=\"100%\"height=\"100%\"><sourcetype=\"video/mp4\"src=\"'+a+'\">您的浏览器暂时无法播放此视频.</video>';}h.$(\".video\")[0].innerHTML=g;},e=function(b){vara=d(b.parentNode.parentNode.parentNode);a.$(\"li\").removeCss(\"on\"),b.addCss(\"on\"),a.$(\".video-title\")[0].innerHTML=\"string\"==typeofb.textContent?b.textContent:b.innerText,a.$(\".video-title\")[0].setAttribute(\"href\",b.getAttribute(\"url\")),a.$(\".video-from\")[0].innerHTML=\"（来源：\"+b.getAttribute(\"source\")+\"）\",f(b);};window.continuePlay=function(){vara,b=d(d(\".video-list.on\")[0].nextSibling);3==b.nodeType&&(b=d(b.nextSibling));if(b&&d(\".video-innerinput\")[0].checked){e(b);}},function(){vara={init:function(){if(d(\".video-listli\")[0]){d(d(\".video-listli\")[0]).addCss(\"on\"),this.eventBind();}},eventBind:function(){d(\".video-listli\").addEvent(\"click\",function(b){e(d(this)),b.preventDefault();});}};a.init();}();}(NTES);中国海军特种部队，使命任务包括：破袭作战，引导和打击、夺控要点，实施斩首、海上护航和反恐等。他们还有一个更响亮的名字——《蛟龙突击队》。本文来源：当代海军责任编辑：邵小波_NN2479",
    "Comment": {
        "Content": "很燃很燃！ 我军威武，点赞！ 中国山寨只是皮毛。说出去也不怕笑掉大牙，再说山寨就山寨吧，还解释一大堆。 把蔡头蝇斩了吧 斩谁？ 崔牛，试问，除了同胞，你们斩过谁？ 爱我中华 那个穿着红衣服的黄色小熊。 2楼，问题多也是不听话哟！ 台独实际上是很傻的思维，如果我是台湾之首，我肯定想，即然我也是炎黄子孙，我为何不能坐镇半壁江山？ 那为啥还要摸着石头过河咧？ 你好傻逼 多宣传，就算没斩了蔡英文也要把她吓出尿尿来 菜鸡受死！ 我相信当国家真的有难时，绝大多数还是会像我一样奋起反抗。而你们这些人也就外网网上过过嘴瘾 瞄准镜抖的厉害，肯定打的准！ 其实台独都是一帮胆小如鼠的草包，只要斩了她们几个主要的，才能平息台独，杀鸡敬猴 这配乐我也是服了。山寨人家老美的2017年美国海军宣传片震撼来袭……大家可以去看看 斩谁你不知道？除了斩蔡英文还有谁 大家可以看看，百度一下：厉害了，2017年美军武力宣传大片震撼来袭！ 比如你a片看得再多也了解各种姿势，但是你始终不是亲身体验不会明白其中滋味的。所以得靠自己去摸！！！！！😀😄 特种部队？？那瞄准镜… 宣传片永远都那么剪辑混乱还有镜头重复的，配乐还偷别人的。。 人家山寨能超越原创就是一种成功，像🐔国这样总搞些质量低劣不伦不类的拼装山寨货，就是一种彻彻底底的失败 就那破枪再加个瞄准镜，醉了 不是我看错了吧，几个镜头开枪上面的瞄准镜都快晃掉下来了 这宣传视频的像素怎么这么模糊？最关键的是背景音乐和宣传片内容完全不搭边，一股浓浓的山寨气息。 看的尴尬症都犯了，2017年了，还装备90年代装具...,都不知道说什么了 以后跟朝鲜看齐了 音乐都剽窃美国的是吗懒惰到如此地步呵呵 不听话滴 二楼好狗 同样是海军陆战队，单兵作战装备跟西方国家比简直就是一个天上一个地下，军费世界第三的国家，这单兵作战装备就不能整先进一点？？ 兵是好兵，可真的看不了这武器装备95加瞄具得伸着脖子瞄准。 当汶川大地震时候央视整天盗用《mass》配背景音的时候真的忍不住了。。。。。 屁民 我们不与国际接轨，下一个问题，谢谢！ 山寨美国说明也是往好的方向发展啊！再说论山寨！美国算是山寨之父！日本也算是山寨之母了！看看以前美国是怎么山寨欧洲！日本怎么山寨美国！就知道中国的山寨只是皮毛而已啦！ 先不说大家都看到的配乐，直接说其它的，大家看到有什么高科技的装备和产物吗？咱们的人可以操练到极致，但这种装备和老美对干，那就得用人命去填了。 浓浓地乡土气息 50多秒的时候，那瞄准镜怎么晃动？强军目标还很遥远呀 主要在那个热血的年龄比较喜欢的一首配乐。。。。。就跟某年回老家在老家的网吧看见一少年循环播放《爱情买卖》几小时一个样。。。。 努比亚你好呀 5000年历史告诉你想坐半壁江山的永远只能当孙子。要坐就坐整个江山。 有想法 我相信当国家真的有难时，绝大多数还是会像我一样奋起反抗。而你们这些人也就外网网上过过嘴瘾 嘿嘿嘿 U.S.Navy中国分遣队？？？ 50多秒的时候，那瞄准镜怎么晃动？强军目标还很遥远呀 看那破枪 瞄准镜在晃动[大笑][大笑][大笑][大笑] 一开枪那个瞄准镜晃的嗷嗷叫，祖国还需加油啊 长按shift屏息 你在那么悲惨的时候关注点这么与众不同…… 把国军叫台军的，就是台独 大家可以看看，百度一下：厉害了，2017年美军武力宣传大片震撼来袭！ 特种部队？？那瞄准镜… 宣传片永远都那么剪辑混乱还有镜头重复的，配乐还偷别人的。。 我们要美囯军事顾问，你有吗？ 看的尴尬症都犯了，2017年了，还装备90年代装具...,都不知道说什么了 其实什么都好，就是突击步枪该换了……有些落后了！ 国外的狙击枪也是有晃动的... 比如你a片看得再多也了解各种姿势，但是你始终不是亲身体验不会明白其中滋味的。所以得靠自己去摸！！！！！😀😄 当汶川大地震时候央视整天盗用《mass》配背景音的时候真的忍不住了。。。。。 我是台湾之首，肯定不会台独，我会去大陆商讨统治权，全国四六开的 笑掉大牙 战狼出洞，要不去中东试试?看IS干得了几个 看电影吗 抢滩登陆 不听话滴 为什么找的制作单位这么业余？ 不是我看错了吧，几个镜头开枪上面的瞄准镜都快晃掉下来了 我们不与国际接轨，下一个问题，谢谢！ 人家山寨能超越原创就是一种成功，像🐔国这样总搞些质量低劣不伦不类的拼装山寨货，就是一种彻彻底底的失败 崔牛，试问，除了同胞，你们斩过谁？ 斩谁？ 知道日本人后裔，叫唤什么一统啊， 其实台独都是一帮胆小如鼠的草包，只要斩了她们几个主要的，才能平息台独，杀鸡敬猴 2楼，问题多也是不听话哟！ 现在的台军是国军? 中国没有像样的海军特种部队，，像美军的海豹那种！！那些丛林里的片段，，穿的是陆军的衣服，，估计只是怕被网友们喷！临时穿一下而已！其实，，海军特种部队，，只有黑色战斗服，，和海洋迷彩，，有的时候穿的还是海军陆战队的衣服！！ SB 看着95太恶心了！！ 哈哈哈 关键人家是小日本后裔 梦没醒呢，是你的速度快还是人家核按钮的速度快？ SB 这配乐我也是服了。山寨人家老美的2017年美国海军宣传片震撼来袭……大家可以去看看 那为啥还要摸着石头过河咧？ 哈哈哈哈 就那破枪再加个瞄准镜，醉了 以后跟朝鲜看齐了 台独实际上是很傻的思维，如果我是台湾之首，我肯定想，即然我也是炎黄子孙，我为何不能坐镇半壁江山？ 瞄准镜抖的厉害，肯定打的准！ 麻烦解释下 早料到你会有这一手，明天就给你派个书记过去 同样是海军陆战队，单兵作战装备跟西方国家比简直就是一个天上一个地下，军费世界第三的国家，这单兵作战装备就不能整先进一点？？ 帅气 山寨美国说明也是往好的方向发展啊！再说论山寨！美国算是山寨之父！日本也算是山寨之母了！看看以前美国是怎么山寨欧洲！日本怎么山寨美国！就知道中国的山寨只是皮毛而已啦！ 看着就是摆拍没有气质 说真心话这宣传片看起来还不如缅甸特种部队宣传片 一股乡土气息扑面而来 很燃很燃！ 日本人杀了要引起国际纠纷 給弯弯人民看的 你好傻逼 多宣传，就算没斩了蔡英文也要把她吓出尿尿来 😂😂😂hahah 二楼好狗 快杀英，她出来就想吐！ 挡路的 都去新疆试试 演习有个毛用 能不能来点实在的？ 那瞄准镜，打一下抖一下，绝了 瞄准镜开枪时竟然晃动了 音乐都剽窃美国的是吗懒惰到如此地步呵呵 这特么狗屎配音 朝鲜几年前就能斩奥巴驴了 真实的陆战队真有步兵用的120和08火箭筒？还有榴弹发射器？有没有陆战队的说一下？ ？？战争血腥的不是审核能通过了吗 不听话滴 不是武警就好 台独是傻逼思考，这么一个紧贴大陆的小岛折腾什么呀，不讲军事，论经济发展，都离不开大陆，台独者何不想：即然你们口称，台湾也是中国人，何不来大陆争权夺利呢？ 为何感觉好乱 斩谁？ 其实台独都是一帮胆小如鼠的草包，只要斩了她们几个主要的，才能平息台独，杀鸡敬猴 那个穿着红衣服的黄色小熊。 为我们强大的祖国骄傲 狙击镜开个枪都晃的不要不要的，能不能专业点 这宣传视频的像素怎么这么模糊？最关键的是背景音乐和宣传片内容完全不搭边，一股浓浓的山寨气息。 菜鸡受死！ 这配乐我也是服了。山寨人家老美的2017年美国海军宣传片震撼来袭……大家可以去看看 室传 斩谁你不知道？除了斩蔡英文还有谁 把蔡头蝇斩了吧 我军威武，点赞！ 台独实际上是很傻的思维，如果我是台湾之首，我肯定想，即然我也是炎黄子孙，我为何不能坐镇半壁江山？ 恭喜你有个猪一样的思维！ 先不说大家都看到的配乐，直接说其它的，大家看到有什么高科技的装备和产物吗？咱们的人可以操练到极致，但这种装备和老美对干，那就得用人命去填了。 一帮瞎逼逼的喷子，不服来战。荒野求生ＰＣ版 两个镜头都显示开枪后瞄准镜晃动的很厉害。在抖 浓浓地乡土气息 山寨美国说明也是往好的方向发展啊！再说论山寨！美国算是山寨之父！日本也算是山寨之母了！看看以前美国是怎么山寨欧洲！日本怎么山寨美国！就知道中国的山寨只是皮毛而已啦！ 不放找蔡英文才能显示出你们的技能！ 嗯，也只能是宣传片 几个兵兵跑来跑去。 兵是好兵，可真的看不了这武器装备95加瞄具得伸着脖子瞄准。 不听话滴 依旧加强版步兵水准 斩谁？ 爱我中华 特种部队为啥还用QBZ95 室传 ",
        "Reply": 106,
        "Link": "http://comment.news.163.com/news2_bbs/D6G8PV4B000187VE.html",
        "Total": 1032
    }
}