{
    "Source": "Netease",
    "Title": "为响应华人观看 \"芳华\"将在美加地区增加扩映影院_网易娱乐",
    "Comment": {
        "Link": "http://comment.ent.163.com/ent2_bbs/D6L6UFH600038FO9.html",
        "Content": "你去电影院看没？我，没去 影片不错挺感人的，走心的好片子 崇左有电影院吗？你爱去不去 3楼也是够可怜的 1,3楼的二位你们别去看，全片没什么打斗场面，而且看这种电影是要用心去欣赏，用脑子去思考的，这两样你们都没有，省点钱等看全程打斗，简单一点无需思考的战狗3吧 我也去了 早去啦老人、中年人，学生都有 去了影院满座 你第一个想到的是大腿那还是不要去看了 本来想去，看见你说满座，我还是不去了，看露个大腿，何需跑去影院 昨天去电影院看了，很好，好的不像是冯小刚的电影 1,3楼的二位你们别去看，全片没什么打斗场面，而且看这种电影是要用心去欣赏，用脑子去思考的，这两样你们都没有，省点钱等看全程打斗，简单一点无需思考的战狗3吧 你去电影院看没？我，没去 很压抑 冯小刚满肚子牢骚，100多分钟都没有吐完，大概率有芳华2。 崇左有电影院吗？你爱去不去 我怎么觉得妖猫传好看呢 影片不错挺感人的，走心的好片子 是不是删减版的？ 3楼也是够可怜的 那边不是删减版吧，想看全部 我也去了 早去啦老人、中年人，学生都有 去了影院满座 你第一个想到的是大腿那还是不要去看了 本来想去，看见你说满座，我还是不去了，看露个大腿，何需跑去影院 ",
        "Reply": 16,
        "Total": 121
    },
    "URL": "http://ent.163.com/17/1227/07/D6L6UFH600038FO9.html",
    "PublishTime": "12/27/201707:29:43",
    "Article": "《芳华》截图网易娱乐12月27日报道12月27日凌晨，冯小刚通过微博发文称：“受北美发行公司之托转发，为响应华人观众观看《芳华》之呼声，决定在美加地区增加扩映影院。”网友们纷纷评论道：“很喜欢芳华，承载着一代人的回忆，加油冯导”、“芳华真的很棒”“厉害了我的冯导”、“超级喜欢！很好看”。本文来源：网易娱乐责任编辑：李彤_NK4455",
    "KeyWords": "冯小刚,北美"
}