{
    "Source": "Netease",
    "Title": "孔蒂逼宫蓝军高层:要么冬窗买人 要么就四大皆空_网易体育",
    "Comment": {
        "Link": "http://comment.sports.163.com/sports2_bbs/D6JNQLR400058781.html",
        "Content": "没说我们阵容差，但没必要神话瓜大师而故意贬低曼城的阵容。<br>今年如果拜仁进欧冠决赛了，海帅才是真牛逼！拜仁这阵容真心老化严重… 对，曼城都是草根，被瓜大师给带出来的！<br>新曼城球迷知道亚亚图雷吗？当然，亚亚和阿奎罗都是你们嘴里的垃圾！<br>再问一句，新曼城球迷知道现在世界身价最高的球队是哪个吗？你们一定不愿意承认是曼城吧！<br>别急着喷百度《每日镜报》的报道！ 瓜不群 阿扎尔名气大不大？佩德罗，法布雷加斯，坎特。 切尔西的阿扎尔不算巨星？ 今年我们四大皆空的可能性很大，联赛基本没戏了，而孔蒂一向不会踢杯赛[挨揍][挨揍][挨揍] 阿布:哼哼，我还有第三个选择 你告诉我哪个比曼城名气大，莫拉塔有成名已久的阿奎罗大？席尔瓦更不用说了，丁丁也算功成名就。不过瓜帅确实把球员带到新高度 佩刀是伤了还是状态不行?在巴萨也是锋线主力，很牛的，竞争不过MsN才走的。 你把阿球王放哪了 看此文不由感叹：温格真不容易，伟大的教练 不要脸的家伙，就是给你买人你能起多大烟尘 还有坎特。车子的球星还是比曼城多。 阵容明星多不算什么，就像比利时。。。。遇到配合熟练，进攻犀利的球队，会被打成筛子。 到底是谁带坏了英超风气？把英超变成“非富人不得入场”？ 阿扎尔被你吃了？威廉不厉害？小法不错吧。莫拉塔也厉害 库尔图瓦，阿扎尔，威廉，法布雷加斯，佩德罗，莫拉塔，坎特。很差吗？ 那是现在打出来的身价,放在1-2年前,这帮人有多值钱? 孔蒂可能都等不了赛季结束了下课了，如果被巴萨欧冠淘汰阿布就让他下课了 支持孔蒂！ 要么就买了也四大皆空 也就高光了一个赛季吧，可能还没有当年的苏牙令人震惊。这种程度破厂的死神也一样有过。<br>以前的曼城就是神经刀，状态来了各种赢，然后阴沟翻船或者给大佬球队下跪，今年确实不一样 联赛杯拿走不谢，破厂有保温杯就够，我们可不敢梦想双冠王😂 迭戈科斯塔要笑晕😉在厕所🚽了 感觉切尔西的大牌比曼城还要名气大，咋就踢不过！ 他不是踢的科斯塔嘛，没想后手？ 当孔二愣子真傻呀？现在的形势，就算再买人，也不敢确保任何冠军呀……<br>还不如最后赛季结束两手一摊：阿布，你个守财奴[窃笑] 买了还能欧冠联赛双逆袭吗？保温杯？拜托已经内定了…联赛杯加油吧 还在扯图雷，图雷已经快35了，孔帕尼岁数也大了而且长期受伤。瓜这两年确实花不少钱买人，但买的都是年轻人，除了斯通斯有其他球队竞买，还有哪个是豪门哄抢的成名球星？还有一点，曼城买人长期都是不太计较转会费高低，导致曼城买的人很多都是溢价。斯特林在瓜来之前被定义为水货，就是这两年有进步但浪费的机会也惊人，丁丁也是这两个赛季发挥越来越好。楼上才算说到了点子上，车子的主力阵容不比曼城差，差是差在替补。曼城的主力与替补之间差距不大，均衡。<br>现在的欧洲俱乐部，要说阵容最豪华，巴黎和皇马，巴萨都算不上。其他豪门俱乐部有区别，但总体来说都是半斤八两。 曼城之所以这么厉害，是年轻人，又有技术，有战术，状态起来了，势不可挡。<br>看看木鸟，球都传到了对方禁区还要回传，这让人看不懂啊 光看曼城花钱，却没看到曼城在一年间已经把整条中轴线+两个边锋全替换了（剩下的费鸟、席尔瓦、奥塔门迪也是大龄球员）<br>关键人家钱花得值，完成新老交替还保持强大竞争力，不像曼抬，钱掉到水里都不响一声。<br>至于切尔西，潜力新星被摸你鸟卖光，当打球星被孔蒂废光，别说阿布这些年花钱少，人家不郁闷都不行! 这可是年年号称世界第三的，要拿金球的扎球王，曼城可没听说要金球的球王 想太多，孔蒂当时不接手的话，好象稍微有点名气的都不愿意接手了（炒教练上瘾，没人愿意变成下一个牺牲品） 阿扎尔名气大不大？佩德罗，法布雷加斯，坎特。 英超冠军没戏了，前四还是妥妥滴 草，曼城都能花6000万买个替补后卫了，给再多的钱估计切尔西这赛季是不可能了，欧冠还遇巴萨，哎 孔蒂可能都等不了赛季结束了下课了，如果被巴萨欧冠淘汰阿布就让他下课了 转会市场的身价排名目前确实是切尔西英超第一 迭戈科斯塔要笑晕😉在厕所🚽了 你把阿球王放哪了 瓜瓜调教的好，阿圭罗不说本来就是巨星，席尔瓦丁丁斯特林啥内以前都缺点 不要脸的家伙，就是给你买人你能起多大烟尘 刚出来现役百大球星德布劳内排第4，不得不说曼城球星更多更好，当然也仰仗瓜的调教！ 英超最好的牌就是切尔西了，身价第一。其实曼城现在都差点意思跟切尔西比，不过曼城也在努力烧，按照阿布不想烧，瓜秃疯狂烧的速度，在明年夏天，曼城的身价有望超过切尔西到英超第一 阿扎尔之前名气比丁丁和席尔瓦要大多了。 球员A：我是负责防守的，我不射门。<br>一脚回传<br>球员B：我是前锋，想让我射门，门都没有。不求有功但求无过，我要防守<br>一脚回传<br>球员C：我是中场，是龟阵阵眼，不能失位，让门将开个大脚吊禁区吧<br>一脚回传<br>门将：…………MB谁传的球，球进了 1-2年前？逆子4900，斯通寺，丁丁哪个不是高身价过来的，请问相比一两年前除了热苏斯谁身价涨了？ 我只知道曼城一直是这几年的冠军有力争夺者，莱斯特城那年没有夺冠，是因为半程没到，就宣布换帅了。曼城在瓜帅来之前，就有一套完整阵荣，瓜来了之后，对阵容也进行了补充。像阿圭罗，大卫席尔瓦，亚亚图雷等，都是非卖品。真卖一个，以现在的市场，都天价。曼联是三任教练折腾，才到现在这个家底。切尔西走中庸之道。鸟夺冠之后，一人不加，被证明，如果不投钱，就没有竞争力。孙蒂来了之后，坎特真是买值了，但今年前锋一换一，只能说持平，加入几个新人，表现不好也不坏，要争夺冠军，今年估计没戏了。好运点，哪个杯赛捞一捞。曼联到是成绩有所提升，但那个打法真让人无语，当年那么敢上三前锋的年轻教头，这些年也被教训得太务实了。 曼城哪个人身价超过hazard？库瓦和埃德森的成名度就不用比了吧 要么冬窗买人，要么四大皆空，要么冬窗买人依然四大皆空，老板你选吧 阿扎儿啊。法布雷加斯啊。都不错。名气都是打出来的 阿布：娘希匹，有潜力的被摸你鸟卖光，打出名堂的被孔蒂废光，都这样还要我再买人……，老子造血买血都不如你们卖血快 当孔二愣子真傻呀？现在的形势，就算再买人，也不敢确保任何冠军呀……<br>还不如最后赛季结束两手一摊：阿布，你个守财奴[窃笑] 还有一点，德甲老是一家独大，太缺乏竞争力和压力了。所以拜仁每年欧冠打到8强之前，都是大热门，大杀四方。结果一到关键时候的强强对话，生死战，就萎了。 阿扎尔，这是曼城比不了的 车子主力阵容还是不错的，但阵容厚度不够。不像曼城那么均衡。车子今年前四就可以了。 你仁在德甲上一半主力也是躺赢，海帅的全攻全守一脚出球真的好看，瓜瓜调较的后场倒脚看着想睡觉。 没说我们阵容差，但没必要神话瓜大师而故意贬低曼城的阵容。<br>今年如果拜仁进欧冠决赛了，海帅才是真牛逼！拜仁这阵容真心老化严重… 石油队 光看曼城花钱，却没看到曼城在一年间已经把整条中轴线+两个边锋全替换了（剩下的费鸟和席尔瓦也是大龄球员）<br>看人家钱花得值，完成新老交替还保持强大竞争力，不像曼抬，钱掉到水里都不响一声 你告诉我哪个比曼城名气大，莫拉塔有成名已久的阿奎罗大？席尔瓦更不用说了，丁丁也算功成名就。不过瓜帅确实把球员带到新高度 兄台你的感觉没错，切尔西就是英超第一身价 我仁求不得新血液，能给一次全主力上场的机会吗 作为车仔的球迷，我觉得切尔西一日不换管理层换啥教练都没有用瓜帅来也没用这也不是我第一次说切尔西管理层了哎哎[被黑][被黑] 感觉切尔西的大牌比曼城还要名气大，咋就踢不过！ 阿扎尔啊 看此文不由感叹：温格真不容易，伟大的教练 既然想要前锋，为啥当初要迫不及待把科斯塔赶走？太意气用事了 👍 到底是谁带坏了英超风气？把英超变成“非富人不得入场”？ 没必要和鸟粪拿瓜黑孔蒂~前锋走了5000万来了莫拉塔基本没什么引进了，最后和曼联曼城不对等的投入却打这位置真心不错了（上赛季保级变夺冠） 技不如人就技不如人，曼城去年还四大皆空呢，怎么说 求你把巴卡约科这个傻货卖了吧 哥们，你说的是前几年的切尔西！记错了吧。 等你看完切尔西的欧冠再说吧，反正阿布就是不按常理出牌 切尔西也有阿扎尔，库尔图瓦，坎特，孔蒂非要弄走科斯塔 球员A：我是负责防守的，我不射门。<br>一脚回传<br>球员B：我是前锋，想让我射门，门都没有。不求有功但求无过，我要防守<br>一脚回传<br>球员C：我是中场，是龟阵阵眼，不能失位，让门将开个大脚吊禁区吧<br>一脚回传<br>门将：MB刚才谁回传的，球进了 怨妇鸟，阿布的金元足球就是给她玩起来的 一个阿扎耳 是要么买人，要么你走。。。 我觉得德布劳内排第四有点不实际，毕竟无论个人荣誉还是团队荣誉他都还没有取得太大成就。看好取得跟已经取得还是要区分开来的。 接下来，斯科拉里，安切洛蒂，希丁克，再来玩一轮，是不是这样，哈哈 欧冠淘汰巴萨就是冠军了，耶 瓜不群 我觉得马竞前锋迭戈科斯塔不错。感觉很适合切尔西的体系。 蓝军弃将你跟我说名气大，蓝军各个位置都是世界级，英超最强 明明就是切尔西好不，曼城只是继续放大而已 楼上说得比名气 今年我们四大皆空的可能性很大，联赛基本没戏了，而孔蒂一向不会踢杯赛[挨揍][挨揍][挨揍] 阿布:哼哼，我还有第三个选择 你告诉我哪个比曼城名气大，莫拉塔有成名已久的阿奎罗大？席尔瓦更不用说了，丁丁也算功成名就。不过瓜帅确实把球员带到新高度 如果科斯塔没有走的话，可以一拼。 你穷你有理 感觉切尔西的大牌比曼城还要名气大，咋就踢不过！ 有车子这帮废物高层，难言夺冠！ 把外租的召回来就行了 阿扎尔呢 买了应该也四大皆空吧！ 可以滚蛋了 感觉切尔西牌面真不差 不买人，皇马都得四大皆空 到底是谁带坏了英超风气？把英超变成“非富人不得入场”？ 冬窗买人还是四大皆空呢？ 买了也四大皆空 孔蒂越来越像木鸟了，整天就会抱怨 切尔西的阿扎尔不算巨星？ 联赛里只要压过曼联就是成功的赛季，毕竟曼城太猛了。欧冠进不进八强放一边，还是要看看比赛的过程怎么样 支持孔蒂！ 要么就买了也四大皆空 阿扎尔… 他不是踢的科斯塔嘛，没想后手？ 也就高光了一个赛季吧，可能还没有当年的苏牙令人震惊。这种程度破厂的死神也一样有过。<br>以前的曼城就是神经刀，状态来了各种赢，然后阴沟翻船或者给大佬球队下跪，今年确实不一样 买人也一样 要是买人了～还四大皆空咋办？？ 联赛杯拿走不谢，破厂有保温杯就够，我们可不敢梦想双冠王😂 阿扎尔 或者要么你走人吧 必须四大皆空啊，因为曼城已经四冠王了，其它英超球队还有什么赛事可以争取？ 纳英戈兰？ ",
        "Reply": 103,
        "Total": 673
    },
    "URL": "http://sports.163.com/17/1226/17/D6JNQLR400058781.html",
    "PublishTime": "12/26/201717:46:15",
    "Article": "网易体育12月26日报道：2017年的夏窗，孔蒂很郁闷，高层的引援让他很不爽。2018年的冬窗，孔蒂希望改善这一局面。根据英媒体《每日镜报》的消息，他提前向高层施压，要求老板阿布必须砸钱买人，不然的话，切尔西这赛季将四大皆空。目前，切尔西在英超落后曼城多达16分，夺冠几乎无望，但他们可以去争夺欧冠、足总杯以及联赛杯的冠军。据悉，孔蒂已经直接向高层摊牌：要么在冬窗给我买人，要么就等着这赛季四大皆空吧。前半个赛季，孔蒂在用人方面捉襟见肘（一队只有17-18人可用），这让他很是无奈。孔蒂将冬窗的引援视为挽救这个赛季的唯一途径。孔蒂尤为想要一个前锋，莫拉塔一旦缺阵，切尔西的攻击力就大大折扣。对阵埃弗顿的比赛中，切尔西占尽优势，但却收获0-0。联赛中，切尔西已落后曼城16分，再加上蓝月亮的状态丝毫没有减弱的迹象，切尔西的卫冕梦已经提前破碎，孔蒂自己也承认英超夺冠是没有希望了。但他渴望带队在欧冠拼一拼，他们在1/8决赛中的对手是强大的巴萨。以切尔西目前的实力，他们很可能被巴萨淘汰，所以孔蒂要求高层一定要在冬窗买人。“这个时候谈论我们要买谁并不合适，我不想在公开场合谈这个话题。”孔蒂表示：“我很喜欢和眼下的这批球员共事，但是我们的阵容是否能应对未来的所有赛事，只有时间才知道。我认为我必须要和高层谈一谈，是的，我得在合适的时间以及合适的地点把我的想法告诉他们。”和曼联不一样，切尔西引援最后拍板的人是管理层，而不是主教练。孔蒂表示：“我会和高层沟通，让他们买人。但是，最后的决定是由俱乐部拿的，就像今年夏天，就像上个赛季。这个冬窗，情况依然如此。”孔蒂希望新援的到来可以提升球队竞争力。“我会和高层一起讨论。我们将会力争在联赛中取得一个好名次，我们也会去争取联赛杯、欧冠以及足总杯的冠军。”今夏，孔蒂一直想买卢卡库，但阿布和高层的不作为让他无法如愿，卢卡库最终被曼联抢走。赛季初，孔蒂曾多次抱怨麾下无人，并和高层爆发矛盾，他也因此陷入下课的风波。好在，孔蒂挺了过来。根据《镜报》的消息，孔蒂冬窗的引援目标主要有：摩纳哥的勒马尔、埃弗顿的巴克利以及勒沃库森的莱昂-拜利。本文来源：网易体育作者：风过乡责任编辑：冯昊天_NSJS2656",
    "KeyWords": "孔蒂,切尔西,蓝军,欧冠"
}