{
    "Source": "Netease",
    "PublishTime": "12/26/201719:17:05",
    "KeyWords": "基金会,深圳市民政局,深圳市,爱佑",
    "Title": "\"同一天生日\"募捐被疑造假 官方对主办方立案调查_网易新闻",
    "Comment": {
        "Link": "http://comment.news.163.com/news2_bbs/D6JT10EG0001899N.html",
        "Total": 3556,
        "Content": "我一下捐了三块。。 哈哈哈哈哈哈哈，光明正大的骗人，还有腾讯帮忙 别扯了，民政局有权利立案调查？ 我是傻比，我是傻比，我是傻比！重要的事情说三遍。昨天还捐了三元！[大哭][大哭][大哭] 对不起，您充值的智商已到账，无法办理退款。 说你是傻逼不知道有没有人顶 被騙的只有兩種人,貪心的人和善心的人。 红会是中国唯一合法的受捐单位！ 捐出来的255W的资金怎么办？能不能退？里面有一块是我这个傻逼捐的 有麻花痛的地方就有伤天害理 妹的，退我一块钱，杀千刀的，用别人的善心骗钱 一楼爱心人士，别泄气，放开心情，你是有爱心的人，不是傻逼，捐了出去，就是献出了爱心，明日幸福今日修，要相信做善事的人会有好报的。 上会同样的事也是立案侦查，现在又是立案侦查，呵呵，我要是干了同样的事，绝对被以诈骗罪判刑 丧失的是国家信用! 傻逼，暴露智商。调查可以，立案除了执法部门，哪个部门能立案。脑残 直接枪毙，以儆效尤 你，傻逼 这个基金会是麻花疼与人合伙创建的，呵呵 并不是只有违法行为才可以叫立案，违纪行为同样可以立案。 一楼爱心人士！赞你 郭美美是中国唯一合法的消费单位！ 披着羊皮的狼 100%是骗子打这慈善的幌子赤裸裸的骗有关部门去哪了 退钱！ 又不是公安局查，呵呵呵。 还有得救吗？全世界最烂没有之一 老子差点就捐了，妈的！利用孩子博取同情心，还要不要点逼脸？？？ 突然想起来袁立了，她就是这种较真的性格。真的很敬佩。 打着慈善捞钱的我希望他们断子绝孙[窃笑] 中国，中国，呵呵。 没能力亲自验证且亲手交到对方手里，还是别捐钱了，哪怕1分钱，最后都不知道在哪里 看看民政部前老大犯啥事儿吧！还民政局！呵呵…… 书读少了吧？只要有钱搞任何部门就都有权力管了。但如果你是有困难去找它们它们就没权力帮你了，只有喊你去找有关部门了 不愿意滚啊，没人强迫你在中国 给个安慰的抱抱 民政局可以立案调查吗？不是应该报警吗？ 那谁有权利？ 爱佑未来不要在消费人们的爱心了，你们太没良心了，让善良的人们心寒，真正需要帮助的摔倒老人没人敢扶，需要救助的没人救助，都是你们这些社会的败类造成的。 捐给机构就是个笑话，看看红十字会养了多少人，多少人工资比你高，里面郭美美这样的不止个别吧 现在去吃饭点个羊肉，第一反应是是真是假。这个社会根本就没有信任，也不值得信任 操，现在什么可以相信 有。这个立案不是刑事立案，是行政立案。这种组织归民政局管，立案后如果发现有细微问题，可以自己按管理规定处理。如果有重大问题，可以报公安机关立案。 骗钱是一种本能 也有我这个傻逼 255万可以提辆马萨拉蒂！郭美美同款 麻花藤要跑了，大家快追 怎么不能？？我们国家能用立案调查这个词的部门太多了！！！而且确实有权力调查！ 100%是骗子打这慈善的幌子赤裸裸的骗有关部门去哪了 假的 别扯了，民政局有权利立案调查？ 我特么也是傻逼 真是服了！要编这么多可怜的故事，就为了骗我们这一块钱？这都怎么了！ 朝鲜帐户呢？ 怎么不能？？我们国家能用立案调查这个词的部门太多了！！！而且确实有权力调查！ 我也是一样的傻逼，咱们同逼 还好老子红包钱不够 这片土地上还有啥不造假？ 我也有一块 伤了好人的心 上次一元画作的钱又用到哪里去了？ 哦也，要学姜太公钓鱼愿者上钩在当代社会有人管了 看后面怎么样 你应该为你打造了一个百万富翁自豪 我是 并不是只有违法行为才可以叫立案，违纪行为同样可以立案。 一楼爱心人士！赞你 死了～ 那个深圳的罗某已经给大家做出示范了，还有上当的。 12月25日上午，深圳市民政局调查组约谈了深圳市爱佑未来慈善基金会秘书长，责令其立即停止“同一天生日”网络募捐活动，并要求向我局提交募捐活动情况报告、与相关企业的合作协议及所有公开发布的文件资料。相关调查将继续进行。人家民政局可没说立案调查，去查查立案的意思吧。调查权民政有，立案的权利民政局怎么可能有 为什么有这么多骗子 cao居然不交税不找查的么 我也款1元！不是多少的问题是我的良心被骗了？ 狼来了！<br><br>别真的狼来了已经没人信了！ 打着慈善的幌子骗钱 打着慈善捞钱的我希望他们断子绝孙[窃笑] 捐了个跟孩子一天生日的。。。 一楼爱心人士，别泄气，放开心情，你是有爱心的人，不是傻逼，捐了出去，就是献出了爱心，明日幸福今日修，要相信做善事的人会有好报的。 还好我觉得假没有捐。 就是啊，中国又多了个富翁 你给我开一个美国账户，我先给打十万，你看看钱能转出去不？喷子 除了强捐，我现在不作任何捐款了。要帮助谁我会直接对接。 如果牵扯到某些人或者团的利益，那“被造假”也不是没有可能的，真像没出来前不能贸然断定真假，毕竟官方的话很多也是“shi”。 病句？看不懂了 255万可以提辆马萨拉蒂！郭美美同款 我傻逼两次 捐出来的255W的资金怎么办？能不能退？里面有一块是我这个傻逼捐的 一下子赚了200多万，真开心 捐给机构就是个笑话，看看红十字会养了多少人，多少人工资比你高，里面郭美美这样的不止个别吧 网络时代的乞讨了 麻花藤要跑了，大家快追 好心人觉得心寒，破坏道德底线。 骗子的花招越来越多了。 捂紧钱包，一分不让。 虽然钱不多共捐3元给《假慈善基金会》退款吧 唉，人心就这样散了 不用查了，就下面的工作人员懒散不作为，开除 我们反正辨别不了真假 贫穷限制了我的想象力 捐出来的255W的资金怎么办？能不能退？里面有一块是我这个傻逼捐的 这个社会没有诚信，增加多少交易成本，谁也不相信谁 别扯了，民政局有权利立案调查？ 造假也这么不认真！？？？？？？敷衍了事的中国人太多了，好在还有一部分努力认真的！ 书读少了吧？只要有钱搞任何部门就都有权力管了。但如果你是有困难去找它们它们就没权力帮你了，只有喊你去找有关部门了 刚发现，居然是民政局… 汶川地震以后不再捐款 被騙的只有兩種人,貪心的人和善心的人。 捐出来的255W的资金怎么办？能不能退？里面有一块是我这个傻逼捐的 有麻花痛的地方就有伤天害理 哈哈哈哈哈哈哈，光明正大的骗人，还有腾讯帮忙 2.29的可能是农历吧 都是一伙的，他去调查有什么 有。这个立案不是刑事立案，是行政立案。这种组织归民政局管，立案后如果发现有细微问题，可以自己按管理规定处理。如果有重大问题，可以报公安机关立案。 普法路任重道远 中国的各种基金会，全是骗人钱的，比如嫣某基金会成立以后，某人成了富翁 原来真有捐款的煞笔啊 直接枪毙，以儆效尤 我一下捐了三块。。 有的，民政有捐赠法，殡葬法等和民政相关的执法权和立案权 这个基金会是麻花疼与人合伙创建的，呵呵 呵呵，不能 民政局是民政执法机构，具有立案权。你要改人大定的规矩？ 骗钱 前几天点进去后发现下面有广告我就退出了这明显是忽悠人的 当然。不要以为只有公安机关可以，有执法权的部门都可以 民政局可以立案调查吗？不是应该报警吗？ 突然想起来袁立了，她就是这种较真的性格。真的很敬佩。 流星月亮地球太阳系有发动机么？没有!他们却高速在宇宙中运行!为什么？因为他们的运行轨道本身就是太空高速时空隧道!他们的运行路线一半为去路一半为来路，周而复始地运行着!地球自转公转着，本就没有东西南北上下左右等方位!谁定的？我们的天父啊!目的只有一个，告诉人类我们天父的星座方位!所以九曲桥的方向始终对着东北方!在宇宙一切物质中，永远是子体围绕母体运动，这是恒定的!所以地球自转并围绕太阳公转!因地球是自转公转的，所以根据地球的东西南北是找不到星外文明的星座方位的!只有找到太阳的上下前后东西南北才能准确地给天父星座方位定位!我们天父星座方位在太阳系东北上方第九颗恒星那里!那里以双伴恒星为中心带动周围108颗恒星运动着! 还有傻逼发朋友圈，说娟给孩子了 调查可以，但是能立案？ 看看民政部前老大犯啥事儿吧！还民政局！呵呵…… 红会爸爸没有分到羮！红会的内幕水深吗！ 慈善法听说过吗？民政局立案调查，你再研究一下，看看可行否？ 除了黑十字会其他任何单位个人组织都是违法的，不过交了保护费其实是管理费的就不违法了 以后还能不能好好的捐款 sb过多，不能全怪主办方。 老子差点就捐了，妈的！利用孩子博取同情心，还要不要点逼脸？？？ 没能力亲自验证且亲手交到对方手里，还是别捐钱了，哪怕1分钱，最后都不知道在哪里 爱佑未来不要在消费人们的爱心了，你们太没良心了，让善良的人们心寒，真正需要帮助的摔倒老人没人敢扶，需要救助的没人救助，都是你们这些社会的败类造成的。 傻逼，暴露智商。调查可以，立案除了执法部门，哪个部门能立案。脑残 调查是权利部门可以，立案是执法部门好吗 说你是傻逼不知道有没有人顶 现在去吃饭点个羊肉，第一反应是是真是假。这个社会根本就没有信任，也不值得信任 66666 丧失的是国家信用! 天垮了下来也别想老子再捐一分钱，中国人只会骗中国人[石化] 骗钱是一种本能 调查募捐是否合法，不合法就吊销牌照 退还相对成本太高(这是真高，不是调侃)，所以你的1元肯定没戏了，100元估计有希望，就看人家退不退了。 这事不用多想就知道是什么地方的 12月26日，深圳市民政局决定对深圳市爱佑未来慈善基金会立案调查。 认真看我的回复，别慌回答 查一查到底 对那些骗子要杀一儆百！处罚太轻只会滋生更多这样的细菌 别扯了，民政局有权利立案调查？ 我是傻比，我是傻比，我是傻比！重要的事情说三遍。昨天还捐了三元！[大哭][大哭][大哭] 毕竟二楼 多亏老子当晚买看到 烂透了 好！！ 也有我这个傻逼 捐出来的255W的资金怎么办？能不能退？里面有一块是我这个傻逼捐的 你以为立案就是指的刑事立案？民政局作为主管部门不可以立案调查? 这么强大富强的国家，需要你们这些穷逼屌丝的捐款，捐款的都是傻逼，伟大的祖国不会有上不起学这样的事发生！！！ 不是捐款1元或10000元多少问题，都是被骗，而且是利用慈善，极为恶劣 陈真 短，小，大 上会同样的事也是立案侦查，现在又是立案侦查，呵呵，我要是干了同样的事，绝对被以诈骗罪判刑 同一个人，我捐了两下傻逼 拿公益来骗钱，无耻到极点了 立案是指公安、司法机关及其它行政执法机关对于报案、控告、举报、自首以及自诉人起诉等材料，按照各自的管辖范围进行审查后，认为有犯罪事实发生并需要追究刑事责任时，决定将其作为刑事案件进行侦查或者审判的一种诉讼活动。 你，傻逼 不愿意滚啊，没人强迫你在中国 严查，严打，严惩！ 退你妹，统统充公上缴领导小金库[大笑][大笑] 给个安慰的抱抱 呵呵 郭美美是中国唯一合法的消费单位！ 中国，中国，呵呵。 啥东西？没听过 立案是指公安、司法机关及其它行政执法机关对于报案、控告、举报、自首以及自诉人起诉等材料，按照各自的管辖范围进行审查后，认为有犯罪事实发生并需要追究刑事责任时，决定将其作为刑事案件进行侦查或者审判的一种诉讼活动。你认为民政局对刑事案件能进行侦查？ 民政局立案调查？小便你是不是语文没学好？ 又不是公安局查，呵呵呵。 一元钱不多一元钱不少，全国人民一人捐一元，13亿到手了。哈哈。反正丢了一元钱也不心疼 调查可以，立案不是扯淡吗？民政局能立案？ 大快人心!杀! 我觉得分贝筹是真的，因为毕竟有马化腾 那些朋友圈一元慈善家... 打着慈善捞钱的我希望他们断子绝孙[窃笑] 新闻越短，事情越大 可以报警，协助调查。 民间事务管理局！公务员都有执法权。立案是公安，调查民政局怎么没有权利 这造假坑害了多少百姓们的信任 我突然有个大胆的猜测… 要是真有用，坏人早死光了 这个社会什么是真的？ 民政局没分到钱或者没能支配钱当然是假的 没收违法所得，懂了吗傻逼[被黑][被黑][被黑][被黑] 傻逼，立案是指公安、司法机关及其它行政执法机关对于报案、控告、举报、自首以及自诉人起诉等材料，按照各自的管辖范围进行审查后，认为有犯罪事实发生并需要追究刑事责任时，决定将其作为刑事案件进行侦查或者审判的一种诉讼活动。傻逼，，民政局连立案的权利都没有，还立案调查。脑残 那谁有权利？ 谢谢你 提李天一还有人顶吗？ 我捐了，一块钱是不多，利用善心骗人就不对了。 说你是傻逼不知道有没有人顶 红会是中国唯一合法的受捐单位！ 这类事件对社会的危害极大 还好我们还有值得信任的如袁立这样的爱心人士！<br>从人心里发出的善心胜不过时间和利益的考验，只有拥有来自上帝的爱心才能真正的行出爱来！ 无底线地消费大众的爱心，总有一天会自食其果，不过连累了真正需要帮助的人 中国，中国，呵呵。 以后就不要捐钱！ 419一夜情 别扯了，民政局有权利立案调查？ 对不起，您充值的智商已到账，无法办理退款。 等我知道这个平台准备捐的时候，出问题了…… 现在我都不相信这种了，被消耗掉了 还好我二维码没有识别出来[狗][狗] 捐出来的255W的资金怎么办？能不能退？里面有一块是我这个傻逼捐的 我做了一回sb，真的是什么钱都要去赚是不是 放心好了，追回来也不会退给捐款的人，追回来也是进了某些狗的腰包。 厉害 假一赔三？ 4.19，有没有跟我同一天的，有的话就赶紧给我打钱 好心人的心就是这么被玩伤的…… 这个基金会是麻花疼与人合伙创建的，呵呵 退款 谁扯了？民政局可以向公安局报案，申请立案调查。 反正我对目前的慈善机构没什么信心 民政局也能立案？ 我两个活动都捐了，太傻了 用大家的善心骗钱，真的是不得好死 我也想问这个问题！ 还有得救吗？全世界最烂没有之一 天天有人到店里说我是某某兹善机构的，在为东莞什么上学儿童救学金，三天两头有人来问要钱，态度又差，怎么分辨他们是做兹善 造假者水平低下[大笑] 我也是傻逼 不愿意滚啊 看到这个了，我的第一反应就是一元买画作，上次买了，这次没有[微笑] 呵呵 擦，我这个傻逼也捐了 好短 猪一样的人才会写单数年的2月29 网络时代 我还捐了 也有我这个傻逼 居然还有人信 新闻越短， 一分不捐 比那个什么十字会好 擦，昨天刚捐了三元 草你妈的这帮蛆，出门小心点车 我也捐了[不屑] 还有我这个傻逼 真正有需要的得不到帮助， 基本上是骗子没跑了。 退钱！ 哈哈哈哈哈哈哈哈哈哈哈哈哈哈哈哈哈哈哈哈哈哈哈哈哈哈哈哈哈哈哈哈哈哈哈哈哈哈 看看🚪能不能跟帖 史上最短新闻 网络发个言都要被追查的严格制度下怎么会出现这样的骗局的？ 我是泰迪我怕谁 我前几天刚款的十块钱…… 披着羊皮的狼 我无语啦！看来以后不能随便乱捐款啦！太可恶啦！ 民政局都能立案，刑侦不介入麽 马化腾投资的 新短大 造假都不说你了<br>你他妈的造假能走点心不 妹的，退我一块钱，杀千刀的，用别人的善心骗钱 我捐了两块钱 这种人最不要脸，拿着慈善去骗钱，不得好死 麻痹的，抓住让他破产，列入黑名单 真正需要捐款的人反而得不到帮助。这个社会充满套路啊。 咱中国的慈善还有前途吗 立案，聽起來好像很嚴肅，最後不也是找個臨時工了事，然後辦個舉一反三大會 也。那么短的新闻 消费大众爱心，应严惩。 前几天刚捐的十块…… [窃笑] 中国的慈善，那是大生意！ 短。。。。大。。。 30个数字的新闻，靠。 那深圳肯定说他合格了，在深圳企鹅没有打不赢的官司 操，现在什么可以相信 调查！要么把钱真的捐到山区孩子手里，要么还给老子 这个基金会是麻花疼与人合伙创建的，呵呵 特么一看就是假的，捐一块钱一群2货还到处发朋友圈 这是我成为易友后所看到的最短的新闻！ 仅叫停是不是要罚款？ 支付宝里面病患孤儿重获新生项目也是这基金会弄的，该不会我的几百块喂狗了吧 退钱[报警] 沙发 我参加了这个希望真正调查并且真的没有问题不要太多假的东西了 良心被透支后十块钱也买不回人们的善良 要资助就去实地捐，给不靠谱的机构，门都没有 钱真好骗啊 如果是假的，就要严厉处罚！ 这算诈骗吧 ",
        "Reply": 239
    },
    "Article": "（原标题：“同一天生日”活动最新进展！深圳民政局：对爱佑基金立案调查！）南都讯记者孙雅茜12月26日，晚间6时许，深圳市民政局通过官方微博发布公告，称“深圳市民政局决定对深圳市爱佑未来慈善基金会立案调查”。据深圳市社会组织管理局工作人员介绍，在查到社会组织村存在有违法违规行为，掌握到比较确凿的证据之后，社会组织管理局会进行立案。接下来将继续对此事进行调查，视其违法违规具体情节，依照流程对其进行行政处罚，如严重程度未到达处罚标准，将责令其进项整改，责令整改不属于行政处罚。该工作人员表示，立案代表深圳市社会组织管理局将对此事进行持续跟进，“已经进入我们必须要下一步对其进行处理的范围内”，具体到深圳市爱佑未来慈善基金会个案，还要看下一步的调查结果。链接12月24日下午18：36，深圳市民政局官方微博发声：深圳市民政局已成立调查组，着手调查“同一天生日”网络募捐活动，调查结果将及时对外发布。12月25日晚6时，深圳市民政局官方微博发声：12月25日上午，深圳市民政局调查组约谈了深圳市爱佑未来慈善基金会秘书长，责令其立即停止“同一天生日”网络募捐活动，并要求向我局提交募捐活动情况报告、与相关企业的合作协议及所有公开发布的文件资料。相关调查将继续进行。深圳市民政局调查\"同一天生日\"募捐此前被指造假12月24日，深圳市民政局开始调查“同一天生日”网络募捐活动，调查结果将及时对外发布。感谢社会公众对慈善活动的关注及监督！深圳叫停\"同一天生日\"募捐云南镇雄:不知此次活动云南镇雄县委宣传部工作人员回应称，当地政府确实与王立搭建的“分贝筹”有合作关系，但对此次的“同一天生日”筹款活动并不清楚。“同一天生日”筹款项目有无在民政部门备案？该事件有无调查结论？深圳市民政局工作人员对澎湃新闻表示，现在正在调查阶段，为了不影响公正性，暂时不接受采访，等有进一步调查结果会第一时间发布。\"同一天生日\"与\"一元画作\"募捐善款接受方为同一家连日来在朋友圈刷屏的“同一天出生的你”网络募捐活动，今日被深圳市民政局责令立即停止。募捐活动平台自称筹得近255.6万元资金。但活动中，同一个孩子不同的出生日期、出生日期不存在、受捐助学生不是366人而是2130人等情况，引发公众质疑，募捐善款接受方为同一家。本文来源：南方都市报责任编辑：张海桐_NN9053",
    "URL": "http://news.163.com/17/1226/19/D6JT10EG0001899N.html"
}