{
    "PublishTime": "01/01/201823:00:40",
    "Comment": {
        "Total": 58781,
        "Link": "http://comment.news.163.com/news2_bbs/D73S8J3V00018AOR.html",
        "Reply": 1495,
        "Content": "美国沦为恐怖主义国家谁敢跟你在一起，阿富汗与伊拉克，叙利亚就是活生生的例子，美国让世界寒心！ 特朗普的“大义凛然”也只能忽悠中国这些无脑崇拜的粉丝了☺️，真把往届总统当饭桶吗？谁不知道援助巴基斯坦不是为了抗衡中国？这次不给几亿美元了那是特朗普这个奸商找个借口而已罢了。他放的屁无脑粉都说成是香喷喷的空气 在这种久经商场的老江湖面前，一切忽悠都靠边! 拉登是在哪兒被斬首來著？為什麼美軍行動前沒有通知巴基斯坦政府？想想就知道了。 这老头有没有说错呢？ 本拉登是谁培植起来的?萨达姆又是谁培植起来的。。。。。。。。你们这种美狗舔杂能要点脸吗? 如果这老头能在任内解散联合国，将毫无疑问是最伟大的总统之一。 越来越觉得这个总统很厉害。地球就需要这样的清道夫。 有意思。。。 本拉登藏身巴基斯坦，本身就说明问题了。 懂的自然懂，说多了会被喷，走吧 恶果？看不爽就打呗，可问题谁先跟美国打头阵？又谁有资本跟美国叫板？强大的国家背后必定得有牛逼的军队加经济支撑，不好意思，美帝都有！所以想让美帝吞恶果得先掂量掂量自己几斤几两，别到时候自己带头冲锋其他人转身就跑，那就太尴尬了！ 奥是个软蛋。。。 楼上说得有道理，美国优先是很明显的商人那种只顾眼前利益，表面上美国获得了利益，但美国优先势必伤害盟友的利益，说白了就是凡事都先考虑你美国，长久来说盟友离心离德甚至对着干势必伤害美国利益，中国提出的互利共赢很明显具有更长远眼光，双方都有利关系才更稳固更长久 怎么切 这种调子白左说得比你更顺溜，但美国人民已经不想再当冤大头了 一切从美国的利益出发，这样的总统才是美国的好总统。美国人民选的没错。 美国以前“授人以鱼”，现在改为“授人以渔<br>美国变聪明，发现要想一个国家发达富裕，当靠输送利益，对国民无益，只有改变这个落后国家的制度，让这个国家思想意识走向文明，才能摆脱贫困。<br>” 特朗普伟大 楼上几位双簧唱的一愣一愣的，还美国离心离德。还和中国发展长久友谊，哈哈哈哈哈，人家和你在最基础的价值观就不同，还长久？ 巴基斯坦：“老铁，快打钱过来，我要买F16。” 你这话是失败者的自我安慰，美国的选举制度本来就是直接选举加间接选举，只要搞定270张州超级代表就赢得总统宝座，在一些人口众多的州（如加州和新英格兰各州），一直是民主党的票仓，特朗普根本就放弃了，尽管如此，结果也只是希拉里的普选票比特朗普多一点点（大概30万张吧），特朗普太特立独行，美国精英普遍讨厌他，是美国草根把特朗普送进白宫的！ 这是巴基斯坦的一贯对外政策，而我们还傻傻的称为“巴铁”，本.·拉登为什么能在巴基斯坦被击毙，明着说反恐暗地里却是庇护场所，美其名曰“巴铁”是白送的钱换来的！ 他们国家才遇到几个骗子？就看和谁比了🤕️🤕️ 商人当国，确实是新生事物，因为有硬实力作为支撑，所以军事讹诈，加经济要价，确实很难对付，但是以经济利益为重的商人绝对是赚钱有余，但是真要死破脸打仗，尤其是和中国这样的核国家打仗几乎肯定不可能，因为大家都有核武器，谁输谁灭国！因为他不喜欢双赢，但是更不喜欢双输，所以由此可见，台独危险！因为你们想让美国为你们卖命，你们能出多少钱呢？所以中国再台湾方面划红线，是绝对正确的！！！政治家喜欢算大账，商人只算小账眼前账，古今中外最牛的人都是做政治家，其次才是大商人，所以特朗普必输， 哈哈，这真是个大实话总统 一楼，这世界哪个正常国家是美国敌人？ 网易大部分哭着喊着要去美国的，没有生存技能，去了只能打黑工，和黑佬住一个社区，过着真正底层的生活 把你这条狗急的人家国家利益人民利益第一你个煞笔 能承认自己是愚蠢的，这相当不简单！ 1楼，这种调子白左说得比你更顺溜，但美国人民已经不想再当冤大头了，这就是为什么希拉里把控的媒体说她要当选，而实际上并没有 这话太耿直了 这两傻叉自说自话 666不愧为商人好棒 裤链没拉好，怎么把你露出来了？你生活在底层是我的错？ 希拉里支持率还是比-川普高，川普赢在选举人制度。 凡叫撕毯的都是垃圾! 是背后资本利益集团，不是美日人民 美利坚合众国是人类的大救星！没有美国，这世界不敢想象 真是个明白人！ 川普上任了才不到一年，感觉做的事比奥巴马八年来做的事都多，美国人的眼光没错，选了个好总统！ 美国的硬实力NO1毫无疑问，爱负责任是软实力。美国吸引全世界人民就是软实力而不是军队厉害。特朗普美国优先策略短期对美国有利，长期来说对美国没什么好处。政治不只是生意，唯经济利益至上最终会自吃苦果。 这狗日的已经过河撤桥了 说得好，九点去库房领手机 击毙拉登是美国独自在半夜干的，事前没通知巴基斯坦。巴基斯坦当时还抗议侵犯主权来着 猎杀本拉登是美国海豹六队单独采取的绝密行动，与巴基斯坦有什么关系？要是巴军方参与，或许会走漏风声。 越来越看好特朗普！ 援助巴基斯坦没用，本拉登怎么被打死的 特朗普的“大义凛然”也只能忽悠中国这些无脑崇拜的粉丝了☺️，真把往届总统当饭桶吗？谁不知道援助巴基斯坦不是为了抗衡中国？这次不给几亿美元了那是特朗普这个奸商找个借口而已罢了。他放的屁无脑粉都说成是香喷喷的空气 布市的经济政策非常失败，<br>奥巴马有些理想主义，<br>特朗普是有经济头脑的政治家！ 美国人民何时当过冤大头？ 在这种久经商场的老江湖面前，一切忽悠都靠边! 特朗普会成为美国历史上最伟大的总统！ 商人到底是商人，然而国家之间，除了经济，还有政治吧 那你是赞同四楼意淫着通过不劳而获享受美日高福利咯？所以我给你们这种辣鸡指一条捷径，不劳而获的垃圾到哪里都是垃圾，在垃圾锅的垃圾到美日垃圾都不是，垃圾还有可回收的，你们就是屎坑里的蛆。 关你屁事 欧盟、美国年年对中国被告双反，人民币国际化是从哪里来的底气？ 不要逼脸，不白给你钱花了，你就是对你没好处，不如送给扒鸡两个核弹吃吃 跪时间长了站不起来了？ 舔的好舒服！__特朗普 恶果？看不爽就打呗，可问题谁先跟美国打头阵？又谁有资本跟美国叫板？强大的国家背后必定得有牛逼的军队加经济支撑，不好意思，美帝都有！所以想让美帝吞恶果得先掂量掂量自己几斤几两，别到时候自己带头冲锋其他人转身就跑，那就太尴尬了！ 把一架坠毁过来 你的意思赞成四楼观点？通过不劳而获享受美日的福利？所以你们这些人没本事给你们指一条捷径你们就破口大骂，难道不是很多人为了国外绿卡嫁国外穷人吗？ 这老头挺实在 我只笑而不语！😁……！ 人民币国际化 你是你妈的皇亲国戚？ 毕业于世界排名第一的商学院，又在实际中践行自己的专业，是事业的成功者，也是专业的成功者！这家伙内心无比自信，奥黑一个黑鬼小混混怎么能和他比！ 没有十二艘航母和强大的军队，美国的软实力就是狗屁！！！！软实力必须湾硬实力作为基础！？ 不是巴铁帮忙拉登还在策划922咧 靠给美国太上皇元老表忠心拍马屁甜菊爬上去，耍心机玩厚黑有点能耐，治国蠢得一批。 这让我想起去ATM机取款的经历，一大早人都很多，我前面是个老头在排队，终于轮到我前面这一位，一次可以取2000元，分三次取了5000元，然后每一张都看一下，是不是真的，后面大家都很焦急，但是个老头大家都耐着性子等，毕竟取到一张假钱老头不损失大了，后面发生的事差点把后面排队的气昏死过去，看完5000后，他又存回去，大家问他为什么？他说昨天别人给他打了5000元来，怕收到假钱，一大早就来查一下5000的真假，如果有好退回去！大家集体崩溃了！ 巴基斯坦：“老铁，快打钱过来，我要买F16。” 这个就看个人理解了哦。综合了下现有资料看了下大多数的结论是，硬实力搞不好一打就败，软实力搞不好不战自败。 我们还得买高价油 知道还不晚，不知道就死蠢。 底层蠢渣就是你这样的 我的天，不愧是商人，都会到外国请水军了？？？佩服 这种调子白左说得比你更顺溜，但美国人民已经不想再当冤大头了 五年前，奥黑再次当选时候，我难受极了。感觉美国要完了，被白左黑鬼之流破坏殆尽。现在好歹扳回一局，希望不是回光返照 不是以前的总统傻，是他们把美国当成世界领袖，承担了更多的责任，特朗铺只把美国当成了国家 他是在做总统，不像别人，在做政治家。 把你这条狗急的人家国家利益人民利益第一你个煞笔 伊朗动乱大事记<br><br>28日。<br>保守派在东北部在自己势力最大的第二大城市马什哈德发动万人示威，把经济不景气归咎于鲁哈尼乱改革，口号是“吊死鲁哈尼”“鲁哈尼卖国”。<br>28日下午，东北部各地开始响应。<br>但保守派没想到，他们聚集人群之后，上万屁民一旦聚集街头，很快就完全失控。<br><br>29日。<br>运动完全失控，蔓延到整个西部，人口密集的西部地区一个个城市陆续起事。屁民开始反对一切，口号也迅速变化，开始还是：反对高物价！反对高失业！反对穷兵黩武！忘了巴沙尔，让男人们回家！反对中小学宗教课程！反对革命卫队经商！<br>然后变成：毛拉去死！神棍滚出伊朗！还冒出了前朝遗老，坚决拥护王室复辟！<br>最后演变为：不要伊斯兰共和国！打倒哈梅内伊！我们要世俗化！政教分离！<br><br>30号。<br>蔓延到首都，德黑兰大学的学生上街了。大学生和宗教警察、防暴警察发生街头群殴。防暴警察和治安警察向学生倒戈，拒绝发射催泪瓦斯，拒绝殴打学生。<br><br>31号。<br>局势失控，伊朗官方宣布，由于空气污染，首都所有大中小学全部停课。要求学生呆在家里，孩子不管好，家长要负责。同时伊朗关了社媒，大部分城市限制手机上网，总统的例行新年讲话被取消。<br>哈梅内伊被迫在首都动用了革命卫队，以及从巴基斯坦西北部和阿富汗雇来的哈扎拉民兵。革命卫队发射橡皮子弹和水枪，试图驱散学生，但没发射实弹。<br><br>1月1日。<br>伊斯法罕发生巴斯基民兵开枪事件，打死3人，打伤十几人，愤怒的示威者开始攻打该民兵基地。<br>示威者烧毁了哈瓦比神学院。<br>总统鲁哈尼发表重要讲话，指出人民有抗议和批评正府的权力，但反对暴力和破坏公物。<br>革命卫队副司令称，凡是朝学生和民众开枪的警察和军人，就地处决！<br>然后，有革命卫队加入到抗议者队伍中，他们受到了抗议者的热烈欢迎！<br>至此，哈梅内伊很清楚，如果选择暴力镇压，他只能依靠外国雇佣军。而镇压失败的后果是：要么逃亡，要么被吊死。 GodblessAmerican 说得好像你是美国人一样？<br>美国对世界负责，全世界人民受益（因为他有也只有他有这个能力）；这就如同一个富豪，当你天天顿顿都大鱼大肉吃得满嘴流油，这个时候你稍微少吃一口，就可以让那些穷苦人喝口肉汤一样。<br>当然，人（国家）都是自私的，这本没错，但当你在富足的时候，帮助下其他贫困中的人，这本身就是一种美德。<br>这个世界需要一个带头大哥来维持秩序，不然那些6芒会无法无天的。 川普上任以来，有一个不同于以往前任的特点，就是说话很少用外交辞令，没有那种婉转且顾左右而言他的话，作为一个商人政治家，一国之总统，不知是好是坏。 川普上任了才不到一年，感觉做的事比奥巴马八年来做的事都多，美国人的眼光没错，选了个好总统！ 特朗普好特别 你比人家总统厉害？哪来的自信？论学识？论阅历？论眼光？......你挑一个和人家总统比比？ 美国终于上来一个明白的总统了 厉害。 请问价值观不同然后又如何 特总靠谱 美国的硬实力NO1毫无疑问，爱负责任是软实力。美国吸引全世界人民就是软实力而不是军队厉害。特朗普美国优先策略短期对美国有利，长期来说对美国没什么好处。政治不只是生意，唯经济利益至上最终会自吃苦果。 活该！哈哈 😏 说真的，真感觉不到巴基斯坦干了什么反恐的事件。拿了美国反恐钱去养恐怖疯子，恐怖分子没了，钱也没了，看来巴国明白其中关系。 举个栗子，两个人，一个先有国再有家；一个先有家再有国。请问然后你觉得会如何？ 伊斯兰的塔基亚原则，巴基斯坦对中国也是如此。 你这种沙壁能活到用智能手机上网吠，真是上天的眷顾 美利坚合众国是人类的大救星！没有美国，这世界不敢想象 前两年铺天盖地宣传的现在亚投行现在怎么样了，很想了解一下！ 特朗普是美国当选总统年龄最大的！也是最能干的总统，真是应了那句话：姜还是老的辣！ 钱在我手里攥着，就不给你爱咋咋地。有本事你别用苹果手机，别用windows系统。。。世界离开朝鲜照样转，但离开美国伤的最深的或许是自己 愿2018年我们的实体经济恢复一些吧 特朗普的“大义凛然”也只能忽悠中国这些无脑崇拜的粉丝了☺️，真把往届总统当饭桶吗？谁不知道援助巴基斯坦不是为了抗衡中国？这次不给几亿美元了那是特朗普这个奸商找个借口而已罢了。他放的屁无脑粉都说成是香喷喷的空气 刮目相看 美元霸权利益集团，忽悠炮灰，太多了 在这种久经商场的老江湖面前，一切忽悠都靠边! 杂种巴基斯坦不得好死！恐怖主义国家！ 美帝是在反思自己的胡萝卜政策，它以为胡萝卜的善意可以引导一些国家走上邪路，但明显只收获了欺骗与谎言，极大地虚耗了美帝国力，所以现在要“美国优先”恢复元气，不再管那些烂泥扶不上墙的东西。 真他妈的看得起自己，还抗衡中国，搞得好像不援助，马上就会被中国搞死一样 越来越喜欢他了………真是别人了的… 这老头有没有说错呢？ 狗屁，援助都是些什么东西美国心里很清楚 美亡，日欢，美日，狗咬，狗历，史 巴基斯坦本身就是半个恐怖分子。 援助巴基斯坦没用，本拉登怎么被打死的 搞的好像你不是渣渣一样的！ 大脑还好使就说说自己的见解，不好使就不要说话，人家说事，你只会说人 俄狗在哀嚎！ 没这个蛋就不做槽子糕了？世界很大，离开谁地球照样转，没准转的还欢实呢。 这狗日的已经过河撤桥了 支持美日人民，打击资本寡头们，控制政治，为人民服务 特朗普打算全面让亚洲陷入混乱，毕竟只有生乱生战它们的武器才会更加畅销，一切妄想禁枪的美国公民才会哑口无言，毕竟军火生意可以增加太多的就业与国内经济的提升，对自己有利的事情，自然反对的人会闭嘴。 是啊，伊拉克都10多年了，真是富裕了。叙利亚人民普天同庆。 美国人的屁就是香 川普是个商人，习惯性用商人的眼光处理政治。不能说错也不能说对。国家是该看重利益。但政治上没有绝对的利益。就拿中国来说，援助出去那么多有什么直接利益吗？我肯定的回答没有！但间接利益不少，不然现在也不会是常任理事国，也不会在最艰难的时候得到那么多援助。川普带来的好坏现在还说不好，以后估计弊大于利。因为他盲目追求目前盈利 不知楼上是什么层次的？ 世界上根本没有什么基础的价值观，无非说共和资之间，苏联不是共产主义？他照样和美英平排坐分享二战胜利果实，没其他包括国民党什么事，实力说话！ 这个老头不简单 伊拉克人买房、看病、读书有中国贵吗？还嘲笑伊拉克。 一带一路，，， 这叫战略转移。 人民不是老百姓。一楼，你要考虑清楚是站在哪一边。 商人重诺 五年前，奥黑再次当选时候，我难受极了。感觉美国要完了，被白左黑鬼之流破坏殆尽。现在好歹扳回一局，希望不是回光返照 底层蠢渣就是你这样的 美利坚，人类的灯塔！美利坚，黑暗中的光明！ 商人当国，确实是新生事物，因为有硬实力作为支撑，所以军事讹诈，加经济要价，确实很难对付，但是以经济利益为重的商人绝对是赚钱有余，但是真要死破脸打仗，尤其是和中国这样的核国家打仗几乎肯定不可能，因为大家都有核武器，谁输谁灭国！因为他不喜欢双赢，但是更不喜欢双输，所以由此可见，台独危险！因为你们想让美国为你们卖命，你们能出多少钱呢？所以中国再台湾方面划红线，是绝对正确的！！！政治家喜欢算大账，商人只算小账眼前账，古今中外最牛的人都是做政治家，其次才是大商人，所以特朗普必输， 你这个比喻不恰当，换届后老美的风格又会变得，硬要比喻成朋友的话，只能说他今天小气任性一下，明天他还是他，朋友还是朋友，毕竟三观爱好相同。你的朋友就天天顺着你？天天让你占便宜？ 好像没有！😏 把你这条狗急的人家国家利益人民利益第一你个煞笔 巴基斯坦和美国是闹着玩的，和中国是铁兄弟 川普还是比较精明。 😄😄😄 没有巴基斯坦的支持，美帝反恐，恐怕反不了哟 为人民服务， 看来川普与小奥区别很大。 说得好！ 川普上任了才不到一年，感觉做的事比奥巴马八年来做的事都多，美国人的眼光没错，选了个好总统！ 很简单的道理，你生活中的朋友事事只考虑他自己的利益，丝毫不顾及你的感受，只要他满足了至于你是否受伤害不关他屁事，不知道你能和他做多久的朋友？表面上他占尽了便宜，但长远来说了解他的人都不愿和他交往，长远来说对他有什么好处？ 为人民服务 特靠谱😄😄😄 傻B 需要时是朋友，不需要时把人当作草，过河拆桥，这就是美国作派 这种调子白左说得比你更顺溜，但美国人民已经不想再当冤大头了 人的朋友也分三六九等，我觉得你之前一直占我便宜没有任何表示，我还要继续么？我觉得交你这个朋友没用，每次吃饭还得我掏钱，屁用没有，我还要你有屁用？ 美国的硬实力NO1毫无疑问，爱负责任是软实力。美国吸引全世界人民就是软实力而不是军队厉害。特朗普美国优先策略短期对美国有利，长期来说对美国没什么好处。政治不只是生意，唯经济利益至上最终会自吃苦果。 特朗普没朗普 商场上的成功者，魄力，决断，精明，是最基本的素质！ 恶果？看不爽就打呗，可问题谁先跟美国打头阵？又谁有资本跟美国叫板？强大的国家背后必定得有牛逼的军队加经济支撑，不好意思，美帝都有！所以想让美帝吞恶果得先掂量掂量自己几斤几两，别到时候自己带头冲锋其他人转身就跑，那就太尴尬了！ 上来就攻击别人日杂美狗，这也是见解？难道你脑子坏了。这只不过是亲民主与亲独裁的政治立场 做演员的里根效果如何？ 国与国之间哪来的朋友啊，都是利益的交换。 此一时彼一时人，国有如此。 美利坚合众国是人类的大救星！没有美国，这世界不敢想象 美狗何其多 美元霸权利益集团，忽悠炮灰，太多了 你还别说！网易里必出伟人！ 小哥哥小姐姐都是好朋友呗…… 有一类国家就是说一套做一套 就冲巴基斯坦和中国的关系美国就该考虑敌人的敌人是朋友朋友的朋友是什么呢？ 巴基斯坦绝对不靠谱，收钱不办事的连贱货都不如 奥黑在任这八年到底做了什么呀！ 可以了！本拉登不就是在巴基斯坦被出卖的嘛！ 美人希 那背景深厚的希拉里怎么输了？ 人类公敌，法西斯 商人持国，历史还少么？没见过有好下场的，等于给了中国和欧洲机会，挺好，支持川普继续大刀阔斧“改革”！哈哈 明白人 流水的白宫，铁打华尔街犹，，资本控制，美国政治 美国军队强大，经济发达，是结果而不是原因，楼上有几个，长了脑袋的吗？好好想想美国为什么如此强大，经济如此发达？放眼全球，军队强大的国家多了去了，大秦，汉唐元明清，波斯，德国，日本，苏联，哪个不完蛋了？而美国，至少在未来很长时间内，仍是移民的最大进入国。这已经说明了一切。 别的我不关心！我只是想知道世界上俄罗斯，伊朗巴基斯坦叙利亚朝鲜古巴……都是什么国家？？？！！！ 明白人呀 神州第一智囊——朱🐛🐛 世界上根本没有什么基础的价值观，无非说共和资之间，苏联不是共产主义？他照样和美英平排坐分享二战胜利果实，没其他包括国民党什么事，实力说话！ 扯淡，见不得一直又嘿又骂的美国变得更好而已 川普做事实在、说话也不会空讲，言语是真性情，没有政客精致的敷衍粉饰，现在连老天都在帮他，这说明也他是属于光明使者！ 巴贼死绝九族的呀种 尼玛！得网易智囊的天下！ 你美爹只是搅屎棍子，你也学会了 这种调子白左说得比你更顺溜，但美国人民已经不想再当冤大头了 本拉登也只是在他任期上面被干掉的，早晚死，这个不算，只是小布什时期他运气好而已 太好了。您们早就该这样了！ 看看人家美国的尖端科技！的确太厉害了！差距几十年啊！ 得网易评论区者得天下，全球的智囊团都应该先来网易评论区学习一个月 一带一路打造人类利益共同体，去美元金融殖民，剥削 如果是希拉里呢 当不同的声音越来越少，四处身和善铁，这国家怎样我不知道，但这民族危在旦夕。 为了美国的利益，他可以连国宴都省了 大企业老板的经历见解能力和手段都是最直接的，不是奥巴马那种傀儡总统一般的 实干家 哈哈哈哈 那也是吹牛的资本 美元霸权资本寡头势力，忽悠炮灰奴才棋子，太多了 一带一路，丝绸之路 早就该给流氓无赖们断奶了！ 哈哈哈哈哈 捡水瓶的瞎起哄，买馒头了没有？看看我捡塑料桶的都不操那份闲心，唉，老吃红烧肉都腻了。 人类公敌，美元霸权资本利益集团支持的，法西斯 川普上任了才不到一年，感觉做的事比奥巴马八年来做的事都多，美国人的眼光没错，选了个好总统！ 美国的硬实力NO1毫无疑问，爱负责任是软实力。美国吸引全世界人民就是软实力而不是军队厉害。特朗普美国优先策略短期对美国有利，长期来说对美国没什么好处。政治不只是生意，唯经济利益至上最终会自吃苦果。 恶果？看不爽就打呗，可问题谁先跟美国打头阵？又谁有资本跟美国叫板？强大的国家背后必定得有牛逼的军队加经济支撑，不好意思，美帝都有！所以想让美帝吞恶果得先掂量掂量自己几斤几两，别到时候自己带头冲锋其他人转身就跑，那就太尴尬了！ 好友呗！ 美狗不服了，开始汪汪汪了，呵呵呵呵 哈哈哈，马杜罗，出身公交车司机吧？这国家管的真牛逼，老朋友 打脸 把全世界都得罪了，我看你到时候和自己玩！ 美国优先没错啊，中国做的难道不是中国优先这样的事，如果不是那和卖国有何区别 捡水瓶的瞎起哄，买馒头了没有？看看我捡塑料桶的都不操那份闲心，唉，老吃红烧肉都腻了。 恐怖分子是美国一手制造的，美国人的思维逻辑“敌人的敌人就是朋友”，川普也不过就是一个强盗的代言人 吃中国人饭操美国人心 在这种久经商场的老江湖面前，一切忽悠都靠边! 说白了白左就是整天嘴炮画饼，老百姓几十年交那么多税却见不到一丝实惠 美国坚持美国利益优先，英国坚持英国利益优先，日本坚持日本利益优先……这有什么错，难不成你还倡导他国利益优先？总有人喜欢一本正经讲笑话。 用商业思维经营国家，格局小了。 他逛了哪些商场？大润发？ 吃中国人饭操美国人心 学霸还会怕学渣的成绩反超自己？重点还是这个学霸还在不断进步！ 美亡，日欢，美日，狗咬，狗历，史 老特啊，有人比你更愿意心甘情愿被骗，只要联合国大会上投一票就行。 傻逼既然总说美国不敢打中国，为何老是说美帝亡我之心不死？为何美国一定要打中国？你这遍地黄金？总是受迫害妄想症！全世界那么大，就你中国是黄金宝地谁都想侵略你？ 巴基斯坦：恐怖分子都抓完，那你还会每年给钱吗？ 説來説去還是中或贏對吧？ 流水的白宫，铁打华尔街犹，，资本控制，美国政治 巴基斯坦对于恐怖分子的态度，还有不知道的吗？本拉登一直躲在哪里？ 美国军队强大，经济发达，是结果而不是原因，楼上有几个，长了脑袋的吗？好好想想美国为什么如此强大，经济如此发达？放眼全球，军队强大的国家多了去了，大秦，汉唐元明清，波斯，德国，日本，苏联，哪个不完蛋了？而美国，至少在未来很长时间内，仍是移民的最大进入国。这已经说明了一切。 一楼不如说你家钱多，没所谓 没毛病收人钱财替人消灾！ 你说好就好 美亡，日欢 吃中国人饭操美国人心 直白说吧，別一套一套的。就像黑社会老大为了壮大自己势力收更多的保护费或得更多的好处，当然拉一帮小弟吃吃喝喝，小弟才会卖力帮你占山头，但有一天老大说凭我的能力挣到的为什么要和你们小的分，以后都归我，不再吃饭喝酒了。作为老大的家人当然拍手叫好啊拿回的家用肯定比以往多了。<br>那么，最后老大的势力会不会一直这么强大下去呢？<br>用脑子好好想想小孩子都知道的问题。 这种调子白左说得比你更顺溜，但美国人民已经不想再当冤大头了 对，二楼出傻逼定律 巴基斯坦：“老铁，快打钱过来，我要买F16。” 定律真准 美总统不错 尼玛！得网易智囊的天下！ 支持美国！加油！ 直接说前几任总统是傻逼不就行了，可是这里不少美粉之前跪舔这些傻逼呢，哈哈哈，这里的精分真是多 商人当国，确实是新生事物，因为有硬实力作为支撑，所以军事讹诈，加经济要价，确实很难对付，但是以经济利益为重的商人绝对是赚钱有余，但是真要死破脸打仗，尤其是和中国这样的核国家打仗几乎肯定不可能，因为大家都有核武器，谁输谁灭国！因为他不喜欢双赢，但是更不喜欢双输，所以由此可见，台独危险！因为你们想让美国为你们卖命，你们能出多少钱呢？所以中国再台湾方面划红线，是绝对正确的！！！政治家喜欢算大账，商人只算小账眼前账，古今中外最牛的人都是做政治家，其次才是大商人，所以特朗普必输， 一年为美国节约了几百亿 五年前，奥黑再次当选时候，我难受极了。感觉美国要完了，被白左黑鬼之流破坏殆尽。现在好歹扳回一局，希望不是回光返照 美狗太多！ 把巴基斯坦那种垃圾一起反了 美国若不在全球布局，世界能源资源价格势必对美国不利，还有政治话语权，这些都是军事强大的红利，如果你收缩回去，长久看谁得力 商业模式运行国家是最好的，你看川普没对中国怎么滴哇～因为他想和中国做生意～中国不是如此吗？ 美粉真开心，可惜你们美爹并不欢迎你们 美国的援助都是带目的性的 美粉真开心，可惜你们美爹并不欢迎你们 支持美国把全球的军事基地都撤回去，油价还不涨上天 难道将红旗插遍天下就是有格局，我觉得国内严重信息不对称造思维局限更加可怕。 一带一路 美粉真开心，可惜你们美爹并不欢迎你们 没有巴基斯坦的支持，美帝反恐，恐怕反不了哟 特朗普随便一句话随时会把国际社会搅得沸沸扬扬，其它国家元首不敢讲的，特朗普嘴巴一张就喷出来了，但只要触及到美国利益，特朗普连骨髓细胞都会打算 川普上任了才不到一年，感觉做的事比奥巴马八年来做的事都多，美国人的眼光没错，选了个好总统！ 美粉真开心，可惜你们美爹并不欢迎你们 说这话傻逼么？核大战有赢家么？脑子呢？ 美粉真开心，可惜你们美爹并不欢迎你们 让一部分人先富起来 做实事的人 小李啊，赶明儿叫财政部拔款五亿给我们的巴铁，这事你去办，搞好了中科院院士还缺一个位我给你报名了，完事给我去伊朗买点鱼子酱，没鱼子酱吃好难受 好好好，绝不会拿平民百姓的血汗钱💰💰送人，撑屁脸！ 美国的硬实力NO1毫无疑问，爱负责任是软实力。美国吸引全世界人民就是软实力而不是军队厉害。特朗普美国优先策略短期对美国有利，长期来说对美国没什么好处。政治不只是生意，唯经济利益至上最终会自吃苦果。 67楼，小心被喷呦 恶果？看不爽就打呗，可问题谁先跟美国打头阵？又谁有资本跟美国叫板？强大的国家背后必定得有牛逼的军队加经济支撑，不好意思，美帝都有！所以想让美帝吞恶果得先掂量掂量自己几斤几两，别到时候自己带头冲锋其他人转身就跑，那就太尴尬了！ 没有了恐怖分子还能要到钱吗？还能买f16吗？巴基斯坦不傻但做的有点过分。 特浪普是个务实的家伙呀，想用国家自身发展服务民众，而不是去当世界警察满世界占便宜，从道义上来说挺难得。 美国什么时候当个冤大头，给钱都有政治目的的，就是要控制别国政府，军队和经济，掠夺别国资源，俘像现政府鼠目寸光终将后悔。 反了中国怎么办？😂😂 问问你在骂谁 在这种久经商场的老江湖面前，一切忽悠都靠边! 除了小布什其他都还好 用时间说话 怎么别人家的都不傻？ 为美国人民操碎了心，😂 美国佬的目的就是卖军火，假如局面一边倒，军火生意就长不了。 美帝宇宙中心 特靠谱 控制了日本猪71年，还要100年 傻逼独裁者们该颤抖了 奥巴马特只模子册那捣浆糊 当老大没好处谁跟你混，单靠拳头能撑多久，只有组建一个利益共同体才有可能长久 美国移民多是因为富，南非政体照搬欧美，也没见你们死乞白赖要过去。说白了，移民的素质最低，出去更好。都是不想建设，只想享受成果的。送你们一个字，滚！ 你们都懂的好多，我去搬砖还房贷了 美亡，日欢 有句话叫道不同不相为谋 你们有人了解巴基斯坦么？<br>笑死我了<br>巴基斯坦的外交几乎是最牛的，最根本的就是直接促进中美建交，川普说这话纯粹扯淡，不仅否认别人，连自己几十年来的总统和外交都否定了。<br>可笑的跪舔犬，舔得技术越来越次了，逢美必舔变成无脑舔，人家就是鼓吹一下新政，就花式跪舔，这样一来，跪舔前几代总统的狗父也被全盘否定了(σ՞ਊ՞)σ 国家间只有利益，什么共同价值观，都是狗屎，沙特和美国是亲密盟友，价值观一样吗？？？？ 嗯嗯，美国政策应该优先中国才对 美国军队强大，经济发达，是结果而不是原因，楼上有几个，长了脑袋的吗？好好想想美国为什么如此强大，经济如此发达？放眼全球，军队强大的国家多了去了，大秦，汉唐元明清，波斯，德国，日本，苏联，哪个不完蛋了？而美国，至少在未来很长时间内，仍是移民的最大进入国。这已经说明了一切。 走了70年了，还要走多久 这种调子白左说得比你更顺溜，但美国人民已经不想再当冤大头了 狭隘的世界观楼上好几个，难道美国被债务拖垮了对那些美国的盟友有利？ 丝绸之路 忽悠不下去了吧？ 新的一年开始了，预估任务会越来越重 这才是真正为人民谋福利。 这老头，太实在了 斯坦国基本上不是什么好东西！ 画个饼先 一带一路 真想反恐早反没了 没有巴基斯坦的支持，美帝反恐，恐怕反不了哟 什么？朕的大清亡了？ 支持美日人民，推翻资本家族寡头，控制政治 mg 修身齐家治国平天下，这自己都混成一个流浪的混混，最后考打砸抢挟持了百姓，号称是精英长远，不注重商业利益，也只有麻椒国家是如此对此青睐 川普上任了才不到一年，感觉做的事比奥巴马八年来做的事都多，美国人的眼光没错，选了个好总统！ 美亡，日欢 美亡，日欢 咱只有羡慕嫉妒恨 一带一路 不错不错很直白 打造人类利益共同体 特朗普厉害👍看出了问题的实证。现在的巴基斯坦和中国古代的守边将领是一样的，就是“养寇自重”。永远不把寇剿完，这样才能向朝廷没完没了的要💰保权利在手 特朗普经过商，就说是商人当政，那卡特还卖过报呢，就是报童当政，里根当过演员，就是演员当政？是不是没有职业的人做总统，才算是正治家？在你眼里哪个职业的人当总统，才算是正治家？因为世界上根本没有正治家这个职业。 川普，靠谱！ 川普带来的不仅仅是各种郑策上的变革，更带来的是一种政坛上的务实做派风气，让政治阴谋以及虚的东西暴露在阳光下， 美国的硬实力NO1毫无疑问，爱负责任是软实力。美国吸引全世界人民就是软实力而不是军队厉害。特朗普美国优先策略短期对美国有利，长期来说对美国没什么好处。政治不只是生意，唯经济利益至上最终会自吃苦果。 恶果？看不爽就打呗，可问题谁先跟美国打头阵？又谁有资本跟美国叫板？强大的国家背后必定得有牛逼的军队加经济支撑，不好意思，美帝都有！所以想让美帝吞恶果得先掂量掂量自己几斤几两，别到时候自己带头冲锋其他人转身就跑，那就太尴尬了！ 真是替美国操碎了心，不知道你下顿饭的钱挣着了没 老特好样的，顶你 直接说前几任总统是傻逼不就行了，可是这里不少美粉之前跪舔这些傻逼呢，哈哈哈，这里的精分真是多 大实话 巴基斯坦跟他周围的国家都不一样，如果没有援助它贫穷下去或者说是乱下去，它很有可能成为第二个阿富汗，或者说它现在正在往这方面变化。如果真变成第二个阿富汗，我敢像你保证绝对会冒出来好几个本拉登，到时候就不是给点钱那么简单了。 商人比政治人物可靠 "
    },
    "Article": "（原标题：特朗普:美\"愚蠢\"援助巴基斯坦15年仅收获\"欺骗\"）特朗普。资料图。海外网1月1日电据路透社报道，美国总统特朗普周一(当地时间1月1日)表示，过去15年，美国援助巴基斯坦330多亿美元的行为十分“愚蠢”，美国未从中得到任何回报。特朗普同时承诺，他将停止对巴基斯坦的援助。据报道，特朗普发Twitter说，“我们努力地在阿富汗追捕恐怖分子，他们(巴基斯坦)却致力于为恐怖分子提供安全庇护所。不能再这样下去了!”特朗普还表示，在过去的15年里，美国“愚蠢地”给了巴基斯坦超过330亿美元的援助，但巴基斯坦“回馈”给美国的只是“谎言和欺骗”，这无疑是把美国的领导人“当成傻瓜”。报道称，目前尚不清楚是什么原因促使特朗普如此批评巴基斯坦。但长期以来，特朗普不断“抱怨”巴基斯坦政府在遏制伊斯兰极端分子方面做得不够。据《纽约时报》12月29日的报道，特朗普正在“认真考虑”是否要停止向巴基斯坦提供2.55亿美元的援助。特朗普曾于2017年8月表示，将推迟向巴基斯坦提供2.55亿美元的援助。该报还透露，美国官员曾试图寻找在巴基斯坦被捕的一名极端组织(Haqqaninetwork)成员，该组织可能提供至少一名美国人质的信息。报道称，美国驻阿富汗最高将领约翰·尼科尔森(JohnNicholson)曾在2017年11月表示，虽然特朗普对巴基斯坦采取了更强硬的立场，但他并未看到巴基斯坦对极端分子采取更有力的处置措施。对此，巴基斯坦方面反驳称，巴基斯坦政府一直通过军事行动不断地将伊斯兰极端分子从其国土上赶走。自2001年以来，该国已有17000人死于伊斯兰极端分子的袭击。(编译/刘亚伟)本文来源：海外网责任编辑：官平_NN4892",
    "Source": "Netease",
    "Title": "特朗普:美国\"愚蠢\"援助巴基斯坦15年 仅收获\"欺骗\"_网易新闻",
    "KeyWords": "巴基斯坦,特朗普,援助,美国",
    "URL": "http://news.163.com/18/0102/00/D73S8J3V00018AOR.html"
}