{
    "URL": "http://news.163.com/17/1228/09/D6NVLI850001875N.html",
    "Comment": {
        "Reply": 57,
        "Content": "还2018！！！怎么不5000年中国大学排行榜啊！！！ 酒店么？ 今天几号？？？？？2018的排名都出来了666 思想不字油盐论不字油每个人只是完成上级安排的任务，何来大师发明创新?拆拿所谓的人才就是学会使用美欧日的生产设备! 包子，饺子，油条[大笑] 教育部也不管这野鸡排名，误导多少学生 垃圾排名吧 星级也通胀??? 还有一星级大学?只听过一级学科. 武昌首义学院是培养什么人的？是新黄埔军校吗？ 培养了几个大科学家、大思想家、大艺术家？ 干嘛八星啊？要给就给十星！ 很快，十星级就要出炉了。 什么时候到100星再出来说吧才八星？八星八箭吗？ 清华北大中国人大和哈佛剑桥牛津相比，8星变3星。 闲得蛋疼。 我就想知道排第一的那个大学谁建立的? 十年前的12月，一个人赞了我，他娶了年轻貌美的女朋友。去年的12月，另一个人赞了我，他中了500万。今年的12月，赞了我的人都娶了年轻貌美的姑娘结婚那天中了500万。别说我不够意思，话已经放这里 国人就是喜欢排名 要牛出天际啊 八星八箭，赞👍 你说几星就几星，你开心就好。 看到艾瑞森的...都懒得看 八星八钻 这他妈18年都没到你就给排出来了，我服 野鸡排行榜，新闻标题看起来是权威机构做的排名，没想到是这种不靠谱的网站 司马南移民美国啦 再评几年，美国人就要来告你们滥用人家国旗了🇺🇸 我草！5星不够评还8星？既然能突破5星来个8星，未来9星10星……也不远了，天空无极限！到时星级或信用就烂大街了！ 我来检举这个湖南的垃圾艾瑞森校友会网的可笑之处：1.前几年将武大排第三，今年学乖了；2前几年将长安大学排42，陕西第三，今年学乖了，直接降20！3.吹捧湖南师范，尽管它ESI顶尖学科才2个；4.年年升星级，从五星向十星迈进。 八星级大学，看我肌肉大不？[窃笑] 我觉得美国国旗上星星也够你们这么批发的 太谦虚了，也么也得80星⭐⭐⭐⭐⭐⭐⭐ 钱多地位高就是排名靠前？有几个科研成果？学科巨匠？ 八星级^_^ 总共几个星 这都是谁啊？ 估计是武书连排的，没把武大排第一就很客气了，哈哈哈。 武书连捧的是浙大！艾瑞森捧的才是武大！ 京城人沪上人武汉人喜欢排名，而且都喜欢自己给自己排 真是放屁排名 美国国旗很快就能用上了，加油，评委们！ 司马南，苪成钢，胡锡进? 呵呵😊 辣鸡排名学校校长都什么人 壮哉我人大 教育部也不管这野鸡排名，误导多少学生 星级也通胀??? 干嘛八星啊？要给就给十星！ 十年前的12月，一个人赞了我，他娶了年轻貌美的女朋友。去年的12月，另一个人赞了我，他中了500万。今年的12月，赞了我的人都娶了年轻貌美的姑娘结婚那天中了500万。别说我不够意思，话已经放这里 厉害 八星八钻 要牛出天际啊 中国人给自己的星 你说几星就几星，你开心就好。 司马南移民美国啦 湘潭大学没落到四非之末 司马南，苪成钢，胡锡进? 太谦虚了，也么也得80星⭐⭐⭐⭐⭐⭐⭐ 野鸡排行榜，新闻标题看起来是权威机构做的排名，没想到是这种不靠谱的网站 很快，十星级就要出炉了。 武书连捧的是浙大！艾瑞森捧的才是武大！ 京城人沪上人武汉人喜欢排名，而且都喜欢自己给自己排 培养了几个大科学家、大思想家、大艺术家？ 美国国旗很快就能用上了，加油，评委们！ 看到艾瑞森的...都懒得看 河北真惨，为啥大家都知道 八星八箭，赞👍 真是放屁排名 什么时候到100星再出来说吧才八星？八星八箭吗？ 清华北大中国人大和哈佛剑桥牛津相比，8星变3星。 闲得蛋疼。 提一档显与众不同 国人就是喜欢排名 看到山东英才学院很居前，就知道民办有多……呵呵 这他妈18年都没到你就给排出来了，我服 包子，饺子，油条[大笑] 我草！5星不够评还8星？既然能突破5星来个8星，未来9星10星……也不远了，天空无极限！到时星级或信用就烂大街了！ 还有一星级大学?只听过一级学科. 八星级大学，看我肌肉大不？[窃笑] 我觉得美国国旗上星星也够你们这么批发的 钱多地位高就是排名靠前？有几个科研成果？学科巨匠？ 总共几个星 垃圾排名吧 估计是武书连排的，没把武大排第一就很客气了，哈哈哈。 我来检举这个湖南的垃圾艾瑞森校友会网的可笑之处：1.前几年将武大排第三，今年学乖了；2前几年将长安大学排42，陕西第三，今年学乖了，直接降20！3.吹捧湖南师范，尽管它ESI顶尖学科才2个；4.年年升星级，从五星向十星迈进。 瞎扯 培养的钢哥的确牛，世界政要不是伙计就是哥们。[可怜] 还2018！！！怎么不5000年中国大学排行榜啊！！！ 酒店么？ 流星月亮地球太阳系有发动机么？没有!他们却高速在宇宙中运行!为什么？因为他们的运行轨道本身就是太空高速时空隧道!他们的运行路线一半为去路一半为来路，周而复始地运行着!地球自转公转着，本就没有东西南北上下左右等方位!谁定的？我们的天父啊!目的只有一个，告诉人类我们天父的星座方位!所以九曲桥的方向始终对着东北方!在宇宙一切物质中，永远是子体围绕母体运动，这是恒定的!所以地球自转并围绕太阳公转!因地球是自转公转的，所以根据地球的东西南北是找不到星外文明的星座方位的!只有找到太阳的上下前后东西南北才能准确地给天父星座方位定位!我们天父星座方位在太阳系东北上方第九颗恒星那里!那里以双伴恒星为中心带动周围108颗恒星运动着! 司马南，苪成钢，胡锡进? 武昌首义学院是培养什么人的？是新黄埔军校吗？ 今天几号？？？？？2018的排名都出来了666 这些大学培养了几个诺贝尔奖得主？培养了几个大师级人物呢？ 八星级^_^ 这都是谁啊？ 思想不字油盐论不字油每个人只是完成上级安排的任务，何来大师发明创新?拆拿所谓的人才就是学会使用美欧日的生产设备! 培养了几个大科学家、大思想家、大艺术家？ 我就想知道排第一的那个大学谁建立的? 再评几年，美国人就要来告你们滥用人家国旗了🇺🇸 后悔当初没有好好学习考一个好大学 ",
        "Total": 1283,
        "Link": "http://comment.news.163.com/news_guonei8_bbs/D6NVLI850001875N.html"
    },
    "Title": "2018中国大学排行榜出炉 3所大学获评八星级大学_网易新闻",
    "Source": "Netease",
    "KeyWords": "大学排行榜,中国,大学,复旦大学",
    "PublishTime": "12/28/201709:20:14",
    "Article": "（原标题：2018中国大学排行榜出炉北大清华连续11年蝉联冠亚军）新京报快讯记者今日获悉，《2018中国大学评价研究报告—中国高考志愿填报指南(校友会版)》已编写完成，报告公布2018中国大学排行榜1200强，其中北京大学、清华大学综合实力最强，连续11年蝉联冠亚军;浙江大学、复旦大学、中国人民大学分列第3至第5名。此外，在排行榜前百强中，共有87所双一流高校跻身。除了2018中国大学排行榜，报告中还发布了多个榜单。在2018中国最好大学排行榜中，清华大学、北京大学、中国人民大学分列前3名，并获评八星级大学，办学层次为“世界一流大学”;复旦大学、南京大学、浙江大学、上海交通大学、中国科学技术大学等16所大学紧随其后，获评七星级大学，办学层次为“世界知名高水平、中国顶尖大学”。在2018中国非双一流大学排行榜中，昆明理工大学、深圳大学、福建师范大学、燕山大学、华南农业大学位列前5强。在2018中国民办大学排行榜中，武昌首义学院位居榜首，文华学院、山东英才学院、西安欧亚学院、三亚学院分列第2至第5名。报告还显示，1980年至今，全国高校累计接受校友捐赠251亿，7所高校校友捐款超10亿，清华大学、北京大学和中国人民大学三所高校获校友捐赠超21亿。在2018中国大学最慷慨校友排行榜中，复旦大学校友、中国泛海控股集团董事长卢志强位列第1，累计捐款10.43亿元。据悉，这是艾瑞深中国校友会网连续第16年发布中国大学排行榜。今年的排行榜评价指标体系包括9大系列指标，分别为教学质量(占比27.97%)、杰出师资(占比13.21%)、学科专业(占比10.88%)、科研成果(占比17.09%)、科研项目(占比7.77%)、科研基地(占比6.99%)、办学层次(占比1.17%)、社会声誉(占比10.49%)和国际影响(占比4.43%)。本文来源：新京报责任编辑：程钢_NN7377"
}