{
    "Source": "Netease",
    "KeyWords": "AG600,水陆两栖飞机,首飞,",
    "URL": "http://news.163.com/air/photoview/56NT0001/2286847.html",
    "PublishTime": "12/24/201710:51:39",
    "Comment": {
        "Content": "祖国好样的！ 可喜可贺 中国加油！！！ 祖国好样的！ 可喜可贺 中国加油！！！ AG600大型灭火、水上救援水陆两栖飞机 可贺 加油中国 厉害了我的国 真是海阔凭鱼跃，太空任鸟飞，正在崛起我的中国！ ",
        "Total": 84,
        "Link": "http://comment.news.163.com/photoview_bbs/PHOT25P7V000156N.html",
        "Reply": 8
    },
    "Article": "大型水陆两栖飞机AG600首飞成功据央视新闻报道，12月24日上午9点40分，中国自主研制、全球在研最大水陆两栖飞机AG600在广东珠海首飞成功。",
    "Title": "大型水陆两栖飞机AG600首飞成功_网易新闻"
}