{
    "Title": "相邻小吃店为揽客开启互黑模式 挂横幅:隔壁不好吃_网易新闻",
    "URL": "http://news.163.com/17/1225/20/D6HEOG110001899N.html",
    "Source": "Netease",
    "Comment": {
        "Total": 1091,
        "Reply": 67,
        "Content": "最后三家都垮了 是不是因为有三宝！直播，保健和烧烤[微笑] 那个傻逼是你 东北人最傻逼了 餐饮越来越难做了何时是个头高房租。高物价。各种税员工工资问题特么的消费者工资不涨。。菜价也不敢张 口音就是东北的[挨揍][挨揍] 这不是自黑，要是自黑应该说“他家好吃”然后傍边家也指着你家说“他家好吃”，这样才有效果 你的员工也是别的店铺的消费者，你给他们涨了没？为什么不涨？你的问题就在你的答案里！！ 东北人啊，哎不是蠢就是傻要么就流氓 谁特么的把我拍里面了 接到南方人电话百分之九十都是电信诈骗 要是我隔壁店挂横幅说我店不好吃，我会在店门上挂：只有尝了才知道！ 是山东的不过也差不多 👆楼上傻瓜👇楼下傻瓜 大碴子味 没这么干的！挣钱归挣钱，不能坏了良心！先做人，后做事，这是铁律！如若不然，只能两败俱伤，谁也捞不着好！ 这种低级黑，放网易只是最低等的喷子。 南方人啊，哎不是造假的就是诈骗的要么就是开黑心医院的 后来三家成了美容店 不彪吧？人家三家串通好的闹着玩呢，要是真的第一个挂条幅的早给砸了 这边人不会犯这种低级错误！弱智行为 你要是搞个表情符，还显得有趣，这样直白的横幅，多数人不知道你们是开玩笑的，进去消费会感觉自己没品位的 比海蛎子味好听 其实真的不好吃，全部都不好吃。 视频女主角的体型水多[不屑] 干你媳妇了？ 三家都不去，都不好吃。去别家吃 那个傻逼是你 真会玩难为住了我到底要去吃哪家 是不是因为有三宝！直播，保健和烧烤[微笑] 👆楼上傻瓜👇楼下傻瓜 是我我就一家都不去！互相攻击的人本身也好不到那去！ 原来都不好吃 哪家是火锅店 不明真相的看到这么光明正大的互黑，真怕进入吃会被报复！ 你在找我吗 隔壁的沙县坐收渔利 谁特么的把我拍里面了 喜欢简单地域黑的人，大脑会越来越不好用，人会越来越傻逼，看不见是山东发生的事情？ 同意 咱们没关系的做生意确实很可怜 最后三家都垮了 东北人最傻逼了 你的员工也是别的店铺的消费者，你给他们涨了没？为什么不涨？你的问题就在你的答案里！！ 挺有意思 不做生意的人恐怕不知道恶意竞争的问题，最关键的问题是，如果你给你的员工上涨了工资也上涨了菜价，可是你的对手却不涨工资也不涨菜价怎么办？对手认为可以通过低价的方式抢夺你的客户然后薄利多销呢？如今谁也不愿意打破平衡，就这样保持下去，只有当房租和物价不断提升这个共同性才会让所有同行一起提升菜价，当然了，员工工资可能不会变化。 这种低级黑，放网易只是最低等的喷子。 南方人啊，哎不是造假的就是诈骗的要么就是开黑心医院的 后来三家成了美容店 如果是2家，就JY，直接去领证吧 最后三家都非常好吃，而且生意火爆，都发财了 都是傻逼 主页君笑了 沙县都戒吧老哥去吃毕竟官方合作大酒店 山东的不奇怪 口音就是东北的[挨揍][挨揍] 呵呵 我觉得改成“他们家好吃”不行吗？ 大碴子味 这个是3家，果然“铁哥们” 餐饮越来越难做了何时是个头高房租。高物价。各种税员工工资问题特么的消费者工资不涨。。菜价也不敢张 我看你最傻逼了 这不是自黑，要是自黑应该说“他家好吃”然后傍边家也指着你家说“他家好吃”，这样才有效果 骂了隔壁 东北人啊，哎不是蠢就是傻要么就流氓 蛮夷之地也敢这么说 然后三家都倒闭了 接到南方人电话百分之九十都是电信诈骗 涨也要整个市一起涨一家涨死得更快 是山东的不过也差不多 博眼球无下限 要是我隔壁店挂横幅说我店不好吃，我会在店门上挂：只有尝了才知道！ 。。。。。。。。。。。。。。。 不彪吧？人家三家串通好的闹着玩呢，要是真的第一个挂条幅的早给砸了 你要是搞个表情符，还显得有趣，这样直白的横幅，多数人不知道你们是开玩笑的，进去消费会感觉自己没品位的 比海蛎子味好听 山东出biao子，瞿欣欣，刘鑫，这一口大碴子味！ 看见这样就恶心，是我一个都不去吃 反正看地域撕那么火，就是觉得该多通婚 没这么干的！挣钱归挣钱，不能坏了良心！先做人，后做事，这是铁律！如若不然，只能两败俱伤，谁也捞不着好！ 哈哈，感觉挺好玩的 东北人最傻逼了 估计没人敢进去吃，进去万一三家打起来了就不好玩了[大笑] [微笑] 三个朋友自己玩，拉人气的 其实真的不好吃，全部都不好吃。 哦相互炒作。。。[鄙视] 横这种标题。我是三家都不敢踏进去 三个熟人在一起开三家一样的店这还能有钱赚吗 ",
        "Link": "http://comment.news.163.com/news2_bbs/D6HEOG110001899N.html"
    },
    "Article": "（原标题：餐馆互黑新境界,打横幅:隔壁不好吃）#endText.video-infoa{text-decoration:none;color:#000;}#endText.video-infoa:hover{color:#d34747;}#endText.video-listli{overflow:hidden;float:left;list-style:none;width:132px;height:118px;position:relative;margin:8px3px0px0px;}#entText.video-lista,#endText.video-lista:visited{text-decoration:none;color:#fff;}#endText.video-list.overlay{text-align:left;padding:0px6px;background-color:#313131;font-size:12px;width:120px;position:absolute;bottom:0px;left:0px;height:26px;line-height:26px;overflow:hidden;color:#fff;}#endText.video-list.on{border-bottom:8pxsolid#c4282b;}#endText.video-list.play{width:20px;height:20px;background:url(http://img1.cache.netease.com/video/img14/zhuzhan/play.png);position:absolute;right:12px;top:62px;opacity:0.7;color:#fff;filter:alpha(opacity=70);_background:none;_filter:progid:DXImageTransform.Microsoft.AlphaImageLoader(src=\"http://img1.cache.netease.com/video/img14/zhuzhan/play.png\");}#endText.video-lista:hover.play{opacity:1;filter:alpha(opacity=100);_filter:progid:DXImageTransform.Microsoft.AlphaImageLoader(src=\"http://img1.cache.netease.com/video/img14/zhuzhan/play.png\");}if(/(iPhone|iPad|iPod|Android|NETEASEBOBO|blackberry|bb\\d+)/ig.test(navigator.userAgent)||/safari|chrome|firefox/i.test(navigator.userAgent)&&navigator.plugins&&!navigator.plugins[\"ShockwaveFlash\"]){varstr1='<videocontrols=\"controls\"preload=\"auto\"width=\"100%\"poster=\"http://vimg3.ws.126.net/image/snapshot/2017/12/1/3/VU5JKAS13.jpg\"style=\"max-height:100%\">';varstr2='<sourcetype=\"video/mp4\"src=\"http://flv.bn.netease.com/videolib3/1712/25/tWVny4137/SD/tWVny4137-mobile.mp4\">您的浏览器暂时无法播放此视频.</video>';document.getElementById(\"FPlayer1404863609673\").parentNode.innerHTML=str1+str2;}餐馆互黑新境界,打横幅-隔壁不好吃（来源：original）window.NTES&&function(d){varf=function(c){varb=c.getAttribute(\"flashvars\"),a=c.getAttribute(\"repovideourl\").replace(\".flv\",\"-mobile.mp4\");h=d(c.parentNode.parentNode.parentNode),g='<embedsrc=\"http://v.163.com/swf/video/NetEaseFlvPlayerV3.swf\"flashvars=\"'+b+'\"allowfullscreen=\"true\"allowscriptaccess=\"always\"quality=\"high\"wmode=\"opaque\"width=\"100%\"height=\"100%\"type=\"application/x-shockwave-flash\"/>';if(/(iPhone|iPad|iPod|Android|NETEASEBOBO|blackberry|bb\\d+)/ig.test(navigator.userAgent)){g='<videocontrols=\"controls\"preload=\"auto\"width=\"100%\"height=\"100%\"><sourcetype=\"video/mp4\"src=\"'+a+'\">您的浏览器暂时无法播放此视频.</video>';}h.$(\".video\")[0].innerHTML=g;},e=function(b){vara=d(b.parentNode.parentNode.parentNode);a.$(\"li\").removeCss(\"on\"),b.addCss(\"on\"),a.$(\".video-title\")[0].innerHTML=\"string\"==typeofb.textContent?b.textContent:b.innerText,a.$(\".video-title\")[0].setAttribute(\"href\",b.getAttribute(\"url\")),a.$(\".video-from\")[0].innerHTML=\"（来源：\"+b.getAttribute(\"source\")+\"）\",f(b);};window.continuePlay=function(){vara,b=d(d(\".video-list.on\")[0].nextSibling);3==b.nodeType&&(b=d(b.nextSibling));if(b&&d(\".video-innerinput\")[0].checked){e(b);}},function(){vara={init:function(){if(d(\".video-listli\")[0]){d(d(\".video-listli\")[0]).addCss(\"on\"),this.eventBind();}},eventBind:function(){d(\".video-listli\").addEvent(\"click\",function(b){e(d(this)),b.preventDefault();});}};a.init();}();}(NTES);山东青州，一美食街上的三家小店分别挂上横幅，都说另外两家店不好吃。其中一家店主介绍，三家店的老板都是朋友，以这种自黑的方式揽客。本文来源：梨视频责任编辑：徐萌_NN7485",
    "PublishTime": "12/25/201720:29:17",
    "KeyWords": "小吃店,美食,横幅,青州"
}