{
    "URL": "http://news.163.com/17/1227/14/D6LTMHQ2000187V9.html",
    "Comment": {
        "Total": 23,
        "Reply": 5,
        "Link": "http://comment.news.163.com/news2_bbs/D6LTMHQ2000187V9.html",
        "Content": "这些地名全是乌克兰的。毛子真不讲究，已经把这块地当成自己的了，伪装都撕掉了 未知的东西太多了，隐瞒是为了愚民而已。 普京作法，大惊小怪 俄罗斯也能上脸熟和推特吗 外星飞船的光学迷彩 这些地名全是乌克兰的。毛子真不讲究，已经把这块地当成自己的了，伪装都撕掉了 未知的东西太多了，隐瞒是为了愚民而已。 普京作法，大惊小怪 "
    },
    "Article": "（原标题：俄媒：顿巴斯上空突现奇异光芒网民疑系UFO作祟）【环球网报道】俄新社12月27日报道称，一位脸书用户26日发布照片和视频称，当天早晨，卢甘斯克州上空出现不同寻常的发光云彩。这位记录到这一神奇瞬间的脸书用户发文称：“今天早上斯塔尼察(卢甘斯克州)方向起初有东西飞转，像导弹一样，后来变成了这样的云。”她指出，照片上是第二片云，第一片她没抓拍到。报道称，这位用户发布的图片和视频瞬间引起大量网民的关注。有网友推测，该现象或与俄罗斯在阿斯特拉罕州卡普斯京亚尔靶场试射“白杨”RS-12M洲际弹道导弹有关。还有人怀疑，是UFO在作祟。报道补充道，当地居民此前还称，全城听到过一声巨响，多区汽车还响起了警报。媒体称这是陨石引起的。俄紧急情况部解释称，可能是飞机穿过音障时发出的声音。本文来源：环球时报-环球网。更多精彩，请登录环球网http://www.huanqiu.com作者：严翔责任编辑：王征_NN7526",
    "KeyWords": "顿巴斯,UFO,网民",
    "Source": "Netease",
    "Title": "俄媒:顿巴斯上空突现奇异光芒 网民疑系UFO作祟_网易新闻",
    "PublishTime": "12/27/201713:59:00"
}