{
    "PublishTime": "12/27/201721:17:34",
    "Source": "Netease",
    "Comment": {
        "Link": "http://comment.news.163.com/news2_bbs/D6MMAB3H0001899N.html",
        "Total": 0,
        "Reply": 0,
        "Content": ""
    },
    "Article": "（原标题：斐济群岛南部海域发生5.3级地震震源深度75公里）图片来源：美国地质勘探局网站中新网12月27日电据美国地质勘探局网站消息，北京时间27日20点33分，斐济群岛南部海域发生里氏5.3级地震，震源深度75.1公里。本文来源：中国新闻网责任编辑：张海桐_NN9053",
    "Title": "斐济群岛南部海域发生5.3级地震 震源深度75公里_网易新闻",
    "URL": "http://news.163.com/17/1227/21/D6MMAB3H0001899N.html",
    "KeyWords": "地震,斐济,美国,震源"
}