{
    "Title": "皇马或放弃西甲争夺练兵妖星 全主力冲欧冠三连霸_网易体育",
    "URL": "http://sports.163.com/17/1225/16/D6H2NU8L00058781.html",
    "Source": "Netease",
    "Comment": {
        "Total": 3282,
        "Reply": 68,
        "Content": "巴萨比皇马光彩？在这几个方面？ 切尔西还真打不过巴萨，不过也会让巴萨很烦。真正的考验在皇马，真不一定能过的了大巴黎，一个是联赛无望了，专心欧冠，一个联赛无敌了，专心欧冠，他俩谁赢都褪层皮 同感 明年2月份皇马官方报道宣布转战国王杯 阿森纳：连个欧联冠军都要跟我抢 那个山沟黄土坡来的二楼SB啊 足坛影帝何处寻？红蓝阵营演真军。苏牙擦嘴方笑罢，内少转体世人惊。恩帅令旗轻指处，又见囚王禁区行。左转右移前蹄失，前后空翻赛燕青。干爹笑语帘后转，红点套餐宴来宾。四喜临门也不惧，回头六合困敌人。虐菜金靴到脚软，内定金球破库门。胜固欣然败则辱，名宿媒体口水拼。我萨比赛还用看？醒来又是BB声。煤球称王号无敌，宇宙巴萨一定赢。何日傻迷全死尽，足坛清净慰万民。 估计明年2月份皇马就要将战线移至国王杯了 好吧，可能明年欧冠资格都没有了 21岁那时候c罗人们还不叫c罗叫小小罗那时候的小小罗人球结合的巅峰在老特拉福德只带从不传过人如麻经常半场奔袭射门亦或内切玩花活打死角你怀念21岁的自己吗？我也怀念 最炫霉侏风<br>汪！吐！碎！佛！<br>百万的税款是我的爱，<br>芭莎的生长素是我等待，<br>什么样的大门它射呀射不开，<br>什么样的干爹才是最牛掰。<br>决赛点球飞机打下来，<br>退出国家队不和你们玩，<br>教练队友背锅是我在耍大牌，<br>一路边走边呕才是最自在，<br>我们要吐就要吐得最痛快！<br>你是我天边飞机的舞台，<br>让我一脚把你打下来（打下来）！<br>悠悠的唱着最炫的霉侏风，<br>赶忙退队不带你们玩（不带玩）！<br>你是我心中最美的税款，<br>亲爹出马把你偷下来（偷下来）！<br>永远都唱着最炫的霉侏风，<br>当了罪犯不用做劳改（偷下来）！<br>（哟啦啦呵啦呗）<br>（伊啦嗦啦呵啦呗呀）<br>我听见你呕吐动人的天籁，<br>下次点球照样飞天台~ 练兵？明年跟娜娜争欧联杯吗？ 哈哈！快别吹牛逼了，真希望现在马上你们就跟巴黎开打，姆巴佩，内马尔之间的配合可能没有巴塞那么熟悉，打不出来那种巴塞式的传切，但是它他们冲击力更快，更强！坐等吹牛逼的是咋死的！ 皇马如果第一回合在主场不能战胜巴黎，齐达内就肯定下课了 用小将的话，和明年欧冠基本说拜拜了 这个没毛病，但是现在我看见他就烦， 球王，不是看你的秀发有多漂亮，也不是看你的身材，也不是看你长得高能有多高，就算你比姚明高，又能如何，但你别忘了，这是足球，和你身材没关系，你是用脚踢球还是用身材踢球？还是说你长得高就可以踢球，用你的男士清扬秀发踢球？别跟我说史上第一是靠身材和秀发当的，球王，你怎么说就一个比别人厉害一点普通的射手而已，你的能力当然不及梅西，梅西能射门能过人能跑位能传球能1v5能.....当这些条件满足后，在我看来这才是真正的球王 最后洗洗睡了招手准备下一年 还我4分。 我也怀念 欧冠卫冕后，皇马确实有所松懈了，估计齐达内这个赛季要下课了。 何必呢，三月一过只能全力夺取国王杯了😂[窃笑] 其实，别人怕的是皇马的替补，但主力们总以为自己更强！ 踢球的来巴萨，跳水搞基偷税的去皇马。 你妈东莞卖碧得了你！赞👍 说不定一月份国王杯都出局了我骡得提前4个月为世界杯打造担架了 2018年2月份报道：转战国王杯战线！<br>2018年4月份报道：四大皆空！<br>2018年5月份报道：22年来无缘欧冠！ 明年欧冠皇马想三连冠不容易的，，目前兵强马壮的巴黎，老牌的巴萨，风头正劲的曼城，都够皇马喝一壶的，，，跟别说还有其他可能拦路的神经刀。。。 巴萨打车子感觉也不好打。今年感觉还是曼城机会大点 小心玩脱了危及欧冠资格。上赛季恩里克就是玩脱了，联赛不顺，再影响欧冠。 我期待皇马灭了大巴黎，不给巴萨碰到巴黎的机会 你确定？ 皇马垃圾废物C罗吃狗屎垃圾废物C罗吃狗屎垃圾 大傻逼，拉玛西亚影视基地是足坛公认的跳水第一队，演技一流。偷税也是巴萨的拿手好戏，队中球员几乎都爆出过。至于搞基，这个我不好说。但是你绝对搞基！ 今年欧冠夺冠，明年降级都能参加 就这水平，还欧冠？中超都未必能保级！ 今年欧冠夺冠，明年降级都能参加 哈哈哈哈 好吧，可能明年欧冠资格都没有了 法国🇫🇷输给了担架！ 皇马又要遇马竞尤文多特了。 皇马如果第一回合在主场不能战胜巴黎，齐达内就肯定下课了 国王杯都难 用小将的话，和明年欧冠基本说拜拜了 我期待皇马灭了大巴黎，不给巴萨碰到巴黎的机会 11:1 还我4分。 你爹在济南要饭多少年养大的你 何必呢，三月一过只能全力夺取国王杯了😂[窃笑] 其实，别人怕的是皇马的替补，但主力们总以为自己更强！ 阿森纳：连个欧联冠军都要跟我抢 2018年2月份报道：转战国王杯战线！<br>2018年4月份报道：四大皆空！<br>2018年5月份报道：22年来无缘欧冠！ 怎么放弃呢.小编.到时连前4都拿不到怎算 最后洗洗睡了招手准备下一年 球王，不是看你的秀发有多漂亮，也不是看你的身材，也不是看你长得高能有多高，就算你比姚明高，又能如何，但你别忘了，这是足球，和你身材没关系，你是用脚踢球还是用身材踢球？还是说你长得高就可以踢球，用你的男士清扬秀发踢球？别跟我说史上第一是靠身材和秀发当的，球王，你怎么说就一个比别人厉害一点普通的射手而已，你的能力当然不及梅西，梅西能射门能过人能跑位能传球能1v5能.....当这些条件满足后，在我看来这才是真正的球王 你确定？ 2018年6月份报道：1楼全家原地爆炸 21岁那时候c罗人们还不叫c罗叫小小罗那时候的小小罗人球结合的巅峰在老特拉福德只带从不传过人如麻经常半场奔袭射门亦或内切玩花活打死角你怀念21岁的自己吗？我也怀念 大傻逼，拉玛西亚影视基地是足坛公认的跳水第一队，演技一流。偷税也是巴萨的拿手好戏，队中球员几乎都爆出过。至于搞基，这个我不好说。但是你绝对搞基！ 巴萨比皇马光彩？在这几个方面？ 切尔西还真打不过巴萨，不过也会让巴萨很烦。真正的考验在皇马，真不一定能过的了大巴黎，一个是联赛无望了，专心欧冠，一个联赛无敌了，专心欧冠，他俩谁赢都褪层皮 这种没脑子的新闻，纯属胡说八道 过了巴黎再说吧 你忧天了？ 六冠王 那个山沟黄土坡来的二楼SB啊 足坛影帝何处寻？红蓝阵营演真军。苏牙擦嘴方笑罢，内少转体世人惊。恩帅令旗轻指处，又见囚王禁区行。左转右移前蹄失，前后空翻赛燕青。干爹笑语帘后转，红点套餐宴来宾。四喜临门也不惧，回头六合困敌人。虐菜金靴到脚软，内定金球破库门。胜固欣然败则辱，名宿媒体口水拼。我萨比赛还用看？醒来又是BB声。煤球称王号无敌，宇宙巴萨一定赢。何日傻迷全死尽，足坛清净慰万民。 巴沟？ 估计明年2月份皇马就要将战线移至国王杯了 还有伯纳乌杯这一重要的赛事锦标 国王杯不是先开踢……啊 最炫霉侏风<br>汪！吐！碎！佛！<br>百万的税款是我的爱，<br>芭莎的生长素是我等待，<br>什么样的大门它射呀射不开，<br>什么样的干爹才是最牛掰。<br>决赛点球飞机打下来，<br>退出国家队不和你们玩，<br>教练队友背锅是我在耍大牌，<br>一路边走边呕才是最自在，<br>我们要吐就要吐得最痛快！<br>你是我天边飞机的舞台，<br>让我一脚把你打下来（打下来）！<br>悠悠的唱着最炫的霉侏风，<br>赶忙退队不带你们玩（不带玩）！<br>你是我心中最美的税款，<br>亲爹出马把你偷下来（偷下来）！<br>永远都唱着最炫的霉侏风，<br>当了罪犯不用做劳改（偷下来）！<br>（哟啦啦呵啦呗）<br>（伊啦嗦啦呵啦呗呀）<br>我听见你呕吐动人的天籁，<br>下次点球照样飞天台~ 哈哈！快别吹牛逼了，真希望现在马上你们就跟巴黎开打，姆巴佩，内马尔之间的配合可能没有巴塞那么熟悉，打不出来那种巴塞式的传切，但是它他们冲击力更快，更强！坐等吹牛逼的是咋死的！ 同感 你他妈以为是巴萨 巴萨比皇马光彩？在这几个方面？ 我也怀念 偷税？煤囚，哈哈哈哈哈 埃托奥,梅西,小罗,亨利. 你妈东莞卖碧得了你！赞👍 不咋看好啊 小编傻屌，挣夺欧冠有可能，练兵，做梦遗的吧 本人巴萨球迷，客观说切尔西目前球风没有原来那么硬朗了，缺少德罗巴，巴拉克这样的人物。有些人记得是惨案，我记得的是埃辛一脚惊天远射，永世难忘！打巴萨，你要是硬朗不起来，那就是被玩死。 踢球的来巴萨，跳水搞基偷税的去皇马。 明年欧冠皇马想三连冠不容易的，，目前兵强马壮的巴黎，老牌的巴萨，风头正劲的曼城，都够皇马喝一壶的，，，跟别说还有其他可能拦路的神经刀。。。 21岁的自己在篮球场上空飞翔，只为了跟乔丹一样飞 0:3 保利尼奥本来就比C罗厉害 练兵？明年跟娜娜争欧联杯吗？ 皇马垃圾废物C罗吃狗屎垃圾废物C罗吃狗屎垃圾 说不定一月份国王杯都出局了我骡得提前4个月为世界杯打造担架了 刚过去的德比，高手过招，下半场充分展示了巴萨的整体能力，而个人方面，小白完胜魔笛，梅西完胜C罗，苏牙完胜本泽马，皮克罗伯托辣鸡堪称完美，保利尼奥依旧不俗，门神依旧稳定，维尔马伦也持续证明了自己的价值，皇马阵容齐整没有伤员，巴萨还有登贝莱、乌木弟弟、帕科因伤未能入选大名单。下半场的巴萨，几乎难以被战胜，期待欧冠决战巴萨大战曼城，毫无疑问，这是当今最好的两支队伍 欧冠卫冕后，皇马确实有所松懈了，估计齐达内这个赛季要下课了。 [微笑] 踢球的来巴萨，跳水搞基偷税的去皇马。 保利尼奥本来就比C罗厉害 明年2月份皇马官方报道宣布转战国王杯 保利尼奥本来就比C罗厉害 明年欧冠皇马想三连冠不容易的，，目前兵强马壮的巴黎，老牌的巴萨，风头正劲的曼城，都够皇马喝一壶的，，，跟别说还有其他可能拦路的神经刀。。。 小心玩脱了危及欧冠资格。上赛季恩里克就是玩脱了，联赛不顺，再影响欧冠。 21岁那时候c罗人们还不叫c罗叫小小罗那时候的小小罗人球结合的巅峰在老特拉福德只带从不传过人如麻经常半场奔袭射门亦或内切玩花活打死角你怀念21岁的自己吗？我也怀念 哈哈！快别吹牛逼了，真希望现在马上你们就跟巴黎开打，姆巴佩，内马尔之间的配合可能没有巴塞那么熟悉，打不出来那种巴塞式的传切，但是它他们冲击力更快，更强！坐等吹牛逼的是咋死的！ 还有拜仁曼联呢？！热刺都搞翻皇马了，别说别的球队！ 小将负责场内消耗体力，主力储备体力去场外消耗 大黄对马竞和拜仁的两次惨案历历在目。。皇马球迷留 这个没毛病，但是现在我看见他就烦， ",
        "Link": "http://comment.sports.163.com/sports2_bbs/D6H2NU8L00058781.html"
    },
    "Article": "网易体育12月25日报道：皇马在西甲联赛第17轮主场0-3输给了巴萨，目前战舰在少赛一轮的情况下落后巴萨14个积分，战舰逆转巴萨卫冕西甲的可能性几乎为零。而据西班牙媒体《阿斯报》的消息，在这种背景下，老佛爷认为皇马应该在下半赛季的西甲改变策略，多给小将机会历练新人，为球队的未来做准备。皇马在今年夏天的转会窗并没有重磅的引援，只是召回了外租的巴列霍、马科斯-略伦特以及马约拉尔，而且购入了几名小妖——特奥、塞巴略斯以及阿什拉夫。皇马的这几名新援年龄不大，也是球队未来的建队基石。但是在新赛季开战后，这几位小妖得到的机会并不多，以上几人之中，阿什拉夫因卡瓦哈尔伤缺在西甲联赛出场时间最长，也仅为336分钟，特奥、瓦列霍以及马科斯-略伦特的出场时间分别为297分钟、270分钟以及237分钟。欧青赛MVP塞巴略斯以及马拉约尔的出场时间甚至不足200分钟。齐达内本来非常喜欢轮换，但是在西甲中一直落后巴萨，因此在追分的背景下，齐达内一直不敢大胆的启用小将出战。而在西甲第17轮输给巴萨后，皇马卫冕西甲冠军的可能性已经几乎为零，而也正是如此，老佛爷认为皇马应该在下半赛季改变策略，给小将机会，为球队的未来考虑。这也意味着皇马今夏引进的几名新援会得到更多的比赛机会，而除了能够历练小妖，在联赛中小妖出场时间的增多也会使得皇马的主力球员的体能储备更佳，也能够以更充沛的体能投入到欧冠中去。从现在的形势看，皇马在欧冠中夺冠的机会比夺得西甲要容易一些。本文来源：网易体育作者：塞尔吉责任编辑：马鑫_NS4811",
    "PublishTime": "12/25/201716:59:16",
    "KeyWords": "皇马,西甲,欧冠,巴萨"
}