{
    "URL": "http://news.163.com/17/1228/13/D6OFL8CG0001899N.html",
    "Article": "（原标题：一男子在上海地铁2号线娄山关路站跳入轨道，被列车冲撞身亡）事发现场。网友微博截屏图澎湃新闻记者从上海轨交公安了解到，12月28日12时18分，一男性乘客从地铁2号线娄山关路站上行方向站台跳入轨道，被后续列车冲撞身亡。此事未对线路运营造成影响，事件正在进一步处理中。本文来源：澎湃新闻责任编辑：黄哲程_B9302",
    "Source": "Netease",
    "PublishTime": "12/28/201713:59:41",
    "KeyWords": "地铁站,上海,事故",
    "Comment": {
        "Content": "朋友不要觉得上海人排外三观正就算是苏北人也不会被瞧不起只不过客观发生的怪事恶心的事很多是安徽苏北人做的罢了 这个世界是不是上海人还重要吗？你这样的人就是没见过世面的，这个社会只分两种人：有钱人和没钱的人。你还真别问什么新旧上海人，能问出这种问题就说明你阅历太浅！要么就是穷的只剩下唯一可以让你有优越感的东西？劝你没事多读书多出去看看，真的，眼光别太狭义 我是上海人也会鄙视一楼这种动不动就莫名其妙地域的，其实我们生活中都不可能是这样的人，你在上海到处都有外地人，也离不开外地人，我遇到的外地人对我也都是客客气气的，为什么大家一到网上就变成相互攻击对方了？？？ 又多了一个好盘[窃笑][窃笑][窃笑] 离地三尺一条沟，一年四季水常流。不见牛羊来喝水，只有乌龟来洗头。 快过年了，自杀想法的人很多，因为某事拖累，没有勇气自杀的，有自杀想法的很多…… 第一次做地铁就是在上海这都十年了还没有装屏蔽门么？ 不止吧，好像叫他们爸爸也是叫盘的 难道是跟钱宝有关？ 这么想不开。。。。让他家里人怎么办😱 中国有多少人想死而没勇气去死！ 我是上海人为什么我听不懂盘赖盘的意思新上海人的讲法？ 细思极恐 盘盘想反了不成？ 我从太爷爷那辈起就是310，你说我是新还是旧，帮你说，你这种人我见多了，自己本事没的，没事就抱怨，你要真排外，你现实生活中就别接触外地人，快递拒签，外卖拒收，出租车别坐，早饭别吃，做得到伐啦？傻不傻，嘴巴老的基本都没什么本事的 随便啦，你敢OK也就不用回去过年了 你这种撕逼老子见你一次打一次 自己要死回家死去，别麻烦别人浪费时间 朋友，只会在网络上叫嚣真心没意思的，你有本事能改变什么吗？还是这句话，嘴巴老的都是没本事的，张口闭口显露素质，别给上海人丢脸了！ 上海土著都很怂的，见到北方人，屁都不敢放，就知道背后说坏话 对死者不敬就是个lowB 勿要搞得自家是只啥么事一样，往上数三代都是外地来的，可以鄙视没有勇气活下去的人，但是你没资格看不起外地人 什么意思呢？ 算了别人都自杀了积点口德吧有头发谁愿意做秃子啊 我没有看不起正常的外地人过看不起的就是那些网上嚣张的要命平日做着破坏上海事情的人 我印象里上海地铁也就一号线用屏蔽门武装到牙齿，其他线路大都是裸奔。不过那种屏蔽门据说成本很高，所以可以理解。 又是一个寻死人 你这种人才是井底之蛙，从小到大没出过上海吧？外面的世界去见过吗？说话这么尖酸刻薄你家教在哪里？一点都没有上海人的气度和胸怀，别出来丢脸了拜托！ 然后你在牢里跟你的捞翔一起过年是吧？ 粗鲁也就是嘴皮子敢动刀子的也就是安徽剑圣了另外还有苏北火法 快过年了，有什么想不开的？想想父母，老婆孩子。愿一路走好吧 回去看看你的家人 北方人有时是有点粗鲁，霸道。这也不能怪上海人，南方人性格和北方人是不一样的。 谁活在这个世界上都会遇到坎坷，同样的事情，有些人能过的去，有些人过不去，过不去了就是文中的结局。你可以不理解别人的痛苦。也没人要求你理解。但是生而为人，对生命应该有起码的敬畏。开口闭口“盘，盘…”你真的以为自己有个什么数字开头的身份证就是宇宙第一了？ 乡呜宁也是 盘赖盘什么意思？ 家属此时要做的就算是:到地铁公司闹，死那讹那，准没错！ 嘴巴放干净点如果在我面前说一招KO你 狭义都出来了。。。还叫别人多读书，笑死我了。你个三校生帮yp，只能说是吃了智商低的亏 盘赖盘 真正活不下去的时候，学学虎懒大侠！ 标题错了！应该是上海男子在地铁站跳入轨道被列车冲撞身亡 硬盘 还有乡呜宁，吧子，刚逼样子，刚驴，低能，乡呜宁侧呜开头昂，都是。还有好多好多称呼 上海捞比今天给你丈母娘洗裤头了吗？ 不错不错 求别ko，他老婆内裤就别麻烦隔壁老王了 侬脑有毛病，我问你新还是旧，侬直接告诉我是上海人就可以，怀疑过侬，憨了不太弯 讨论的是人的生死，一楼这牲口有种就站出来说，现实里也是一个废材 弄脑子把外地人洗脑过了！没有办法！你还是外面多走走，那么肤浅的人.你就是井底之蛙不了解不要脱裤子放屁 这种人到哪都没人看得起，做坏事的不管是上海人还是外地人，都该鄙视！ 盘是上海人对自己爷爷的称呼 你是新上海人，还是旧上海人 自杀的人还影响别人和恐怖分子有什么区别 KO有啥意思，一招毙命才合适 安徽剑圣苏北火法 前些天深圳也有一个。。。 所以现在都造安全门了 好歹杀几个人在自杀啊，至少对社会做出贡献 不吹不黑在上海犯罪率最高的是哪里人？ 上海底层人渣呗，上海人也歧视上海底层没素质人的。 是和尚来洗头 离地三尺一条沟，一年四季水常流。不见牛羊来喝水，只有乌龟来洗头。 都有勇气死了，还有啥解决不了！唉，抑郁症吧！ yp能领到低保？别开玩笑了没户口的盘只能饿死在街上 一看你就是北方過來的，有本事你不要來江南娘炮地頭。 一招哈多坎😄 中国有多少人想死而没勇气去死！ 钱宝 我可以用旋风丸打到一楼大小便失禁，这么不尊重死者该打 确实拿死人开涮也是没谁了 想想自己父母该多伤心啊! 这么想不开。。。。让他家里人怎么办😱 有什么想不开的非得采取这种极端的方式啊 自杀是一个堵不住的缺，总有一天还会卷土重来……趁自己还承受得了就放他们先走吧…… 朋友这种上海的底层就不要理他了 14楼你怎么看一楼的言论？ 严厉打击违法犯罪行为 地铁司机表示公司应该请心理咨询师，免费定期给他们做宽慰。这个职业太危险了。 政府有收容所不会饿死冻死 历史课没上过？谁做出的不抵抗政策？ 华为定律，美国发达不？确实不动手，直接动枪 厉害哦[窃笑][窃笑] 那就说明还不想死！ 经常死人？ 赔钱 你这种人才是井底之蛙，从小到大没出过上海吧？外面的世界去见过吗？说话这么尖酸刻薄你家教在哪里？一点都没有上海人的气度和胸怀，别出来丢脸了拜托！ 我们怂也比你交完房租用小米好咯 安徽剑圣已经开始磨刀了 当年也没见他们咬日本人啊，一枪不放就让出东北，难道当时东北都是上海土著？ 逼。 8楼可以代表安徽了。素质全国上下都有目共睹，装个B也装不好，3句话就漏底了。还有资格谈高尚？ 我想是小额贷吧 为毛要跳地铁呀？寻死还要破坏地铁，影响老百姓出行。安静地找个不影响他人生活的方式去死，不更好吗？ 嘴巴放干净点如果在我面前说一招KO你 又是一个弱智国民 盘赖盘 啥意思 年关难过呀 上海本地人 一定要先调查是什么原因导致她跳入铁轨？？？？？？？ 干死三星的 说得好像你也有资格骂人一样。护工别上网了，赶紧给病人端屎盆子去 棒子定律，美國是發达國家，不是文明國家，你去過麼？拿槍的亂來的都是所謂的被歧視的人。近看香港，臺灣。在看日本，新加坡。未開化的人理解不了。 哈哈，土著还有一个劣根性就是自以为是，我是医生，土著大都人模狗样，我见的多了，所以对你的言辞，不以为然，继续人模狗样的活着吧，上海怂货土著 唉，你知道吗？我们主任当初也是一穷二白，你心里满足了吧？ 就不能找个安静的地方死了。万一出点事故，得牵连多少人 中国可千万不要日本化啊~人生苦短，好死不如赖活着，活着才是真，好好珍惜当下吧~ 如释重负，该咋办咋办！ 娘炮就是在超市里，买水果，买蔬菜每棵都要掐一掐，剥一剥最后还不买的垃圾，一颗大白菜1块钱，还得剥几层下来。 别侬面子，不想载穿侬，思路很清楚了，不要当人家才是憨度 我借你点勇气，赶紧去跳吧 十九楼你怎么看一楼的言论？ 朋友不要觉得上海人排外三观正就算是苏北人也不会被瞧不起只不过客观发生的怪事恶心的事很多是安徽苏北人做的罢了 死也不敢杀死几个，这个世界这么恶毒，不应该最后对自己有个交代吗？ 钱宝… 你一甩手走了，老婆儿子成了别人的 看到图片了。真的是盘。上身三分之一被分尸。尼玛死也回你老家去死啊。草泥马的 你就一典型喷子，鉴定完毕，每天只为喷而喷，是生活不如意工作丢了还是有过不去的坎能让你成天在网络上喷？有道理你讲道理，没道理讲瞎喷就是素质低下你懂吗？ +10 快过年了，有什么想不开的？想想父母，老婆孩子。愿一路走好吧 不错不错 离地三尺一条沟，一年四季水常流。不见牛羊来喝水，只有乌龟来洗头。 嘴巴放干净点如果在我面前说一招KO你 一些上海人把在沪外地人叫“硬盘”，就是盘踞着不走的意思。 快过年了，自杀想法的人很多，因为某事拖累，没有勇气自杀的，有自杀想法的很多…… 看了现场图人都两半了今人惋惜 我在评论里只看见一群狗咬狗的。相当恶心的人。都觉得自己很高尚。记住了你是中国人，中国人这一称呼在世界是被人看不起的。我们要同仇敌忾 想死的人拦不住 镇江还算是江南吧，一江之隔的扬州应该算地道的江北加苏北吧。 难道是韭菜想不开吗？ 这种傻哔也就敢在网上喷了，原谅他吧。现实中的怂包 看看那些骂上海的，贬低上海人的都是在上海混不出来的，如果反击它们那不是把自己放在和它们一样的位置了 一楼说的啥意思 是A股小散？ 钱宝受害者 原来死也是这样的不容易 不管怎么样死者为大一楼积点口德 网上喷基本不用负责，现实中你让那帮喷子试试，而且最看不惯火星网友还好意思喷人 这个可能性最大👍🏻 哟，时间，地点，让我看看怎么个KO法？ 有病 有说是上海人吗？难道在香港、法国自杀的就一定是当地人？有必要特别强调地域吗？ 上海男就打嘴炮厉害，真见面怂的兰花指就翘起来了😂 这些人说不定就是自杀的原因呢？<br>正在ISO的路上，别急哦，马上到！ 走好。 山西穷狗都懒的理你这种穷逼 我宿迁人，来上海的时候只有一个蛇皮袋，还有我妈给我的鸡蛋，从一无所有到开个小公司，买车买房，虽然是郊区，也算有个家了，在上海的时间比在宿迁还长，一个人来上海，现在已经有一家人了，儿子也是在上海出生的，像我我老婆写的论文一样，上海见证了我们的过去，也会见证我们的未来，最后看到你们这么说还是蛮难过的。 拉倒吧，还ko，你能坚持5秒就算OK了 老乡😊 自私的人，自己死了一了白了。。家里人怎么办？？？ 快过年了，有什么想不开的？想想父母，老婆孩子。愿一路走好吧 怪不得呢，我想怎么现实生活中一个个都挺正常的人，怎么一到网上都像摸电门似的，莫名其妙的互怼瞎喷 回去看看你的家人 来咬爹啊，你妈丑逼的，你就是条寄人篱下的狗，希望你别被你主人弄死！ 老乡啊 家属此时要做的就算是:到地铁公司闹，死那讹那，准没错！ 你这人心理太阴暗了吧？他把你全家带走了你舒服了？ 我去你妈个十逼 好诗好诗 因为西部数据的硬盘而来，不懂憋瞎逼逼。有些二货还来个对应的软盘，笑死我了，脑子是个好东西。可是那些货没有 机动车至少10%责任。 盘赖盘 估计这个上海人的老婆跟老外跑了，一时想不开 它如果在你面前它可能大气都不敢出。 要找到个通过科学方法验证的无痛自杀办法很难。[窃笑] 一楼说的是什么意思？ 压力大的中国人 牛逼！佩服这些残忍自杀的人！我是好面子的人！死也要死的体面！什么跳轨啊跳楼的真牛逼 [微笑] 是不是又是一个老哥？ 莫非是因为钱宝？ 盘🐶就是嘴炮厉害就是连老家都没脸回 又是一个寻死人 一直在家呢收房租不用上班的小盘盘刚下班到家？ 光大会展里有 生命呀，有家有老有小呀，惨。 默哀！ 安徽剑圣，予象斧王。。。没想到又来了苏北火法 不错不错 离地三尺一条沟，一年四季水常流。不见牛羊来喝水，只有乌龟来洗头。 一些上海人把在沪外地人叫“硬盘”，就是盘踞着不走的意思。 快过年了，自杀想法的人很多，因为某事拖累，没有勇气自杀的，有自杀想法的很多…… 现在的人压力太大了 男子在列车进站时自行跳下轨道.列车未能及时停下,救上来时不成人样 钱宝投了几百万 活着比死了难，真事。。。 过年，穷人的一道坎 生活压力大。特别是接近年末！有想自杀的想法也不奇怪 只见和尚来洗头 估计是钱宝惹的祸！ 哎！生活压力确实很大 没看懂，什么意思啊 都是今天想死，明天还要努力的活着 去长宁，1000海选 你说的是那个啥吧，我还是个孩子，[羞羞][羞羞][窃笑] 这个我懂但是盘赖盘是想说外地人怪外地人？ 看不到希望 烦烦烦 中国有多少人想死而没勇气去死！ 我是外地的，刚来上海，不小心被蜈蚣虫咬了口，不久伤口开始肿胀。吃药打针都没得用，看到没办法了，正好遇到个道士。道士说：我遇到的乃是百年蜈蚣精，要治好的话还得要去寻找它的天敌。所以问大家，上海漕宝路附近哪里有鸡？ 还有一个月要过年了，汤圆都不吃就走了？澡堂子，洗脚房，汗蒸，spa都享受腻了？ 我也想自杀，失业很久了，口袋没钱，不知道如何度过这个双节，已经十年没回家了！ 为毛 有什么想不开啊 。。 不见牛羊来吃草，只见和尚来洗头 看评论，这个世界上善良的好人还是有很多，你有什么想不开的 都說了臥軌死相難看，建議燒炭。 然后你在牢里跟你的捞翔一起过年是吧？ 粗鲁也就是嘴皮子敢动刀子的也就是安徽剑圣了另外还有苏北火法 快过年了，有什么想不开的？想想父母，老婆孩子。愿一路走好吧 回去看看你的家人 盘赖盘什么意思？ 嘴巴放干净点如果在我面前说一招KO你 多半是抑郁症患者 是不是房贷压力太大了 地铁司机从此心里阴影 人生不如意事十之八九……天堂路上一切安好！ 盘赖盘 我都不用看评论，就知道肯定有人说是盘盘干的 傻逼键盘，装毛线有房 看看是不是炒房者，愿你走好！ 真的假的？七宝老街附近到时挺多 蝼蚁尚且偷生，你有手有脚四肢健全，为什么不好好活着。 想死别出来吓人啊！去找个贪官污吏同归于尽。 据说被带了绿帽 谁不是一边不想活了，一边又努力活着 活着，是为了以后能死的比现在要稍微好一点[微笑] 可以一次性减轻在这世界上的痛苦了，做人不易，愿你在另一个世界做一只自由鸟 他的偶像是绿巨人，少看电影。珍惜生命！ 所以屏蔽门都是扯淡！一心寻死的人你怎么能拦住！ 龟龟离我家不远。 努力活着。 傻逼 腰斩，最疼痛的酷刑。中国老百姓，表面无信仰的多，其实信老天爷，相信好死不如赖活着。有善良信仰的，还信仰恒久忍耐，譬如犹太教、信耶稣的各种教。信黑社会、信艾哈迈德、信鬼吹灯，按照出现的时间先后顺序，这三个货跟这货一样，相信自杀能成就他们的组织和个人，恐怖主义，很绝，所以，自杀者不值得同情。都散了吧，上海还是上海。 我有无码照，头下肢分离，恶心 如果跳的是外地人，表示深切的慰问同情。如果跳的是上海本地人，跳的好！今晚添酒，加菜！！ 闭肛 大学论文写得不错 看到上半身和下半身分离了 不错不错 离地三尺一条沟，一年四季水常流。不见牛羊来喝水，只有乌龟来洗头。 赔钱 全屏蔽，不想死的人真打不破 第一次做地铁就是在上海这都十年了还没有装屏蔽门么？ 上海地铁里冤魂太多，晚上人少的时候少去乘 难道是跟钱宝有关？ 是不是真的哦？ panoanguonianqianzuoyipiaodade 希望都换上全封闭站台。尤其轻轨。 中国有多少人想死而没勇气去死！ 上海人，老婆一直给他戴绿帽，生的女儿也不是他的。他后来抓到老婆和别人开房啪啪，离婚了老婆也不要女儿，他带着女儿也不能二婚，所以 安徽剑圣苏北火法 靠， 估计又是被高利贷逼的！ 一条生命可惜了走了一了百了你家里人疼苦 真的在上海能站住脚不容易 这人貌似在宽带山发了贴再去跳的，赌博欠债自杀的，数额非常大，被碾成2节了...有点渗人.... 三楼回答，答对有奖 傻逼一楼 珍惜生命。 嘴巴放干净点如果在我面前说一招KO你 我印象里上海地铁也就一号线用屏蔽门武装到牙齿，其他线路大都是裸奔。不过那种屏蔽门据说成本很高，所以可以理解。 就把这死尸给你端上来，吃吧，趁热 腰斩，最疼痛的酷刑。中国老百姓，表面无信仰的多，其实信老天爷，相信好死不如赖活着，实际就是恒久忍耐。有善良信仰的，信仰恒久忍耐，譬如犹太教、信耶稣的各种教。信黑社会、信艾哈迈德、信鬼吹灯，按照出现的时间先后顺序，这三个货跟这货一样，相信自杀能成就他们的组织和个人，恐怖主义，很绝，所以，自杀者不值得同情与提倡。都散了吧，上海还是上海。 生活压力太大，生活节奏又快，心态如果调整不及时，真的会出事。 一楼说的是什么意思？ 看了。不过图中的装置我觉得只能叫隔离玻璃栅栏，算不上类似橱窗的完全屏蔽。 细思极恐 投资了钱宝吧 腰斩，最疼痛的酷刑。中国老百姓，表面无信仰的多，其实信老天爷，相信好死不如赖活着，实际就是恒久忍耐。有善良信仰的，信仰恒久忍耐，譬如犹太教、信耶稣的各种教。信黑社会、信艾哈迈德、信鬼吹灯，按照出现的时间先后顺序，这三个货跟这货一样，相信自杀能成就他们的组织和个人，恐怖主义，很绝，所以，自杀者不值得同情。都散了吧，上海还是上海。 要死就死在没人的地方，公共场合死了还要示众 几十年前在沪杭铁路自杀的，家属要赔钱给铁路部门。 我就记得那站有屏蔽门，根本就是自杀。身强体健，能靠双手养家糊口的人，自杀是不负责任的，给家人带来的是深深地伤害。。。 再优质的学校都会有成绩差的学生，为什么要地域黑呢？上海只会吃喝嫖赌，无所事事，坐吃山空，游手好闲的人见得多了，和大多数勤勤恳恳的外地人相比，差远了，和我一样身在异乡的外地人点赞[不屑] 盘赖盘 真可怜你知不知道收房租也挺累的 呵呵呵！哪里来的草🐶！安徽渣男 放菜的盘子一种器皿 上海压力山大但生命更可贵 他说了啥引发你的火气？ 微信看到照片，零件都分家了。 标题错了！应该是上海男子在地铁站跳入轨道被列车冲撞身亡 放菜的盘子一种器皿 匿名干嘛呢？多没意思 恐怕又是抑郁症 所以你和他相爱了？ 多考虑家人应该就不会那么轻生了吧 呵呵呵呵！你打的过随啊？还KO人家？ 离地三尺一条沟，一年四季水常流。不见牛羊来喝水，只有乌龟来洗头。 垃圾新闻！ 第一次做地铁就是在上海这都十年了还没有装屏蔽门么？ 你发错地方了 钱宝网的用户？ 中国有多少人想死而没勇气去死！ 少说几句吧魔都压力大死者为大 估计和网贷有关系 是不是看了前几天英国快手的新闻？ 真正活不下去的时候，学学虎懒大侠！ 然后呢？自己坐牢，老婆开房? 驾驶员要心理障碍了 家属会不会来索赔？ 你他妈给父母积点口德吧。 断成两截了，看过图，很惨 我虽然很孤独但是怕死，有什么想不开的汗～ 盘赖盘 不好意思，这是我们家的狗，出来乱咬人 我印象里上海地铁也就一号线用屏蔽门武装到牙齿，其他线路大都是裸奔。不过那种屏蔽门据说成本很高，所以可以理解。 又可以讹一笔钱了 [惊讶]这里有一条🐶打[报警] 估计是钱宝投资被骗了！看看吧，过年跳楼的，跳江的，自杀的会增加很多！ 排毒不是排外，自杀可以，但是不要跳地铁影响别人懂吗？ 快过年了，有什么想不开的？想想父母，老婆孩子。愿一路走好吧 少兄大才 谁活在这个世界上都会遇到坎坷，同样的事情，有些人能过的去，有些人过不去，过不去了就是文中的结局。你可以不理解别人的痛苦。也没人要求你理解。但是生而为人，对生命应该有起码的敬畏。开口闭口“盘，盘…”你真的以为自己有个什么数字开头的身份证就是宇宙第一了？ 或者说分有能力没能力的人，有素质没素质的人。 哇，真有啊，地铁又要背锅了 你脸皮不疼吗？傻逼 嘴巴放干净点如果在我面前说一招KO你 这种人真悲哀 狭义都出来了。。。还叫别人多读书，笑死我了。你个三校生帮yp，只能说是吃了智商低的亏 哎，这么想不开！ 二号线安装都是半屏蔽门的，容易出事的！ 脑梗，冈逼样一天不地域浑身痒是伐 生存不易呀。有多大的煩.恼走这条不归路。可怜。 越是过年越着急 喜欢的妹子还没追上，我还不能死！~ 一楼倒钩这种素质 不要KO了，直接拉倒地铁站，推下去！ 去死 +1 快过年了，自杀想法的人很多，因为某事拖累，没有勇气自杀的，有自杀想法的很多…… 最该死的人还在逼话连篇，不该死的到死了很多 自杀事件比较多 成本应该不是很高，郑州地铁屏蔽门就是武装到牙齿了，估计是施工难度大，线路，信号，电路都得大改，还得全线施工，耗时也长 压力山大，现在同病相怜的人多 死了过后，地铁丝毫不受影响。估计跳下去的姿势不对。 事实证明这种护栏根本没用，必须全封闭式 可惜你不在 ",
        "Total": 4338,
        "Link": "http://comment.news.163.com/news2_bbs/D6OFL8CG0001899N.html",
        "Reply": 509
    },
    "Title": "男子在上海地铁站跳入轨道 被列车冲撞身亡_网易新闻"
}