{
    "Source": "Netease",
    "Title": "不老女神 46岁李英爱神颜秒杀各大流量小花_网易女人",
    "Comment": {
        "Link": "http://comment.lady.163.com/photoview_bbs/PHOT3D1E00263ONH.html",
        "Content": "她的龙凤胎孩子就挺好看 李英爱应该没有整过 太美，温润柔和，天生丽质的美人才无惧自然的老去 整容界的祖师爷~~~~~~~~~~~~~ 1楼傻逼，别在这秀智商 你确定是她不是金喜善？我怎么记得她没整过？ 女人就应该这样 有点林青霞的感觉 端庄大气 大气，美丽 她的龙凤胎孩子就挺好看 李英爱应该没有整过 太美，温润柔和，天生丽质的美人才无惧自然的老去 整容界的祖师爷~~~~~~~~~~~~~ 1楼傻逼，别在这秀智商 你确定是她不是金喜善？我怎么记得她没整过？ 女人就应该这样 有点林青霞的感觉 端庄大气 大气，美丽 ",
        "Reply": 10,
        "Total": 160
    },
    "URL": "http://fashion.163.com/photoview/3ONH0026/111662.html#p=D6JHQ6733ONH0026NOS",
    "PublishTime": "12/27/201707:53:27",
    "Article": "不老女神46岁李英爱神颜秒杀各大流量小花曾饰演《大长今》而在中国大红大紫的“大长今”李英爱近日出席“MAMA”亚洲盛典，1971年出生的她保养得特别好，仿佛四行走的发光体。网友说：她二十来岁时就像三十来岁，三十来岁还像三十来岁，四十来岁还像三十来岁。素颜女神无疑了！",
    "KeyWords": "李英爱,"
}