{
    "URL": "http://news.163.com/17/1229/08/D6QGBCHO000187VG.html",
    "Article": "（原标题：物管让签字领酱油竟拿签字表去领取49万余元维修基金）云南网讯“物管喊我们签字领酱油，结果签字表却被拿去领取49万余元公共维修基金。”在一些公号中，将昆明经开区蓝苑静园业主的这种遭遇称为领了天价酱油。12月26日，呈贡区人民法院公开开庭审理蓝苑静园小区4位业主诉昆明经济技术开发区住房和城乡建设局、第三人昆明经房物业管理有限责任公司不履行监管住宅专项维修基金法定职责一案，法院没有当庭宣判。原告代理人八谦律师事务所律师余涛认为，按《物业管理条例》等相关规定，第三人使用维修基金的，应当征求经专有部分占建筑物总面积2/3以上的业主且占总人数2/3以上的业主的意见，动用蓝苑静园小区495610元维修基金并未达到此条件。同时，4位业主属于此维修基金法律上的利害关系人，根据《行政诉讼法》的相关规定，具有原告诉讼主体资格。被告代理人上海市海华永泰（昆明）律师事务所律师王鹏、平红彦认为，提起诉讼的4位业主并不具备行政诉讼的主体资格——根据《物权法》和《物业管理条例》的规定，住宅专项维修基金属于业主共同共有，起诉权应由全体业主共同行使。本文来源：云南网责任编辑：张宪超_NN9310",
    "Source": "Netease",
    "PublishTime": "12/29/201708:39:25",
    "KeyWords": "基金,维修,物管,律师,物业",
    "Comment": {
        "Content": "捡了芝麻，丢了西瓜…… 不打印抬头，就是一张表格，你签完了我在打印抬头和信息并且盖印，兄弟，防不胜防 这次我们自己不站出来，下次我们每一次签字都可能会变成：房子被人卖掉，借了高利贷，和各种各样陨害我们自己利益的事情都会有可能发生！ 天真烂漫，你以为业主这么傻，物管用空表格，抬头后打印 是啊，白纸给你你签吗？人家一开始就说了，这张表只是签字领酱油的，谁规定签字领酱油一定的有抬头或者注释了？<br><br>再说了，如果所有生活中的一切东西都严格按照法律规定来规避风险，你现在用网易发回复前，请先前往网易总部，签署至少12份文书，然后才给你开放回复，请注意，每次回复都请你去签署一次，可好？ 套路深，回农村[喷水] 人与人之间的基础就是信任，没有了，就都各顾各的吧 业主被告知签字领酱油签字表却被拿去领鸡精 按你说干脆一张白纸让业主签名了再补打就好了，空白抬头的表傻乎乎乱签？这业主难道不该反省？ 这物业，总以人民的名义干坏事 可怜的维修基金，要么被开发商截留挪用，要么根本没到账，到账了还被物业偷，会有人能管管吗？ 我去！我们小区刚发完酱油。。 签字表上肯定有写明是什么签字表的，不然这个表是拿不了基金的，自己不看好就乱签，不会反省一下？ 助纣为虐 煞笔 不惩罚物业经济上倾家荡产，身败名裂。以后还有人玩这个套路。<br>难道非要逼迫每个人都要回到没有信任的丛林时代吗？破坏社会基本信任规则用来谋利，不严惩不足以警戒。 呵呵，你干脆一张白纸让业主签名了再补打就好了，你当业主是你一样傻？空白抬头的傻乎乎乱签？ 我去！我们小区刚发完酱油。。 天朝人就喜欢贪便宜，，， 签字表上肯定有写明是什么签字表的，不然这个表是拿不了基金的，自己不看好就乱签，不会反省一下？ 缺德 这属于迫害吧 其他小区连酱油都没有发呢，不满意可以滚出小区啊 人与人之间的基础就是信任，没有了，就都各顾各的吧 还好最后都被抓了 套路深，回农村[喷水] 不惩罚物业经济上倾家荡产，身败名裂。以后还有人玩这个套路。<br>难道非要逼迫每个人都要回到没有信任的丛林时代吗？破坏社会基本信任规则用来谋利，不严惩不足以警戒。 老百姓太善良了！ 这酱油用金子娘出来的 可怜的维修基金，要么被开发商截留挪用，要么根本没到账，到账了还被物业偷，会有人能管管吗？ 捡了芝麻，丢了西瓜…… 有钱吗？ 证明业主也脑残，东西都没写没看就签字 不打印抬头，就是一张表格，你签完了我在打印抬头和信息并且盖印，兄弟，防不胜防 哎， 沒有被借高利贷你们已经是烧高香了吧?😄！<br>好社会鬼变成人!现在是人人变成鬼！😭！ 天真烂漫，你以为业主这么傻，物管用空表格，抬头后打印 是啊，白纸给你你签吗？人家一开始就说了，这张表只是签字领酱油的，谁规定签字领酱油一定的有抬头或者注释了？<br><br>再说了，如果所有生活中的一切东西都严格按照法律规定来规避风险，你现在用网易发回复前，请先前往网易总部，签署至少12份文书，然后才给你开放回复，请注意，每次回复都请你去签署一次，可好？ 为啥只有4位业主起诉？如果是真的，这家物业公司涉嫌违法，一般公司不敢这么干吧 这种合同在美帝万恶资本主义里都是无效的！ 六十多年了 助纣为虐 哎， 这物业，总以人民的名义干坏事 这次我们自己不站出来，下次我们每一次签字都可能会变成：房子被人卖掉，借了高利贷，和各种各样陨害我们自己利益的事情都会有可能发生！ 人才啊 呵呵，你干脆一张白纸让业主签名了再补打就好了，你当业主是你一样傻？空白抬头的傻乎乎乱签？ 煞笔 业主被告知签字领酱油签字表却被拿去领鸡精 这套路，太深！ ",
        "Total": 470,
        "Link": "http://comment.news.163.com/news2_bbs/D6QGBCHO000187VG.html",
        "Reply": 34
    },
    "Title": "业主被告知签字领酱油 签字表却被拿去领49万基金_网易新闻"
}