{
    "URL": "http://ent.163.com/17/1228/17/D6OSBKRD00038FO9.html",
    "Comment": {
        "Reply": 35,
        "Content": "要片酬关你屁事？ 他的愿望就是个三线演员，人家主要在舞台剧，又不是拍电视剧 看卓老师，没有啥背景的演员谁敢得罪记者，一线明星很多也是分人耍大牌的 我男神 能体会 是的，台词功底很强 不管几线演员也是人要被尊重。一楼和你老婆干大家排好队调好闪光灯 记者威武想搞死艺人也容易 市场经济有人愿意给，不要？你就是没人给你酸的吧。再说他片酬很高？如果有人你给你200万让你演你说太高不要？让你吃屎你都乐的合不拢嘴吧。傻帽 我想说黑暗的环境强光太伤害眼睛、会瞎的！ 郭京飞演技挺好嘚，奈何没有大红 三线演员，得瑟什么 现在记者是大爷，一言不合写死你 那你一个演员还要这么高片酬？ 三线个屁，看看暗黑者和龙门镖局是二种风格的电视剧。郭京飞演得都不错。 快去看你的快手。。。。 你丫全家18线不到你得瑟什么 都是宁可得罪君子，不得罪小人，所以才这么诚恳的道歉！<br>虽然道歉像一种讽刺！ 哈哈你太看得起狗仔了 你试试光线不好的地方几十个相机连续在你跟前闪光试试！ 要片酬关你屁事？ 都是宁可得罪君子，不得罪小人，所以才这么诚恳的道歉！<br>虽然道歉像一种讽刺！ 嘚瑟？尼玛自己闪闪试试 你丫全家18线不到你得瑟什么 是的，台词功底很强 天津傻逼你得瑟什么 ？？？？闪关灯 应该是三件事吧，拒绝采访，路演都匆匆几分钟，不让开闪光灯，如果一件事感觉还说的过去，三件事就难免不给人家多的想象了. 现在记者是大爷，一言不合写死你 市场经济有人愿意给，不要？你就是没人给你酸的吧。再说他片酬很高？如果有人你给你200万让你演你说太高不要？让你吃屎你都乐的合不拢嘴吧。傻帽 此人在飞机上也不是个善茬，要了咖啡要雪碧，要了白开水要绿茶，一口不喝折腾 快去看你的快手。。。。 自己拿手机都是关闭闪光的，本来就不舒服还不让说吗 他的愿望就是个三线演员，人家主要在舞台剧，又不是拍电视剧 你试试光线不好的地方几十个相机连续在你跟前闪光试试！ 会做的不如会说的、会说的不如会写的！这是大道！ 上师别怕，看我等分分钟灭了这厮 三线演员，得瑟什么 不关灯我妈会揍我 我就不信就郭京飞这点事记者能弄死他，咋不上天呢他，人家道歉是因为他有礼貌，不然你算哪根葱 看卓老师，没有啥背景的演员谁敢得罪记者，一线明星很多也是分人耍大牌的 我男神 哈哈你太看得起狗仔了 好挑剔呀 不管几线演员也是人要被尊重。一楼和你老婆干大家排好队调好闪光灯 我想说黑暗的环境强光太伤害眼睛、会瞎的！ 郭京飞演技挺好嘚，奈何没有大红 你算个啥，智障儿童。 记者威武想搞死艺人也容易 那你一个演员还要这么高片酬？ 说实话，做演员很累的，很累很累了还要装作若无其事地微笑面对，其实只想好好补眠。他肯亲自道歉真的挺让人里舒服的 三线个屁，看看暗黑者和龙门镖局是二种风格的电视剧。郭京飞演得都不错。 是吧！我散光眼！那强光真是特疼！而现在玩手机看电视大家多多少少都会有点散光吧！不能为了你拍照片就晃瞎！不过可能处理方式有问题！应该再沟通.！不过大当家的态度这么好！ 能体会 不要道德绑架了，演员也有休息的权利。 暗了不用闪光拍毛啊，而且专业的闪光是往屋顶上打 ",
        "Total": 593,
        "Link": "http://comment.ent.163.com/ent2_bbs/D6OSBKRD00038FO9.html"
    },
    "Title": "郭京飞要求关闪关灯被吐槽 本人评论区亲自道歉_网易娱乐",
    "Source": "Netease",
    "KeyWords": "郭京飞,摄影,摄影师",
    "PublishTime": "12/28/201717:41:38",
    "Article": "网易娱乐12月28日报道12月28日，郭京飞现身天津宣传新片，在最后一场见面会时因厅内太暗请求摄影师关闭闪光灯，说会引起眼睛不适，结果遭现场媒体与摄影回怼“摄影是我的工作。”现场气氛好尴尬惹。今天有摄影在网上吐槽此事，不料郭京飞跑到评论里道歉来了，诚恳的态度令粉丝十分感动。本文来源：网易娱乐责任编辑：张悦_NBJS5410"
}