{
    "URL": "http://war.163.com/17/1231/11/D6VTF73P000181KT.html",
    "Article": "资料图评论：解放军仪仗队执行升国旗任务令人期待！刚刚，新华社发布权威消息：经党中央批准，自2018年1月1日起由人民解放军担负国旗护卫和礼炮鸣放任务。2018年1月1日7时36分，天安门广场升国旗仪式，首次由人民解放军仪仗队和军乐团执行。这意味着，武警部队担负国旗护卫将成为历史，天安门广场升旗仪式将由中国人民解放军担任。天安门广场，这个世界瞩目的地方，即将迎来升国旗仪式的新气象新风采。国旗是国家的标志和象征。从开国大典毛主席按下电钮升起第一面五星红旗开始，升国旗活动历经60多载春秋，庄严的升降仪式成为中华儿女的一个精神向往。35年前，武警北京总队组建的“天安门国旗班”正式担负升国旗任务，1991年“国旗班”扩编为天安门国旗护卫队。几十年来，这支被誉为中国“颜值最高”的部队，把国家的重任扛在肩上，把民族荣耀举过头顶，无论雨雪风霜，不管严寒酷暑，“迎着东方的晨曦，怀着赤诚的敬意”，用挺拔的军姿、刚美的动作、威武的气势，深情诠释着富强起来的东方古国神圣的尊严。一代代国旗卫士用誓言与行动，守护着无数中华儿女的精神家园，向全世界展示着国家和军队的光辉形象。武警部队担负国旗护卫书写的光荣与辉煌人民不会忘记，那一个个雄壮威武的场景将成为珍贵的历史回忆。中国人民解放军担负国旗护卫任务，是新时代的新气象新风采。天安门广场升国旗任务，是神圣的使命、光荣的职责，举世关注、万众瞩目。高擎和护卫着国旗，就是在捍卫国家的主权、安全和领土完整;铿锵的步伐和严整的军容，表达着中国人民向着现代化、向着民族复兴奋勇前进的豪情决心;托展和升起国旗，凝聚起华夏儿女对伟大祖国、对中华民族的坚定信仰和精神力量。中国人民解放军担负此项任务，责任重大，必将牢记重托、不辱使命，以实际行动向党和人民交出合格答卷。一个伟大的民族，必然要用一种庄重的仪式来表达自己的尊严与神圣，抒发自己的挚爱与祝福。天安门广场的升旗仪式已成为一道闪亮的风景。当国歌响起，鲜艳的五星红旗冉冉升起，绯红的黎明喷薄出无限光明的期冀，多少一夜守候的人们，深情仰望，热血澎湃，作为中华儿女的骄傲和自豪写在脸上，保卫祖国、建设祖国、富强祖国的使命感责任感在心中升腾。升国旗仪式，是国威的展示，也是军威的展示。今天我们生活在这样一个和平安宁、繁荣发展的中国，是因为人民军队时刻守卫着国家的领土主权和人民的幸福生活。在习主席掌舵指挥下，人民军队牢记使命，矢志强军，国家和人民绝不会遭受侵犯欺凌!新年第一天，中国人民解放军仪仗队和军乐团将精彩亮相天安门广场。飘扬的国旗、雄壮的国歌，激励召唤着全体中华儿女团结一心、锐意进取，向着民族复兴的伟大中国梦阔步前进!本文来源：中国军网责任编辑：赵亮亮_NN6671",
    "KeyWords": "解放军,仪仗队,天安门广场,中国人民解放军",
    "Source": "Netease",
    "Comment": {
        "Reply": 0,
        "Content": "",
        "Total": 25,
        "Link": "http://comment.war.163.com/news_junshi_bbs/D6VTF73P000181KT.html"
    },
    "PublishTime": "12/31/201711:15:44",
    "Title": "评论：解放军仪仗队执行升国旗任务令人期待！_网易军事"
}