{
    "Comment": {
        "Link": "http://comment.news.163.com/news_guonei8_bbs/D6KEQLSQ0001875N.html",
        "Reply": 3,
        "Content": "牛逼 科技创新支撑公安工作 牛逼 牛逼 科技创新支撑公安工作 ",
        "Total": 27
    },
    "Article": "（原标题：十九大代表为何从北京南下？）“远距离指挥警犬搜索工作设备研发”、“基于CiteSpace的国内青少年犯罪问题研究演进路径分析”、“晴空网络安全平台”、“基于微型无人机的道路交通监测与应用综合系统”、“多功能战术背心”……你知道这些是什么吗？这些都是大学生们的创新成果。由公安部信息化局、人事训练局主办的全国公安院校学生科技应用创新大赛决赛于26日在浙江警察学院举行。政知圈注意到，来自全国公安本科院校的学生，带着30个决赛项目在这里一一展示。最终10个项目获得金奖，20个项目获得银奖。首次“以展为主”“多功能战术背心与现有装备相比较，有哪些特点？”“用微型无人机方式处理交通事故存在哪些风险？”面对评委提问，站在台上的大学生一一回答。第十二届公安院校学生科技应用创新大赛首次以“展赛结合、以展为主”的方式举行，也就是让学生站在台上以PPT、视频等多媒体方式展示自己的创新成果。在比赛中，每位选手展示汇报6分钟，之后回答评委提问，专家现场打分，分数全部即时显示在大屏幕上，同时显示平均得分作为最终分数。承办这次决赛的是浙江警察学院，学院党委委员、教务处处长、教授金诚告诉政知圈，“以展为主”的目的是为学生们搭建一个小舞台，让学生充分展示、宣传自己的创新成果，展现大学生的青春活力，鼓励他们积极创新，把创新理念根植于大学生活中。在决赛之前，各公安院校的参赛项目都已经经过了层层选拔，最终产生这30个项目进入决赛。就浙江警察学院而言，金诚介绍，今年在接到公安部的通知后，学校从全校教师中共选出16位评审专家，通过匿名形式将学生申报材料发给相关评审专家进行审阅，最终选出25个项目作为入围项目。经过再次修改完善后，又择优选择15个项目推荐上报公安部参赛。最终，浙江警察学院有3个项目入围决赛。在参赛的30个项目中，有一些已经应用在部分地区的实际公安工作中，例如便携式小孔道内微量级痕迹物证搜寻仪已经在杭州公安系统内部试用，目前反响良好。远程指挥警犬设备获关注北京警察学院学生的创新项目“远距离指挥警犬搜索工作设备研发”获得金奖。该项目研究的设备是包括无线指令发射器、指令接受器、高频音发射器（达到35000Hz以上）、高频音监测器在内，最终形成远距离100米以上指挥搜索犬单兵装备，能满足警犬搜索日益复杂的工作需求。项目指导老师庄京伟介绍说，有研究这个项目的想法也是因为一线工作的需求，之前，在一次与新疆公安交流的过程中，得知新疆公安在反恐过程中会遇到很多危险情况，例如恐怖分子躲在山洞中，因为对山洞的结构、内部地形不了解，给民警带来很大人身安全威胁。基于这种情况，大家开始研究如何远程指挥警犬进行搜索工作。该项目组成员、北京警察学院学生何祥雨说，在做项目的过程中，大量跨专业的知识都需要一点点去学习。“拓宽了我们的知识面，很多知识以前一点儿也不了解，现在可以说是很熟悉了。”何祥雨说，“遇到一个非常优秀的交流平台，让我接触到更多的创新思路和方法。”浙江警察学院大四学生叶栩闻是学校出名的“学霸”。这次大赛他的项目是“基于CiteSpace的国内青少年犯罪问题研究演进路径分析”，最终获金奖。叶栩闻说，自己的研究思路就是借助大数据，将数据通过先进软件进行分析，得出数据分析结果，再通过自己的梳理、总结，得出研究结论，“希望能为公安工作提供建议、参考。”这是叶栩闻第一次参加这项比赛，“比赛给了我一个展示自己的平台，很珍贵”，他说：“最大的收获就是，一个项目不是一个人付出就能够完成的，而是团队、整体的力量，这是给我最大的启发。”十九大代表做评委评委共11人，有一线民警、十九大代表、专家教授、企业专家等。评委中有两位来自公安系统的十九大代表。其中，十九大代表、公安部物证鉴定中心法医病理损伤技术处副处长田雪梅表示：“我非常支持这次大赛的理念，就是鼓励大学生去创新，以鼓励为主，让学生在校园里就有创新意识、创新精神，自觉地去创新，是最重要的”。“学生研究经验有限，能做出什么样的创新成果不是最重要的，而是要通过这样一个方式，让他们有思考、有动力，有创新理念，在以后的工作中，能够结合工作和科学理念，创造更多的创新价值。”她提到，“培养青年，未来就有希望，我们从大学生抓起，鼓励他们创新，也是希望充分发挥青年优势，让青年更好地发挥自己的能量，展示自己的能力。”“一代人有一代人的长征路”，田雪梅说，新一代的青年就是要善用互联网、善用新科技，学习现代化的技术破解实际中遇到的难题，“比赛是鼓励学生将现实需要和科技创新结合起来。”“都是公安院校的学生，就公安工作而言，也有其特殊性。”田雪梅表示，十九大报告中提及要“使人民获得感、幸福感、安全感更加充实、更有保障、更可持续”。公安工作就是预防和打击犯罪，“公安队伍也需要用大数据等信息化手段，维护人民安全，让人民更有安全感。”本文来源：政知圈作者：高语阳责任编辑：李天奕_NN7528",
    "PublishTime": "12/27/201700:28:12",
    "URL": "http://news.163.com/17/1227/00/D6KEQLSQ0001875N.html",
    "Title": "为了这项大赛 十九大代表从北京南下当评委_网易新闻",
    "KeyWords": "十九大,大学生,公安部,科技",
    "Source": "Netease"
}