{
    "Source": "Netease",
    "Title": "黄子韬重磅加盟东方卫视跨年盛典 魅力燃爆东方_网易娱乐",
    "Comment": {
        "Link": "http://comment.ent.163.com/ent2_bbs/D6LC7RJ100038FO9.html",
        "Content": "这孩子内心本质极佳，父母教育的好 直接东方卫视就行 跨年晚会还得看我们江苏卫视 直接东方卫视就行 这孩子内心本质极佳，父母教育的好 跨年演唱会还是打麻将最好，自从他们结婚以后，就取消了，我是不是也该去结婚？ 最前沿歌手...咱先不说唱歌，各方面吧，除了表情包挺赞以外，还有啥作品没？方方面面都算上！ 过气 套！ 又有一个卫视的跨年晚会不用看了 ",
        "Reply": 8,
        "Total": 14
    },
    "URL": "http://ent.163.com/17/1227/09/D6LC7RJ100038FO9.html",
    "PublishTime": "12/27/201709:02:13",
    "Article": "东方卫视跨年黄子韬个人海报网易娱乐12月27日报道距离2018年跨年夜只剩4天，12月27日，东方卫视宣布黄子韬重磅加盟《梦圆东方——2018东方卫视跨年盛典》！作为C-POP先锋音乐人的黄子韬，其带有强烈个人特质的音乐一直深受粉丝喜爱，前不久黄子韬更是展现了自己的街舞实力，此次加盟东方卫视跨年夜，不知道这位率真的大男孩要如何展现自己的“韬”式魅力。“坚持梦想，多才多艺，我行我素酷到不行”，这是许多人喜爱黄子韬的原因。除了率真的性格之外，黄子韬给人的印象是站在华语乐坛最前沿的歌手之一。无论是造型、舞蹈还是曲风，他都是引领C-POP潮流的唱作人。他的首张个人数字专辑《T.A.O》一经发行便刷新内地数字音乐专辑首日销售最高记录，首张单曲专辑《Adore》更是获得白金唱片的认证，首张实体专辑《TheRoad》预售开启，一分钟就破50万销售额！擅长rap的他，往往让人忽略了他的街舞技能。出道前，黄子韬坚持练习舞蹈多年，加上从小练得一身好武术，使黄子韬的街舞也有自己的个人风格：张弛有度，带有中国韵味。一旦登上舞台他就能立马变成气场王，魅力四射。除了心爱的音乐事业，黄子韬也在不断学习如何做一名优秀的演员。《夏天19岁的肖像》、《铁道飞虎》、《游戏规则》等影视作品中的表现，让黄子韬在上半年东方卫视播出的第八届中国导演协会年度盛典中，得到了多位业界前辈的赞许。继2015年登陆东方卫视《女神的新衣》节目后，多才多艺的黄子韬再与东方卫视合作，技能点全满的他要如何花样展现自己的“韬”式魅力，会用怎样的节目陪观众跨年，燃爆东方，引起阵阵惊“韬”骇浪呢？12月31日晚19：30，一起锁定东方卫视。本文来源：网易娱乐责任编辑：李彤_NK4455",
    "KeyWords": "黄子韬,街舞,跨年夜"
}