{
    "URL": "http://news.163.com/17/1231/22/D7153QLG0001899N.html",
    "Title": "茅台拟明年销售收入超800亿:供不应求态势难改变_网易新闻",
    "KeyWords": "茅台,茅台酒,囤货",
    "Article": "（原标题：茅台集团力争明年实现销售收入超800亿元）国酒茅台2017年度全国经销商联谊会记者从12月28日举行的国酒茅台2017年度全国经销商联谊会上获悉，茅台集团明年将实施“跨八计划”，力争实现销售收入800亿元以上。2017年，茅台集团坚持稳中求进总基调，发展呈现出快中趋稳、稳中有进、进中有好、好中向优的良好态势。预计全年营业收入突破600亿元，主要指标创历史最高水平，成为贵州实体经济发展的典型代表，为全省经济和白酒产业发展作出了贡献。1998年，茅台组建了第一支营销队伍参与市场博弈。20年来，茅台营销取得辉煌成就，集团公司累计实现销售收入超3800亿元、利税超2900亿元、上缴税金超1400亿元、实现利润超1900亿元；经销商队伍从1998年的146家，发展到现国内经销商、专卖店等客户2000多家，营销网络覆盖全国所有地级城市和30%以上的县级城市，海外代理商104家，市场覆盖全球66个国家和地区；茅台酒世界蒸馏酒第一品牌的地位不断巩固提升，在世界多家知名排行榜中，茅台与众多世界品牌比肩而立。茅台集团主要领导表示，随着消费升级的持续发酵，中高端白酒仍将保持“量效齐升”的趋势，茅台酒供不应求的态势不会减弱，供求关系会更加紧张。明年乃至更长时间内，茅台酒市场仍有很大空间，还大有文章可做。据悉，茅台酒明年的营销计划将按2.8万吨左右的总量来安排，经销商计划不增不减，增量主要用于调整结构。本文来源：贵州日报责任编辑：徐萌_NN7485",
    "Source": "Netease",
    "PublishTime": "12/31/201722:48:34",
    "Comment": {
        "Link": "http://comment.news.163.com/news2_bbs/D7153QLG0001899N.html",
        "Reply": 81,
        "Content": "一千多块 老虎打完了，就剩下自己人了 我们灵道的最爱 贵州茅台股票价值：125619万股×697元≈8443亿元。不知道世界上有哪几个制造业大厂商有这么大的市值？ 喝的不买，买的不喝！ 打了那么多老虎怎么销量还那么好？奇了怪了 集团公司累计实现销售收入超3800亿元、利税超2900亿元、上缴税金超1400亿元、实现利润超1900亿元；咋算的这是 不做奴才，不喝茅台！<br>不喝一滴，不买一股！ 喝的不买，买的不喝~！ 我的圈子都是屌丝所以茅台长什么样我也只在媒体上见过 即然是供不应求，那有那么多存量？不会是收购小作房散户构对的吧？世界之大，啥事都有。 去年和上半年打压不正之风，感谢战狗2国家支持这电影。又让茅台火了一把。 有道理，以后评估腐败程度可以用茅台指数。 当年红塔集团比这个厉害吧……任何东西都有没落的哪天…… 茅台酒少喝有好处… 我竟然无言以对 喝茅台是身份的像征，国富民强，贵州人喝得起！ 这样的企业只能活在中国！ 茅台已经是一种信仰了，类似的还有各类虫草，霉变的号称带金花的茶......神奇的国度。 纯属公务人员养活的企业。 幸好老百姓普遍有钱，不然还喝不到。 贵州茅台600519，股票价值：125616万股×697（年终收盘价）≈8755亿元。世界上有哪几个制造业大厂的股票价值能比过它？ 有官就不愁销量[窃笑] 很有特色的企业 我是一個飯店的經理，這個飯店是中鐵的下屬飯店，每天都有領導來喝酒，基本就是五糧液茅台，吃完了開票不給錢，每到月底都會有個人拿現金結帳⋯⋯ 有多少人看不起病去绝食，等死。对了，一瓶茅台多少钱 喝的人不买，买的人不喝 放P，不喝毛台能打仗吗？ 战狼2里吴京不是当可乐喝么 让零倒先喝 还不是国民的税 茅台这种酒很奇怪。买的人不喝、喝的人不买 都是谁在喝 功过不表，罚酒三杯，翠花，上茅台…… 酒供不应求，这不是好事。 百度一下最开始茅台的老板死的有多惨 是人都知道是谁喝的 曹操以前谁敢贪就灭九族，不过也没用，何况现在，连官园财产都不敢公開 不断放出利好，老股民都知道——庄家要获利出逃了。小散们去接盘吧。 应该标价一万一瓶起，这样市值是不是可以称霸宇宙了？ 这就是一种品牌垄断，导致商品成为金融投资品，各级经销商大量囤货待涨，而且生产方茅台公司按融资成本和追求的社会平均利润要求，会三年一次大提价，会有近30%的涨幅 茅台酒和腐败成正比，销量越好，说明越腐败。基本都是政商饭局或行贿送礼所用。 一千多块 我想问问20左右除了美日韩和国产，还有什么推荐 茅台这种酒很奇怪。买的人不喝、喝的人不买 按说酱香型的受众并不是很多啊身边很多人喝不惯酱香型为什么销量这么好呢？ 打了那么多老虎怎么销量还那么好？奇了怪了 上万拉菲才多少瓶而且就是喝一瓶少一瓶价格才贵，茅台每年生产多少瓶 当年红塔集团比这个厉害吧……任何东西都有没落的哪天…… 现实情况是，欧洲几个豪车厂商都抵不过lv包包的市值 茅台酒是国家重要资源，应该限购 在天朝一起皆有可能除了科学技术 去年和上半年打压不正之风，感谢战狗2国家支持这电影。又让茅台火了一把。 滚尼玛的，唯恐天下不乱？臭狗屎 老虎打完了，就剩下自己人了 贵州茅台600519，股票价值：125616万股×697（年终收盘价）≈8755亿元。世界上有哪几个制造业大厂的股票价值能比过它？ 好奇怪，怎么没有圣母婊要求别人喝江小白把多出的钱捐了 不仅那几位不喝，实际上我们集团（十大军工央企之一）也从没见接待领导有喝茅台的。身边做生意的同学也不喝。供不应求到底是被囤积了还是真喝了？很可能前者吧 贵州茅台股票价值：125619万股×697元≈8443亿元。不知道世界上有哪几个制造业大厂商有这么大的市值？ 法系和俄系 我是一個飯店的經理，這個飯店是中鐵的下屬飯店，每天都有領導來喝酒，基本就是五糧液茅台，吃完了開票不給錢，每到月底都會有個人拿現金結帳⋯⋯ 喝进去的是血液吐出来的是精子 战狼2里吴京不是当可乐喝么 是人都知道是谁喝的 那几个，真不喝 酒供不应求，这不是好事。 功过不表，罚酒三杯，翠花，上茅台…… 是人都知道是谁喝的 曹操以前谁敢贪就灭九族，不过也没用，何况现在，连官园财产都不敢公開 我身边真的没人喝茅台，，到底都是谁在买啊 又有哪个制造业利润有他高？一瓶上千成本是粮食 不做奴才，不喝茅台！<br>不喝一滴，不买一股！ 喝茅台是身份的像征，国富民强，贵州人喝得起！ 我们灵道的最爱 OV狗，嘴下积点德！ 有多少人看不起病去绝食，等死。对了，一瓶茅台多少钱 百度一下最开始茅台的老板死的有多惨 瞎子才寻找光明！ 喝的不买，买的不喝~！ 茅台每年生产的，不够卖 即然是供不应求，那有那么多存量？不会是收购小作房散户构对的吧？世界之大，啥事都有。 有官就不愁销量[窃笑] 海南岛买鬼子车的好多 我竟然无言以对 我的圈子都是屌丝所以茅台长什么样我也只在媒体上见过 脑子有问题。 纯属公务人员养活的企业。 买的不喝，喝的不买！ 喝的人不买，买的人不喝 放P，不喝毛台能打仗吗？ 都是谁在喝 赤水河流淌的------------------- 没有朕惨 都不知道这个软文花了多少钱 集团公司累计实现销售收入超3800亿元、利税超2900亿元、上缴税金超1400亿元、实现利润超1900亿元；咋算的这是 有道理，以后评估腐败程度可以用茅台指数。 还不是国民的税 茅台酒和腐败成正比，销量越好，说明越腐败。基本都是政商饭局或行贿送礼所用。 茅台现象说明皮球打手手还疼 喝的不买，买的不喝！ 会不会成为第一支千元股 我怎么听说，市场上销售的茅台，百分之八十都是假的呢 酒洒黔北... 茅台酒少喝有好处… 爱喝 这样的企业只能活在中国！ 茅台已经是一种信仰了，类似的还有各类虫草，霉变的号称带金花的茶......神奇的国度。 可乐的缺点是:越喝越清醒。不如茅台哇，可以喝晕，喝傻 茅台酒一点都不好喝，甜度完全不够，不如喝可乐来的爽。真搞不懂为什么那么多脑残会去喝又贵又难喝的茅台酒而不是又便宜又好喝的可乐呢 幸好老百姓普遍有钱，不然还喝不到。 朱门酒肉臭，者句诗也得不错，特别是这个朱子gjddgjkvz478,:;8: 普通老百姓有几个喝得起？ 逆势呀! 让零倒先喝 不断放出利好，老股民都知道——庄家要获利出逃了。小散们去接盘吧。 至少我不会在小店买，京东或者苏宁自营的我觉得靠谱。 领导不爱喝 应该标价一万一瓶起，这样市值是不是可以称霸宇宙了？ 这就是一种品牌垄断，导致商品成为金融投资品，各级经销商大量囤货待涨，而且生产方茅台公司按融资成本和追求的社会平均利润要求，会三年一次大提价，会有近30%的涨幅 很有特色的企业 近一亿人在喝茅台 ",
        "Total": 2004
    }
}