{
    "Title": "2017年中国电影票房达559.11亿 同比增长13.45%_网易科技",
    "PublishTime": "01/01/201814:57:46",
    "URL": "http://tech.163.com/18/0101/14/D72SIFAS00097U7H.html",
    "Source": "Netease",
    "KeyWords": "电影票房,总票房,电影,票房",
    "Comment": {
        "Reply": 5,
        "Content": "战🐶没有入围奥斯卡入围名单，到底要不要远诛呢 电影票房是越来越高能拿得出手的几乎没有 看来还是要2019年能破票房百亿美元，2020年差不多超过美国，这是乐观的前提下，不然可能回冷 …… 看来还是要2019年能破票房百亿美元，2020年差不多超过美国，这是乐观的前提下，不然可能回冷， 战🐶没有入围奥斯卡入围名单，到底要不要远诛呢 电影票房是越来越高能拿得出手的几乎没有 ",
        "Total": 9,
        "Link": "http://comment.tech.163.com/tech_bbs/D72SIFAS00097U7H.html"
    },
    "Article": "（原标题：2017年中国电影票房达559.11亿同比增长13.45%）资料图：影迷熬夜观看《速度与激情8》首映场。张云摄中新社北京1月1日电(记者高凯)中国新闻出版广电总局电影局12月31日晚发布数据称，2017年全国电影总票房为559.11亿元(人民币，下同)。该数据显示，2017年全国总票房同比增长13.45%，其中，国产电影票房301.04亿元，占票房总额的53.84%。票房过亿元影片92部，其中，国产电影51部；城市院线观影人次16.2亿，同比增长18.08%。根据此次发布的数据，2017年，全国生产电影故事片798部、动画电影32部、科教电影68部、纪录电影44部、特种电影28部，总计970部；国产电影海外票房和销售收入42.53亿元，同比增长11.19%；全国新增银幕9597块，银幕总数已达到50776块。据介绍，全年共有13部国产影片票房超过5亿元，6部国产影片票房超过10亿元；影片《战狼2》以56.83亿元票房和1.6亿观影人次创造了多项市场纪录，成为国产电影的突出亮点。《羞羞的铁拳》《功夫瑜伽》《西游伏妖篇》和《芳华》四部国产片上榜票房前十榜单。好莱坞影片《速度与激情8》以26.7亿夺得国产片和引进片票房榜冠军。(完)本文来源：中国新闻网责任编辑：姚立伟_NT6056"
}