{
    "Article": "（原标题：后续:司机驾车冲卡逃走坚称\"喝了藿香正气口服液\"）白色宝骏(图中画圈处)冲卡逃走。视频截图前不久，柳州市城站路发生了一起汽车被查后“冲卡狂逃”的案件。12月25日晚上8时45分，在东环大道与文兴路交叉的万达路口，一辆白色宝骏560在车流中左突又冲，连撞了几辆车后疯狂逃窜。这次驾驶人是犯了什么事，搞得这么慌张?疑似酒驾司机冲卡逃走“我们测酒让他吹气，第一次他不吹，第二次一吹就爆红了。”据城中交警介绍，当晚城中交警在万达路口进行测酒、毒驾整治，这辆宝骏560从南往北行驶，在中间的那股道上，前后左右都是车。当时路口亮红灯，民警拿着酒精测试棒挨着车辆对驾驶人进行测试，到这辆宝骏560时，民警伸出测试棒请其测试，但司机看上去并不太配合，后来一吹，酒精测试棒立即亮灯，显示该驾驶人有酒驾嫌疑。就在民警请司机熄火下车时，该车驾驶人突然快速往右撞，蹭到旁车，接着倒了一手方向撞到后车，又往右边撞去，撞开两辆车后窜了出去，往桂柳路口方向快速驶去。随后，民警通过该车车牌的登记信息查到了车主。车主是位女士，民警通过电话询问得知，该车当晚是其老公眭某驾驶。民警随后再打该女车主电话时，不是不通，就是不接。当晚9时许，城中交警通过查询车主信息发现，其名下有三辆车，其中两辆登记地是在外地，这辆宝骏登记地则在柳州桂柳路兴怡园小区。民警随后赶往该地址进行查找，果然在一栋楼下找到了这辆冲卡的宝骏汽车。民警根据地址找到车主家时，房间关着灯，没有人应答。随后，民警将冲卡宝竣暂扣回大队。次日投案坚称没有饮酒就在交警准备采取进一步行动时，12月26日下午4时许，肇事司机眭某主动来到城中交警大队接受处理。眭某称，当晚他在位于东环大道上的朋友家吃饭，饭后送朋友回家经过东环大道万达路口时，遇到交警查车，他以为自己在停车时剐蹭到旁边车辆，所以看到交警特别紧张，“我第一次遇见这种情况，当时我感冒头昏脑涨的，看见旁边车子动了有个空位，就往右边打方向盘，冲出去的时候又碰到了人家的车，更加紧张了就加油跑了”。民警问眭某当晚是否饮酒驾驶时，眭某坚称自己当晚没有饮酒，“只是感冒不舒服，喝了两支藿香正气口服液”。眭某说，逃离现场后他将车辆开回家，因为跟老婆吵了架就没有回家睡，借宿在同一小区的朋友家，一觉睡到下午。不过，对于眭某的说法，民警还在进一步的调查当中。难逃追查只会加重处罚12月19日下午，城站路发生了男子疯狂撞车逃窜的事件，最后该名男子归案被公安机关以涉嫌“危险方法危害公共安全罪”刑事拘留。交警部门表示，遇到民警检查时，以身试法铤而走险，通过冲卡的方式想逃避法律的制裁是不可取的，因为一是逃脱不掉警方的追查;二是这样的抗法行为只会加重自身的处罚。本文来源：南国今报责任编辑：程钢_NN7377",
    "Source": "Netease",
    "KeyWords": "冲卡,口服液,交警",
    "Title": "司机疑似酒驾冲卡逃走 坚称\"喝了藿香正气口服液\"_网易新闻",
    "Comment": {
        "Total": 46,
        "Content": "太极藿香正气口服液，不含酒精，不辣不苦，耶！！ 现场冲卡逃跑第二天投案的应该以醉酒驾驶醉酒刑事责任 我喝了酒，给家人的借口就是藿香正气液 这要是能逃罪，很多人会效仿 判刑！ 傻逼，酒驾最多吊销驾证几个月，你现在罪名可多了：肇事逃逸，危险驾驶，妨碍司法！那条都够你喝一壶的！还会面临终身禁驾！ 现场冲卡逃跑第二天投案的应该以醉酒驾驶醉酒刑事责任 逃不了的，首先肇事逃逸一条就判的比酒驾严了。何况还有妨碍执法，危险驾驶。那条都比酒驾判的严，何况当时要是有执法记录仪，就可以通过证据链推断你酒驾，你跑掉了都没有，除非你能拿出证据证明自己没有酒驾。 逃逸罪应该重于酒驾，不然的话，大家发现酒驾被查，都跑了。 太极藿香正气口服液，不含酒精，不辣不苦，耶！！ 我喝了酒，给家人的借口就是藿香正气液 看不懂，为啥要这样 这要是能逃罪，很多人会效仿 厉害了， 在酒吧斋坐片刻，会否吞了满肚子酒气？ 一楼疑似醉酒发帖 传说中,霍香正气口服液喝完有可能被酒驾,这是真的吗?实验开始! 老司机又开始开车了。 我家小喵都承认这位老司机不错。 酒驾的老司机伤不起。 怎么判？酒驾没证据啊？判危害公共安全罪？ 判刑！ 对，还有妨碍执法 ",
        "Reply": 18,
        "Link": "http://comment.news.163.com/news_shehui7_bbs/D6NVTRHC0001875P.html"
    },
    "PublishTime": "12/28/201709:24:45",
    "URL": "http://news.163.com/17/1228/09/D6NVTRHC0001875P.html"
}