{
    "URL": "http://news.163.com/17/1227/15/D6M3ORHF000187VG.html",
    "Comment": {
        "Total": 59,
        "Reply": 12,
        "Link": "http://comment.news.163.com/news2_bbs/D6M3ORHF000187VG.html",
        "Content": "有婿如此，夫复何求！小菊花妈妈课堂开课了！ 没混成富翁，失望 最近的新闻，95～98年左右的抢劫、杀人伤害案落网的犯罪嫌疑人，各个地方都抓了不少。 归案的九牛一毛。 活该活该活该活该 不是富翁，不按套路出牌啊！ 不是富翁 资产不过亿好意思自称逃犯而且还上网易新闻。 没混成富翁，失望 资产不过亿好意思自称逃犯而且还上网易新闻。 没成亿万富翁? 有婿如此，夫复何求！小菊花妈妈课堂开课了！ 最近的新闻，95～98年左右的抢劫、杀人伤害案落网的犯罪嫌疑人，各个地方都抓了不少。 网易的犯罪富翁系类。 不是富翁 资产不过亿好意思自称逃犯而且还上网易新闻。 活该活该活该活该 不是富翁，不按套路出牌啊！ 归案的九牛一毛。 不是富翁 "
    },
    "Article": "（原标题：龙山男子替岳父出头杀人潜逃22年在常德落网）嫌疑人在常德落网。嫌疑人的租住房。红网时刻12月27日讯12月26日，湖南省常德市鼎城区公安局通报，该局刑侦大队积极开展对外协作，协助湘西龙山警方成功抓获潜逃22年命案逃犯黄某松(男，现年47岁，湖南省龙山县人)，破获一起发生在1995年的故意杀人案。12月20日下午，鼎城区公安局刑侦大队接待了前来开展追逃工作的龙山警方办案民警，据对方情况通报：1995年杀人后外逃的黄某松有一名关系人在鼎城区武陵镇出现，分析黄某松极有可能在武陵镇范围内藏身。鼎城刑侦大队随即开展工作，在市局有关部门的支持下，民警连夜工作，21日上午，民警结合调查走访获悉，黄某松现已化名“彭光辉”，在江南城区西站社区居住。当天中午，民警在江南城区西站社区二组某村民家中，将正在午休的黄某松成功抓获。据龙山警方介绍，1995年5月16日，龙山县洗车河镇村民王某发与王某炳为地界发生纠纷，作为王某发女婿的黄某松和向某某持凶器来到王某炳家中报复，将王某炳的妻子尚某某打死，将王某炳打伤。案件发生后，向某某和黄某松随即仓皇出逃，龙山警方历经多年抓捕一直未果。经调查证实，犯罪嫌疑人黄某松在作案后四处逃亡，后经其叔叔(现已过世)介绍来到常德市鼎城区武陵镇，化名“彭某辉”，在原西站村租住，平时以做临工为生，为逃避打击从不使用真实身份资料。目前，犯罪嫌疑人黄某松已被龙山警方押解回去，向某某同日也在福建落网。本文来源：红网责任编辑：张海桐_NN9053",
    "KeyWords": "龙山,常德,杀人",
    "Source": "Netease",
    "Title": "男子替岳父出头持凶器杀人 化名潜逃22年后落网_网易新闻",
    "PublishTime": "12/27/201714:11:11"
}