{
    "Title": "美宣布砍掉联合国2.85亿美元预算:别想利用我慷慨_网易新闻",
    "URL": "http://news.163.com/17/1225/19/D6HB8E8P0001899N.html",
    "Source": "Netease",
    "Comment": {
        "Total": 44405,
        "Reply": 1119,
        "Content": "没法直视你的名字和IP 取消某两个国家的常任理事国资格，那才是真正的提升联合国效率 默念观世音六字真言 两个傻逼！ 美国家的联合国 好，美利坚有理有据有魄力 有啥关系？ 不是吧？还有海尔呀！ 说了不到一周，这就行动了！敢说敢干，雷厉风行！👍 川普这小脾气一上来，谁都不好使。 把俩流氓踢出联合国 以后中国就是大哥哥了，美国现在的大哥没大哥的样儿了 端起碗吃饭，放下碗骂娘！ 哈哈，美国佬正在变得自私算计和自保，将逐步失去影响力，好事！ 特朗普好样的 最近几晚老是不好睡，夜里总是被惊醒，总是感觉有人在感我的名字 支持美国另起炉灶 你这主意出的，这活还是别掺和为好，要不然在美帝的二代财产就全被没收了，那帮人还不把你剮了？劝你收拾细软跑路吧！ 花钱买耳光的事，谁都不乐意做就是了 坚决支持 那你们可以退出美国家的联合国啊！ 所谓喷子，凡是中国的都喷，凡是美国的都是好的，美国人拉泡屎都是香的，因为那是民主自由的💩 你影响力大了！ 美国是联合国的头号财政资助国，贡献22%的联合国核心经费，并在维和方面贡献28%。联合国的运营预算与维和预算分开。法新社报道称，在美国总统特朗普的施压下，今年的维和预算已经遭砍6亿美元。<br>一直以为负责任的大国是…… ---美国的契约精神呢？ 春风兄夜晚好！我酒刚刚醒😊 美国人想咋的？仗着自己是世界警察就可以为所欲为吗？规则对他有利，就利用规则。规则对他不利，就成了狗屎！还有没有把其它国家放在眼里？ 你这是猴年马月的事了，舔也不必这么跪着，都说了22％了。 关键是联合国鱼目混杂，道不同，不相为谋。 你看看人家的点赞！你眼镜瞎了吗？ 支持美利坚！ 毁灭一个国家的10种事：1、没人性的政治。2、没思想的崇拜。3、没人文的科学。4、没道德的商业。5、没良知的知识。6、没真实的历史。7、没独立的精神。8、没自由的幸福。9、没劳动的富裕。10、没制约的权力。​​​ 你娘是寡妇吧！ 特朗普真是人民的好总统 那格力岂不是一家独大了？ 特朗普、黑寡妇联合国耍流氓 入联合国，就得遵守联合国的规章，要不，美国退出得了 春风兄所讲极是 联合国为虎作伥，已经成为世界发展进步的绊脚石，口口声声和平确干着相反的事，谈判让巴沙尔地盘越来越大，朝鲜伊朗气焰越来越嚣张，坚决解散联合国，恢复正常世界秩序，该消灭的尽快消灭 把联合国搬北京来，气死美的！ 有用吗？ 这负责任大国的称号其实是自己封的 联合国吃美国饭砸美国锅 搬你家都行问题是你要有实力说话别人会听你的真丫弱智 这话好熟悉，吃着xx的饭，砸了xx的锅？ 呵呵😄…… 顶你 联合国经费百分之七十来自美国，美国早就该提出大家平摊了。 莫非盛宴兄试过？如不管用兄弟今晚就缠上你了……😂 快刀君好 美国家的联合国 傻丫头，在你家隔壁开哇？ 说了不到一周，这就行动了！敢说敢干，雷厉风行！👍 无所谓，反正中国是发展中国家，不用交多少费用 全中了 一年预算54亿啊，联合国花钱地方这么多 就是，美国出大头也就1票，小国出小钱也有1票，有本事按票数平摊出资 董小姐有了草原 看热闹的傻逼 把美国逐出联合国！ 看来联合国要解散了 取消美佬一票否决权 挟天子以令诸侯 如果是美国家的，那怎么那么多投反对美国的票？一楼这类不是自打嘴巴？ 支持美国另起炉灶 有钱就是任性 估计某国会很慷慨，让后弃权和反对票投的不亦乐乎 掰掰手指头！啊，快了！ 那你们可以退出美国家的联合国啊！ 我不管谁说的，反正在这里是占全了 联合国别怕，我们纳税人给你补上！ ---美国的契约精神呢？ 联合国为虎作伥，已经成为世界发展进步的绊脚石，口口声声和平确干着相反的事，谈判让巴沙尔地盘越来越大，朝鲜伊朗气焰越来越嚣张，坚决解散联合国，恢复正常世界秩序，该消灭的尽快消灭 只要它和它的老朋友退出联合国，素质马上提升 联合国本来就没啥用啊 一个FIFA一个UN，早就该整顿了 关键是联合国鱼目混杂，道不同，不相为谋。 把联合国搬北京来，气死美的！ 吃美国的饭砸美国的锅，联合国没存在的必要了，你们自己玩吧。 老美欠费多少了先？😀 毁灭一个国家的10种事：1、没人性的政治。2、没思想的崇拜。3、没人文的科学。4、没道德的商业。5、没良知的知识。6、没真实的历史。7、没独立的精神。8、没自由的幸福。9、没劳动的富裕。10、没制约的权力。​​​ 美国人想咋的？仗着自己是世界警察就可以为所欲为吗？规则对他有利，就利用规则。规则对他不利，就成了狗屎！还有没有把其它国家放在眼里？ 老特是个好总统！羡慕美帝！！ 生意人大都特厉害，没有几个软柿子可捏的！ 那格力岂不是一家独大了？ 那条契约说美国一定要给那么多钱的？ 狗腿子，叫的挺大声的，你美爹挨揍了！ 联合国经费百分之七十来自美国，美国早就该提出大家平摊了。 都搬到中国来 赤膊上阵 地主家也没有多少余粮了， 支持美国！！ 脑子有病 岳不群之国表示不干涉他国内政 接近200个国家，美国花的钱就占22%，结果还打自己脸，换作谁都要给点颜色 都有了！ 这钱联合国已经找到下家大头 千万别来，花的都是纳税人的钱好吧 好！不顶不是人！ 还有一个有钱的地主，不怕 就你这豆腐脑，爹妈没少操心吧！ 可是有的这十个都占全了，却还活得挺好的。 美国开始不要脸面了，小家子气十足。 这是谁说的，如果不对的话他负责吗？ 美国人敢骂总统有啥了不起，我们也敢！狗1日的特朗普 全占了，怎么办？ 楼上的智商… 可惜 美国人早想省钱了 美国光说不做，欠联合国最多会费的就是美国！ 恼羞成怒了 联合国:不怕，有中国，人傻钱多。 搬你家都行问题是你要有实力说话别人会听你的真丫弱智 主要是里面浑水摸鱼的多了！ 你跟华为较什么劲…… 哈哈，美国佬正在变得自私算计和自保，将逐步失去影响力，好事！ 我的话讲完了，谁赞成？谁反对？😊😊😊 让别国人民受伤让美国人看清别人？美国人太高大了？ 你养的起？就算你你养的起，也没朋友，人家该恶心你依旧恶心你，那些纳税人的钱养打自己脸的人，心真大 你好，顺丰快递 你放心，已经在装修房子了很快就搬！ 川普：出来混的要讲信誉，说砍你会费就砍你会费。 美宣布砍掉联合国2.85亿美元预算，我们给就是了，所以就一句话，中国或成最大赢家！（发布前去掉括号内的内容有汇款！） 你影响力大了！ 二楼第一次来网易吧 ---美国的契约精神呢？ 现在承认联合国是工具啦？ 美国人想咋的？仗着自己是世界警察就可以为所欲为吗？规则对他有利，就利用规则。规则对他不利，就成了狗屎！还有没有把其它国家放在眼里？ 出你麻痹，要出你自己出，别带上我们 重新组群 关键是联合国鱼目混杂，道不同，不相为谋。 要脸吗？欠了多少亿会费没交了？为了省五亿退群教科文组织。 我们来出 美狗说：这就是联合国不听话的下场，不听从美帝的，全世界都是错的！ 注意安全 毁灭一个国家的10种事：1、没人性的政治。2、没思想的崇拜。3、没人文的科学。4、没道德的商业。5、没良知的知识。6、没真实的历史。7、没独立的精神。8、没自由的幸福。9、没劳动的富裕。10、没制约的权力。​​​ 你娘是寡妇吧！ 你先明白什么是契约精神再来发帖，照你这逻辑，所有的改革都是对契约精神的背叛，建议你好好学习！ 河南那个弱智我告诉你，美国要是退了，联合国马上散了！ 有的大国经常做这事 要联合国干什么？刚成立的时候要不是美国给了块地皮，屋子都搭不起来! 砍得好 特朗普、黑寡妇联合国耍流氓 美狗说：这就是联合国不听话的下场，不听从美帝的，全世界都是错的！ 联合国该成历史了，美国要开启新的航海时代？ 一点不要面子 老子花钱，你们还逼逼这比比那 把联合国搬北京来，气死美的！ 归根结底穷了。 花钱买耳光的事，谁都不乐意做就是了 傻B一楼 1983年，里根总统就说过，不愿在美国🇺🇸的联合国，可以直接搬走。美国🇺🇸无所谓！ 联合国吃美国饭砸美国锅 他自己就是联合国 直接收联合国大楼所占土地费用 也不是联合国，联合国不是国，只是不同意的人多而已，你该怎么做还怎么做，联合国制裁朝鲜这么久管用吗？北约轰炸南斯拉夫通过联合国了？把联合国当回事的就真的太天真烂漫加傻逼了，128国也未必都像中俄朝伊朗叙利亚那么反美的，不过这么一闹最开心的倒是中俄朝伊朗叙利亚。 你自己出钱呀 格力拍双手赞成 就是这话不对在中国这十项都达到了也没有毁灭嘛！ 最开心的是美国，一下摸清楚了所有人的底。 霸道总裁不是徒有虚名 纯傻逼一楼 M承担百分之七十经费， 这是谁说的，如果不对的话他负责吗？ 美国人更加适用和现实，好面子的这会怎么玩？ 流氓也是这样的 掌握核心科技？ 第十少了一个字“受”，应该是没受制约的权力！ 真实在，666 钱又不想给，还想坐着世界老大的位置 说了不到一周，这就行动了！敢说敢干，雷厉风行！👍 美国负担四分之一会费，某大国只负担百分之三，谁才是负责任大国？ 我话说完。谁赞成，谁反对？ 我就进来看看不吱声😁 小人行径而已！ 不怕雾霾吗？不怕癌症吗？😳 我看其实就一条就好，没用的国民 花钱买耳光的事，谁都不乐意做就是了 占全了 联合国什么玩意 花钱养白眼狼的事肯定不愿意干 😄 二楼第一次来网易吧 ---美国的契约精神呢？ 有啊，世界最豪华最气派联合国总部，搬来之后自媒体能吹一辈子 美的并不是不存在 退群吧！ 你能证明人家说的不对吗🤣🤣 不是吧？还有海尔呀！ 毁灭一个国家的10种事：1、没人性的政治。2、没思想的崇拜。3、没人文的科学。4、没道德的商业。5、没良知的知识。6、没真实的历史。7、没独立的精神。8、没自由的幸福。9、没劳动的富裕。10、没制约的权力。​​​ 取消大国的一票否决权，实行少数服从多数的制度， 美国人想咋的？仗着自己是世界警察就可以为所欲为吗？规则对他有利，就利用规则。规则对他不利，就成了狗屎！还有没有把其它国家放在眼里？ 有面子啊，中国人喜欢！ 拿钱给老外花，川普做不到 人家也没说啥，不给你钱就是了，还不行？ 那格力岂不是一家独大了？ 海尔笑了 干得好！ 是的 哈哈哈，神回复啊，这个6666 不不不，有一个人就喜欢这样。 美利坚，人类的希望！ 把联合国搬北京来，气死美的！ 没有搞懂，不是经常都在说美国常年拖欠联合国会费吗？那现在怎么删减，那不是放屁 联合国其实早该解散，流氓也在里面，简直是笑话。应该让他们自己分类，流氓组成流氓联合国，民主组成民主联合国，用时间来检验他们的优劣。 负责任的上嘛 你知道个屁， 美准备退出了 这会联合国办不下去了！ 联合国吃美国饭砸美国锅 搬你家都行问题是你要有实力说话别人会听你的真丫弱智 关键是联合国鱼目混杂，道不同，不相为谋。 就应该这样！ 这是谁说的，如果不对的话他负责吗？ 不听话就不给钱了！ 联合国经费百分之七十来自美国，美国早就该提出大家平摊了。 有用吗？ 什么时候解散？ 没了美国，联国立马关门！ 取消某两个国家的常任理事国资格，那才是真正的提升联合国效率 小老百姓还不够累? 不知对我们回收外债有没帮助 那更要驱逐低学历、买不起房的人了。 不是吧？还有海尔呀！ 说了不到一周，这就行动了！敢说敢干，雷厉风行！👍 美国：我供你们吃供你们喝，你们还跟我对着干， 大家快看看，谁才是世界和平的搅屎棍，全人类有目共睹 支持联合国总部搬到青岛！ 好样的 老百姓的血汗钱一分都不能乱花 我觉得这招就是为了削减对外援助找个理由，美国内减税，政府收入下降，对外援助减少有利于缓解政府赤字，一套组合拳。我们加房地产税也是为了弥补供给侧改革，限制卖地所造成的政府赤字，也是组合拳。 啊啊啊啊啊啊 我们养联合国，一楼先把果6捐了，留条裤衩，估计以后你买裤带都困难 然后呢 不会解散了吧！ 这是什么梗？没看懂 花钱买耳光的事，谁都不乐意做就是了 正常做法 你还不是吃新加坡的饭，砸新加坡的锅？ 不让我玩高兴，我就不做作业了——又耍性子了，调皮 毁灭一个国家的10种事：1、没人性的政治。2、没思想的崇拜。3、没人文的科学。4、没道德的商业。5、没良知的知识。6、没真实的历史。7、没独立的精神。8、没自由的幸福。9、没劳动的富裕。10、没制约的权力。​​​ ---美国的契约精神呢？ 美国人想咋的？仗着自己是世界警察就可以为所欲为吗？规则对他有利，就利用规则。规则对他不利，就成了狗屎！还有没有把其它国家放在眼里？ 你这是猴年马月的事了，舔也不必这么跪着，都说了22％了。 关键是联合国鱼目混杂，道不同，不相为谋。 一个没有美国的联合国有多少统合力 中国从来不反美好吧 有种美国婊子你就交出联合国常任理事国身份。 你所在的国家占了几种 好样的 顶你 好像是甘地说的…… 只需最后一个 傻逼狗 那格力岂不是一家独大了？ 我觉得家有三万，拿出3块钱来，有这个实力，也有这个底气，以后话语权就是我们的了。 就这点毛毛雨，双倍！有不差钱的！ 美分说的 奥克斯怎么办？ 把联合国搬北京来，气死美的！ 联合国不是一直被美国控制的吗？ 呵呵 联合国吃美国饭砸美国锅 十样都有啊。 一心一意搞建设 也不是联合国，联合国不是国，只是不同意的人多而已，你该怎么做还怎么做，联合国制裁朝鲜这么久管用吗？北约轰炸南斯拉夫通过联合国了？把联合国当回事的就真的太天真烂漫加傻逼了，128国也未必都像中俄朝伊朗叙利亚那么反美的，不过这么一闹最开心的倒是中俄朝伊朗叙利亚。 美把投联的经费用在科技领域可能对人类更重要！保持北约就行了！别和流氓一起玩！ 最开心的是美国，一下摸清楚了所有人的底。 联合国干脆搬走得了 老赖吗！ 联合国经费百分之七十来自美国，美国早就该提出大家平摊了。 有用吗？ 这是谁说的，如果不对的话他负责吗？ 有人乐此不彼 美国家的联合国 美国世界老大，无可争议，跪舔美利坚 五常都同意的事情被一群小国家给否决了 美国不是推销能力越大责任越大么？ 典型的 没卵用的联合国早点解散吧 每天银行门前都是排队写申请的换外汇联合国工作人员，好不壮观。。<br>您好，您要的美金暂时没有，14个工作日内帮你您解决。<br>您好，由于技术原因，您还要再等1个月。[大笑] 利益外交甩道德外交几条大街，国家间的真正帮助一定是基于利益而不是道义！ 美国真实在！换了其它大国就会谴责下！ 这次美帝提醒一下，下次恐怕要踢两个人以儆效尤。 你要小心喽！ 把俩流氓踢出联合国 你想嫖变性人啊 干得漂亮 还他妈闲养的闲人不多？？？搬北京来你养？？难怪在外国佬眼里柴哪就是人傻钱多 我们一下交十年的，没办法，有钱 正解 对的，我们脸皮厚，那是你的钱还要搞点事，不服来干 主要是有两个流氓有一票否决权让联合国成了摆设 应该取消常任理事国资格 支持美国另起炉灶 那不是吃我们老百姓更多的钱。 那你们可以退出美国家的联合国啊！ 滥用超级大国地位啊中国必须快点崛起以抗衡之 格兰仕有意见 人家底气足，拿我的钱还敢骂我... 没事，还有一个负责人的大怪，没人买单我们买就好喽 好样的 在退出美国家的WTO，再不满意别在地球上呆了到火星上去吧 ---美国的契约精神呢？ 钱的事让我来！！我们是负责任的大国！ 支持美利坚 关键是联合国鱼目混杂，道不同，不相为谋。 洋大爷还用等？ 把我们这帮人都杀了吧 联合国就解散了。 不要脸 支持美利坚！ 然并卵，无所谓，地球照样转 毁灭一个国家的10种事：1、没人性的政治。2、没思想的崇拜。3、没人文的科学。4、没道德的商业。5、没良知的知识。6、没真实的历史。7、没独立的精神。8、没自由的幸福。9、没劳动的富裕。10、没制约的权力。​​​ 美国人想咋的？仗着自己是世界警察就可以为所欲为吗？规则对他有利，就利用规则。规则对他不利，就成了狗屎！还有没有把其它国家放在眼里？ 解散好，这样就可以肆无忌惮的互撕了，岂不美滋滋 不是一直说联合国是美国操控的傀儡吗？ 你是傻逼吗 那格力岂不是一家独大了？ 解散好，本来联合国也没啥用 美国到处制造战争和混乱，联合国为什么不敢制栽美国呢！ 把联合国搬北京来，气死美的！ 都占全了,怎么还不毁灭? 有傻逼出 说了不到一周，这就行动了！敢说敢干，雷厉风行！👍 联合国吃美国饭砸美国锅 真心为民 美国拉上小弟另起炉灶哈哈哈嘴脸啊 管那么多呢只领了美国钱 不喜欢联合国可以滚啊，太平洋又没加盖 搬你家都行问题是你要有实力说话别人会听你的真丫弱智 是个做事实的好头，不是吹牛逼的 美狗来舔屏 ",
        "Link": "http://comment.news.163.com/news2_bbs/D6HB8E8P0001899N.html"
    },
    "Article": "（原标题：美国宣布砍掉联合国2.85亿预算称别再利用其慷慨）海外网12月25日电美国驻联合国大使妮基·黑莉当地时间周日（24日）宣布，将对联合国两年期运营预算进行“历史性删减”。黑莉称，该计划要求将联合国2018至2019财年运营预算砍掉2.85亿美元。据美国福克斯新闻报道，黑莉表示，“联合国的效率低下和超支问题众所周知。我们将不会再让美国人民的慷慨被利用，或任其继续泛滥。”她补充表示，“这次历史性的删减预算，将和其他诸多举动一起，使联合国向着高效、负责的正确方向迈进一大步。”报道称，目前联合国预算以两年为期，从每个偶数年的1月开始算起。美国此前提出删减联合国2018-19年预算2.5亿美元，联合国秘书长古特雷斯也曾提议将联合国两年期预算上限设为54亿美元，与2016-2017年预算相比减少2亿美元。美国是联合国的头号财政资助国，贡献22%的联合国核心经费，并在维和方面贡献28%。联合国的运营预算与维和预算分开。法新社报道称，在美国总统特朗普的施压下，今年的维和预算已经遭砍6亿美元。此前，特朗普上周曾威胁称，联合国要求美国撤回耶路撒冷决定的议案中，将对投赞成票的国家切断资金援助。最终，联合国大会21日以128票对9票的结果通过决议，35个国家投了弃权票。决议认定任何宣称改变耶路撒冷地位的决定和行动“无效”。本文来源：海外网责任编辑：徐萌_NN7485",
    "PublishTime": "12/25/201719:28:06",
    "KeyWords": "联合国,美国,维和,特朗普"
}