{
    "Article": "（原标题：人社部官员：养老金投资将新增浙江等四省，金额约1500亿）人力资源和社会保障部基金监管局副局长汤晓莉3日在《中国养老金精算报告2018-2022》发布式暨社保基金投资管理研讨会上表示，近年来随着经济转型和人口老龄化加速，我国的养老保险基金收入增速放缓，支出增速加快，收支的压力越来越大，需要靠“开源、节流”来实现养老保险制度可持续发展。在开源方面，很重要的举措就是把已经归集上来的养老保险基金搞投资运营，实现“钱生钱”。汤晓莉表示，到目前为止，已经有九个省跟社保基金理事会签订了委托投资合同，委托投资的金额是4300亿元，除了九个省签订合同以外，目前西藏、甘肃、浙江、江苏也打算委托投资运营，可以增加投资金额大概是1500亿元。“这个数额可以说跟我们国家四万亿元的养老保险基金总余额相比还是比较少的，我们国家的养老保险基金投资运营要达到万亿级的级别，也还有一定的差距。”汤晓莉说，一方面我们是借助行政手段来推动各个省搞养老保险基金投资运营，另一方面投资运营的目的是何在，我觉得是需要借助精算的手段来给整个社会、给民众一个更好的说明。汤晓莉透露，为了让更多的省份把资金委托上来搞投资运营，助力国家基本养老保险制度可持续发展，我们目前跟财政部共同制定一个文件，要把城乡居民养老基金委托给社保基金理事会搞投资运营，假设目前每年缴费基数不变，年化投资收益率如果从3%提升到5%，我们测算一下，相当于增加了3.2个百分点的缴费比率。本文来源：中国证券报·中证网责任编辑：荀建国_NN7379",
    "URL": "http://news.163.com/18/0103/15/D782UUAN000187VE.html",
    "KeyWords": "养老保险,运营,基金,基金投资",
    "PublishTime": "01/03/201815:17:00",
    "Title": "人社部官员：养老金投资将新增四省 资金约1500亿_网易新闻",
    "Comment": {
        "Content": "能回复吗🙂 在共享国家资源的中国公民必须一样平等。 能回复吗🙂 本金能回来吗 在共享国家资源的中国公民必须一样平等。 ",
        "Link": "http://comment.news.163.com/news2_bbs/D782UUAN000187VE.html",
        "Total": 13,
        "Reply": 3
    },
    "Source": "Netease"
}