{
    "Article": "（原标题：安徽男子捅杀同村医生被刑拘，曾与受害人妻子产生过感情纠纷）针对安徽安庆望江县一男子因感情纠纷以数十刀将同村医生捅伤致死一事，12月27日上午，望江县公安局办案工作人员向澎湃新闻证实，嫌疑人常毛结，无业，因与受害人妻子产生过感情纠纷，多次非法入侵其住宅进行报复，12月11日，趁受害人聂某林在打牌期间，持刀将其捅杀致死，现在具体原因在进一步调查。望江县公安局通过官方微博@安庆望江公安在线发布悬赏通告，12月11日下午，安徽安庆市望江县高士镇七岭村发生一起恶性案件。经侦查，高士镇七岭村43岁村民常毛结有重大作案嫌疑。望江县公安局悬赏通告望江县公安局图澎湃新闻注意到，从12月11日至25日望江县公安局发布的悬赏通告中，对提供重要线索抓获犯罪嫌疑人的奖励，金额从1万元涨到5万元。望江县高士镇七岭村一名村民告诉澎湃新闻，死者聂某林在村里是一名乡村医生，聂医生人很好很本分，村民大病小病都会找聂医生看。11日下午，嫌犯趁聂医生在七岭村小学对面的日杂店打牌时用刀捅死了聂医生，捅了数十刀。聂医生当地的一名在外打工的亲戚通过微博私信告诉澎湃新闻，因为感情问题，嫌疑人常毛结曾因伤害聂医生的妻子被捕多次。26日下午，望江县公安局官方微博再次通报称，凶手常毛结作案后畏罪潜逃，望江县公安局成立“12.11”命案专班，发布悬赏公告，动用各种侦查手段全力缉逃。26日12时20分，犯罪嫌疑人常毛结在宿松县园林广场步行街被擒获。目前，此案正在进一步侦办中。27日，望江县公安局一名工作人员向澎湃新闻证实，因为感情纠纷，常毛结于11日下午趁聂某林在日杂店打牌之机，持刀报复聂某林，在现场将聂某林捅数十刀后致死。该工作人员称，犯罪嫌疑人常毛结和受害者聂某林的妻子因感情问题发生过纠纷，并多次非法入侵受害者聂某林住宅对聂某林及其妻子殴打报复。25日，常毛结对聂某林实施报复性杀害，目前具体原因还在进一步调查。澎湃新闻通过查询中国裁判文书网发现，常毛结曾于2012年11月因殴打他人和故意损坏财物被望江县公安局行政拘留13日。曾因犯故意伤害罪和非法侵入住宅罪，于2013年8月被望江县人民法院判处有期徒刑11月。2014年11月24日，常毛结再次因涉嫌非法入侵住宅罪被刑事拘留。本文来源：澎湃新闻责任编辑：范姜国一_NN9138",
    "Source": "Netease",
    "KeyWords": "医生,捅杀,公安局,妻子",
    "Title": "男子数十刀捅死同村医生 曾与其妻子有过感情纠纷_网易新闻",
    "Comment": {
        "Total": 654,
        "Content": "纠纷？是耍流氓强奸未遂吧 中国的警察对于没好处，不死人的事情是不理睬的 据说在美国非法入侵住宅可以击毙是真是假？ 这回没打婆娘，赞一个！ 美国强闯民宅，宅主直接可以崩了你 😓。。。无语 回楼主，小事儿警察都不管，我就遇见过，即便你报警，警察来了还得数落你一顿。反正这种事情不是一天两天了，可以说是间接纵容了犯罪。 放屁，你报警试试，不管？管不死你，打架最少500起，要是有伤了对方还追究那就更多了，现在警察接警必须出警，因为上面有纪录，电话打给总机而不是派出所 奸出人命赌出贼。粘上毒品全家毁！ 底层垃圾，老百姓听起来这三个字都恶心 看清内容啊！是医生老婆被人操。还被杀了！ 跟贴被火星网友带走啦~ 这种蛆虫不如害虫活一天都是对上天的践踏 真会洗！！那里都有好人和坏人，看你怎么看了！！！ 中国不让用枪，也不能打人 4楼，走错场了 真会洗！！那里都有好人和坏人，看你怎么看了！！！ 感情纠纷就感情纠纷，问题是标题上特别注明医生，无形中又给医患关系加了一把火，真是躺枪，小便你居心不良啊 多少非法入侵住宅威胁殴打报复都没办法制止他？直至他最后行凶杀人。<br>好似坏人做恶好人只能承受？ 这世界上还有这样的垃圾 2楼说的有理，即使报警了问题没解决还对着你一顿训，埋怨你们又给他们增加工作量了 4楼脑子里全是地沟油 还有毒大米， 屎坑里找米和饭盆里挑屎还是有区别的 多次? 继续和谐下去，让户主跪安非法入侵者迟早的事儿。 多次? 我读书的时候，被女校长软硬兼施的做了耻辱的事。<br>去报警，不但不认真对待，还问我要女校长的电话微信。。。。 骚扰妇女，杀别人丈夫 再高的医术也救不了自己了。 渣男，就算那女的甩了你也不用这样吧 嫌疑人常毛结曾因伤害聂医生的妻子被捕多次。<br><br>看过文章再喷 欺负老实人啊，和人家妻子感情纠葛还杀人！！ 民警来了，会训斥报警人:这点小事报什么警？浪费警力。下次碰到这样的事，找居委会或者村委会调解就行了！亲身经历！ 话说他的妻子也该杀。 该工作人员称，犯罪嫌疑人常毛结和受害者聂某林的妻子因感情问题发生过纠纷，并多次非法入侵受害者聂某林住宅对聂某林及其妻子殴打报复。既然是多次，怎么处理的呢 😄。。看样子大家都是这个经历。 真他妈的人渣一个 没有油水可捞，又不是大案命案，哎，管你呢 中国的警察对于没好处，不死人的事情是不理睬的 法律不行 兄弟，我只是在说一个笑话，调侃一下罢了 为什么犯罪，不是傻逼？建国么？ 那就喷他是医生，自救失败 奸出人命赌出贼。粘上毒品全家毁！ 一为钱，二为女人犯罪的都傻逼…… 我猜这个医生是妇科医生，可能取了个痛经杀手的名字，导致村妇相继沦陷 据说在美国非法入侵住宅可以击毙是真是假？ 好事啊。 中国不让用枪，也不能打人 前些日看了个网络小说，一个乡村医生把村里的七大姑八大姨睡个遍，还练功。 看清内容啊！是医生老婆被人操。还被杀了！ 4楼脑子里全是地沟油 安徽农村 看清内容 骚扰妇女，杀别人丈夫 我也遇见过，👮‍♀️已经不是人民的啦！愿非人民👮‍♀️早日以身殉国 警察叔叔抓嫖很辛苦的，你们这帮刁民还有没有公德心啊[暴怒] 这个女人是祸水！ 再高的医术也救不了自己了。 警察嘛！主要职能是为领导、洋人服务，领导丢只狗能全城拉网，洋人丢辆自行车能三小时破案，你老百姓报案就是给警察喝茶聊天添麻烦，做人民的怎么能不懂事儿啦？至少杀个人，有“凶徒”可抓，能给警察炫耀“业绩”资本。 是犯人操被害人老婆，不是被害人操犯人老婆 AV淫民屎报，快奉上美帝枪击案压精 真他妈的人渣一个 文中有交代:拘留、判刑都有过。只是人渣就是人渣。 毛太长容易打结，形成死结。 底层垃圾，老百姓听起来这三个字都恶心 这回没打婆娘，赞一个！ 😄。。看样子大家都是这个经历。 回楼主，小事儿警察都不管，我就遇见过，即便你报警，警察来了还得数落你一顿。反正这种事情不是一天两天了，可以说是间接纵容了犯罪。 睡人家老婆还把人杀了？这他妈到底有多猖狂 凶案推手 死者的妻子 社会戾气过重，和鞋子这把 该工作人员称，犯罪嫌疑人常毛结和受害者聂某林的妻子因感情问题发生过纠纷，并多次非法入侵受害者聂某林住宅对聂某林及其妻子殴打报复。既然是多次，怎么处理的呢 民警来了，会训斥报警人:这点小事报什么警？浪费警力。下次碰到这样的事，找居委会或者村委会调解就行了！亲身经历！ 没钱就不要多说话，要么精心策划报复行动，条子都是饭桶，要么就忍着，要么就塞钱，只要钱多，看谁不爽弄进号子里打死都没事 安徽 多少非法入侵住宅威胁殴打报复都没办法制止他？直至他最后行凶杀人。<br>好似坏人做恶好人只能承受？ 这世界上还有这样的垃圾 2楼说的有理，即使报警了问题没解决还对着你一顿训，埋怨你们又给他们增加工作量了 还有毒大米， 底层垃圾，老百姓听起来这三个字都恶心 继续和谐下去，让户主跪安非法入侵者迟早的事儿。 既然是医生都没有整死他的办法？我会让他染上毒瘾最后自杀 渣男，就算那女的甩了你也不用这样吧 嫌疑人常毛结曾因伤害聂医生的妻子被捕多次。<br><br>看过文章再喷 话说他的妻子也该杀。 美国强闯民宅，宅主直接可以崩了你 长毛姐，名字很霸气 爱憎分明 纠纷？是耍流氓强奸未遂吧 😓。。。无语 感情纠纷就感情纠纷，问题是标题上特别注明医生，无形中又给医患关系加了一把火，真是躺枪，小便你居心不良啊 流星月亮地球太阳系有发动机么？没有!他们却高速在宇宙中运行!为什么？因为他们的运行轨道本身就是太空高速时空隧道!他们的运行路线一半为去路一半为来路，周而复始地运行着!地球自转公转着，本就没有东西南北上下左右等方位!谁定的？我们的天父啊!目的只有一个，告诉人类我们天父的星座方位!所以九曲桥的方向始终对着东北方!在宇宙一切物质中，永远是子体围绕母体运动，这是恒定的!所以地球自转并围绕太阳公转!因地球是自转公转的，所以根据地球的东西南北是找不到星外文明的星座方位的!只有找到太阳的上下前后东西南北才能准确地给天父星座方位定位!我们天父星座方位在太阳系东北上方第九颗恒星那里!那里以双伴恒星为中心带动周围108颗恒星运动着! 放屁，你报警试试，不管？管不死你，打架最少500起，要是有伤了对方还追究那就更多了，现在警察接警必须出警，因为上面有纪录，电话打给总机而不是派出所 回楼主，小事儿警察都不管，我就遇见过，即便你报警，警察来了还得数落你一顿。反正这种事情不是一天两天了，可以说是间接纵容了犯罪。 该工作人员称，犯罪嫌疑人常毛结和受害者聂某林的妻子因感情问题发生过纠纷，并多次非法入侵受害者聂某林住宅对聂某林及其妻子殴打报复。既然是多次，怎么处理的呢 多次? 我读书的时候，被女校长软硬兼施的做了耻辱的事。<br>去报警，不但不认真对待，还问我要女校长的电话微信。。。。 多次? 欺负老实人啊，和人家妻子感情纠葛还杀人！！ 常毛结[大笑][大笑][大笑][大笑][喷水][喷水][喷水] 毛结纠纷 这种蛆虫不如害虫活一天都是对上天的践踏 ",
        "Reply": 69,
        "Link": "http://comment.news.163.com/news2_bbs/D6NRAJ9P000187VE.html"
    },
    "PublishTime": "12/28/201707:55:00",
    "URL": "http://news.163.com/17/1228/08/D6NRAJ9P000187VE.html"
}