{
    "URL": "http://news.163.com/17/1229/05/D6Q64R5000018AOP.html",
    "Article": "（原标题：就想知道我到底跟谁“试卷雷同”了）从全国范围看，在公务员考试中被认定为“雷同试卷”而取消成绩的，大有人在。?中新网图笔试第三、面试第一，体检合格，刘伶（为保护隐私，化名）就等着到新单位上班了。可等来的却是一场意想不到的约谈。今年4月下旬，31岁的刘伶参加了2017年天津市公务员考试，报考天津市教育系统某机关处室。5月12日，她在网上查到了笔试成绩，排名第三；6月10日的面试中，她取得第一名，总成绩升至第一。这下刘伶觉得自己铁定会被录取了。她对考录程序并不陌生，当年她就是参加公开招考获得现在的工作。然而，接下来事情发生了逆转。8月30日，她被天津市人才考评中心约谈告知，她的行政职业能力测验试卷被判定为雷同试卷，成绩取消。公务员考试笔试包括行政职业能力测验和申论两大部分。她不服：“我没作弊，凭什么取消我的成绩？”从口头抗议到书面申诉，又向天津市人力资源和社会保障局申请了行政复议，她得到的回复始终是：试卷雷同，成绩无效。得满分的考生，是不是都该取消成绩刘伶现在天津一家事业单位工作。参加公务员考试，综合成绩第一并通过体检后，她以为板上钉钉了。8月29日，她突然接到次日到天津市人才考评中心面谈的通知。“当时就有点纳闷，心想是不是哪里出了问题。”刘伶特意带上自己的学历证、学位证等个人履历证明，“万一有什么误会，也可以解释清楚。”刘伶记得，等待她的是考评中心的两位主任、两位工作人员和她报考单位的一位代表。一位姓施的主任向她询问行政职业能力测验中的一些情况，包括“考试难度如何”“有无参加过笔试培训班”“有无发现考场有何异常情况”等。刘伶回答，自己没参加过培训班，在考试中只认真作答自己的试卷，并未注意考场有什么情况。随后，她被告知“本次公考行政职业能力测验试卷被判定为雷同试卷，取消成绩”。她一下子蒙了，“头一次听说试卷雷同，觉得这是不可思议的事。”刘伶本能地反问：“笔试成绩取消为什么还让我参加面试、政审？”“怎么判定试卷雷同？”“谁和我雷同？”“为什么不看一下现场监控录像？”工作人员回答，公务员考录期内任何阶段发现违纪问题，都要处理并追究责任。同时她，因为没有发现她的违纪行为，不会被禁考，只是本次成绩取消，以后还可以再考。据工作人员解释，这是一种为了防止高科技作弊行为而使用的作弊甄别方式，“雷同试卷”不一定只出现在邻座之间，还有可能出现在不同考场。存在一种可能——有些考生参加了考前押题培训班。这样的解释并不能让刘伶信服。9月4日，天津市人才考评中心向刘伶送达了《公务员考试成绩无效处理告知书》，同时也说明“如有异议，可向本单位提出申辩”。刘伶多次通过口头和书面形式提出申辩，表示她无法接受没有进一步调查核实雷同原因、没有违纪证据却取消成绩的“自相矛盾”的处理办法。她请求人才考评中心回应3个问题：第一，申请公开行政职业能力测验试卷鉴定雷同的材料，明确雷同百分比是多少？判定技术和流程是什么？谁和我雷同？第二，要求对雷同的试卷重新鉴定比对，公开详细过程。第三，要求进一步调查核实，调阅考场监控录像、考场记录、无线电监测记录等。她认为，仅用“雷同试卷”判定成绩无效，像是对未经查实的“违纪嫌疑”的折中处理，“考试中只有违纪和没有违纪两种可能，如果违纪决不能姑息；可如果没有证据，为什么要取消成绩？”刘伶说，天津公务员考试的行政职业能力测验试卷都是单选题，如果考生作答思路巧合，答案相似度高的小概率事件是客观存在的。得满分的考生，答案都是“雷同”的。“照这个逻辑，得满分的考生，是不是都该取消成绩呢？”考场监控录像“已经失效”但她的申辩无效。9月11日，天津市人才考评中心向她送达了《公务员考试成绩无效处理决定书》：“你在参加2017年天津市公开招考公务员考试录用中，在行政职业能力测验科目考试环节中有与其他报考者之间同一科目作答内容雷同情形，依据《公务员考试录用违纪违规行为处理办法》(人社部令第30号)第9条第1款规定，给予你当次行政职业能力测验科目考试成绩无效的处理。”从“告知书”到“决定书”，刘伶的问题一个都没有得到解答。人才考评中心工作人员告诉她，只有通过向上级行政机构申请行政复议才能得到进一步材料。而对于刘伶一再要求看到用于取证的监控录像，该工作人员称：“由于时间太长，监控已经失效无法查看。”刘伶申请了行政复议，要求撤销处理决定。12月1日，她收到天津市人力资源和社会保障局的《行政复议决定书》，行政复议的结果是维持之前的处理决定。在这份《行政复议决定书》上，天津市人才考评中心首次答复了刘伶“雷同试卷”的一些细节。“经国家公务员主管部门指定机构北京语言大学考试安全研究中心甄别，申请人与参加本次考试的同考场同排相邻考生为雷同试卷”。该中心同时答复，在作出行政职业能力测验科目考试成绩无效处理的过程中，既不对雷同答卷的成因进行任何推论，也不对申请人具体的行为作出假设，是依据国家公务员主管部门制定机构甄别出的雷同试卷这一客观事实按规定作出处理。天津市人社局认定，天津市人才考评中心作出的决定符合法律法规规定，事实清楚，证据确凿，程序合法。刘伶告诉中国青年报·中青在线记者，在拿到《行政复议决定书》时，天津市人社局给她看了另一份材料，不允许她拍照记录。根据这份材料，她和邻桌的试卷被认定为雷同试卷，120道题中108道题答案完全一样。她认为，自己的试卷可能是被邻桌考生抄了才出现“试卷雷同”，“凭什么别人的抄袭行为要我来承担后果，而真正作弊的人却没有得到应有的处罚？”从口头、书面申诉，再到行政复议，她不理解：“他们都说是按照规定执行，为什么就不能去实际调查一下？”她认为这是相关部门不作为的懒政，只依赖所谓科学手段监测，却对考场监控视频等其他调查手段视而不见，没法给考生交代，“作弊就该按照5年禁考或其他方式处理，这种只取消成绩的做法算什么？”这位考生希望看到考场监控录像，她认为那可能是唯一能证明自己清白与否的证据，但人才考评中心工作人员早就告诉她“已经失效了”。“概率雷同”和“作弊雷同”相混淆的可能性无论从天津还是从全国范围看，在公务员考试中被认定为“雷同试卷”而取消成绩的，大有人在。参加2017年天津市公务员考试的另一位考生，经历与刘伶如出一辙。同样是笔试、面试、体检全都通过，却于8月底被天津市人才考评中心告知“试卷雷同，成绩取消”。多方申诉未果后，她也只能把天津市人才考评中心告上法庭。今年公开招考公务员考试为全国省级同步招考，有20余个省份参加，参考人数超过300万人。为了严惩作弊违纪行为，多地都在今年考试中采用了技术手段进行雷同卷检测。如4月18日，青海省人事考试中心发布“考生须知”，强调“公务员招录考试结束后，将采用技术手段进行雷同检测，被甄别为雷同答卷的考生（含抄袭和被抄袭），将给予其该科目考试成绩无效的处理”。山东省人事考试中心表示，他们按照国家要求，对全部考生答题信息进行了分析和雷同试卷甄别检测，对被甄别为雷同的答卷作出了考试成绩无效处理。据了解，今年天津市对多名被认定“试卷雷同”的考生作出了取消成绩的处理。天津市人社局方面表示，他们执行的是国家公务员局的规定。目前，各地对“试卷雷同”考生一票否决的依据，均为《公务员考试录用违纪违规行为处理办法》（以下简称《办法》）第9条。该办法于2016年10月1日起正式实施。记者注意到，较之以往，这一办法加大了违纪处理力度，并新增了关于“雷同试卷”处理的条款，即：“在阅卷过程中发现报考者之间同一科目作答内容雷同，并经阅卷专家组确认的，由具体组织实施考试的机构给予其该科目（场次）考试成绩无效的处理。”对于“报考者之间同一科目作答内容雷同，并有其他相关证据证明其作弊行为成立的”，视情形记入公务员考试诚信档案5年或长期记录。而关于“雷同试卷”的处理，《办法》说明，“省级以上考试机构确定作答内容雷同的具体方法和标准。”从2009年度中央直属机关招考公务员时起，阅卷主管部门就专门成立了雷同试卷检测小组，目的是为了打击隐蔽性较强、考试现场不易发现的作弊行为，包括各种高科技手段作弊。国家公务员局官网发布的一些信息，将这种甄别作弊试卷的方式称为“防火墙”，即运用4种国际公认的科学方法同时甄别，得出同一甄别结果的误差率小于10的17次方分之一。一则信息中，一位“考试主管单位负责人”称，“当时社会上有一定的争议，后来通过各种渠道验证、核实，无一冤枉。”在国家公务员局网站“局长信箱”栏目，有湖北、湖南、西藏、辽宁等多个省份考生发布公开信，均对自己被认定“试卷雷同”取消成绩表示不服。刘伶对这种方式提出质疑，认为依据过于单一。她认为，这存在把“概率雷同”和“作弊雷同”相混淆的问题。好比彩票中奖的概率约为百万甚至千万分之一，但每期几乎都有人中头奖，有时还不止一人。“从各个方面看，仅靠单一认定显然不够科学，应进一步调查核实违纪行为。”刘伶同时认为，主管部门在考试监管方面也存在缺陷，如应把前后左右考生的答题卡填涂顺序打乱，或是通过高科技手段防止作弊，但这都不是某一个考生的责任。为了讨个说法，她决定向法院起诉，较真儿到底。“为自己讨个公道，也希望真的能推动一项政策更加完善，让每一个普通人都看得到希望”。本文来源：中国青年报责任编辑：何雨芳_NN5632",
    "Source": "Netease",
    "PublishTime": "12/29/201705:51:45",
    "KeyWords": "考试,行政职业能力测验,公务员考试",
    "Comment": {
        "Content": "正常不过，中国，什么都不稀奇 你才几个年龄在这瞎喷，见过多少人，我接触补级时候你还在网易耍横胡扯 另一人没进入面试，明白？ 挡了某些人的路了 你连知道的资格都没有，怎么查 这理由… 没关系，有关系的不会发生这事。 都别吵了，没点过硬的后台，去考公务员，还不如去考GRE，被你考上了又怎么样？不让领导们全身心的愉悦了，你们还想升职加薪？ 出了事，监控永远是坏的 给领导亲戚让路，实相点 这个可以有 俩满分的，是不是都得抓起来？全是雷同 想当初我妈年轻的时候参加铁路警察考试考上了，去报道的时候发现没有她名字，找人一打听才知道被别人顶掉了！我姥爷不愿意就去闹，最后那边给调剂个我们这一个电厂的名额 我只能说，一楼造谣死一户口簿。 你不知道行测最后几道题运算量很大吗 自己不进步，还打击进步者，如果是泄题请找出泄题人员… 答你妹，人家局长女儿都上班了哪有功夫陪你扯淡。 行测最后都是估算，拿计算机哪能考完 另一个人也是无关轻重的，重要的是，她想要的那个位置，最后给了谁 谁造谣，谁车祸，这样可以吗 这才是问题的关键 有人看上了你的名额，就这么简单 又是“视频录像失效”，快把那个值晚班反复拉闸限电的保安抓起来法办！ 天天看网易，都特么要绝望了！什么特么世道！！！！<br>我还是看新闻联播去吧😒 大家心里都明白 呵呵，傻逼一楼又在造谣了。事业单位考试，计算器有毛用？ 行测最后的叫资料分析，不叫资料计算，如果要那么大的运算量，那不如招个计算器就行了。楼上说的对，注重的是估算和分析的能力 好吧，我让还不行吗 在上海考事业单位，同场有一人拿计算器考试，监考老师并没有管 你就骂他造谣就好了，何必这么恶毒呢！ 我让谁考上，谁才能考上！这都不懂吗？真白瞎了你在事业单位呆了这么多年了 事业单位还有运算题？ 你的位置已经被人打好招呼了，不好意思，找个理由让你出局 把两个雷同考生重新答卷，真伪立辩。<br>雾里看花水中望月<br>你能分辨这变幻莫测的世界 和那个谁雷同 哈哈，简直他妈的气的笑出来了！哈哈哈 给别人让路吧 对不起这个坑已经有萝卜了 不是萝卜非要烤那么好 说你雷同你就雷同，不累同也雷同 你跟领导的亲戚雷同~ 既然是雷同，那么另一人为何不处理。 估计被人顶包了 请跟踪那个抢夺了你的报考名额的人，就可以追查出他的背景。然后给更高一级的纪检监察部门举报，那些在此事操作中贪腐的事。一定要耐心多方下手抓到违规违法逻辑性证据，否则那些非法上位勾结的人，会狡辩串通蒙蔽上级核查人员的 邻座是谁！？？随便说和临座相同，你懂的 我擦！以后高考英语考130以上都属于雷同了吧！ 萝卜招聘？和谁雷同？和一个萝卜答案雷同 没什么正事，表妹在浪潮集团新闻部辞职，去考公务员，面试优秀，笔试第一，都准备庆祝了，被一个没参加考试的顶下来了，像不像看电视剧？但这就是真人真事，唉 太不易 网易怎么看不到一个理智评论了，全部都是阴谋论，。就事论事一个人都没有么 雷同起碼是両个人，为什么只取消一人？那个人是否被取消录取资格？ 这个茅坑本来就不是为你设的， 需要理由吗？ 你挡了内定考生的路了 天津水还是深 与局长女儿雷同！ 申诉是弱者的专利 对提复议申请的优秀的己进线的考生应该雷同考重考，以辨真伪。处分作弊者。否则，一埋没人才，于公于私都不合理。二，避免才能低的上位。三，避免权力作弊。 [微笑]散了吧。人家打过招呼。你被人顶位置了。没关系还想考事业单位？先拜拜神再来吧。 岗位是萝卜招聘，你偏偏考那么好，领导不高兴了。 为自己讨个公道，也希望真的能推动一项政策更加完善，让每一个普通人都看得到希望”。这种人如果占有70%以上我们就是发达的了吧 雷同的人未必是真实的！关键是谁最后被录取了！ 那就追责监考人员 天津真几把太黑了 兄弟，这东西还用去查？活了这么久这社会啥样你不清楚？ 年轻人，就你这较真的性格不适合个这个工作岗位。 因为确实如此，很多都是这样 因为有领导子女考，你考第一，领导子女还有位置吗？当然找个理由踢了你啊。 xx特色，就问你服不服 谁主张谁举证 像这种没背景的，就算进去了也是被人虐 跟他小舅子一样了 然后你越级上房被刑拘了 关键时刻摄像头又失效了 监控又坏了查违章就全是24小时高清的 满分都雷同。 呵呵，傻逼一楼又在造谣了。事业单位考试，计算器有毛用？ 120道题108题雷同，这个行测的成绩至少都快85分了吧 一个萝卜一个坑儿 别逗了，都是一伙的，搞不过的 在上海考事业单位，同场有一人拿计算器考试，监考老师并没有管 呵呵。这都是内定好的，你凑什么热闹？？？ 简直不要脸到了极致……<br>一句“雷同”就能把一个人的前途毁灭！<br>问题是怎么个雷同法？你要人家死也要搞清楚怎么回事吧？<br>判定雷同的办法布什多了去了，把两个雷同的考生放在一起重新考一份试卷不就看出来了？所谓假的真不了，真的假不了！ 如果没有更高一级咋办 你得先知道谁和你雷同啊 怎么个雷同法，新闻里有说。120道题108个答案一样。 把两个雷同考生重新答卷，真伪立辩。<br>雾里看花水中望月<br>你能分辨这变幻莫测的世界 事业单位考试计算器没用？活久见 你还年轻 和那个谁雷同 为自己讨个公道，也希望真的能推动一项政策更加完善，让每一个普通人都看得到希望”。<br><br><br>这种人如果占有770%以上我们就是发达的了吧 只有受益者才知道真相！ 请跟踪那个抢夺了你的报考名额的人，就可以追查出他的背景。然后给更高一级的纪检监察部门举报，那些在此事操作中贪腐的事。一定要耐心多方下手抓到违规违法逻辑性证据，否则那些非法上位勾结的人，会狡辩串通蒙蔽上级核查人员的 突然觉得，学校里那些同科考满分卷的人，是不是都抄袭了 萝卜坑，你不是萝卜啊。你是钻石都进不了那个坑 呵呵。你还小吧。 我想问下公务员可以现在这个时间上网看帖吗？ 中午午休时间。 你有人吗？ 没有用，通常这种情况下，两个人都被判取消成绩。 你一定是条狗。 你一定活得像一条狗吧 呵呵，傻逼一楼又在造谣了。事业单位考试，计算器有毛用？ 教育系统不是你有本事就能进去的 看到阴谋论的回复我也是服了，我参加监考公务员考试多年，抓到舞弊还各种抵赖狡辩的太多太多了，因为承认意味着后果严重，考试期间不让他人照抄你的试卷是你该做的，如何证明你不是配合同桌舞弊呢？108题重复，喷子还是继续喷，智商堪忧 你挡了别人的萝卜坑了 这不明显给别人让位么 小刘阿，你看你这试卷怎么和王局侄子的一模一样，不是我说你啊，这个样子可是不行滴。你看这样，这次呢就不追究下去了，你回去再准备准备吧，明年再来，哈～ 你被套路了人家告诉你了公务员不适合你，乖乖撤吧 雷同可能是好几个人同时取消成绩 满分卷都雷同吖[微笑] 哎·没法子，这社会已经烂透了，到处如此。 教务系统不是你有本事就能进去的 雷同，多好的词！大天朝官员为了钱总是妖里妖气的！！还叫人员监督？你不送钱，不打招呼，我整死你 生活不易，愿你早日解脱。 一个岗位招一个人笔试面试前三的都是陪考最后出个通知前三都不符合报考资格第四名直接晋级这事我还真遇到过 大家心里都明白 动啦谁的蛋糕了吗？ 考前位置都安排好了，你來插什麼隊？ 相比大多数人，生活对我算易的。 和内定的雷同 在上海考事业单位，同场有一人拿计算器考试，监考老师并没有管 萝卜有坑了 萝卜定律 知道太多不好 无耻！无耻！ 以后考试记得再最后标记：如有雷同，纯属巧合！ 你的位置已经被人打好招呼了，不好意思，找个理由让你出局 人活着要有价值，以前就在事业单位，现在又考公务员，一辈子都待在温室大棚里，对社会除了索取没有丝毫 因为分低的上不了新闻。再说跟她雷同那个120道题108个答案一样，看来行测分数也不低[被黑][被黑] 都内定了 敢跟某位领导的人争 又是天津，已经烂透了 理性讨论，请问这个雷同原理是什么呢 雷同卷一般都是极个别现象，用这么大的能量挣一个科员？阴谋论存在的土壤就是无知 又是监控失效，呵呵 果然是法西斯，什么都是领导一句话，法律算个几吧，哈哈。 他们也知道你们明白，但就是这么干了，你能咋的 主要是选择题正确错误高度一致，就是概率比中大乐透还低很多倍 对不起，这个坑有萝卜了。你等下一批吧 直接邮一箱毒苹果嘛 知道什么叫走后门，关系户，内定么？ 也是醉了这么明目张胆的作弊 你明白的 按概率来说雷同也是有可能但是为啥把分高的取消成绩呢？？ 请跟踪那个抢夺了你的报考名额的人，就可以追查出他的背景。然后给更高一级的纪检监察部门举报，那些在此事操作中贪腐的事。一定要耐心多方下手抓到违规违法逻辑性证据，否则那些非法上位勾结的人，会狡辩串通蒙蔽上级核查人员的 是生活的重负让他变得扭曲的。 我上学那会事业单位考试是允许带计算器的 跟答案雷同，人家给了一人答案 彩票不是也有雷同吗？怎么不说取消呢 那个位置安排给其他人了，想明白了就会知道，即便成绩第一，面试依然不录用。 120题里面108题一样，如果得分是90分，那么很正常。如果得分是60分，那就不太正常了。 萝卜坑招聘！ 如有雷同，实属巧合，嘿嘿 就是内定好了。 不该这么优秀 这个理由太牵强 这位考生的试卷跟答案雷同 都是选择题，而且是单选。雷同概率很大。 当然是，你懂的 戾气这么重，你一定活得像一条狗吧 把自己活成一个喷子，也是他的可悲之处吧 你中个头奖试试 南通的穷B 这还不简单，这个职位被谁取代了，查取代者就行了 就算真的100%相同又如何？！别人偷看我的抄我的，我没有给予配合和协助的行为，凭什么要取消我的成绩？！！不合法不合理！！ 关键时候，监控又失效了。[微笑] 福州那个活的是有多累啊[喷水] 没有用！如果成绩不好的那个考生，他会说我最近感冒了，所以成绩有所下滑。那你又怎么分清楚真伪呢？ 申论都能雷同，参加公务员考试的自己算算这个几率…不取消你的成绩，取消谁的？ 新闻内容你都不看张嘴就喷啊？ 试卷雷不雷同不知道，反正父母不雷同。 你不该…………唉，太天真 官员内定了的。 扎逼了，老姐 依法讨回公道！懒政惰政。 嗯嗯，用小米5的担忧别人生活的重负。本人虽不算富有，但总的来说衣食无忧，基本上别人有的我也有。多数人追求的房子车子妻子孩子对我来说已经达到目标了，唯一不足的是票子没有达到预期。而你，如果真的混得好，为什么要做犳呢？ 這里有貓咪 你不是它们要招的那个 不是有这么个新闻么？？某单位不是有个条款说是内部干部子女优先还是什么的么？？😂😂谁叫你爸不是李刚呢？？😂😂 在上海考事业单位，同场有一人拿计算器考试，监考老师并没有管 戾气这么重不好，愿你早日解脱 呵呵，傻逼一楼又在造谣了。事业单位考试，计算器有毛用？ 面试第一说明还是有实力的关系背景不行啊 把两个雷同考生重新答卷，真伪立辩。<br>雾里看花水中望月<br>你能分辨这变幻莫测的世界 放心，我只是保留了一丁点儿正义感而己，所以看不懂你们做犳。话说混得好的人屑于做犳？所谓的穷生奸计，富长良心。前者说的就是你们。 没有禁考就不错了，说你雷同就雷同，认命吧。 这还不懂？呵呵 不知道哪个灵盗家的孩子替了你... 的确如此 他不是一言不合，他是上去就骂，活脱脱一只无脑的喷子 说白了你就不是那个萝卜。。。 给别人让路吧 你又不是那个萝卜 愿你早日解脱。 套路了！ 没考过公务员，有个问题。如果内定干嘛面试给第一，还让人家总成绩第一？ 天下乌鸦一般黑，谁管谁啊 。。。 这就叫和谐社会？害人听闻的社会 我之前说公考有黑幕，被喷了一身 但是你看你，满满的优越感，你的心理正常吗？ 坑被人占了呗 这都不明白？这期要让你让路啊，你挡别人的路了 都清楚的，你再牛逼也比不了一个关系户。中国迟早会被这模式玩死 被人顶了 假作真时真亦假 一人得道鸡犬升天！ 哦，之前那些说公务员考试是最公平的请站出来 药店碧脸吧 跟他们讲理能讲清楚么 别以为你是女的嫖不了娼就没事了！可以栽你一个卖淫！ 有视频啊？ 不会，<br><br>到时候浴火重生，就像大满清 公务员水分很大，一般是争不过子弟的 这位置是我小舅子的，你还是让位吧。欢迎下次再来😊 一看就是被顶包了，有什么可说的。上诉也没用，官官相护，你没得理说。 这个领导的能耐真TM的牛叉 雷同？难点试卷不是都只有一个标准答案么？ 你以为女的就不能嫖娼了？再闹强奸都是小的 也就是说某地发生了强奸案，不管是犯罪嫌疑人还是受害者都判有罪，一起坐牢吗？ 说你雷同就雷同，大人快轧了她！ 当年公考，无论是考前备战还是考后估分，妥妥高分，结果复试名单出炉，我以零点零几分正好在名单之外。至今不知道真相如何。我肯定不是第一个，也不去最后一个。 和内定的抢坑蹲。。。。。。 让你出局你还不懂？这个公务员位置已经内定了 你只是陪跑，何必当真 不可能让你知道的 我没有一句伤人的话，你对他们的谩骂无动于衷吗 呵呵，傻逼一楼又在造谣了。事业单位考试，计算器有毛用？ 你考的这么好，我还怎么录取其他人。 考场监控录像“已经失效”我去你马拉个逼得卷子能复查录像就不能回放吗？这种类似于贪污腐败的就没人管管吗？ 监控已失效！！！ 在上海考事业单位，同场有一人拿计算器考试，监考老师并没有管 你以为官官相互只发生在…… 别问了，雷同的已经上位了。 不科学 不懂增资 把两个雷同考生重新答卷，真伪立辩。<br>雾里看花水中望月<br>你能分辨这变幻莫测的世界 不要纠结了， 就算进了这单位，你也会穿小鞋，命呀！ 不用生活了吗？ 有考满分的能力，干点别的不好？不看看你一心想进去的组织是什么样子，这下看清了吧 这个不是这样说的，例如考驾照第一次考驾驶证，考的过第一次，第二次不一定考得过。 也是搞笑，都21世纪了，居然还出现了，没证据，给人下定论的情况！ 都内定了，还这么较真 请跟踪那个抢夺了你的报考名额的人，就可以追查出他的背景。然后给更高一级的纪检监察部门举报，那些在此事操作中贪腐的事。一定要耐心多方下手抓到违规违法逻辑性证据，否则那些非法上位勾结的人，会狡辩串通蒙蔽上级核查人员的 那么多的公职，除了阻碍社会发展，真的卵用没有 搞笑，一考完就有答案 满分的全雷同，都™应该取消成绩。 你第一挡住领导家的泰迪了，，所以还是给领导的泰迪让让路吧 隐约感到有腐败份子在上头 抱歉，你是只山芋，不是那只萝卜 你觉得会有用吗 有罪推定 去bbc告 说白了吧，这个坑就不是为你这个萝卜准备的 你以为它们是傻逼？ 没关系，有关系的不会发生这事。 当然是禁止的。 根本没时间做最后一道大题，我都是机选的。。。 错就错在你不该考第一名 公务员都是他们自己人，自己家里人不去<br>让你个外人去？<br>另外干公务员的都是没本事的人。<br>除了贪污，能发财？？？ 行测部分的确有一些简单的计算题。 这就是特色国度啊，见怪不怪 哎！你这样撕破脸争取到了名额，你工作也不会顺心！会有人整你！没人就别当公务员了！没用！ 天黑黑！ 对不起，只是找个借口而已。不要太当真！ 只是某灵盗的名字与你雷同而已！ 这和被公司HR约谈因为“早上进门先迈的右脚”而被辞退有什么区别？[微笑] 监控视频再一次失效 与领盗子女雷同无效 和那个谁雷同 姑娘，我知道你气，可是你也在这种单位上过班，内部是怎么样，你心里没点逼数？ 我就问一句考试有没有规定不准带计算机，如果有规定带了就是违规。 我爱你中国 你他么也不能考满分，雷同嘛！还要仔细考虑一下到底要把哪几个题改成错的，一不小心也会雷同。 你这不是明知故问吗 这么好的学生，何必为这种国家去献身呢，不值得，不要去当公务员了，没什么前途的，最多上班炒炒股票，这个国家离灭亡差不多了， 呵呵，傻逼一楼又在造谣了。事业单位考试，计算器有毛用？ 机关单位都内定招聘，很多考试只是走走形式，恶心的很 江山都是我上一辈打下的，占你了一个位置怎么了？ 在上海考事业单位，同场有一人拿计算器考试，监考老师并没有管 你看看你那个岗谁被录用了，你就知道你为啥雷同了 这个坑是我的 考得好不是错，特么的为嘛面试第一？试卷雷同？难道一份试卷有N个不同答案？这是什么理由 看来大家心照不宣 知道就好，有希望了 没关系的人，还不让路，空出来位置让关系户上 把两个雷同考生重新答卷，真伪立辩。<br>雾里看花水中望月<br>你能分辨这变幻莫测的世界 都争破脑袋去考公务员嗯这个国家有希望人人都有一颗为人民服务的心 不考公务员不能生活了？ 因为你把领导家孩子的名额抢了 敢跟我抢这工作，那能行吗？对不领导 不是萝卜非要烤那么好 没关系还敢去考？ 哎， 请跟踪那个抢夺了你的报考名额的人，就可以追查出他的背景。然后给更高一级的纪检监察部门举报，那些在此事操作中贪腐的事。一定要耐心多方下手抓到违规违法逻辑性证据，否则那些非法上位勾结的人，会狡辩串通蒙蔽上级核查人员的 局长的儿子！ ",
        "Total": 21252,
        "Link": "http://comment.news.163.com/news2_bbs/D6Q64R5000018AOP.html",
        "Reply": 1108
    },
    "Title": "女子公务员考试因试卷雷同遭淘汰:我到底跟谁雷同_网易新闻"
}