{
    "Source": "Netease",
    "KeyWords": "传销,银行卡,网银,柜员",
    "URL": "http://news.163.com/17/1225/01/D6FD60UA00018AOP.html",
    "PublishTime": "12/25/201701:23:05",
    "Comment": {
        "Content": "为何传销屡禁不止？抓呀，该杀的杀，该关监狱关，不就行啦？ 有社会责任感的银行人员！ 都进银行了，还不会报警 奇怪了，一男两女又是在银行有什么可怕的，银行里跟他打啊。。。 为银行及工作人员的行为点👍 传销都是团伙式的，后面一个团队起码几十人，你跑得了银行，派几个在外面盯着，能出银行去几步？抓回去就惨了。 一个和三个打根本没胜算，会被直接抬走。 就遣散了？就是学你们这招的人都不犯法呗 现在电信诈骗基本都只靠银行来预防 有一件事不明白，他们不办业务也不取钱去银行玩的？ 限制人身自由，并要钱的，算绑架。 有的会被打死 ：我要宣布一件事情，大家还记得2011年的抢盐的事情吗？我家里的盐在今天，就是今天，终于吃完了，吃完了呀！我的个亲娘啊！终于给吃完了。​​​ 傻逼。然后把屁股洗干净坐牢 我实在想不明白这种和绑架有什么区别？楼下解答 这结果。。。。过家家呢。；。。 其实他只需要大喊一声“打，打，打，打劫” 这二货胆子也太小了，人家又没绑住你，你撒腿就跑会不会？大喊救命会不会？ 按介绍来看，其实是没有控制人身自由的。只是那垃圾自己吓成那鸟样罢了。如果心理素质好一点的，进银行甚至就去银行的马路上直接喊就命，边上的人估计早拔腿就跑了。 经查，暂未发现被抓人员涉嫌诈骗等犯罪行为。这才是最牛的，不诈骗，那非法拘禁干毛，欣赏他的才华吗？ [被黑][被黑][被黑]被身边的人骗了吧 非法拘禁都不管 传销团伙采用的方式实际上是绑架加诈骗，一旦破获，应按两罪并罚。 什么传销，明明就是绑架勒索，咋骗，傻逼的不作为震副。 对传销团伙应加大判罚力度。 犯罪成本太小，所以传销猖狂不绝！ 团伙绑架案，按理至少10年以上至死刑。不懂该国为何如此纵容真正的罪犯，却害怕儿童玩具手枪。 心理素质好的，有谁去做传销？ 这次要为银行点赞👍 你写上“打劫”，比这来的快。笨蛋😊 目前，已将抓获的传销人员遣散，案件仍在进一步调查。 银行人员都那么努力了，可是最后竟然都放了！ 这应是一个投机分子，当你加入组织是你没宣誓吗，没说过要为组织奋斗终生吗，没说过要把自己的一身都献给组织吗。 明显团伙绑架案，因为警叉捞不到好处，就随便放人。 传销是国家默许的，前两天不就报道了铁岭特大传销案赃款被国家没收吗，就是变着法的圈钱。 我就被同学骗到沈阳窝点，五个人看着我，斗智斗勇，第二天逃出！<br>向工商举报，工商说得找公安，向公安举报，公安说得找工商。无语！ 最后一段:目前，已奖抓获的传销人员遣散。哥就服这句 遣散就是放虎归山，就是放任犯罪！！ 你们不会打银行保安呀？这样不就是不让走了么 我的表叔被人骗去做传销10年了，生不见人，死不见尸！传销害人不浅 都已经胁迫被害人了，居然没发现犯罪行为，真是可笑。 仅仅是遣散而已？ 太粗糙了。应该继续分离出恐吓人身损害虐待抢劫通讯工具抢劫身份证明。不要让他们出来了。 吃出高血压没？ 都进银行了，还不会报警 是啊，明显团伙绑架案，因为警叉捞不到好处，就随便放人。 奇怪了，一男两女又是在银行有什么可怕的，银行里跟他打啊。。。 你不知道给易友分点帮你吃呀~~，现在变腊肉了吧！ 傻逼。然后把屁股洗干净坐牢 有一件事不明白，他们不办业务也不取钱去银行玩的？ ：我要宣布一件事情，大家还记得2011年的抢盐的事情吗？我家里的盐在今天，就是今天，终于吃完了，吃完了呀！我的个亲娘啊！终于给吃完了。​​​ 所有银行营业时，营业窗口必须有客户本人办理业务，其他人必须在窗口规定距离以外不得靠近！如需其他人帮助，另一人必须出示有效证件，核实后方可一同办理！ 传销是国家默许的，前两天不就报道了铁岭特大传销案赃款被国家没收吗，就是变着法的圈钱。 其实他只需要大喊一声“打，打，打，打劫” 团伙绑架案，按理至少10年以上至死刑。不懂该国为何如此纵容真正的罪犯，却害怕儿童玩具手枪。 非法拘禁都不管 妈的就不敢说是哪个传销吗？ 负责任的银行柜员。 你写上“打劫”，比这来的快。笨蛋😊 目前，已将抓获的传销人员遣散，案件仍在进一步调查。 银行人员都那么努力了，可是最后竟然都放了！ 这应是一个投机分子，当你加入组织是你没宣誓吗，没说过要为组织奋斗终生吗，没说过要把自己的一身都献给组织吗。 好吧我今年国庆被骗入传销一个月出来了被坑20000块[疲惫][疲惫][疲惫][疲惫] 有搭伙的吗反正不用坐牢 明显团伙绑架案，因为警叉捞不到好处，就随便放人。 转到后勤部门，实际很多年轻人不需要柜员就可以完成所有银行业务！！！！！！！！ 就是，现在银行营业厅只有一个窗口，然后朝九晚五，中午有2小时是柜员吃饭休息时间，柜台不办理业务 直接开打， 最后一段:目前，已奖抓获的传销人员遣散。哥就服这句 遣散就是放虎归山，就是放任犯罪！！ 你们不会打银行保安呀？这样不就是不让走了么 自己孬种，怪别人，传销人多，有几个敢在外面拼命的？别说在银行，在大街上，对他们大吼几声，全部跑光。 什么传销，明明就是绑架勒索，咋骗，傻逼的不作为政府 多懦弱啊~~~~~~~！至于吗？？？一男2女能控制你。。就在银行和他们血拼。。不信引不来铜纽扣。。 为何传销屡禁不止？抓呀，该杀的杀，该关监狱关，不就行啦？ 有社会责任感的银行人员！ 大环境恶劣啊 你不知道给易友分点帮你吃呀~~，现在变腊肉了吧！ 什么传销，明明就是绑架勒索，咋骗，傻逼的不作为震副。 一个和三个打根本没胜算，会被直接抬走。 有的会被打死 我实在想不明白这种和绑架有什么区别？楼下解答 这二货胆子也太小了，人家又没绑住你，你撒腿就跑会不会？大喊救命会不会？ 按介绍来看，其实是没有控制人身自由的。只是那垃圾自己吓成那鸟样罢了。如果心理素质好一点的，进银行甚至就去银行的马路上直接喊就命，边上的人估计早拔腿就跑了。 现在电信诈骗基本都只靠银行来预防 传销团伙采用的方式实际上是绑架加诈骗，一旦破获，应按两罪并罚。 目前，已将抓获的传销人员遣散……………… 绑架勒索！绑架勒索！绑架勒索！ 仅仅是遣散而已？ 低级传销用绑架限制人生自由的方式，高级传销用互联网币 哪有什么顺藤摸瓜怎么回事谁不知道一样 咸不咸？ 我舅舅也是抛妻弃子去传销五年活不见人死不见尸 去年被骗静海损失两万 限制人身自由，并要钱的，算绑架。 我的表叔被人骗去做传销10年了，生不见人，死不见尸！传销害人不浅 都已经胁迫被害人了，居然没发现犯罪行为，真是可笑。 可恶的传销！ 新盐与老盐有什么区别，辐射差别大吗 为银行及工作人员的行为点👍 就遣散了？就是学你们这招的人都不犯法呗 对传销团伙应加大判罚力度。 ：我要宣布一件事情，大家还记得2011年的抢盐的事情吗？我家里的盐在今天，就是今天，终于吃完了，吃完了呀！我的个亲娘啊！终于给吃完了。​​​ 没准发财了不理你了 这结果。。。。过家家呢。；。。 [被黑][被黑][被黑]被身边的人骗了吧 犯罪成本太小，所以传销猖狂不绝！ 传销团伙采用的方式实际上是绑架加诈骗，一旦破获，应按两罪并罚。 这次要为银行点赞👍 一般的传销人员只能遣散，只有抓到一定级别的头目才能法办。 公共场合怕什么？莫非人家身上有枪？ 机智聪明赞一个 经查，暂未发现被抓人员涉嫌诈骗等犯罪行为。这才是最牛的，不诈骗，那非法拘禁干毛，欣赏他的才华吗？ 一个传销，少说在江湖上纵横了20年木有绝迹。 这是弱势群体少有的正能量行动 从此以后，你以及家人开始变得聪明起来了。 我就被同学骗到沈阳窝点，五个人看着我，斗智斗勇，第二天逃出！<br>向工商举报，工商说得找公安，向公安举报，公安说得找工商。无语！ 最后一段:目前，已奖抓获的传销人员遣散。哥就服这句 我的表叔被人骗去做传销10年了，生不见人，死不见尸！传销害人不浅 肉干，没事 太粗糙了。应该继续分离出恐吓人身损害虐待抢劫通讯工具抢劫身份证明。不要让他们出来了。 ",
        "Total": 1075,
        "Link": "http://comment.news.163.com/news2_bbs/D6FD60UA00018AOP.html",
        "Reply": 76
    },
    "Article": "（原标题：银行柜员收到“求救业务单”）“救我！”银行柜员办业务时，客户递进来的业务单上竟出现了求救信息。12月23日，汉中一家银行上演了接力救人的一幕。柜员假借办业务将被控制男子叫至柜台“当时他坐在大厅里，表情很慌张，旁边还有3个人，我们的柜员就感觉不对劲。”昨日，汉中市汉台区农村信用合作联社太白路分社主任李春红说，23日下午，他们营业厅来了4名奇怪的客户，直到柜员按顺序叫号办理完业务，这4人还坐在营业大厅内，“他们没有叫号，也没有咨询办理业务，我们就感觉很奇怪。”李春红说，当时柜员主动上前询问是否需要办理业务，没想到其中一名男子表情很慌张，而另一男子和两名女子拉着这名男子就准备离开。“当时表情慌张的男子不愿意走，我们的柜员想这名男子不会是被传销人员控制了吧？”李春红说，于是柜员灵机一动，对男子说：“您好，我社富秦IC卡全省取款不收费，手机银行微信银行网银都免费，很方便，要不你过来，我给你办张银行卡吧！”这时，那名被控制的男子想迅速走到柜台前，而另一男子试图拉他走，柜员赶紧拦下：“您好，不办业务请您在等候区等待，谢谢配合！”男子很慌张写字时手抖得厉害李春红说，当时那几个人没办法，只能退后几步，坐下等待，眼睛却一直盯着这名男子。柜员拿出开卡资料说明怎么填写后，将开户资料递给男子，没想到对方竟然在开户资料上急忙写下了“救我！”两个字，递给了柜员。“从监控能看到，当时男子很慌张，写字时手抖得厉害。”李春红说，柜员打开一看，也开始紧张起来，便假装办业务并在纸条上写道：“怎么了？”这时，男子没有说话，而是皱着眉头轻轻摇头，“意思是不要让后面的人知道”。随后，柜员以复印身份证为由起身给同事说：“快去给领导汇报，被控人员向我们求救。”这时，柜员又回到座位上假装给男子办业务，并尽量拖延时间，同时在开户资料上写下“知道了，你就坐这里，已经报警”递给男子，示意他不要担心。李春红听完柜员汇报后，便立即安排一名客户经理迅速前往大厅盯着另外3人，自己对来办理业务的客户实施引导分流，以免发生意外；并安排安全员迅速关闭营业大厅ATM自助银行通道卷帘，在营业大厅门口观察，见情况不对立即放下卷帘门，严防可疑分子逃跑。几分钟后，民警及时赶到，将4人带走。昨日，汉中市公安局汉台分局办案民警说，23日在太白路信合营业厅抓获3名传销人员后，他们顺藤摸瓜又查获一个位于汉台区的传销窝点，共解救25名传销人员。经查，暂未发现被抓人员涉嫌诈骗等犯罪行为。目前，已将抓获的传销人员遣散，案件仍在进一步调查。本文来源：华商网-华商报责任编辑：姬雪莹_NN6784",
    "Title": "银行柜员收客户\"求救业务单\" 成功解救陷传销男子_网易新闻"
}