{
    "Article": "网易娱乐1月2日报道第十期《演员的诞生》于元旦当晚播出，节目中导师章子怡提及演员之间的相互成全，直言没有梁朝伟，就无法成就“宫二”这个角色。章子怡在点评表演嘉宾时，谈及演员是什么，“一个人不是演员，那是独白”，“演员应该相互配合，如果我没有非常棒的梁朝伟先生，我完成不了宫二这个角色，没有他给予我的空间，我是做不到这个程度的”。演员嘉宾们也为章子怡的发言回应了热烈的掌声。本文来源：网易娱乐责任编辑：陈恺_NK4686",
    "Title": "章子怡谈演员相互成就：没有梁朝伟就没有宫二_网易娱乐",
    "PublishTime": "01/02/201811:31:12",
    "Source": "Netease",
    "Comment": {
        "Content": "对我一直这样认为她演什么都一个样子我以前这样说竟然被人喷…… 没有梁朝伟就没有汤唯 睡完13大奖章就失业！<br>直到现在没剧组要！<br>是没得黑<br>章自己转着圈丢人！ 宫二是个啥东西!自吹不要脸 恶心死了 王八峰带着女儿和四女儿章子怡结婚了、又和四女儿章子怡又生了一个醒鸨鸨七女儿。。。<br>汪峰带着女儿和女儿结婚了、然后又和女儿又生了一个女儿。。。 咱先不说诈捐骗募发国难财的沙滩抠B章导屎，咱先说说浙江卫视为啥这么挨骂，像演员的诞生这种类似于教学级别正规的演技提升类节目，是不是应该找人艺，或者是那种北影上戏那种老师来做评委更好一点呢？理论性更强，可以让选手真正提高获益，是不是更信服呢？<br>就因为诈捐章子怡的丑闻多，卖淫妓女名气臭、获国产的睡觉奖多就可以做导师吗？诈捐骗子章子怡的淫技我们不否认，但是她的语言表达能力太弱，加上读书不多，你就觉得她说话让人很云里雾里，这样做导师很难服众！你看她和刘烨扔鞋那场，婊里婊气的，诈捐骗子章这样的婊演能起到什么样的示范？ 诈捐骗子老章水军以后怎么吹嘘老章“只演电影”的“高逼格”呢？老章从电影票房毒药到综艺咖再到电视剧咖，这flop之路走得真是平平顺顺啊、周一围要出演帝王业。戏精的诞生猛捧这个四线的周大伽就知道有这个结果。看过四线的周大伽和诈捐骗子章子怡演的胭脂扣片段。就知道出来的效果会是什么样。哈哈哈。看看有没有电视台被忽悠了。 尖酸刻薄脸 横扫国内13个大奖，这个角色真没得黑 吸毒的都被封杀，诈捐骗募的还在招摇？ 章子怡是初女吗？ 看她就一脸做戏脸！ 章子怡演什么都一个样，演什么都是一副忧郁症表情 梁朝伟也一样还有各种傻逼死吹 破节目脏鸡导师<br>已经连累浙江跨年收视了<br>还炒！ 汪王八花重金给沙滩抠B的章四姨买了个戏精的诞生炒糊了？真是报应不爽啊，诈捐章这人衰气太重了，上哪里毒哪里。还死不服输，接受不了自己是个名声不好的过气女星的现实，还到处炒到处雇水军洗白，用力过猛遭到反噬、诈捐骗子老章真是毒药，走到哪里毒到哪里。 13项淫奖、这个角色真是淫！！！一淫到底！！！ 就章子怡的哪一点儿沙滩演技也能当评委，可见中国娱乐圈的档次有多低 艾滋章你治好了吗？ 诈捐骗子老章鸡拼了老命炒作戏精的诞生，为的就是给她的电视烂剧首秀铺路，帝王业男主角周一围，看来都没人愿意和诈捐骗子老章拍戏了，连个像样的搭档都找不到。老章降级电视剧咖不说，连配置都这么差，果真flop到地心。以前还强行倒贴张震演男主角呢，把胡歌拉出来炒、没想到张震胡歌都没搭她的茬。 这货出道以来演的角色都是一种类型，内心倔强为达目的不择手段，所以别谈演技，她也就是本色出演而已 全中国人民齐呼，脏子怡！你何时交出08年贪掉的7000万美元地震善款！<br>脏子怡！！08年你打着红十字的幌子在海外募捐700-万美金的善款至今不知去向！ 浙江卫视的诈捐骗子导屎章子怡的打不死的蟑小强不要脸精神，到处刷脸买节目出镜，但是不能因为这个就可以有资格做导师，导师是不是应该德艺双馨呢？诈捐骗子章子怡的道德我们不去评价，对她的恶评如潮，比如诈捐，裸体沙滩抠B，为了上位不择手段等，但是这已经在大众心中有了一定的定位和形象了，她坐在那里就会引来攻击和舆论这对浙江卫视不是什么好兆头吧？ 浙卫还是冒着生命危险捧章导师了这是多么大无畏的国际精神呐[大笑] 国际鸡 甭管喷子们如何唾沫星子横飞，章子怡的演技有目共睹，一个宫二横扫华语影坛，拿下12个影后。 这种渣女心计极深，典型的心机婊，要演技没演技，要长相没长相，要爱心没爱心，真不知道这货怎么红起来的？ 章每次和他的汪芭比做完爱后都要跑去医院做缩B手术、做完手术后接客的时候人家章妓女就娇羞的对着嫖客说、人家还是个处女呢。 这次袁立做公益，署名加上了《演员的诞生》和浙江卫视，真该替诈捐骗子章脸红，而章子怡诈捐骗募发国难财7000多万美金一分不捐、任何一个做公益的人都是伟大的，袁立这次哑声的反击，真心是打了浙江卫视和诈捐骗子章的脸，诈捐骗子章还不能喊疼！！！！ 浙卫死在艾滋章手里 我宣誓：为了嬉哈的诞生，我只能向张子怡老师学习，向浙江卫视致敬，对不起了，亮哥，璐嫂。为了演技，为了嬉哈，我PGONE愿意付出，我一路好辛苦，好努力，好敬畏。 官妓诈捐后，除了泼墨门、诈捐门前接的一代总死、罪爱、太平轮奸，基本接不到片约、代言，部部票房扑街！（罗曼蒂克性奴史）这个大烂片被多伦多电影节退货，跑了无数次档的三无电影，想借助长城热度蹭些票房，没想到却扑的这么无声无息、最终被提前挤出市场、章官妓真是个衰货、谁碰谁死！！ 艾滋，诈捐骗募的，沙滩抠比的，当小三被泼墨的，都是一个人，还不封杀？ 章子怡人品太烂 据说皮裤把你当女儿看待，你需要谨防他把女儿当作你看待！ 没有你，那部电影还不算垃圾 这节目怎么还没黄。。。 最起码得炒到那个古装电视剧在浙卫上演估计，要不然亏大发了[大笑] 所以这就是诈捐章的目的、别的台不会让诈捐章这样的劣迹艺人的戏毁电视台的名声 现在一看到她手舞足蹈的评价很反感，选人的时候就她搞特殊又弃权，真的感觉就她一个人最厉害一样 vivi艾滋病了快查查 艾滋，诈捐骗募的，沙滩抠比的，当小三被泼墨的，都是一个人，还不封杀？ 汤唯好难看 [鄙视][挨揍][挨揍] 你越骂她她越来劲！对于这种烂货的新闻，最好的办法就是无视，既不点击也不回复！ 不过兄弟，你是不是黑粉啊。感觉整天看见你。你关心章子怡超过任何一个明星。真爱呀 章子怡演什么都像章子怡，还是个票房毒药 章子怡：一个人那叫单口相声。 怎么没看到袁表出场？🐶速度来咬！这脏逼天天出来搞毛 樑艹唯⋯⋯ 傻叉，宫二演的非常好，国内没有哪个能演这么好的，你说她人品怎么样我无所谓 说的宫二是什么大角色一样，全程冷脸，演的好在哪里？ 风光66 伙计，哪里可以转这个钱，我也想来 唉，要真演技好，怎么吹了这么多年就拿不到一个国际大奖呢？比她早的晚的，像巩俐，张曼玉，蒋雯丽，余男，范冰冰，黄璐……人一不小心都拿国际影后了，她还好意思吹吹吹啊？ 风光66 这是对的 二楼傻逼脑残粉，我只是说实话而已 章鸡那脏鸡爪子指指点点的、一脸的尖酸刻薄相、看着就想扇他 别人演的好跟她有什么关系，她演什么还不是那副面僵脸。 梁朝伟也一样还有各种傻逼死吹 没有演技子猪 汤唯是这个角色的不二人选。 这节目怎么还没黄。。。 说得好 没觉得宫二演的好啊 没演技，运气好。 现在谁还会认真的听她瞎掰？不觉得恶心吗？ 梁朝伟演什么都像，演汉奸象汉奸，。。演英雄象英雄，而梁家辉亦是；而周润发亦是；而陈道明亦是...张纪中怎么演，都像淫根黄晓明怎么演，都象欠薪工人、、 vivi艾滋病了快查查 不然呢？别人一骂就躲起来，再复出就难了，咬着牙也要挺下去。娱乐圈脸皮薄待不住的。 [挨揍][挨揍][骷髅] 难道我说的不是事实吗、诈捐章啥时候白过？？？从他娘胎里自带黑环出世。 没有梁朝伟就没有汤唯 就章子怡的哪一点儿沙滩演技也能当评委，可见中国娱乐圈的档次有多低 皮裤汪的火柴棍棍捅得你还舒服吧 [挨揍][挨揍][骷髅] 宫二是个啥东西!自吹不要脸 都不如周星驰 横扫国内13个大奖，这个角色真没得黑 怎么每次评论都这么声情并貌啊？好好笑 章子怡演什么都一个样，演什么都是一副忧郁症表情 周星池才是演技之王。。。 可惜、诈捐章的运气早在泼墨门和诈捐门后消失了、现在是厄运连连了、给一个四婚的渣男做个四房、还没有婚礼、过街老鼠人人喊打 梁朝伟就算了吧，笑不露齿装逼装忧郁，一个眼神吹了十几年，演戏太装了，论演技梁家辉甩梁朝伟几条街 现在谁还会认真的听她瞎掰？不觉得恶心吗？ 汪峰来了 [狗][鄙视][挨揍] 现在一看到她手舞足蹈的评价很反感，选人的时候就她搞特殊又弃权，真的感觉就她一个人最厉害一样 浙卫还是冒着生命危险捧章导师了这是多么大无畏的国际精神呐[大笑] 周星池是演技之王。 你更是真亲章鸡啊 章官妓已经是10连扑了，谁还对她有要求？《梅兰芳》《罪爱》《危险关系》《非常倒霉》《太平轮奸》（上、下）、《从天而降》、《莽癌》、《一代宗总死》、《罗蔓蒂克消亡屎》，《一代宗师》都亏本，她是实实在在的票房毒药。。。 为什么选她？节目组经费紧张嘛？ [挨揍][挨揍][骷髅] 你说到点子上了 广电童局 最起码得炒到那个古装电视剧在浙卫上演估计，要不然亏大发了[大笑] 忧郁都要好点，脏直接就是个尖酸刻薄样 【了凡四训】与【玉历宝钞】是两部改善你人生的好电影，看完后对你的人生将大有助益！两部电影均可在哔哩哔哩视频网站上搜索到。<br><br>请你审视一下现在拥有的，这是我们的福报，身体，财富，婚姻，事业，子女等等。我们应该珍惜福报，并且创造福报。但邪淫却可以将这一切从你手里迅速夺走，留下一个多病的身体，让你一生贫贱，有的甚至为此丧失性命。这绝非危言耸听。为什么近些年性犯罪频发?就是因为色情东西随处可见，人们像中了色魔一样，邪念剧增。走在街上，越来越多的女孩子穿着暴露，称之为性感。越来越多的青年人满脸疙瘩，眼神呆滞，眼睛清淤。去医院看看，挂男科的越来越多，而且低龄化。什么前列腺炎，精索静脉曲张。甚至尿毒症。大学里测1000米，居然会有人晕倒，呕吐，猝死。这些背后都与邪淫直接有关。若你精气充足，根本不可能有这些乱七八糟的毛病。你以为看看色情电影没问题?殊不知意念一动，身体里的精华都已泄出，长期下去，身体各器官的先天之本让你挥霍掉，就会急速衰败，引发病症。邪淫的后遗症绝非一处，两处，而是全身各处的衰败。这还不够恐怖吗?单举一例，当你满口烂牙，满嘴臭气的时候，就够你受的。牙疼不是病，疼起来要人命。更别说年纪轻轻得了牙周炎，牙齿脱落了。到时候吃饭都是问题。让你食不甘味。再好的美味你也没心思吃。老年人为什么爱得病?归根到底肾气不足。而邪淫足以将这个进程提前个十年二十年。想什么呢?找死呢。咸丰为什么是短命皇帝?长期纵欲，一边纵，一边吃补药，这就是作死啊。同治喜欢嫖妓，得了什么花柳病，二十多岁杆屁了。光绪多年患有遗精病，而且调治不愈。一直以来给人的感觉就是病秧子。这就是清朝末代的皇帝，为什么他们后来根本没有子嗣?这样作，还生个屁啊。所以千万不要邪淫，不要以为你是在享受，迟早要你加倍奉还!想想你现在的境遇，哪里不如意，身体哪里不好。反省一下你有没有手淫，意淫，嫖妓，一夜情,婚外情，婚前性行为等邪淫行为，天网恢恢，疏而不漏，一个都甭想逃。你就是再牛，能逃过天道?(邪淫是指除正式结婚夫妻正常性生活之外的一切性行为！) 浙卫死在艾滋章手里 没有杜丘也没有敬二！ 汪峰大手一挥：我不要紧，子怡不受委屈才是最重要。 王八峰带着女儿和四女儿章子怡结婚了、又和四女儿章子怡又生了一个醒鸨鸨七女儿。。。<br>汪峰带着女儿和女儿结婚了、然后又和女儿又生了一个女儿。。。 齐丹是大女儿葛荟婕是二女儿康作如三女儿章子怡四女儿小苹果五女儿汪璟怡女儿醒醒七女儿。 咱先不说诈捐骗募发国难财的沙滩抠B章导屎，咱先说说浙江卫视为啥这么挨骂，像演员的诞生这种类似于教学级别正规的演技提升类节目，是不是应该找人艺，或者是那种北影上戏那种老师来做评委更好一点呢？理论性更强，可以让选手真正提高获益，是不是更信服呢？<br>就因为诈捐章子怡的丑闻多，卖淫妓女名气臭、获国产的睡觉奖多就可以做导师吗？诈捐骗子章子怡的淫技我们不否认，但是她的语言表达能力太弱，加上读书不多，你就觉得她说话让人很云里雾里，这样做导师很难服众！你看她和刘烨扔鞋那场，婊里婊气的，诈捐骗子章这样的婊演能起到什么样的示范？ 汪峰：女儿太多来不及干！ 章子怡是初女吗？ 皮裤汪跟国际脏的婚礼上，成龙举起酒杯说，我先干了，张艺谋说我早就干了；几个个外国朋友说我也干了，小撒说你们都干了我也干了；张国立对刘烨说要不…… 诈捐骗子章自从搭上头条汪四婚之后就一泻千里、直接从官妓章到综艺咖、老章骗一综艺咖翻身翻去哪里，下面该演二人转了吧、 伙计，哪里发帖可以赚钱，我也想来 大家好，我是PGONE，请大家欣赏我的新rap《好吃不过饺子》：<br>comeon！<br>乃亮大哥，有些话不能多说。<br>你家的饺子味道真不错！<br>你的头发有点绿。<br>你的眼神有点忧郁。<br>你的人生就像言情剧。<br>哦，爸爸去哪儿了。<br>哦，嫂子去哪儿了。<br>嫂子和兄弟一起去哪儿了。<br>她挽着我的手。<br>她搂着我的头。<br>她把白白的饺子塞到我的口。<br>她在我的身下尽情的嘶吼。<br>one！two！three！four！<br>two！two！three！four！<br>three！two！three！four！<br>onceagainoh～yeah～<br>和我一起说唱！<br>嘿，乃亮！<br>不仅你的奶亮，你的头也亮！<br>嫂嫂说去做头发，我的小名就叫头发！<br>你天天喊我弟弟，嫂嫂也喊我弟弟，我还有个弟弟！<br>嫂嫂玩着你的弟弟，还玩着我的弟弟！<br>就问你刺不刺激！yeah！ 没有艾滋才是谢天谢地。 有沙滩抠B的秘笈在手、光电的敢封杀？一个一个的都给他们抠倒了去！！ 汪王八花重金给沙滩抠B的章四姨买了个戏精的诞生炒糊了？真是报应不爽啊，诈捐章这人衰气太重了，上哪里毒哪里。还死不服输，接受不了自己是个名声不好的过气女星的现实，还到处炒到处雇水军洗白，用力过猛遭到反噬、诈捐骗子老章真是毒药，走到哪里毒到哪里。 什么官二？是不是那出《官人我要》出第二部啦？ 诈捐骗子老章鸡拼了老命炒作戏精的诞生，为的就是给她的电视烂剧首秀铺路，帝王业男主角周一围，看来都没人愿意和诈捐骗子老章拍戏了，连个像样的搭档都找不到。老章降级电视剧咖不说，连配置都这么差，果真flop到地心。以前还强行倒贴张震演男主角呢，把胡歌拉出来炒、没想到张震胡歌都没搭她的茬。 这种渣女心计极深，典型的心机婊，要演技没演技，要长相没长相，要爱心没爱心，真不知道这货怎么红起来的？ 我宣誓：为了嬉哈的诞生，我只能向张子怡老师学习，向浙江卫视致敬，对不起了，亮哥，璐嫂。为了演技，为了嬉哈，我PGONE愿意付出，我一路好辛苦，好努力，好敬畏。 所以这就是诈捐章的目的、别的台不会让诈捐章这样的劣迹艺人的戏毁电视台的名声 据说皮裤把你当女儿看待，你需要谨防他把女儿当作你看待！ 章子怡人品太烂 这节目怎么还没黄。。。 汪章两人渣跑去韩国偷拍双宋的婚礼买转播权，没想到坑人来的钱，又栽在《戏精的蛋生》上，艾滋也跑不脱了。报应！ 靠滥交混片约，不然谁会让一个面瘫当主演？混成艾滋了。 还有人看这节目？ 诈捐骗子老章水军以后怎么吹嘘老章“只演电影”的“高逼格”呢？老章从电影票房毒药到综艺咖再到电视剧咖，这flop之路走得真是平平顺顺啊、周一围要出演帝王业。戏精的诞生猛捧这个四线的周大伽就知道有这个结果。看过四线的周大伽和诈捐骗子章子怡演的胭脂扣片段。就知道出来的效果会是什么样。哈哈哈。看看有没有电视台被忽悠了。 袁立在平安夜捐款80万，着实让诈捐骗子章子怡羞愧，把诈捐骗子货脏子怡的脸打的啪啪的！！！！<br>诈捐骗子章现在不混综艺就继续失业、汪王八、汪四婚为了这个烂综艺节目花了不少银子、还是没有把他的诈捐章四女儿救出来！！！ 横扫国内13个大奖，这个角色真没得黑 国内有什么大奖？不是我看不起国内影视行业，一群垃圾。 宫二是个啥东西!自吹不要脸 都说她演技好，？我觉得她演啥都一样啊和黄晓明一样，也不漂亮，还滥交 汪峰的四女儿章子怡的那个沙滩抠B的前男友据说艾滋死了……那个四女儿章子怡的前男友的艾滋病毒的手可是抠过四女儿章子怡的B过呀、汪峰的四女儿章子怡身上绝对是艾滋病的携带者啊、想想都脏啊。。。 艾滋章都和几个艾滋病睡觉了 艾滋章有沙滩抠B的独门秘籍、光电的都被抠倒了。 章子怡演什么都一个样，演什么都是一副忧郁症表情 吸毒的都被封杀，诈捐骗募的还在招摇？ 13项淫奖、这个角色真是淫！！！一淫到底！！！ 这是专门提醒梁艹唯赶紧去检查检查吧？ 艾滋章有沙滩抠B的独门秘籍、还没被封杀就被抠B秘籍给征服了。 浙江卫视的诈捐骗子导屎章子怡的打不死的蟑小强不要脸精神，到处刷脸买节目出镜，但是不能因为这个就可以有资格做导师，导师是不是应该德艺双馨呢？诈捐骗子章子怡的道德我们不去评价，对她的恶评如潮，比如诈捐，裸体沙滩抠B，为了上位不择手段等，但是这已经在大众心中有了一定的定位和形象了，她坐在那里就会引来攻击和舆论这对浙江卫视不是什么好兆头吧？ 国际脏滚你MLGB 袁立捐的80万，在许多明星眼里并不算什么，十几分钟就可以挣到，但是她做了，浙江卫视雇去的诈捐骗子章导屎却不但不做，还把海外友人捐给汶川地震灾区的7000多万美金贪为己有、这不是道德绑架，只能说袁丽这样热心公益的人，心肠都不会坏到哪去。比那浙江卫视雇去的诈捐骗子章导屎要强了千万倍! 艾滋？ 活力圈,正能量可以相互影响. 国际婊 章每次和他的汪芭比做完爱后都要跑去医院做缩B手术、做完手术后接客的时候人家章妓女就娇羞的对着嫖客说、人家还是个处女呢。 这次袁立做公益，署名加上了《演员的诞生》和浙江卫视，真该替诈捐骗子章脸红，而章子怡诈捐骗募发国难财7000多万美金一分不捐、任何一个做公益的人都是伟大的，袁立这次哑声的反击，真心是打了浙江卫视和诈捐骗子章的脸，诈捐骗子章还不能喊疼！！！！ 诈捐章没演技，不敢演，以前在学校学表演是学渣，又没天赋，看蔡明不化妆都能演机器人，这就是差距。 浙江卫视要为诈捐骗募贼买单，真是背，诈捐章晦气重，身上有八万地震冤魂缠身，灾星转世。 艾滋，诈捐骗募的，沙滩抠比的，当小三被泼墨的，都是一个人，还不封杀？ 李小露和万万太牛逼了，打開支付寶複製即可看圣诞夜亮亮家视频直播MoQfeW48Nh太牛逼了，不愧馬雲和万万關係那麼好啊 袁丽真心做公益、把诈捐骗子章子怡的脸打的拍拍响、诈捐骗子章子怡不是在米国注册了个基金会么？每年都捐了啥啊？所以这次袁立做公益，署名加上了《演员的诞生》和浙江卫视，小编觉得它们真该脸红，而浙江卫视雇的诈捐骗子导屎章子怡其实应该道一下歉，任何一个做公益的人都是伟大的，袁立这次哑声的反击，真心是打了浙江卫视的脸，打了诈捐骗子章导屎的脸、浙江卫视和诈捐章导屎两方还不能喊疼！！！！ 官妓诈捐后，除了泼墨门、诈捐门前接的一代总死、罪爱、太平轮奸，基本接不到片约、代言，部部票房扑街！（罗曼蒂克性奴史）这个大烂片被多伦多电影节退货，跑了无数次档的三无电影，想借助长城热度蹭些票房，没想到却扑的这么无声无息、最终被提前挤出市场、章官妓真是个衰货、谁碰谁死！！ 汪章两人渣跑去韩国偷拍双宋的婚礼卖转播权，没想到坑人来的钱，又栽在《戏精的蛋生》上，艾滋也跑不脱了。报应！ 诈捐骗子章子怡咔咔花了8小时妆不演了？？？赶着回家给老公孩子下厨还是咋的？<br>张雪迎道歉，请问你是？？？为什么道歉？？？<br>达不到高水准的影视化？？？请问哪期不像小成本电影？？？还是自己用金立手机拍摄的那种？<br>咋能编出这么反人类的剧情呢？？？<br>诈捐骗子章子怡多牛呀！为所欲为！别人都得受气就她想怎么就怎么！<br>因为它诈捐骗子章子怡觉得妆太难看了？化妆人员用了八小时说不拍就不拍了。<br>郑昊不想演我的父亲母亲，被节目组拿出合同要挟；章弃演，被说成是敬业！ 最起码得炒到那个古装电视剧在浙卫上演估计，要不然亏大发了[大笑] 网友：汪峰喜欢干女儿！<br>难怪只生女儿！<br>汪峰：女儿太多来不及干！ 噗，本色出演... 艾滋，诈捐骗募的，沙滩抠比的，当小三被泼墨的，都是一个人，还不封杀？ 公元某年，国运恒通，恰逢盛世，天降瑞兆。都城，出一犬，能与人言，能辨真假，凡是对它说了假话它就会扑上咬，发了疯的咬，不过说了真话，它就会变得很乖巧。一个歌星自以为名流，不顾老婆再三阻挠（老婆是个演戏的，因为也不会别的）硬是拉着媳妇凑热闹。奇犬栓在一个宽阔院子里，人都院外等，每一家十分钟，等轮到他跟她媳妇是，两个人进了院，关紧大门，他对狗说道：我媳妇演技差。那狗疯一般的扑上来，媳妇害怕，就退出院子了。媳妇特别乐呵，洋洋得意的对围观群众说道，狗验证了，说我演技差，它扑上来就咬。众人心中嘀咕，这不是那誰吗？难怪说她演技差狗咬她，她啥时候有过演技?只会摆一张臭脸。大家正暗笑，忽然那条狗两眼血淋淋的被牵出来了，他老公手里还拎着一根棒子，边走那狗还说道：别误会，我眼睛绝对跟他没关系，是我自己挠的，他不停的给我播放他媳妇的表演视频，还必须喊好 袁丽都晒出捐款证据出来了、你诈捐章啥时候把捐款证据勇敢的晒出来给全中国人民看看！！<br>诈捐骗子沙滩抠B的老流氓章子怡仍欠2008年512四川汶川灾区在海外5场募捐善款7000万美元的截留侵吞的罪犯！！ 你诈捐骗子章官妓还是先把08年的地震捐款的事情出来交代清楚了再出来炫耀你那横扫华语影坛，拿下12个睡觉万淫后吧。 别拿梁朝伟说事 尖酸刻薄脸 狗屎嘴脸，恶心 小编死了一个妈 话说这个宫二是哪个角色？不是跟周润发在竹林打斗那个绝色？ 还真的是，从玉娇龙，到我的母亲父亲里的角色，尖峰时刻，再到宫二 你很明白事理，我们就放心了。 网友：汪峰喜欢干女儿！<br>难怪只生女儿！<br>汪峰：女儿太多来不及干！<br><br>汪半壁脏半圈<br>给女儿们留点脸吧！<br>她们前世作孽<br>今生落得你们这样的爹妈！ 你诈捐章2001年造假伊朗影后、至今却还没有获过一个国际影后、确敢自封一个国际巨猩、章官妓造假无耻！一个宫二横扫华语影坛，睡下12个国产淫后却拿不到一个国际大奖、为什么啊！ 全中国人民齐呼，脏子怡！你何时交出08年贪掉的7000万美元地震善款！<br>脏子怡！！08年你打着红十字的幌子在海外募捐700-万美金的善款至今不知去向！ 最爱看过吗？ 脑补一下她去演憨厚乐天的农村大姐的画风！ 章子怡看过白夜追凶吗？荒岛余生？我不是在抬杠但是一个人只要肯努力一个人也可以演好整个电影 大名鼎鼎的国际脏啊！ 评论真是一阵风啊，之前打开夸她的居多，今天打开一看全是骂她的。 甭管喷子们如何唾沫星子横飞，章子怡的演技有目共睹，一个宫二横扫华语影坛，拿下12个影后。 子怡将双腿往侧分了分，一会儿功夫，子怡哦哦哦的欢叫开来，满屋子充满了快活的空气。 老鸨品质的脏女人 有淫技、沙滩抠B的淫技 有品质的女人 这货出道以来演的角色都是一种类型，内心倔强为达目的不择手段，所以别谈演技，她也就是本色出演而已 据说皮裤把你当女儿看待，你需要谨防他把女儿当作你看待！ 她有演技吗？ 这女的谁啊 呵呵，傻逼，让老外摁倒~~~，又~~。 vivi艾滋病了快查查 对我一直这样认为她演什么都一个样子我以前这样说竟然被人喷…… 诈捐失业章鸡的电影没人看！！8年才演3个电影！都是妓女角色还是花钱买的！不花钱哪个剧组要她！就连2013年拍的电影罗曼蒂克消亡性奴的角色章国鸡还是花钱才买到的拍完就继续失业！然后就拉着继女到处卖弄博关注！！ 对，我也这么认为，真的没有觉得她演技多么出色 现在彻底瘦干了 宫二？那片子完全没看懂，好像还以这角色拿遍了国内所有奖项的女主角。就问一句，上映的里面张震那条线跟梁朝伟章子怡的那条线有毛关系？当初看了一脸懵逼，都不知所云！不过也好，我不是从李易峰拿百花奖开始的，而是从一代宗师开始对所有国内颁奖嗤之以鼻……什么玩意嘛 影后大满贯被你们说的一无是处，傻逼真多 公元某年，国运恒通，恰逢盛世，天降瑞兆。都城，出一犬，能与人言，能辨真假，凡是对它说了假话它就会扑上咬，发了疯的咬，不过说了真话，它就会变得很乖巧。一个歌星自以为名流，不顾老婆再三阻挠（老婆是个演戏的，因为也不会别的）硬是拉着媳妇凑热闹。奇犬栓在一个宽阔院子里，人都院外等，每一家十分钟，等轮到他跟她媳妇是，两个人进了院，关紧大门，他对狗说道：我媳妇演技差。那狗疯一般的扑上来，媳妇害怕，就退出院子了。媳妇特别乐呵，洋洋得意的对围观群众说道，狗验证了，说我演技差，它扑上来就咬。众人心中嘀咕，这不是那誰吗？难怪说她演技差狗咬她，她啥时候有过演技?只会摆一张臭脸。大家正暗笑，忽然那条狗两眼血淋淋的被牵出来了，他老公手里还拎着一根棒子，边走那狗还说道：别误会，我眼睛绝对跟他没关系，是我自己挠的，他不停的给我播放他媳妇的表演视频，还必须喊好！ 那是玉娇龙 你这人太恶毒现实中一定很失败吧亲 章子怡演什么都一个样，演什么都是一副忧郁症表情 那个节目还在播还在演啊？ 坐成龙腿上的时候。还是很开心，很风骚的 艾滋章你治好了吗？ 我只是想问一句，汪与章的水军今天怎么没上班啊？<br>对了，还在放假吧！<br>我从来不给自己顶贴因为我觉得很可耻，但我今天一定要让大家看到我，看到我等于看到了真相。 章官妓诈捐后，除了泼墨门、诈捐门前接的一代总死、罪爱、太平轮奸，基本接不到片约、代言，部部票房扑街！（罗曼蒂克性奴史）这个大烂片被多伦多电影节退货，跑了无数次档的三无电影，想借助长城热度蹭些票房，没想到却扑的这么无声无息、最终被提前挤出市场、章官妓真是个衰货、谁碰谁死！！ 婊子章就喜欢屁大点事就在网上晒逼，都不值一提的睡觉奖项，当别人的四房后妈也好意思显摆，不是汪峰丑男、哪个好男人会要你肮脏的脏子怡，赖着了一陀屎做个丢人的四姨娘、还以为自己多光荣、汪峰的几个前妻们都留下了几个女儿了、国际脏你好好享受汪峰的几个前妻女人的剩饭剩菜吧。。 沙滩抠B诈捐章、米国老猴子VV得了艾滋快死了、你沙滩抠B章还不快去带着你的绿毛疯和醒鸨鸨去检查艾滋去吧。。。 谁见过一年“荣获”14个“中国各种【陪睡】大奖”，然后继续失业继续没代言没片约的宇宙影后吗？她就是脏子怡！已经8年没片约了！！！花重金买个浙江卫视的综艺蹭出镜！！ 艾滋章成天就炒作，根本没演技，倒是有一身怪病，汪渣前期也感冒了，发作了？ 艾滋，诈捐骗募的，沙滩抠比的，当小三被泼墨的，都是一个人，还不封杀？ 跟汪峰一路货色 齐丹是大女儿葛荟婕是二女儿康作如三女儿章子怡四女儿小苹果五女儿汪璟怡女儿醒醒七女儿。<br>网友：汪峰最喜欢干女儿！难怪只生女儿！汪峰：女儿太多来不及干！ 赞同。人品虽然不好，但是人家的演技完爆国内这些垃圾小鲜肉。最近几年的国产电影看的真是心累，一堆面瘫凑一块就是年度大片。 诈捐章的前两艾滋男友为其铺路，为了出名，有艾滋也不怕，照样沙滩野战，汪接盘侠就惨了！ 沙滩抠B诈捐章、米国老猴子VV得了艾滋快死了、你沙滩抠B章还不快去带着你的绿毛疯和醒鸨鸨去检查艾滋去吧。。。 08年的地震时全中国人都在捐钱，只有她诈捐骗子脏子怡拿国难作秀敛财！她挣了多少呢？清楚记得当时的报导说戛纳就募了700万美元，后来国外几个地点下来一共是7000万美元，净赚了7000多万美元！诈捐骗子章子怡，拿国难做秀、贪污善款、沽名钓誉————天理难容！天打雷劈！！<br>诈捐骗子章子怡丧尽天良,拿国难作秀敛财，贪污512地震海外募捐善款猪狗不如！！！！ 对我一直这样认为她演什么都一个样子我以前这样说竟然被人喷…… 牵动嘴角的表情真的很假，现实生活有谁是那样 评论真的好有趣，之前没爆出袁立事件时，全部一边倒夸她演技如何如何好，现在一出事，又开始之前的各种诈捐抠逼事件了，你们太墙头草了😄 可是我感觉她在我的父亲母亲里演的更好为什么对郑昊那个态度… 恶心死了 卧虎藏龙一部就够了 呵呵 多不要逼脸才能这么黑 看她就一脸做戏脸！ 章子怡演什么都一个样，演什么都是一副忧郁症表情 你跟我说她有啥代表作 装的一手好逼 没有王家卫就没有这电影！而且还拍了好几年，大部分功劳都应该归功与王家卫！ 结过婚,唱歌的 同意，全都是表面柔弱，不服命运抗争到底时常还不择手段的角色。 就演员而言，她确实蛮棒的～ 说的对 这破jb节目还特么能播呢啊？ 国际鸡 这货出道以来演的角色都是一种类型，内心倔强为达目的不择手段，所以别谈演技，她也就是本色出演而已 没有你，那部电影还不算垃圾 冰冻脸，只能说比范逼逼和安吉拉贝贝棒，也别50步笑百步了 呵呵怎么没有，《和老公头条争霸记》 ",
        "Reply": 188,
        "Link": "http://comment.ent.163.com/ent2_bbs/D7534UTC00038FO9.html",
        "Total": 4273
    },
    "KeyWords": "章子怡,梁朝伟,演员",
    "URL": "http://ent.163.com/18/0102/11/D7534UTC00038FO9.html"
}