{
    "URL": "http://news.163.com/17/1228/13/D6OD5BGN0001899N.html",
    "Comment": {
        "Reply": 11,
        "Content": "银行内都可以弄厨房？这是什么操作？ 只要出门在外，感觉就有生命危险。 如何填补坏账是个问题，该报多少上去，这又是个问题.... 太不安全。 火灾很危险啊 太可怕了啊 只要出门在外，感觉就有生命危险。 天然气泄漏爆燃 我还是老实在家猫着。 银行内都可以弄厨房？这是什么操作？ 如何填补坏账是个问题，该报多少上去，这又是个问题.... 银行还有厨房[喷水][喷水][喷水] 太可怕了啊 难道是…………?? ",
        "Total": 25,
        "Link": "http://comment.news.163.com/news2_bbs/D6OD5BGN0001899N.html"
    },
    "Title": "重庆一银行网点厨房天然气泄漏爆燃 1名保安受伤_网易新闻",
    "Source": "Netease",
    "KeyWords": "保安,厨房,爆炸,天然气",
    "PublishTime": "12/28/201713:16:03",
    "Article": "（原标题：重庆垫江一银行网点内厨房天然气泄漏爆燃，一保安受轻微伤）事故现场。图片来源：垫江人论坛12月28日7时16分许，位于重庆市垫江县长龙镇的重庆农村商业银行网点发生爆炸。垫江县委对外宣传办公室官方微博@垫江发布通报称，爆炸初步确定系银行网点内厨房天然气泄漏导致，造成一名保安受伤。澎湃新闻从网友发布的现场图片看到，事发网点的玻璃在爆炸后破碎，一些墙块也被震落。当地警方拉起警戒线并展开调查。当地网友称，因爆炸发生的时间较早，银行还未开门，只有一名值班保安受伤。@垫江发布通报称，12月28日7时16分许，长龙镇一银行网点发生一起天然气爆燃事故，致网点保安徐某(男，57岁)受轻微伤。公安、天然气公司等相关部门迅速赶赴现场处置，将伤者送医救治。经调查，初步确定系银行网点内厨房天然气泄漏导致。目前，事故后续处置工作正在进行中。本文来源：澎湃新闻责任编辑：黄哲程_B9302"
}